[
  {
    "total_img": 209,
    "number_page": 2,
    "title": "FateStay Night",
    "tag": "Sky, Ball, Water, Moon, Caster FateStay Night, Black Hair, Scathach FateGrand Order, High Heels, Crying, FateStay Night, Weapon, Sword, Medusa FateGrand Order, White Hair, Umbrella, Berserker FateZero, Braid, Leysritt Fatestay Night, Glove, Jacket, Gilgamesh Fate Series, Scarf, Violinist, Chibi, Black Dress, Smile, Cosplay, Skirt, Blush, Pantyhose, Saber of Red FateApocrypha, Man, Building, Saber Bride, Orange Hair, White Dress, Dark Sakura, Kirei Kotomine, Artoria Pendragon, Food, Berserker Fatestay night, Warrior, Brown Hair, Red, Starry Sky, Blue Eyes, Thigh Boots, Archer FateZero, Assassin Fatestay night, Boots, Rin Tohsaka, Dancing, Sunrise, Saber Lily, Mordred FateApocrypha, Green Eyes, Night, Lake, Sakura Matou, Wedding Dress, Long Hair, Bleached Eyes, Thigh Highs, Anime, Winter, Kimono, Tree, Taiga Fujimura, Headdress, Saber Alter, Shirou Emiya, Collar, Excalibur, Mysterious Heroine X, Ruler FateApocrypha, Purple Hair, Cute, Saber Fate Series, Cu Chulainn, Yellow Eyes, Boy, Red Eyes, Dark, Fantasy, Ponytail, Rider Fatestay night, Archer FateStay Night, Sitting, Medea Fate Series, Blindfold, Fate Series, Blonde, Twintails, Armor, Short Hair, Illyasviel Von Einzbern, Dress, Brown Eyes, Shinji Matou, Blue Dress, Merlin Fate Series, Woman Warrior, Bride, Candle, Lancer FateStay Night, Cloud, Forest, Petal, Kiritsugu Emiya",
    "description": "FateStay Night",
    "link_thumb": "https://live.staticflickr.com/65535/47979844883_0434d5ba9b_n.jpg",
    "id_album": "1529532670",
    "total_view": 209
  },
  {
    "total_img": 31,
    "number_page": 1,
    "title": "Saber Lily",
    "tag": "Saber Lily,",
    "description": "Saber Lily",
    "link_thumb": "https://live.staticflickr.com/65535/47981046942_8efab7516a_n.jpg",
    "id_album": "387769180",
    "total_view": 31
  }
]