[
  {
    "total_img": 35,
    "number_page": 1,
    "title": "Black Bullet",
    "tag": "Shougen Ikuma, Kagetane Hiruko, Sitting, Weapon, Long Hair, Thigh Highs, Kisara Tendo, Anime, Sword, Crow, Tina Sprout, Katana, Yuzuki Katagiri, Enju Aihara, Gun, Purple Hair, Kayo Senju, Mask, Pink Eyes, School Uniform, Smile, Tamaki Katagiri, Skirt, Sweater, Blush, Pantyhose, Grey Hair, Cat, Black Bullet, Rentaro Satomi, Kohina Hiruko, Animal Ears, Midori Fuse",
    "description": "Black Bullet",
    "link_thumb": "https://live.staticflickr.com/65535/47106650454_73ff8f1677_n.jpg",
    "id_album": "1375201239",
    "total_view": 35
  },
  {
    "total_img": 1083,
    "number_page": 6,
    "title": "Anime",
    "tag": "Anime,",
    "description": "Anime",
    "link_thumb": "https://live.staticflickr.com/65535/48066953706_2771a62522_n.jpg",
    "id_album": "-1920923841",
    "total_view": 1083
  },
  {
    "total_img": 21,
    "number_page": 1,
    "title": "Enju Aihara",
    "tag": "Enju Aihara,",
    "description": "Enju Aihara",
    "link_thumb": "https://live.staticflickr.com/65535/47966973968_13a33e1dfa_n.jpg",
    "id_album": "-1808837983",
    "total_view": 21
  }
]