[
  {
    "total_img": 42,
    "number_page": 1,
    "title": "Shelter",
    "tag": "Rin Shelter, Anime, Shelter Anime, Swing, Sad, Tree, Shelter, Crying",
    "description": "Shelter",
    "link_thumb": "https://live.staticflickr.com/65535/48055545153_249ebcee11_n.jpg",
    "id_album": "801282448",
    "total_view": 42
  },
  {
    "total_img": 6,
    "number_page": 1,
    "title": "Shelter Anime",
    "tag": "Shelter Anime,",
    "description": "Shelter Anime",
    "link_thumb": "https://live.staticflickr.com/65535/48055619252_56d316bcac_n.jpg",
    "id_album": "-641910903",
    "total_view": 6
  }
]