[
  {
    "total_img": 239,
    "number_page": 2,
    "title": "Monogatari Series",
    "tag": "Sky, Heart, Green Hair, Owarimonogatari, Doughnut, Wink, Black Hair, Kissshot Acerolaorion Heartunderblade, High Heels, Goggles, Hitagi Senjogahara, Tsukimonogatari, Sword, White Hair, Bikini, Fence, Ougi Oshino, Vector, Bike, Nisemonogatari, Jacket, Glove, Pizza Hut, Scarf, Orange Dress, Yotsugi Ononoki, Black Hanekawa, Nekomonogatari Kuro, Snail, Smile, Sodachi Oikura, Skirt, Blush, Pantyhose, Tsubasa Hanekawa, Paper Plane, White Dress, CloseUp, Vaporwave, Tail, Feather, Karen Araragi, Face, Brown Hair, Kizumonogatari, Shinobu Oshino, Pink Hair, Tie, Blue Eyes, Boots, Suruga Kanbaru, Hat, Halloween, Animal Ears, Pink Dress, Tongue, Green Eyes, Night, Stars, Deishuu Kaiki, Carousel, Stapler, Long Hair, Meme Oshino, Thigh Highs, Beach, Anime, Bracelet, Mayoi Hachikuji, Izuko Gaen, Purple Hair, Cute, Yellow Eyes, Boy, Zaregoto Series, Rouka Numachi, Dark, Cat, Glasses, Aviator Helmet, Ponytail, Bakemonogatari, Orange Eyes, Bird, Sitting, Nadeko Medusa, Blonde, Twintails, Tsukihi Araragi, Barefoot, Short Hair, Monogatari Series, Katana, Cat Girl, Dress, Monogatari Series Second Season, Koyomi Araragi, Red Dress, Dusk, School Uniform, Bicycle, Feet, Sunset, Blue Hair, Pointed Ears, Scissors, Cloud, Vampire, Sweets, Nadeko Sengoku",
    "description": "Monogatari Series",
    "link_thumb": "https://live.staticflickr.com/65535/48070860283_b1bac6eb15_n.jpg",
    "id_album": "1742830825",
    "total_view": 239
  },
  {
    "total_img": 14,
    "number_page": 1,
    "title": "Karen Araragi",
    "tag": "Karen Araragi,",
    "description": "Karen Araragi",
    "link_thumb": "https://live.staticflickr.com/65535/48071232233_8d0a78764f_n.jpg",
    "id_album": "1117493271",
    "total_view": 14
  }
]