[
  {
    "total_img": 296,
    "number_page": 2,
    "title": "Tokyo Ghoul",
    "tag": "Sky, Water, Green Hair, Moon, Wink, Black Hair, Yoshimura Tokyo Ghoul, Uta Tokyo Ghoul, High Heels, Renji Yomo, Crying, Pircing, Wound, Blood, Hinami Fueguchi, Weapon, Throne, Juuzou Suzuya, Shirt, Sword, White Hair, Book, Shorts, Umbrella, Kuki Urie, Hood, Earrings, Jacket, Glove, Purple Eyes, Mask, Sen Takatsuki, Reflection, Black Dress, Smile, Skirt, Rize Kamishiro, Gekkou Hotaru, Blush, Pantyhose, Tokyo Ghoul, Man, Kakuja Tokyo Ghoul, Chain, Orange Hair, Nishiki Nishio, Chair, Glass, Suu Tsukiyama, Hideyoshi Nagachika, White Dress, Wings, Feather, Armchair, Window, Table, Tokyo Ghoul A, Brown Hair, Headband, Pink Hair, Red, Tie, Creepy, Sweater, Blue Eyes, Hairu Ihei, Hoodie, Shu Tsukiyama, Grey Eyes, Boots, Hat, Pink Dress, Tongue, Green Eyes, Night, Scythe, Eto Yoshimura, Kishou Arima, Digital Art, Minimalist, Tattoo, Uniform, Kiyoko Aura, Snowfall, Tooru Mutsuki, Long Hair, Thigh Highs, Rain, Anime, Rooftop, Kazuichi Banjou, Bandage, Bracelet, Tokyo, Crow, White Eyes, Headdress, Heterochromia, Tatara Tokyo Ghoul, Woman, Collar, Nico Tokyo Ghoul, Coat, Purple Hair, Ken Kaneki, Teeth, Drinking, Bodysuit, Boy, Red Eyes, Naki Tokyo Ghoul, Itori Tokyo Ghoul, Dark, Sad, Glasses, Shinjuku, Eye Patch, Piercing, Purple Dress, Cage, Butterfly, Upside Down, Bird, Sitting, Kaya Irimi, Shadow, Socks, Centipede, Blonde, Barefoot, Eyeball, Koutarou Amon, bow Clothing, Noro Tokyo Ghoul, Kimi Nishino, Short Hair, Hug, TwoToned Hair, Akira Mado, Ginshi Shirazu, Necklace, Touka Kirishima, Flower, Dress, Brown Eyes, Bag, Pink Eyes, Yakumo Oomori, Blue Dress, Enji Koma, School Uniform, Zipper, Gothic, Feet, Sunset, Haise Sasaki, Ayato Kirishima, Yukinori Shinohara, Candle, Blue Hair, White, Glowing Eyes, Battle, Grey Hair, Cloud, Lying Down, Skull, Kureo Mado, Kagune Tokyo Ghoul, Tears, Manga",
    "description": "Tokyo Ghoul",
    "link_thumb": "https://live.staticflickr.com/65535/48060403047_c40e421bda_n.jpg",
    "id_album": "-493514601",
    "total_view": 296
  },
  {
    "total_img": 13,
    "number_page": 1,
    "title": "Juuzou Suzuya",
    "tag": "Juuzou Suzuya,",
    "description": "Juuzou Suzuya",
    "link_thumb": "https://live.staticflickr.com/65535/48060582232_4376f4b50b_n.jpg",
    "id_album": "-99830002",
    "total_view": 13
  },
  {
    "total_img": 516,
    "number_page": 3,
    "title": "Red Eyes",
    "tag": "Red Eyes,",
    "description": "Red Eyes",
    "link_thumb": "https://live.staticflickr.com/65535/48066240896_663ef2e035_n.jpg",
    "id_album": "55205818",
    "total_view": 516
  },
  {
    "total_img": 900,
    "number_page": 5,
    "title": "Short Hair",
    "tag": "Short Hair,",
    "description": "Short Hair",
    "link_thumb": "https://live.staticflickr.com/65535/48066522393_1c85dd9992_n.jpg",
    "id_album": "1749242000",
    "total_view": 900
  },
  {
    "total_img": 512,
    "number_page": 3,
    "title": "White Hair",
    "tag": "White Hair,",
    "description": "White Hair",
    "link_thumb": "https://live.staticflickr.com/65535/48066258522_1a2a958ca1_n.jpg",
    "id_album": "-843201771",
    "total_view": 512
  }
]