[
  {
    "total_img": 1479,
    "number_page": 8,
    "title": "Colored Girls",
    "tag": "Colored Girls,",
    "description": "Colored Girls",
    "link_thumb": "https://live.staticflickr.com/65535/50154717077_0e3e1e0b9f_n.jpg",
    "id_album": "-635262135",
    "total_view": 1479
  },
  {
    "total_img": 6447,
    "number_page": 33,
    "title": "Girls Sad",
    "tag": "Girls Sad,",
    "description": "Girls Sad",
    "link_thumb": "https://live.staticflickr.com/65535/51540482412_c1e8ea7f3c_n.jpg",
    "id_album": "1650283598",
    "total_view": 6447
  }
]