[
  {
    "total_img": 165,
    "number_page": 1,
    "title": "The iDOLMSTER",
    "tag": "Konomi Baba, Gems, Moon, Flight, Wink, Rin Shibuya, Misaki Aoba, Elena Shimabara, Serika Hakozaki, Minami Nitta, Hibiki Ganaha, Kotori Otonashi, Shirt, Sayoko Takayama, Ribbon, White Hair, Nana Abe, Pool, Ami Futami, Bike, Yuko Hori, Shizuka Mogami, Glove, Purple Eyes, Reiko Ozaki, Scarf, Subaru Nagayoshi, Smile, Skirt, Yuriko Nanao, Yukiho Hagiwara, Blush, Makoto Kikuchi, Shiho Kitazawa, Mio Honda, Mirai Kasuga, Uzuki Shimamura, Saki Mizushima, Takane Shijou, Umi Kousaka, Anastasia Idolmster, Ranko Kanzaki, Valentines Day, Ryo Akizuki, Ai Hidaka, Kaede Takagaki, Chihaya Kisaragi, Brown Hair, Kanako Mimura, Headband, Pink Hair, Gift, Meiko Vocaloid, Blue Eyes, Miki Hoshii, Syuko Shiomi, Hat, Yukimi Sajo, Yumeko Sakurai, Green Eyes, Roco Handa, Night, Miyu Mifune, Stars, Underwater, Iku Nakatani, Shiki Ichinose, Iori Minase, Long Hair, Anime, Winter, Kotoha Tanaka, Haruka Amami, Light, Ayame Hamaguchi, Yoshino Yorita, Anna Mochizuki, Yayoi Takatsuki, Asuka Ninomiya, Eri Mizutani, Vocaloid, Red Eyes, Riina Tada, Anzu Futaba, Chie Sasaki, Miku Maekawa, Cat, Glasses, Karin Domyoji, Ponytail, Fumika Sagisawa, The iDOLMSTER Cinderella Girls, Bird, Emily Stewart, Mizuki Makabe, Christmas Tree, Kana Yabuki, iDOLMSTER Cinderella Girls, Blonde, Twintails, Kirari Moroboshi, Matsuri Tokugawa, Frederica Miyamoto, Azusa Miura, Shin Sato, Ritsuko Akizuki, Short Hair, The iDOLMSTER, Karen Houjou, Flower, Dress, Brown Eyes, Sae Kobayakawa, School Uniform, Miho Kohinata, Mami Futami, Kaho Komiya",
    "description": "The iDOLMSTER",
    "link_thumb": "https://live.staticflickr.com/65535/48059522087_bc3f0f4ddb_n.jpg",
    "id_album": "1959048876",
    "total_view": 165
  },
  {
    "total_img": 11,
    "number_page": 1,
    "title": "Kaede Takagaki",
    "tag": "Kaede Takagaki,",
    "description": "Kaede Takagaki",
    "link_thumb": "https://live.staticflickr.com/65535/48059685927_232db466b7_n.jpg",
    "id_album": "1608926722",
    "total_view": 11
  },
  {
    "total_img": 7,
    "number_page": 1,
    "title": "Nana Abe",
    "tag": "Nana Abe,",
    "description": "Nana Abe",
    "link_thumb": "https://live.staticflickr.com/65535/48059685927_232db466b7_n.jpg",
    "id_album": "-721894800",
    "total_view": 7
  }
]