[
  {
    "total_img": 23859,
    "number_page": 120,
    "title": "Girls Cute Cool",
    "tag": "Girls Cute Cool,",
    "description": "Girls Cute Cool",
    "link_thumb": "https://live.staticflickr.com/65535/51542199025_2343ce2f5b_n.jpg",
    "id_album": "-89234980",
    "total_view": 23859
  },
  {
    "total_img": 6447,
    "number_page": 33,
    "title": "Girls Sad",
    "tag": "Girls Sad,",
    "description": "Girls Sad",
    "link_thumb": "https://live.staticflickr.com/65535/51540482412_c1e8ea7f3c_n.jpg",
    "id_album": "1650283598",
    "total_view": 6447
  },
  {
    "total_img": 1741,
    "number_page": 9,
    "title": "Girls Tie Bows",
    "tag": "Girls Tie Bows,",
    "description": "Girls Tie Bows",
    "link_thumb": "https://live.staticflickr.com/65535/50154717077_0e3e1e0b9f_n.jpg",
    "id_album": "392997562",
    "total_view": 1741
  }
]