[
  {
    "link_thumb": "https://live.staticflickr.com/65535/48078166396_021c76f68f_n.jpg",
    "id_album": "280884763",
    "description": "Original_848509",
    "title": "Original_848509",
    "link_img": "https://live.staticflickr.com/65535/48078166396_096d9bbbe4_o.jpg",
    "id_image": "Original_848509",
    "count_view": 0
  },
  {
    "link_thumb": "https://live.staticflickr.com/65535/48092464396_0bc96d0015_n.jpg",
    "id_album": "280884763",
    "description": "Original_916665",
    "title": "Original_916665",
    "link_img": "https://live.staticflickr.com/65535/48092464396_a8f33e909e_o.jpg",
    "id_image": "Original_916665",
    "count_view": 0
  }
]