[
  {
    "link_thumb": "https://live.staticflickr.com/65535/48048529237_8d2cd5810c_n.jpg",
    "id_album": "-795300841",
    "description": "LaidBackCamp_899686",
    "title": "LaidBackCamp_899686",
    "link_img": "https://live.staticflickr.com/65535/48048529237_93b976b47b_o.jpg",
    "id_image": "LaidBackCamp_899686",
    "count_view": 0
  },
  {
    "link_thumb": "https://live.staticflickr.com/65535/48048494113_1977c0da84_n.jpg",
    "id_album": "-795300841",
    "description": "LaidBackCamp_903656",
    "title": "LaidBackCamp_903656",
    "link_img": "https://live.staticflickr.com/65535/48048494113_2e4ae00070_o.jpg",
    "id_image": "LaidBackCamp_903656",
    "count_view": 0
  },
  {
    "link_thumb": "https://live.staticflickr.com/65535/48048452021_08e8098d07_n.jpg",
    "id_album": "-795300841",
    "description": "LaidBackCamp_905499",
    "title": "LaidBackCamp_905499",
    "link_img": "https://live.staticflickr.com/65535/48048452021_fd48b8a17e_o.jpg",
    "id_image": "LaidBackCamp_905499",
    "count_view": 0
  },
  {
    "link_thumb": "https://live.staticflickr.com/65535/48048531742_5e8f7fdd03_n.jpg",
    "id_album": "-795300841",
    "description": "LaidBackCamp_905500",
    "title": "LaidBackCamp_905500",
    "link_img": "https://live.staticflickr.com/65535/48048531742_7ed814a2bc_o.jpg",
    "id_image": "LaidBackCamp_905500",
    "count_view": 0
  },
  {
    "link_thumb": "https://live.staticflickr.com/65535/48048495123_48c47397ed_n.jpg",
    "id_album": "-795300841",
    "description": "LaidBackCamp_905501",
    "title": "LaidBackCamp_905501",
    "link_img": "https://live.staticflickr.com/65535/48048495123_eae3b08e82_o.jpg",
    "id_image": "LaidBackCamp_905501",
    "count_view": 0
  },
  {
    "link_thumb": "https://live.staticflickr.com/65535/48048496138_c5bbc41096_n.jpg",
    "id_album": "-795300841",
    "description": "LaidBackCamp_905507",
    "title": "LaidBackCamp_905507",
    "link_img": "https://live.staticflickr.com/65535/48048496138_d5933c7be2_o.jpg",
    "id_image": "LaidBackCamp_905507",
    "count_view": 0
  },
  {
    "link_thumb": "https://live.staticflickr.com/65535/48048453906_c45296b0fc_n.jpg",
    "id_album": "-795300841",
    "description": "LaidBackCamp_905510",
    "title": "LaidBackCamp_905510",
    "link_img": "https://live.staticflickr.com/65535/48048453906_fabf49b938_o.jpg",
    "id_image": "LaidBackCamp_905510",
    "count_view": 0
  },
  {
    "link_thumb": "https://live.staticflickr.com/65535/48048497198_d2debd9121_n.jpg",
    "id_album": "-795300841",
    "description": "LaidBackCamp_905513",
    "title": "LaidBackCamp_905513",
    "link_img": "https://live.staticflickr.com/65535/48048497198_57821e9394_o.jpg",
    "id_image": "LaidBackCamp_905513",
    "count_view": 0
  },
  {
    "link_thumb": "https://live.staticflickr.com/65535/48048497343_c4bd0324b4_n.jpg",
    "id_album": "-795300841",
    "description": "LaidBackCamp_905514",
    "title": "LaidBackCamp_905514",
    "link_img": "https://live.staticflickr.com/65535/48048497343_221ae40056_o.jpg",
    "id_image": "LaidBackCamp_905514",
    "count_view": 0
  },
  {
    "link_thumb": "https://live.staticflickr.com/65535/48048454876_44bf4f3148_n.jpg",
    "id_album": "-795300841",
    "description": "LaidBackCamp_905624",
    "title": "LaidBackCamp_905624",
    "link_img": "https://live.staticflickr.com/65535/48048454876_48316e1335_o.jpg",
    "id_image": "LaidBackCamp_905624",
    "count_view": 0
  },
  {
    "link_thumb": "https://live.staticflickr.com/65535/48048455011_4de0ba4e3d_n.jpg",
    "id_album": "-795300841",
    "description": "LaidBackCamp_909080",
    "title": "LaidBackCamp_909080",
    "link_img": "https://live.staticflickr.com/65535/48048455011_8a04a62746_o.jpg",
    "id_image": "LaidBackCamp_909080",
    "count_view": 0
  },
  {
    "link_thumb": "https://live.staticflickr.com/65535/48048535132_13542b0806_n.jpg",
    "id_album": "-795300841",
    "description": "LaidBackCamp_910340",
    "title": "LaidBackCamp_910340",
    "link_img": "https://live.staticflickr.com/65535/48048535132_e950f25ea6_o.jpg",
    "id_image": "LaidBackCamp_910340",
    "count_view": 0
  },
  {
    "link_thumb": "https://live.staticflickr.com/65535/48048535522_b4070e23be_n.jpg",
    "id_album": "-795300841",
    "description": "LaidBackCamp_910359",
    "title": "LaidBackCamp_910359",
    "link_img": "https://live.staticflickr.com/65535/48048535522_2a08b43730_o.jpg",
    "id_image": "LaidBackCamp_910359",
    "count_view": 0
  },
  {
    "link_thumb": "https://live.staticflickr.com/65535/48048499033_11da0753c4_n.jpg",
    "id_album": "-795300841",
    "description": "LaidBackCamp_910361",
    "title": "LaidBackCamp_910361",
    "link_img": "https://live.staticflickr.com/65535/48048499033_2379acbb42_o.jpg",
    "id_image": "LaidBackCamp_910361",
    "count_view": 0
  },
  {
    "link_thumb": "https://live.staticflickr.com/65535/48048499223_70c632b0cf_n.jpg",
    "id_album": "-795300841",
    "description": "LaidBackCamp_910362",
    "title": "LaidBackCamp_910362",
    "link_img": "https://live.staticflickr.com/65535/48048499223_c6311e63fd_o.jpg",
    "id_image": "LaidBackCamp_910362",
    "count_view": 0
  },
  {
    "link_thumb": "https://live.staticflickr.com/65535/48048536997_5e0ac6bb30_n.jpg",
    "id_album": "-795300841",
    "description": "LaidBackCamp_911566",
    "title": "LaidBackCamp_911566",
    "link_img": "https://live.staticflickr.com/65535/48048536997_4f06bb0723_o.jpg",
    "id_image": "LaidBackCamp_911566",
    "count_view": 0
  },
  {
    "link_thumb": "https://live.staticflickr.com/65535/48048500188_19cf0c1216_n.jpg",
    "id_album": "-795300841",
    "description": "LaidBackCamp_913279",
    "title": "LaidBackCamp_913279",
    "link_img": "https://live.staticflickr.com/65535/48048500188_49ef81436a_o.jpg",
    "id_image": "LaidBackCamp_913279",
    "count_view": 0
  },
  {
    "link_thumb": "https://live.staticflickr.com/65535/48048538157_789cdcf501_n.jpg",
    "id_album": "-795300841",
    "description": "LaidBackCamp_934421",
    "title": "LaidBackCamp_934421",
    "link_img": "https://live.staticflickr.com/65535/48048538157_a60687ceba_o.jpg",
    "id_image": "LaidBackCamp_934421",
    "count_view": 0
  },
  {
    "link_thumb": "https://live.staticflickr.com/65535/48048501183_8592b9d038_n.jpg",
    "id_album": "-795300841",
    "description": "LaidBackCamp_934422",
    "title": "LaidBackCamp_934422",
    "link_img": "https://live.staticflickr.com/65535/48048501183_0d285c84b5_o.jpg",
    "id_image": "LaidBackCamp_934422",
    "count_view": 0
  },
  {
    "link_thumb": "https://live.staticflickr.com/65535/48048459141_3b6c59e13f_n.jpg",
    "id_album": "-795300841",
    "description": "LaidBackCamp_934536",
    "title": "LaidBackCamp_934536",
    "link_img": "https://live.staticflickr.com/65535/48048459141_84684f3ca7_o.jpg",
    "id_image": "LaidBackCamp_934536",
    "count_view": 0
  },
  {
    "link_thumb": "https://live.staticflickr.com/65535/48048459731_fee1608961_n.jpg",
    "id_album": "-795300841",
    "description": "LaidBackCamp_935237",
    "title": "LaidBackCamp_935237",
    "link_img": "https://live.staticflickr.com/65535/48048459731_915f11ef7a_o.jpg",
    "id_image": "LaidBackCamp_935237",
    "count_view": 0
  },
  {
    "link_thumb": "https://live.staticflickr.com/65535/48048503118_56d1a26b3c_n.jpg",
    "id_album": "-795300841",
    "description": "LaidBackCamp_946883",
    "title": "LaidBackCamp_946883",
    "link_img": "https://live.staticflickr.com/65535/48048503118_0035cba1ee_o.jpg",
    "id_image": "LaidBackCamp_946883",
    "count_view": 0
  },
  {
    "link_thumb": "https://live.staticflickr.com/65535/48048540527_171a791459_n.jpg",
    "id_album": "-795300841",
    "description": "LaidBackCamp_952139",
    "title": "LaidBackCamp_952139",
    "link_img": "https://live.staticflickr.com/65535/48048540527_1e715f6fd8_o.jpg",
    "id_image": "LaidBackCamp_952139",
    "count_view": 0
  },
  {
    "link_thumb": "https://live.staticflickr.com/65535/48048460866_4a6f7952a5_n.jpg",
    "id_album": "-795300841",
    "description": "LaidBackCamp_952728",
    "title": "LaidBackCamp_952728",
    "link_img": "https://live.staticflickr.com/65535/48048460866_0143c78774_o.jpg",
    "id_image": "LaidBackCamp_952728",
    "count_view": 0
  },
  {
    "link_thumb": "https://live.staticflickr.com/65535/48048541037_27b6a378d9_n.jpg",
    "id_album": "-795300841",
    "description": "LaidBackCamp_970500",
    "title": "LaidBackCamp_970500",
    "link_img": "https://live.staticflickr.com/65535/48048541037_9abea8f998_o.jpg",
    "id_image": "LaidBackCamp_970500",
    "count_view": 0
  },
  {
    "link_thumb": "https://live.staticflickr.com/65535/48609880931_a1211cd23d_n.jpg",
    "id_album": "-795300841",
    "description": "YuruCamp_1010447",
    "title": "YuruCamp_1010447",
    "link_img": "https://live.staticflickr.com/65535/48609880931_7b4a0a0048_o.jpg",
    "id_image": "YuruCamp_1010447",
    "count_view": 0
  },
  {
    "link_thumb": "https://live.staticflickr.com/65535/48610032872_d7fe8de72d_n.jpg",
    "id_album": "-795300841",
    "description": "YuruCamp_1010451",
    "title": "YuruCamp_1010451",
    "link_img": "https://live.staticflickr.com/65535/48610032872_d7a44627dd_o.jpg",
    "id_image": "YuruCamp_1010451",
    "count_view": 0
  },
  {
    "link_thumb": "https://live.staticflickr.com/65535/48609521483_c51d3af55e_n.jpg",
    "id_album": "-795300841",
    "description": "YuruCamp_1016082",
    "title": "YuruCamp_1016082",
    "link_img": "https://live.staticflickr.com/65535/48609521483_0a46f437ab_o.jpg",
    "id_image": "YuruCamp_1016082",
    "count_view": 0
  },
  {
    "link_thumb": "https://live.staticflickr.com/65535/48610033932_5605141854_n.jpg",
    "id_album": "-795300841",
    "description": "YuruCamp_899474",
    "title": "YuruCamp_899474",
    "link_img": "https://live.staticflickr.com/65535/48610033932_417cba2dd4_o.jpg",
    "id_image": "YuruCamp_899474",
    "count_view": 0
  },
  {
    "link_thumb": "https://live.staticflickr.com/65535/48610034047_91d05cddef_n.jpg",
    "id_album": "-795300841",
    "description": "YuruCamp_899686",
    "title": "YuruCamp_899686",
    "link_img": "https://live.staticflickr.com/65535/48610034047_dda4269539_o.jpg",
    "id_image": "YuruCamp_899686",
    "count_view": 0
  },
  {
    "link_thumb": "https://live.staticflickr.com/65535/48610034202_c97fffe6a1_n.jpg",
    "id_album": "-795300841",
    "description": "YuruCamp_900473",
    "title": "YuruCamp_900473",
    "link_img": "https://live.staticflickr.com/65535/48610034202_9ea6480424_o.jpg",
    "id_image": "YuruCamp_900473",
    "count_view": 0
  },
  {
    "link_thumb": "https://live.staticflickr.com/65535/48609523028_c88075d4e6_n.jpg",
    "id_album": "-795300841",
    "description": "YuruCamp_902877",
    "title": "YuruCamp_902877",
    "link_img": "https://live.staticflickr.com/65535/48609523028_b49e3f70e8_o.jpg",
    "id_image": "YuruCamp_902877",
    "count_view": 0
  },
  {
    "link_thumb": "https://live.staticflickr.com/65535/48609523383_5a0f073d01_n.jpg",
    "id_album": "-795300841",
    "description": "YuruCamp_903656",
    "title": "YuruCamp_903656",
    "link_img": "https://live.staticflickr.com/65535/48609523383_df020e07e3_o.jpg",
    "id_image": "YuruCamp_903656",
    "count_view": 0
  },
  {
    "link_thumb": "https://live.staticflickr.com/65535/48609523568_b254650a8f_n.jpg",
    "id_album": "-795300841",
    "description": "YuruCamp_903668",
    "title": "YuruCamp_903668",
    "link_img": "https://live.staticflickr.com/65535/48609523568_6e39becc15_o.jpg",
    "id_image": "YuruCamp_903668",
    "count_view": 0
  },
  {
    "link_thumb": "https://live.staticflickr.com/65535/48609523868_85d783e4cf_n.jpg",
    "id_album": "-795300841",
    "description": "YuruCamp_905499",
    "title": "YuruCamp_905499",
    "link_img": "https://live.staticflickr.com/65535/48609523868_b99ee08aab_o.jpg",
    "id_image": "YuruCamp_905499",
    "count_view": 0
  },
  {
    "link_thumb": "https://live.staticflickr.com/65535/48610035892_612f9db76c_n.jpg",
    "id_album": "-795300841",
    "description": "YuruCamp_905500",
    "title": "YuruCamp_905500",
    "link_img": "https://live.staticflickr.com/65535/48610035892_ea50553115_o.jpg",
    "id_image": "YuruCamp_905500",
    "count_view": 0
  },
  {
    "link_thumb": "https://live.staticflickr.com/65535/48609884851_8190d116e3_n.jpg",
    "id_album": "-795300841",
    "description": "YuruCamp_905501",
    "title": "YuruCamp_905501",
    "link_img": "https://live.staticflickr.com/65535/48609884851_c053eba1a4_o.jpg",
    "id_image": "YuruCamp_905501",
    "count_view": 0
  },
  {
    "link_thumb": "https://live.staticflickr.com/65535/48609885711_68985d8246_n.jpg",
    "id_album": "-795300841",
    "description": "YuruCamp_905507",
    "title": "YuruCamp_905507",
    "link_img": "https://live.staticflickr.com/65535/48609885711_97c86a4851_o.jpg",
    "id_image": "YuruCamp_905507",
    "count_view": 0
  },
  {
    "link_thumb": "https://live.staticflickr.com/65535/48609525498_9851a15d84_n.jpg",
    "id_album": "-795300841",
    "description": "YuruCamp_905510",
    "title": "YuruCamp_905510",
    "link_img": "https://live.staticflickr.com/65535/48609525498_780e767eed_o.jpg",
    "id_image": "YuruCamp_905510",
    "count_view": 0
  },
  {
    "link_thumb": "https://live.staticflickr.com/65535/48610037617_382880a95e_n.jpg",
    "id_album": "-795300841",
    "description": "YuruCamp_905513",
    "title": "YuruCamp_905513",
    "link_img": "https://live.staticflickr.com/65535/48610037617_a52ce3ccc8_o.jpg",
    "id_image": "YuruCamp_905513",
    "count_view": 0
  },
  {
    "link_thumb": "https://live.staticflickr.com/65535/48610037847_c376a7421d_n.jpg",
    "id_album": "-795300841",
    "description": "YuruCamp_905514",
    "title": "YuruCamp_905514",
    "link_img": "https://live.staticflickr.com/65535/48610037847_bb66e8121c_o.jpg",
    "id_image": "YuruCamp_905514",
    "count_view": 0
  },
  {
    "link_thumb": "https://live.staticflickr.com/65535/48609886896_3658155406_n.jpg",
    "id_album": "-795300841",
    "description": "YuruCamp_905624",
    "title": "YuruCamp_905624",
    "link_img": "https://live.staticflickr.com/65535/48609886896_f51319d44f_o.jpg",
    "id_image": "YuruCamp_905624",
    "count_view": 0
  },
  {
    "link_thumb": "https://live.staticflickr.com/65535/48609526478_274cd22ded_n.jpg",
    "id_album": "-795300841",
    "description": "YuruCamp_909080",
    "title": "YuruCamp_909080",
    "link_img": "https://live.staticflickr.com/65535/48609526478_38e756fa4b_o.jpg",
    "id_image": "YuruCamp_909080",
    "count_view": 0
  },
  {
    "link_thumb": "https://live.staticflickr.com/65535/48609887301_29d7a660bb_n.jpg",
    "id_album": "-795300841",
    "description": "YuruCamp_910340",
    "title": "YuruCamp_910340",
    "link_img": "https://live.staticflickr.com/65535/48609887301_bbcaafe6b5_o.jpg",
    "id_image": "YuruCamp_910340",
    "count_view": 0
  },
  {
    "link_thumb": "https://live.staticflickr.com/65535/48609526868_004d7f3182_n.jpg",
    "id_album": "-795300841",
    "description": "YuruCamp_910359",
    "title": "YuruCamp_910359",
    "link_img": "https://live.staticflickr.com/65535/48609526868_8cc5affcc1_o.jpg",
    "id_image": "YuruCamp_910359",
    "count_view": 0
  },
  {
    "link_thumb": "https://live.staticflickr.com/65535/48610038987_f45be4de0f_n.jpg",
    "id_album": "-795300841",
    "description": "YuruCamp_910361",
    "title": "YuruCamp_910361",
    "link_img": "https://live.staticflickr.com/65535/48610038987_1fb3e7d556_o.jpg",
    "id_image": "YuruCamp_910361",
    "count_view": 0
  },
  {
    "link_thumb": "https://live.staticflickr.com/65535/48610039112_5879e268b1_n.jpg",
    "id_album": "-795300841",
    "description": "YuruCamp_910362",
    "title": "YuruCamp_910362",
    "link_img": "https://live.staticflickr.com/65535/48610039112_927e6404ac_o.jpg",
    "id_image": "YuruCamp_910362",
    "count_view": 0
  },
  {
    "link_thumb": "https://live.staticflickr.com/65535/48609888056_3a7a899221_n.jpg",
    "id_album": "-795300841",
    "description": "YuruCamp_910363",
    "title": "YuruCamp_910363",
    "link_img": "https://live.staticflickr.com/65535/48609888056_33c7c95ab9_o.jpg",
    "id_image": "YuruCamp_910363",
    "count_view": 0
  },
  {
    "link_thumb": "https://live.staticflickr.com/65535/48609888656_8dd2b3956a_n.jpg",
    "id_album": "-795300841",
    "description": "YuruCamp_911566",
    "title": "YuruCamp_911566",
    "link_img": "https://live.staticflickr.com/65535/48609888656_56ec2a7912_o.jpg",
    "id_image": "YuruCamp_911566",
    "count_view": 0
  },
  {
    "link_thumb": "https://live.staticflickr.com/65535/48609888926_0385c1d96e_n.jpg",
    "id_album": "-795300841",
    "description": "YuruCamp_913279",
    "title": "YuruCamp_913279",
    "link_img": "https://live.staticflickr.com/65535/48609888926_6d3d0b5872_o.jpg",
    "id_image": "YuruCamp_913279",
    "count_view": 0
  },
  {
    "link_thumb": "https://live.staticflickr.com/65535/48609528638_ff1b1fb6b3_n.jpg",
    "id_album": "-795300841",
    "description": "YuruCamp_925917",
    "title": "YuruCamp_925917",
    "link_img": "https://live.staticflickr.com/65535/48609528638_3a45cc686b_o.jpg",
    "id_image": "YuruCamp_925917",
    "count_view": 0
  },
  {
    "link_thumb": "https://live.staticflickr.com/65535/48610040452_68fcc8c87a_n.jpg",
    "id_album": "-795300841",
    "description": "YuruCamp_934421",
    "title": "YuruCamp_934421",
    "link_img": "https://live.staticflickr.com/65535/48610040452_6a3701e971_o.jpg",
    "id_image": "YuruCamp_934421",
    "count_view": 0
  },
  {
    "link_thumb": "https://live.staticflickr.com/65535/48609889661_218c7a5988_n.jpg",
    "id_album": "-795300841",
    "description": "YuruCamp_934422",
    "title": "YuruCamp_934422",
    "link_img": "https://live.staticflickr.com/65535/48609889661_36dc8c582f_o.jpg",
    "id_image": "YuruCamp_934422",
    "count_view": 0
  },
  {
    "link_thumb": "https://live.staticflickr.com/65535/48610040692_e52ea6416d_n.jpg",
    "id_album": "-795300841",
    "description": "YuruCamp_934424",
    "title": "YuruCamp_934424",
    "link_img": "https://live.staticflickr.com/65535/48610040692_b99b979bca_o.jpg",
    "id_image": "YuruCamp_934424",
    "count_view": 0
  },
  {
    "link_thumb": "https://live.staticflickr.com/65535/48609529533_d461f978b4_n.jpg",
    "id_album": "-795300841",
    "description": "YuruCamp_934534",
    "title": "YuruCamp_934534",
    "link_img": "https://live.staticflickr.com/65535/48609529533_3a372e4e85_o.jpg",
    "id_image": "YuruCamp_934534",
    "count_view": 0
  },
  {
    "link_thumb": "https://live.staticflickr.com/65535/48610041167_7ae6a93ba3_n.jpg",
    "id_album": "-795300841",
    "description": "YuruCamp_934536",
    "title": "YuruCamp_934536",
    "link_img": "https://live.staticflickr.com/65535/48610041167_c4a8278c73_o.jpg",
    "id_image": "YuruCamp_934536",
    "count_view": 0
  },
  {
    "link_thumb": "https://live.staticflickr.com/65535/48610041557_886a620108_n.jpg",
    "id_album": "-795300841",
    "description": "YuruCamp_935237",
    "title": "YuruCamp_935237",
    "link_img": "https://live.staticflickr.com/65535/48610041557_4e85a85174_o.jpg",
    "id_image": "YuruCamp_935237",
    "count_view": 0
  },
  {
    "link_thumb": "https://live.staticflickr.com/65535/48609890801_e20f683ae0_n.jpg",
    "id_album": "-795300841",
    "description": "YuruCamp_945657",
    "title": "YuruCamp_945657",
    "link_img": "https://live.staticflickr.com/65535/48609890801_332f6a8edb_o.jpg",
    "id_image": "YuruCamp_945657",
    "count_view": 0
  },
  {
    "link_thumb": "https://live.staticflickr.com/65535/48609530498_71dc268957_n.jpg",
    "id_album": "-795300841",
    "description": "YuruCamp_946883",
    "title": "YuruCamp_946883",
    "link_img": "https://live.staticflickr.com/65535/48609530498_2a67022cea_o.jpg",
    "id_image": "YuruCamp_946883",
    "count_view": 0
  },
  {
    "link_thumb": "https://live.staticflickr.com/65535/48610042212_2a8ed2e58f_n.jpg",
    "id_album": "-795300841",
    "description": "YuruCamp_952139",
    "title": "YuruCamp_952139",
    "link_img": "https://live.staticflickr.com/65535/48610042212_10d5e07fd4_o.jpg",
    "id_image": "YuruCamp_952139",
    "count_view": 0
  },
  {
    "link_thumb": "https://live.staticflickr.com/65535/48609891276_d6beb9cf73_n.jpg",
    "id_album": "-795300841",
    "description": "YuruCamp_952728",
    "title": "YuruCamp_952728",
    "link_img": "https://live.staticflickr.com/65535/48609891276_503e7601b4_o.jpg",
    "id_image": "YuruCamp_952728",
    "count_view": 0
  },
  {
    "link_thumb": "https://live.staticflickr.com/65535/48609891566_1baedaf502_n.jpg",
    "id_album": "-795300841",
    "description": "YuruCamp_970500",
    "title": "YuruCamp_970500",
    "link_img": "https://live.staticflickr.com/65535/48609891566_99e6661c3e_o.jpg",
    "id_image": "YuruCamp_970500",
    "count_view": 0
  },
  {
    "link_thumb": "https://live.staticflickr.com/65535/48609531148_1c29d72778_n.jpg",
    "id_album": "-795300841",
    "description": "YuruCamp_985776",
    "title": "YuruCamp_985776",
    "link_img": "https://live.staticflickr.com/65535/48609531148_8863881368_o.jpg",
    "id_image": "YuruCamp_985776",
    "count_view": 0
  }
]