[
  {
    "total_img": 596,
    "number_page": 3,
    "title": "Vocaloid 4",
    "tag": "Water, Sky, Heart, IA Vocaloid, Green Hair, Singer, Colorful, Moon, Kamui Gakupo, Monochrome, Black, YANHE Vocaloid, Haku Yowane Vocaloid, Ribbon, White Hair, Una Otomachi, Umbrella, Braid, Fukase Vocaloid, Camui Gackpo, Luka Megurine, CUL Vocaloid, Hair, Earrings, Akari Kizuna, Unitychan Vocaloid, Stardust Vocaloid, Kizuna Akari, Scarf, GUMI Vocaloid, V4 Flower, Reflection, Sand Planet Vocaloid, Yaoi, Smile, Aqua Eyes, Sea, Skirt, Colors, Mood, Blush, Pantyhose, Animal, Flower Vocaloid, Squirrel, Yuzuki Yukari, V Flower Vocaloid, MAIKA Vocaloid, ALYS Vocaloid, Lips, Mayu Vocaloid, Uni Vocaloid, Luo Tianyi, Hai Yi Vocaloid, Black  White, White Dress, Hatsune Miku Project DIVA F 2nd, Sunbeam, Wings, Fish, Sayoko, Feather, Face, Witch, Fireworks, Yan He, Video Game, Guitar, Original Anime, Nekomura Iroha, Artistic, Blue, Road, SFA2 Miki, Vocaloid 4, Couch, Pink Hair, Sakura Miku, Fuyu no yoru Miku, Haiyi Vocaloid, Tie, Blue Eyes, Meiko Vocaloid, Otomachi Una, Living Room, Fallen Angel, Hat, Len Kagamine, Animal Ears, Halloween, Rin Kagamine, Touhoku Kiritan, Green Eyes, Cherry, Night, Pumpkin, Stars, Underwater, Minimalist, Hatsune Miku, Summer, Twinitails, Hitoribocchi no Hitorigoto, Long Hair, Thigh Highs, Bubble, Anime, Rana Vocaloid, Technology, Light, Candy, Heterochromia, Shapes, Yuezheng Ling, Woman, DAINA Vocaloid, SeeU Vocaloid, ONE CeVIO, Kotonoha Akane, Purple Hair, Vocaloid, Violin, Bow, Aqua Hair, Kotonoha Aoi, Red Eyes, Kaito Vocaloid, Cap, Dark, Love, Cat, Glasses, Fantasy, Dove, Lily Vocaloid, Laptop, Microphone, Butterfly, Bird, Monologue in Solitude, Otori Kohaku, Sunshine, Twintails, Blonde, Polychromatic, bow Clothing, Zatsune Miku, Short Hair, Sakine Meiko, TwoToned Hair, Katana, Xin Hua, Necklace, Flower, Dress, Cat Girl, Fruit, Scenery, Brown Eyes, 40mP, Bag, Pink Eyes, School Uniform, Woman Warrior, Maid, Gothic, Yuki Miku, Sunset, Hachune Miku, Blue Hair, Love is War Vocaloid, White, Cloud, Lying Down, Petal, Tears",
    "description": "Vocaloid 4",
    "link_thumb": "https://live.staticflickr.com/65535/48065388858_d1e7b897e2_n.jpg",
    "id_album": "-1889363529",
    "total_view": 596
  },
  {
    "total_img": 11,
    "number_page": 1,
    "title": "Yuezheng Ling",
    "tag": "Yuezheng Ling,",
    "description": "Yuezheng Ling",
    "link_thumb": "https://live.staticflickr.com/65535/48065716176_97486bc5a0_n.jpg",
    "id_album": "374607647",
    "total_view": 11
  }
]