[
  {
    "total_img": 434,
    "number_page": 3,
    "title": "Original 8",
    "tag": "Water, Heart, Ball, Green Hair, Straw Hat, Creature, Shield, Wink, Black Hair, Staff, Wand, Store, High Heels, Weapon, Sphere, Swing, Umbrella, Shorts, Trident, Bikini, Street, Eagle, Cup, Space, Meadow, Glove, Village, Smile, Red Car, Blade, Sun, Sea, Skirt, Girl Band, Comet, Bunny Ears, Statue, Warzone, Dagger, Chicken, Squirrel, Top Hat, Building, Group, Orange Hair, Hill, Lips, Torii, Waterfall, Cruise Ship, Cake, White Dress, Dragon, Train Station, Cloak, Japanese Clothes, Star, Tail, Stairs, Feather, Fish, Yuri, Ocean, Tablet, Traffic Light, Face, Food, Window, Bus, Original Anime, Nekomimi, Brown Hair, Pink Hair, Plate, Red, Tie, Blue Eyes, Television, Hoodie, Ring, Fire, Hat, Hall, Moped, Animal Ears, Kiss, Elf, Ice Cream, Treasure, Green Eyes, Shinkukan Dolls, Astronaut, Tulip, Stars, Spaceship, Scythe, Pumpkin, Underwater, Morning, Paw, Long Hair, Thigh Highs, Beach, Winter, Light, Snowflake, Kimono, Blur, Heterochromia, Swimming, Headdress, Camera, Fog, Festival, Purple Hair, Cute, Oriental, Stuffed Animal, Puppy, Paint, Skyscraper, Glasses, Countryside, Twins, Sunflower, Bridge, Smoking, Crystal, Drawing, Laptop, Bird, Santa Claus, War, Shadow, Firefly, Ivy, Brush, Honda, Blonde, Twintails, Chipmunk, Knife, Coffin, School, Mountain, Rainbow, Armor, Classroom, Skeleton, Baby Animal, Room, Katana, Scenery, Meteor, Apron, Pink Eyes, School Uniform, 5 Nenme no Houkago, Cape, Gothic, Bicycle, Ruin, Sunset, Apple, Amusement Park, White, Pointed Ears, Sleeping, Wind Turbine, Grey Hair, Lying Down, Husky, Falling, Vampire, Robot, Tears, Sky, Moon, Colorful, Doughnut, Balloon, Drone, Bath, Palm Tree, Asian, Schoolgirl, Sword, Shirt, Aquarium, Ribbon, Blueberry, Book, White Hair, Pistol, Fangs, Cupcake, Carl Gustaf recoilless rifle, Computer, Windmill, Horns, Braid, Planet, Dog, Child, Flame, Earrings, Gun, Purple Eyes, Jacket, Sneakers, Cold, Scarf, Violinist, Mask, Reflection, House, Shoe, Japanese, Red Hair, Aqua Eyes, Deer, Sci Fi, Shop, Snowball, Flying, Blush, Animal, Man, Bell, Train, Hamster, Original 8, Chain, Lantern, Chair, Aurora Borealis, Glass, Rose, Doll, Coffee, Wings, Monster, River, Leaf, Witch, Fireworks, Guitar, Table, 88 Original Character, Road, Headband, Sweater, Crown, Grey Eyes, Sunlight, Steampunk, Halloween, Pillow, Boat, Black Eyes, Galaxy, Night, Snow, Grass, Lake, Smoke, Tomato, Rain, Bubble, Anime, Bandage, Ramen, Candy, Tree, Woman, Coat, Rock, Balcony, Violin, Yellow Eyes, Boy, Red Eyes, Piano, Shrine, Cave, Cap, Pink, Car, Dark, Cat, Fantasy, Daffodil, Fall, Library, Ponytail, Giant, Fairy, Orange Eyes, Microphone, Butterfly, Sunshine, Broom, Earth, Beam, Barefoot, Campfire, Dinosaur, Phone, bow Clothing, Bones, Horizon, Short Hair, Necklace, Flower, Cat Girl, Dress, Fruit, Brown Eyes, Frog, Keyboard, Magic, Bag, Pipe, Maid, Woman Warrior, Spirit, Post Apocalyptic, Blue Hair, Bat, Cloud, Forest, Skull, Jar, Petal, Aircraft, Yukata, Wizard",
    "description": "Original 8",
    "link_thumb": "https://live.staticflickr.com/65535/48078520967_afe787f457_n.jpg",
    "id_album": "1165313502",
    "total_view": 434
  },
  {
    "total_img": 752,
    "number_page": 4,
    "title": "Black Hair",
    "tag": "Black Hair,",
    "description": "Black Hair",
    "link_thumb": "https://live.staticflickr.com/65535/48066328668_b63565e5e3_n.jpg",
    "id_album": "1485204216",
    "total_view": 752
  },
  {
    "total_img": 690,
    "number_page": 4,
    "title": "Blush",
    "tag": "Blush,",
    "description": "Blush",
    "link_thumb": "https://live.staticflickr.com/65535/48066945096_efda4835b6_n.jpg",
    "id_album": "1964454893",
    "total_view": 690
  },
  {
    "total_img": 363,
    "number_page": 2,
    "title": "Brown Eyes",
    "tag": "Brown Eyes,",
    "description": "Brown Eyes",
    "link_thumb": "https://live.staticflickr.com/65535/48609891276_d6beb9cf73_n.jpg",
    "id_album": "-346700115",
    "total_view": 363
  },
  {
    "total_img": 51,
    "number_page": 1,
    "title": "Coat",
    "tag": "Coat,",
    "description": "Coat",
    "link_thumb": "https://live.staticflickr.com/65535/48060437713_bdc225e24e_n.jpg",
    "id_album": "-804131070",
    "total_view": 51
  },
  {
    "total_img": 1729,
    "number_page": 9,
    "title": "Long Hair",
    "tag": "Long Hair,",
    "description": "Long Hair",
    "link_thumb": "https://live.staticflickr.com/65535/48066953706_2771a62522_n.jpg",
    "id_album": "186170098",
    "total_view": 1729
  },
  {
    "total_img": 3,
    "number_page": 1,
    "title": "Puppy",
    "tag": "Puppy,",
    "description": "Puppy",
    "link_thumb": "https://live.staticflickr.com/65535/48082596353_5318cd6381_n.jpg",
    "id_album": "-353898617",
    "total_view": 3
  },
  {
    "total_img": 807,
    "number_page": 5,
    "title": "Smile",
    "tag": "Smile,",
    "description": "Smile",
    "link_thumb": "https://live.staticflickr.com/65535/48066953706_2771a62522_n.jpg",
    "id_album": "419891285",
    "total_view": 807
  },
  {
    "total_img": 107,
    "number_page": 1,
    "title": "Stars",
    "tag": "Stars,",
    "description": "Stars",
    "link_thumb": "https://live.staticflickr.com/65535/48065850162_320d2ffbae_n.jpg",
    "id_album": "-1587696329",
    "total_view": 107
  }
]