[
  {
    "link_thumb": "https://live.staticflickr.com/65535/48070860283_b1bac6eb15_n.jpg",
    "id_album": "-2023669388",
    "description": "MonogatariSeries_116357",
    "title": "MonogatariSeries_116357",
    "link_img": "https://live.staticflickr.com/65535/48070860283_7bd20d28a3_o.jpg",
    "id_image": "MonogatariSeries_116357",
    "count_view": 0
  },
  {
    "link_thumb": "https://live.staticflickr.com/65535/48070813096_f451a6c768_n.jpg",
    "id_album": "-2023669388",
    "description": "MonogatariSeries_120082",
    "title": "MonogatariSeries_120082",
    "link_img": "https://live.staticflickr.com/65535/48070813096_038b1be939_o.jpg",
    "id_image": "MonogatariSeries_120082",
    "count_view": 0
  },
  {
    "link_thumb": "https://live.staticflickr.com/65535/48070864238_60548b5b47_n.jpg",
    "id_album": "-2023669388",
    "description": "MonogatariSeries_126308",
    "title": "MonogatariSeries_126308",
    "link_img": "https://live.staticflickr.com/65535/48070864238_6225cdceb9_o.jpg",
    "id_image": "MonogatariSeries_126308",
    "count_view": 0
  },
  {
    "link_thumb": "https://live.staticflickr.com/65535/48070816901_956ed56033_n.jpg",
    "id_album": "-2023669388",
    "description": "MonogatariSeries_126315",
    "title": "MonogatariSeries_126315",
    "link_img": "https://live.staticflickr.com/65535/48070816901_67c7f4ddfe_o.jpg",
    "id_image": "MonogatariSeries_126315",
    "count_view": 0
  },
  {
    "link_thumb": "https://live.staticflickr.com/65535/48070868798_0c178a5354_n.jpg",
    "id_album": "-2023669388",
    "description": "MonogatariSeries_135610",
    "title": "MonogatariSeries_135610",
    "link_img": "https://live.staticflickr.com/65535/48070868798_0e130dffee_o.jpg",
    "id_image": "MonogatariSeries_135610",
    "count_view": 0
  },
  {
    "link_thumb": "https://live.staticflickr.com/65535/48070875878_f682fb4a38_n.jpg",
    "id_album": "-2023669388",
    "description": "MonogatariSeries_244407",
    "title": "MonogatariSeries_244407",
    "link_img": "https://live.staticflickr.com/65535/48070875878_b44c51f069_o.jpg",
    "id_image": "MonogatariSeries_244407",
    "count_view": 0
  },
  {
    "link_thumb": "https://live.staticflickr.com/65535/48070878723_fca4718cc7_n.jpg",
    "id_album": "-2023669388",
    "description": "MonogatariSeries_244432",
    "title": "MonogatariSeries_244432",
    "link_img": "https://live.staticflickr.com/65535/48070878723_dcf69cd470_o.jpg",
    "id_image": "MonogatariSeries_244432",
    "count_view": 0
  },
  {
    "link_thumb": "https://live.staticflickr.com/65535/48070879038_5eed9920f9_n.jpg",
    "id_album": "-2023669388",
    "description": "MonogatariSeries_244435",
    "title": "MonogatariSeries_244435",
    "link_img": "https://live.staticflickr.com/65535/48070879038_dd5d2d314b_o.jpg",
    "id_image": "MonogatariSeries_244435",
    "count_view": 0
  },
  {
    "link_thumb": "https://live.staticflickr.com/65535/48070886788_2f5853d18d_n.jpg",
    "id_album": "-2023669388",
    "description": "MonogatariSeries_334226",
    "title": "MonogatariSeries_334226",
    "link_img": "https://live.staticflickr.com/65535/48070886788_1901595516_o.jpg",
    "id_image": "MonogatariSeries_334226",
    "count_view": 0
  },
  {
    "link_thumb": "https://live.staticflickr.com/65535/48070952702_0b7d49e4b7_n.jpg",
    "id_album": "-2023669388",
    "description": "MonogatariSeries_454938",
    "title": "MonogatariSeries_454938",
    "link_img": "https://live.staticflickr.com/65535/48070952702_68799d810c_o.jpg",
    "id_image": "MonogatariSeries_454938",
    "count_view": 0
  },
  {
    "link_thumb": "https://live.staticflickr.com/65535/48070858396_89a58c01e2_n.jpg",
    "id_album": "-2023669388",
    "description": "MonogatariSeries_455034",
    "title": "MonogatariSeries_455034",
    "link_img": "https://live.staticflickr.com/65535/48070858396_a0bc288a31_o.jpg",
    "id_image": "MonogatariSeries_455034",
    "count_view": 0
  },
  {
    "link_thumb": "https://live.staticflickr.com/65535/48070966787_483b91049b_n.jpg",
    "id_album": "-2023669388",
    "description": "MonogatariSeries_455044",
    "title": "MonogatariSeries_455044",
    "link_img": "https://live.staticflickr.com/65535/48070966787_4a3c114c29_o.jpg",
    "id_image": "MonogatariSeries_455044",
    "count_view": 0
  },
  {
    "link_thumb": "https://live.staticflickr.com/65535/48070981247_14f115d5b9_n.jpg",
    "id_album": "-2023669388",
    "description": "MonogatariSeries_455192",
    "title": "MonogatariSeries_455192",
    "link_img": "https://live.staticflickr.com/65535/48070981247_b32ca4c6d6_o.jpg",
    "id_image": "MonogatariSeries_455192",
    "count_view": 0
  },
  {
    "link_thumb": "https://live.staticflickr.com/65535/48070983797_94f487e549_n.jpg",
    "id_album": "-2023669388",
    "description": "MonogatariSeries_455212",
    "title": "MonogatariSeries_455212",
    "link_img": "https://live.staticflickr.com/65535/48070983797_ea97808f51_o.jpg",
    "id_image": "MonogatariSeries_455212",
    "count_view": 0
  },
  {
    "link_thumb": "https://live.staticflickr.com/65535/48070925318_fddaa68cb3_n.jpg",
    "id_album": "-2023669388",
    "description": "MonogatariSeries_455221",
    "title": "MonogatariSeries_455221",
    "link_img": "https://live.staticflickr.com/65535/48070925318_d4121b6ef9_o.jpg",
    "id_image": "MonogatariSeries_455221",
    "count_view": 0
  },
  {
    "link_thumb": "https://live.staticflickr.com/65535/48070885076_b68518ceda_n.jpg",
    "id_album": "-2023669388",
    "description": "MonogatariSeries_455315",
    "title": "MonogatariSeries_455315",
    "link_img": "https://live.staticflickr.com/65535/48070885076_2c3fb9f854_o.jpg",
    "id_image": "MonogatariSeries_455315",
    "count_view": 0
  },
  {
    "link_thumb": "https://live.staticflickr.com/65535/48070993327_d38e4c89f2_n.jpg",
    "id_album": "-2023669388",
    "description": "MonogatariSeries_455319",
    "title": "MonogatariSeries_455319",
    "link_img": "https://live.staticflickr.com/65535/48070993327_78298761b4_o.jpg",
    "id_image": "MonogatariSeries_455319",
    "count_view": 0
  },
  {
    "link_thumb": "https://live.staticflickr.com/65535/48070940163_b9e6e4f3b4_n.jpg",
    "id_album": "-2023669388",
    "description": "MonogatariSeries_600298",
    "title": "MonogatariSeries_600298",
    "link_img": "https://live.staticflickr.com/65535/48070940163_9ffc745f88_o.jpg",
    "id_image": "MonogatariSeries_600298",
    "count_view": 0
  },
  {
    "link_thumb": "https://live.staticflickr.com/65535/48071007142_44ef9fe9e4_n.jpg",
    "id_album": "-2023669388",
    "description": "MonogatariSeries_660625",
    "title": "MonogatariSeries_660625",
    "link_img": "https://live.staticflickr.com/65535/48071007142_365f8777a1_o.jpg",
    "id_image": "MonogatariSeries_660625",
    "count_view": 0
  },
  {
    "link_thumb": "https://live.staticflickr.com/65535/48070916006_25f64f452d_n.jpg",
    "id_album": "-2023669388",
    "description": "MonogatariSeries_715278",
    "title": "MonogatariSeries_715278",
    "link_img": "https://live.staticflickr.com/65535/48070916006_7a7eb1dc19_o.jpg",
    "id_image": "MonogatariSeries_715278",
    "count_view": 0
  },
  {
    "link_thumb": "https://live.staticflickr.com/65535/48070966093_541c7f2bf5_n.jpg",
    "id_album": "-2023669388",
    "description": "MonogatariSeries_721549",
    "title": "MonogatariSeries_721549",
    "link_img": "https://live.staticflickr.com/65535/48070966093_395ab7e3b6_o.jpg",
    "id_image": "MonogatariSeries_721549",
    "count_view": 0
  },
  {
    "link_thumb": "https://live.staticflickr.com/65535/48070969568_a38f615d1e_n.jpg",
    "id_album": "-2023669388",
    "description": "MonogatariSeries_724910",
    "title": "MonogatariSeries_724910",
    "link_img": "https://live.staticflickr.com/65535/48070969568_992f286452_o.jpg",
    "id_image": "MonogatariSeries_724910",
    "count_view": 0
  },
  {
    "link_thumb": "https://live.staticflickr.com/65535/48070976123_27979c88ed_n.jpg",
    "id_album": "-2023669388",
    "description": "MonogatariSeries_724946",
    "title": "MonogatariSeries_724946",
    "link_img": "https://live.staticflickr.com/65535/48070976123_944b25f842_o.jpg",
    "id_image": "MonogatariSeries_724946",
    "count_view": 0
  },
  {
    "link_thumb": "https://live.staticflickr.com/65535/48070978788_6cb8a8dfde_n.jpg",
    "id_album": "-2023669388",
    "description": "MonogatariSeries_724963",
    "title": "MonogatariSeries_724963",
    "link_img": "https://live.staticflickr.com/65535/48070978788_a4b6863e93_o.jpg",
    "id_image": "MonogatariSeries_724963",
    "count_view": 0
  },
  {
    "link_thumb": "https://live.staticflickr.com/65535/48070985253_2b50f0c60e_n.jpg",
    "id_album": "-2023669388",
    "description": "MonogatariSeries_73120",
    "title": "MonogatariSeries_73120",
    "link_img": "https://live.staticflickr.com/65535/48070985253_06627c71d9_o.jpg",
    "id_image": "MonogatariSeries_73120",
    "count_view": 0
  },
  {
    "link_thumb": "https://live.staticflickr.com/65535/48071043717_f28f5ac7c1_n.jpg",
    "id_album": "-2023669388",
    "description": "MonogatariSeries_737146",
    "title": "MonogatariSeries_737146",
    "link_img": "https://live.staticflickr.com/65535/48071043717_24d2f7b011_o.jpg",
    "id_image": "MonogatariSeries_737146",
    "count_view": 0
  },
  {
    "link_thumb": "https://live.staticflickr.com/65535/48070937826_ba8f20f30e_n.jpg",
    "id_album": "-2023669388",
    "description": "MonogatariSeries_742113",
    "title": "MonogatariSeries_742113",
    "link_img": "https://live.staticflickr.com/65535/48070937826_2437f0de2b_o.jpg",
    "id_image": "MonogatariSeries_742113",
    "count_view": 0
  },
  {
    "link_thumb": "https://live.staticflickr.com/65535/48070991323_5ae3a453c6_n.jpg",
    "id_album": "-2023669388",
    "description": "MonogatariSeries_742137",
    "title": "MonogatariSeries_742137",
    "link_img": "https://live.staticflickr.com/65535/48070991323_f223338f22_o.jpg",
    "id_image": "MonogatariSeries_742137",
    "count_view": 0
  },
  {
    "link_thumb": "https://live.staticflickr.com/65535/48070942236_6a6e7815be_n.jpg",
    "id_album": "-2023669388",
    "description": "MonogatariSeries_742140",
    "title": "MonogatariSeries_742140",
    "link_img": "https://live.staticflickr.com/65535/48070942236_457df1454a_o.jpg",
    "id_image": "MonogatariSeries_742140",
    "count_view": 0
  },
  {
    "link_thumb": "https://live.staticflickr.com/65535/48070999743_c19e4eeb58_n.jpg",
    "id_album": "-2023669388",
    "description": "MonogatariSeries_742319",
    "title": "MonogatariSeries_742319",
    "link_img": "https://live.staticflickr.com/65535/48070999743_4043854857_o.jpg",
    "id_image": "MonogatariSeries_742319",
    "count_view": 0
  },
  {
    "link_thumb": "https://live.staticflickr.com/65535/48071057957_c098d6b279_n.jpg",
    "id_album": "-2023669388",
    "description": "MonogatariSeries_746297",
    "title": "MonogatariSeries_746297",
    "link_img": "https://live.staticflickr.com/65535/48071057957_c8253de4f8_o.jpg",
    "id_image": "MonogatariSeries_746297",
    "count_view": 0
  },
  {
    "link_thumb": "https://live.staticflickr.com/65535/48071108877_d20cedf469_n.jpg",
    "id_album": "-2023669388",
    "description": "MonogatariSeries_775908",
    "title": "MonogatariSeries_775908",
    "link_img": "https://live.staticflickr.com/65535/48071108877_bc810737bf_o.jpg",
    "id_image": "MonogatariSeries_775908",
    "count_view": 0
  },
  {
    "link_thumb": "https://live.staticflickr.com/65535/48071109117_4ed8717eec_n.jpg",
    "id_album": "-2023669388",
    "description": "MonogatariSeries_775910",
    "title": "MonogatariSeries_775910",
    "link_img": "https://live.staticflickr.com/65535/48071109117_4384035975_o.jpg",
    "id_image": "MonogatariSeries_775910",
    "count_view": 0
  },
  {
    "link_thumb": "https://live.staticflickr.com/65535/48071054763_20b05850a4_n.jpg",
    "id_album": "-2023669388",
    "description": "MonogatariSeries_790634",
    "title": "MonogatariSeries_790634",
    "link_img": "https://live.staticflickr.com/65535/48071054763_fc189dc3ae_o.jpg",
    "id_image": "MonogatariSeries_790634",
    "count_view": 0
  },
  {
    "link_thumb": "https://live.staticflickr.com/65535/48071032646_9ba49b4b91_n.jpg",
    "id_album": "-2023669388",
    "description": "MonogatariSeries_826634",
    "title": "MonogatariSeries_826634",
    "link_img": "https://live.staticflickr.com/65535/48071032646_3456e01a7d_o.jpg",
    "id_image": "MonogatariSeries_826634",
    "count_view": 0
  },
  {
    "link_thumb": "https://live.staticflickr.com/65535/48071034081_4035aa4046_n.jpg",
    "id_album": "-2023669388",
    "description": "MonogatariSeries_826643",
    "title": "MonogatariSeries_826643",
    "link_img": "https://live.staticflickr.com/65535/48071034081_9ff6265731_o.jpg",
    "id_image": "MonogatariSeries_826643",
    "count_view": 0
  },
  {
    "link_thumb": "https://live.staticflickr.com/65535/48071148417_2b4bd202fa_n.jpg",
    "id_album": "-2023669388",
    "description": "MonogatariSeries_826682",
    "title": "MonogatariSeries_826682",
    "link_img": "https://live.staticflickr.com/65535/48071148417_58474ebcf3_o.jpg",
    "id_image": "MonogatariSeries_826682",
    "count_view": 0
  },
  {
    "link_thumb": "https://live.staticflickr.com/65535/48071149267_eb0d000eee_n.jpg",
    "id_album": "-2023669388",
    "description": "MonogatariSeries_826687",
    "title": "MonogatariSeries_826687",
    "link_img": "https://live.staticflickr.com/65535/48071149267_52c76342e0_o.jpg",
    "id_image": "MonogatariSeries_826687",
    "count_view": 0
  },
  {
    "link_thumb": "https://live.staticflickr.com/65535/48071122188_b188bc8d1d_n.jpg",
    "id_album": "-2023669388",
    "description": "MonogatariSeries_826877",
    "title": "MonogatariSeries_826877",
    "link_img": "https://live.staticflickr.com/65535/48071122188_067bf396a7_o.jpg",
    "id_image": "MonogatariSeries_826877",
    "count_view": 0
  },
  {
    "link_thumb": "https://live.staticflickr.com/65535/48071149293_5b7c628c23_n.jpg",
    "id_album": "-2023669388",
    "description": "MonogatariSeries_827006",
    "title": "MonogatariSeries_827006",
    "link_img": "https://live.staticflickr.com/65535/48071149293_0905cd3a09_o.jpg",
    "id_image": "MonogatariSeries_827006",
    "count_view": 0
  },
  {
    "link_thumb": "https://live.staticflickr.com/65535/48071213622_2dc2aaa415_n.jpg",
    "id_album": "-2023669388",
    "description": "MonogatariSeries_827032",
    "title": "MonogatariSeries_827032",
    "link_img": "https://live.staticflickr.com/65535/48071213622_914370d8a2_o.jpg",
    "id_image": "MonogatariSeries_827032",
    "count_view": 0
  },
  {
    "link_thumb": "https://live.staticflickr.com/65535/48071242767_f14d352691_n.jpg",
    "id_album": "-2023669388",
    "description": "MonogatariSeries_827175",
    "title": "MonogatariSeries_827175",
    "link_img": "https://live.staticflickr.com/65535/48071242767_05a7839ef5_o.jpg",
    "id_image": "MonogatariSeries_827175",
    "count_view": 0
  },
  {
    "link_thumb": "https://live.staticflickr.com/65535/48071213968_1b6c1b8139_n.jpg",
    "id_album": "-2023669388",
    "description": "MonogatariSeries_850782",
    "title": "MonogatariSeries_850782",
    "link_img": "https://live.staticflickr.com/65535/48071213968_88bc4b869b_o.jpg",
    "id_image": "MonogatariSeries_850782",
    "count_view": 0
  },
  {
    "link_thumb": "https://live.staticflickr.com/65535/48071232233_8d0a78764f_n.jpg",
    "id_album": "-2023669388",
    "description": "MonogatariSeries_913735",
    "title": "MonogatariSeries_913735",
    "link_img": "https://live.staticflickr.com/65535/48071232233_74528cb28d_o.jpg",
    "id_image": "MonogatariSeries_913735",
    "count_view": 0
  }
]