[
  {
    "link_thumb": "https://live.staticflickr.com/65535/48047565563_3683591f9c_n.jpg",
    "id_album": "-208186281",
    "description": "KantaiCollection_858355",
    "title": "KantaiCollection_858355",
    "link_img": "https://live.staticflickr.com/65535/48047565563_2d75c50780_o.jpg",
    "id_image": "KantaiCollection_858355",
    "count_view": 0
  },
  {
    "link_thumb": "https://live.staticflickr.com/65535/48047629267_3402bc372f_n.jpg",
    "id_album": "-208186281",
    "description": "KantaiCollection_863937",
    "title": "KantaiCollection_863937",
    "link_img": "https://live.staticflickr.com/65535/48047629267_ec210e63ee_o.jpg",
    "id_image": "KantaiCollection_863937",
    "count_view": 0
  }
]