[
  {
    "link_thumb": "https://live.staticflickr.com/65535/51549304209_e6bdd55c25_n.jpg",
    "id_album": "-316663319",
    "description": "ANIME_PIC_f8fe3eee10167ff03ff9b8dab2988b02,[Girl],[isGirlAnime],[isCuteAnime],[isGirlsLoliAnime]",
    "title": "ANIME_PIC_f8fe3eee10167ff03ff9b8dab2988b02",
    "link_img": "https://live.staticflickr.com/65535/51549304209_a6d7aa9e24_o.jpg",
    "id_image": "ANIME_PIC_f8fe3eee10167ff03ff9b8dab2988b02",
    "count_view": 0
  },
  {
    "link_thumb": "https://live.staticflickr.com/65535/51548816263_0c99d4a81d_n.jpg",
    "id_album": "-316663319",
    "description": "ANIME_PIC_f8ffe5b3b27ff8e608efd58b9d835bbb,[Girl],[isGirlAnime],[isCuteAnime]",
    "title": "ANIME_PIC_f8ffe5b3b27ff8e608efd58b9d835bbb",
    "link_img": "https://live.staticflickr.com/65535/51548816263_116094f02b_o.png",
    "id_image": "ANIME_PIC_f8ffe5b3b27ff8e608efd58b9d835bbb",
    "count_view": 0
  },
  {
    "link_thumb": "https://live.staticflickr.com/65535/51547778262_ea301b6e01_n.jpg",
    "id_album": "-316663319",
    "description": "ANIME_PIC_f90285dfeec3fdec741b4984b301c046,[Girl],[isGirlAnime],[isCuteAnime],[isGirlFaceMasksAnime],[isGirlsHatsHoodieAnime],[isGirlsLoliAnime]",
    "title": "ANIME_PIC_f90285dfeec3fdec741b4984b301c046",
    "link_img": "https://live.staticflickr.com/65535/51547778262_2b207ea98a_o.jpg",
    "id_image": "ANIME_PIC_f90285dfeec3fdec741b4984b301c046",
    "count_view": 0
  },
  {
    "link_thumb": "https://live.staticflickr.com/65535/51549305354_6e69e92e0e_n.jpg",
    "id_album": "-316663319",
    "description": "ANIME_PIC_f90986799f0646105ba09e41c9a064bd,[Girl],[isGirlAnime],[isCuteAnime],[isGirlsHatsHoodieAnime],[isGirlsLoliAnime]",
    "title": "ANIME_PIC_f90986799f0646105ba09e41c9a064bd",
    "link_img": "https://live.staticflickr.com/65535/51549305354_a6a21e383e_o.jpg",
    "id_image": "ANIME_PIC_f90986799f0646105ba09e41c9a064bd",
    "count_view": 0
  },
  {
    "link_thumb": "https://live.staticflickr.com/65535/51548817233_7f5f526ee8_n.jpg",
    "id_album": "-316663319",
    "description": "ANIME_PIC_f90a5ca4716f7c659e800708a0c9e977,[Girl],[isGirlAnime],[isCuteAnime],[isGirlEarsNekoAnime],[isGirlsHatsHoodieAnime],[isGirlsLoliAnime]",
    "title": "ANIME_PIC_f90a5ca4716f7c659e800708a0c9e977",
    "link_img": "https://live.staticflickr.com/65535/51548817233_4e115bd99c_o.png",
    "id_image": "ANIME_PIC_f90a5ca4716f7c659e800708a0c9e977",
    "count_view": 0
  },
  {
    "link_thumb": "https://live.staticflickr.com/65535/51549305844_30c54284ee_n.jpg",
    "id_album": "-316663319",
    "description": "ANIME_PIC_f90a93ef84f2345d9d575b3b35da3dae,[Girl],[isGirlAnime],[isCuteAnime]",
    "title": "ANIME_PIC_f90a93ef84f2345d9d575b3b35da3dae",
    "link_img": "https://live.staticflickr.com/65535/51549305844_44f9055b72_o.png",
    "id_image": "ANIME_PIC_f90a93ef84f2345d9d575b3b35da3dae",
    "count_view": 0
  },
  {
    "link_thumb": "https://live.staticflickr.com/65535/51549499390_235d135fdc_n.jpg",
    "id_album": "-316663319",
    "description": "ANIME_PIC_f90b40f75c47dd2a0fc044aa2f638998,[Girl],[isGirlAnime],[isCuteAnime],[isGirlsHatsHoodieAnime]",
    "title": "ANIME_PIC_f90b40f75c47dd2a0fc044aa2f638998",
    "link_img": "https://live.staticflickr.com/65535/51549499390_535518150d_o.jpg",
    "id_image": "ANIME_PIC_f90b40f75c47dd2a0fc044aa2f638998",
    "count_view": 0
  },
  {
    "link_thumb": "https://live.staticflickr.com/65535/51548818073_553f525acc_n.jpg",
    "id_album": "-316663319",
    "description": "ANIME_PIC_f90b8d244154d81213bc5f5f2c86d69d,[Girl],[isGirlAnime],[isCuteAnime],[isSadAnimeGirl],[isSadAnime]",
    "title": "ANIME_PIC_f90b8d244154d81213bc5f5f2c86d69d",
    "link_img": "https://live.staticflickr.com/65535/51548818073_02bdb7a1ca_o.png",
    "id_image": "ANIME_PIC_f90b8d244154d81213bc5f5f2c86d69d",
    "count_view": 0
  },
  {
    "link_thumb": "https://live.staticflickr.com/65535/51549499860_011ff5156d_n.jpg",
    "id_album": "-316663319",
    "description": "ANIME_PIC_f90fa3ef7a9bf67b23833873f4119ccd,[Girl],[isGirlAnime],[isCuteAnime],[isGirlsLoliAnime]",
    "title": "ANIME_PIC_f90fa3ef7a9bf67b23833873f4119ccd",
    "link_img": "https://live.staticflickr.com/65535/51549499860_9189217f46_o.jpg",
    "id_image": "ANIME_PIC_f90fa3ef7a9bf67b23833873f4119ccd",
    "count_view": 0
  },
  {
    "link_thumb": "https://live.staticflickr.com/65535/51548580156_c2468a9266_n.jpg",
    "id_album": "-316663319",
    "description": "ANIME_PIC_f9101ee66240cf39fd24ea61fe67e16f,[Girl],[isGirlAnime],[isCuteAnime],[isGirlsLoliAnime]",
    "title": "ANIME_PIC_f9101ee66240cf39fd24ea61fe67e16f",
    "link_img": "https://live.staticflickr.com/65535/51548580156_867c8110c4_o.png",
    "id_image": "ANIME_PIC_f9101ee66240cf39fd24ea61fe67e16f",
    "count_view": 0
  },
  {
    "link_thumb": "https://live.staticflickr.com/65535/51549500435_946ca98f43_n.jpg",
    "id_album": "-316663319",
    "description": "ANIME_PIC_f9119aebfa00b270e51a0454003ef55a,[Girl],[isGirlAnime],[isCuteAnime],[isGirlsHatsHoodieAnime],[isGirlsLoliAnime]",
    "title": "ANIME_PIC_f9119aebfa00b270e51a0454003ef55a",
    "link_img": "https://live.staticflickr.com/65535/51549500435_873664cf4d_o.png",
    "id_image": "ANIME_PIC_f9119aebfa00b270e51a0454003ef55a",
    "count_view": 0
  },
  {
    "link_thumb": "https://live.staticflickr.com/65535/51549500805_5950260a92_n.jpg",
    "id_album": "-316663319",
    "description": "ANIME_PIC_f915e1f4dce223d3253d64d58a7cd692,[Girl],[isGirlAnime],[isCuteAnime],[isGirlsLoliAnime]",
    "title": "ANIME_PIC_f915e1f4dce223d3253d64d58a7cd692",
    "link_img": "https://live.staticflickr.com/65535/51549500805_2bbdb46ce9_o.jpg",
    "id_image": "ANIME_PIC_f915e1f4dce223d3253d64d58a7cd692",
    "count_view": 0
  },
  {
    "link_thumb": "https://live.staticflickr.com/65535/51548581226_6f12b578a7_n.jpg",
    "id_album": "-316663319",
    "description": "ANIME_PIC_f9162d1ebef31afb0b66d83be6024b18,[Girl],[isGirlAnime],[isCuteAnime]",
    "title": "ANIME_PIC_f9162d1ebef31afb0b66d83be6024b18",
    "link_img": "https://live.staticflickr.com/65535/51548581226_9503d372a7_o.png",
    "id_image": "ANIME_PIC_f9162d1ebef31afb0b66d83be6024b18",
    "count_view": 0
  },
  {
    "link_thumb": "https://live.staticflickr.com/65535/51549501415_0a3d852a46_n.jpg",
    "id_album": "-316663319",
    "description": "ANIME_PIC_f91630ab72f29650ebe916026c590960,[Girl],[isGirlAnime],[isCuteAnime],[isGirlsLoliAnime],[isSadAnimeGirl],[isSadAnime]",
    "title": "ANIME_PIC_f91630ab72f29650ebe916026c590960",
    "link_img": "https://live.staticflickr.com/65535/51549501415_cb94111ea0_o.jpg",
    "id_image": "ANIME_PIC_f91630ab72f29650ebe916026c590960",
    "count_view": 0
  },
  {
    "link_thumb": "https://live.staticflickr.com/65535/51549501635_d0db36b0de_n.jpg",
    "id_album": "-316663319",
    "description": "ANIME_PIC_f91b5448aeef7a900784d7001f1bf950,[Girl],[isGirlAnime],[isCuteAnime],[isGirlsLoliAnime],[isSadAnimeGirl],[isSadAnime]",
    "title": "ANIME_PIC_f91b5448aeef7a900784d7001f1bf950",
    "link_img": "https://live.staticflickr.com/65535/51549501635_32564c7b9a_o.jpg",
    "id_image": "ANIME_PIC_f91b5448aeef7a900784d7001f1bf950",
    "count_view": 0
  },
  {
    "link_thumb": "https://live.staticflickr.com/65535/51547781787_2c92ab0cbb_n.jpg",
    "id_album": "-316663319",
    "description": "ANIME_PIC_f91cb4c7dd2630d190f2895ea472b81f,[Girl],[isGirlAnime],[isCuteAnime],[isBlackAnime],[isSadAnimeGirl],[isSadAnime]",
    "title": "ANIME_PIC_f91cb4c7dd2630d190f2895ea472b81f",
    "link_img": "https://live.staticflickr.com/65535/51547781787_725f1edfee_o.jpg",
    "id_image": "ANIME_PIC_f91cb4c7dd2630d190f2895ea472b81f",
    "count_view": 0
  },
  {
    "link_thumb": "https://live.staticflickr.com/65535/51548582341_1bb63dc8b8_n.jpg",
    "id_album": "-316663319",
    "description": "ANIME_PIC_f91d9ceb7e3d08d0b032713f9e6f05cd,[Girl],[isGirlAnime],[isCuteAnime],[isSadAnimeGirl],[isSadAnime]",
    "title": "ANIME_PIC_f91d9ceb7e3d08d0b032713f9e6f05cd",
    "link_img": "https://live.staticflickr.com/65535/51548582341_27f78f6f50_o.jpg",
    "id_image": "ANIME_PIC_f91d9ceb7e3d08d0b032713f9e6f05cd",
    "count_view": 0
  },
  {
    "link_thumb": "https://live.staticflickr.com/65535/51552948953_e11bd8a01b_n.jpg",
    "id_album": "-316663319",
    "description": "ANIME_PIC_f9222a84b93f2f7031c59dd2e00af934,[Girl],[isGirlAnime],[isCuteAnime],[isGirlsLoliAnime],[isGirlsSharpCanineToothAnime]",
    "title": "ANIME_PIC_f9222a84b93f2f7031c59dd2e00af934",
    "link_img": "https://live.staticflickr.com/65535/51552948953_0d7a046a6f_o.jpg",
    "id_image": "ANIME_PIC_f9222a84b93f2f7031c59dd2e00af934",
    "count_view": 0
  },
  {
    "link_thumb": "https://live.staticflickr.com/65535/51549502560_ba0bf9f176_n.jpg",
    "id_album": "-316663319",
    "description": "ANIME_PIC_f92731ee56026402d863f5bafe76e232,[Girl],[isGirlAnime],[isCuteAnime]",
    "title": "ANIME_PIC_f92731ee56026402d863f5bafe76e232",
    "link_img": "https://live.staticflickr.com/65535/51549502560_d5eeaed1e3_o.jpg",
    "id_image": "ANIME_PIC_f92731ee56026402d863f5bafe76e232",
    "count_view": 0
  },
  {
    "link_thumb": "https://live.staticflickr.com/65535/51548583251_5a6ecd5e3b_n.jpg",
    "id_album": "-316663319",
    "description": "ANIME_PIC_f92ad7eba776c85a51e307807b4cbd8e,[Girl],[isGirlAnime],[isCuteAnime]",
    "title": "ANIME_PIC_f92ad7eba776c85a51e307807b4cbd8e",
    "link_img": "https://live.staticflickr.com/65535/51548583251_f17255d3d5_o.png",
    "id_image": "ANIME_PIC_f92ad7eba776c85a51e307807b4cbd8e",
    "count_view": 0
  },
  {
    "link_thumb": "https://live.staticflickr.com/65535/51547783282_304c717c20_n.jpg",
    "id_album": "-316663319",
    "description": "ANIME_PIC_f92c6238314472c52b3785bc36a066f6,[Girl],[isGirlAnime],[isCuteAnime],[isGirlsLoliAnime]",
    "title": "ANIME_PIC_f92c6238314472c52b3785bc36a066f6",
    "link_img": "https://live.staticflickr.com/65535/51547783282_8abf332e70_o.jpg",
    "id_image": "ANIME_PIC_f92c6238314472c52b3785bc36a066f6",
    "count_view": 0
  },
  {
    "link_thumb": "https://live.staticflickr.com/65535/51548584221_8489ef2345_n.jpg",
    "id_album": "-316663319",
    "description": "ANIME_PIC_f92f9e4be5f49bfe0858c6f1d0f4e211,[Girl],[isGirlAnime],[isCuteAnime],[isGirlsLoliAnime],[isSadAnimeGirl],[isSadAnime]",
    "title": "ANIME_PIC_f92f9e4be5f49bfe0858c6f1d0f4e211",
    "link_img": "https://live.staticflickr.com/65535/51548584221_5265d50c97_o.png",
    "id_image": "ANIME_PIC_f92f9e4be5f49bfe0858c6f1d0f4e211",
    "count_view": 0
  },
  {
    "link_thumb": "https://live.staticflickr.com/65535/51548584751_4f7b5ee8e3_n.jpg",
    "id_album": "-316663319",
    "description": "ANIME_PIC_f9336956e1cbce92944272b6cb84173f,[Girl],[isGirlAnime],[isCuteAnime],[isSadAnimeGirl],[isSadAnime]",
    "title": "ANIME_PIC_f9336956e1cbce92944272b6cb84173f",
    "link_img": "https://live.staticflickr.com/65535/51548584751_e3992092c9_o.png",
    "id_image": "ANIME_PIC_f9336956e1cbce92944272b6cb84173f",
    "count_view": 0
  },
  {
    "link_thumb": "https://live.staticflickr.com/65535/51548823608_6e739d74bb_n.jpg",
    "id_album": "-316663319",
    "description": "ANIME_PIC_f93afc47eb3feef741de8d68cfb5aa73,[Girl],[isGirlAnime],[isCuteAnime]",
    "title": "ANIME_PIC_f93afc47eb3feef741de8d68cfb5aa73",
    "link_img": "https://live.staticflickr.com/65535/51548823608_059a8ae2b5_o.jpg",
    "id_image": "ANIME_PIC_f93afc47eb3feef741de8d68cfb5aa73",
    "count_view": 0
  },
  {
    "link_thumb": "https://live.staticflickr.com/65535/51548823963_f6ce5a9e9b_n.jpg",
    "id_album": "-316663319",
    "description": "ANIME_PIC_f93b5901b352a7a04ddfae5771f658ca,[Girl],[isGirlAnime],[isCuteAnime],[isGirlsHatsHoodieAnime],[isGirlsLoliAnime]",
    "title": "ANIME_PIC_f93b5901b352a7a04ddfae5771f658ca",
    "link_img": "https://live.staticflickr.com/65535/51548823963_b9aa2080e1_o.jpg",
    "id_image": "ANIME_PIC_f93b5901b352a7a04ddfae5771f658ca",
    "count_view": 0
  },
  {
    "link_thumb": "https://live.staticflickr.com/65535/51549505310_9e3987bd6d_n.jpg",
    "id_album": "-316663319",
    "description": "ANIME_PIC_f93dd0a121c2a5e5b99139757140855d,[Girl],[isGirlAnime],[isCuteAnime],[isGirlsLoliAnime]",
    "title": "ANIME_PIC_f93dd0a121c2a5e5b99139757140855d",
    "link_img": "https://live.staticflickr.com/65535/51549505310_d64d1f57b5_o.jpg",
    "id_image": "ANIME_PIC_f93dd0a121c2a5e5b99139757140855d",
    "count_view": 0
  },
  {
    "link_thumb": "https://live.staticflickr.com/65535/51547785612_95c1f2fefa_n.jpg",
    "id_album": "-316663319",
    "description": "ANIME_PIC_f93e32440af3477ed605cd4e0d0d51f0,[Girl],[isGirlAnime],[isCuteAnime],[isGirlsLoliAnime]",
    "title": "ANIME_PIC_f93e32440af3477ed605cd4e0d0d51f0",
    "link_img": "https://live.staticflickr.com/65535/51547785612_d9b22d833c_o.jpg",
    "id_image": "ANIME_PIC_f93e32440af3477ed605cd4e0d0d51f0",
    "count_view": 0
  },
  {
    "link_thumb": "https://live.staticflickr.com/65535/51549312864_2cf90ed0c2_n.jpg",
    "id_album": "-316663319",
    "description": "ANIME_PIC_f93e477df8fe0494e22045a396ff26cb,[Girl],[isGirlAnime],[isCuteAnime],[isSadAnimeGirl],[isSadAnime]",
    "title": "ANIME_PIC_f93e477df8fe0494e22045a396ff26cb",
    "link_img": "https://live.staticflickr.com/65535/51549312864_c88809b23c_o.jpg",
    "id_image": "ANIME_PIC_f93e477df8fe0494e22045a396ff26cb",
    "count_view": 0
  },
  {
    "link_thumb": "https://live.staticflickr.com/65535/51547786082_d10ccd8905_n.jpg",
    "id_album": "-316663319",
    "description": "ANIME_PIC_f93e704db9eb7a2abd05b4d2aae857fa,[Girl],[isGirlAnime],[isCuteAnime],[isGirlsHatsHoodieAnime],[isGirlsLoliAnime]",
    "title": "ANIME_PIC_f93e704db9eb7a2abd05b4d2aae857fa",
    "link_img": "https://live.staticflickr.com/65535/51547786082_86bcf4bf6a_o.jpg",
    "id_image": "ANIME_PIC_f93e704db9eb7a2abd05b4d2aae857fa",
    "count_view": 0
  },
  {
    "link_thumb": "https://live.staticflickr.com/65535/51548586846_599eeb68fd_n.jpg",
    "id_album": "-316663319",
    "description": "ANIME_PIC_f93f28ee57c0b6f738a54b7c71dbbda7,[Girl],[isGirlAnime],[isCuteAnime],[isGirlsLoliAnime],[isSadAnimeGirl],[isSadAnime]",
    "title": "ANIME_PIC_f93f28ee57c0b6f738a54b7c71dbbda7",
    "link_img": "https://live.staticflickr.com/65535/51548586846_e36e24529f_o.jpg",
    "id_image": "ANIME_PIC_f93f28ee57c0b6f738a54b7c71dbbda7",
    "count_view": 0
  },
  {
    "link_thumb": "https://live.staticflickr.com/65535/51548587206_96469a81df_n.jpg",
    "id_album": "-316663319",
    "description": "ANIME_PIC_f94252a9098883bfa65135f6f61e558b,[Girl],[isGirlAnime],[isCuteAnime],[isGirlsLoliAnime]",
    "title": "ANIME_PIC_f94252a9098883bfa65135f6f61e558b",
    "link_img": "https://live.staticflickr.com/65535/51548587206_449aa2ae56_o.jpg",
    "id_image": "ANIME_PIC_f94252a9098883bfa65135f6f61e558b",
    "count_view": 0
  },
  {
    "link_thumb": "https://live.staticflickr.com/65535/51549506765_10f5e075e5_n.jpg",
    "id_album": "-316663319",
    "description": "ANIME_PIC_f946a5f6cbee410951a529e037286e35,[Girl],[isGirlAnime],[isCuteAnime],[isGirlsLoliAnime]",
    "title": "ANIME_PIC_f946a5f6cbee410951a529e037286e35",
    "link_img": "https://live.staticflickr.com/65535/51549506765_c9ac26c6ac_o.png",
    "id_image": "ANIME_PIC_f946a5f6cbee410951a529e037286e35",
    "count_view": 0
  },
  {
    "link_thumb": "https://live.staticflickr.com/65535/51547787327_32805e7ddf_n.jpg",
    "id_album": "-316663319",
    "description": "ANIME_PIC_f94dd097bcdce9390111d4868fe893fe,[Girl],[isGirlAnime],[isCuteAnime],[isGirlsHatsHoodieAnime],[isGirlsLoliAnime]",
    "title": "ANIME_PIC_f94dd097bcdce9390111d4868fe893fe",
    "link_img": "https://live.staticflickr.com/65535/51547787327_ff625a55ac_o.jpg",
    "id_image": "ANIME_PIC_f94dd097bcdce9390111d4868fe893fe",
    "count_view": 0
  },
  {
    "link_thumb": "https://live.staticflickr.com/65535/51548588121_9dd4e7e64a_n.jpg",
    "id_album": "-316663319",
    "description": "ANIME_PIC_f9564383f36a1aaa653b18e01ce5d74f,[Girl],[isGirlAnime],[isCuteAnime],[isGirlFaceMasksAnime],[isGirlsLoliAnime],[isSadAnimeGirl],[isSadAnime]",
    "title": "ANIME_PIC_f9564383f36a1aaa653b18e01ce5d74f",
    "link_img": "https://live.staticflickr.com/65535/51548588121_66cd97dc89_o.png",
    "id_image": "ANIME_PIC_f9564383f36a1aaa653b18e01ce5d74f",
    "count_view": 0
  },
  {
    "link_thumb": "https://live.staticflickr.com/65535/51548826453_fe445510c7_n.jpg",
    "id_album": "-316663319",
    "description": "ANIME_PIC_f95d9f32f01771d746c8bc966aa49d3d,[Girl],[isGirlAnime],[isCuteAnime],[isGirlEarsNekoAnime],[isGirlsLoliAnime]",
    "title": "ANIME_PIC_f95d9f32f01771d746c8bc966aa49d3d",
    "link_img": "https://live.staticflickr.com/65535/51548826453_99d94e67d4_o.png",
    "id_image": "ANIME_PIC_f95d9f32f01771d746c8bc966aa49d3d",
    "count_view": 0
  },
  {
    "link_thumb": "https://live.staticflickr.com/65535/51549315174_abe3af2bd7_n.jpg",
    "id_album": "-316663319",
    "description": "ANIME_PIC_f95ec8d8fa7b7f4da50c27fd51a75723,[Girl],[isGirlAnime],[isCuteAnime],[isGirlsLoliAnime]",
    "title": "ANIME_PIC_f95ec8d8fa7b7f4da50c27fd51a75723",
    "link_img": "https://live.staticflickr.com/65535/51549315174_d50918eb87_o.jpg",
    "id_image": "ANIME_PIC_f95ec8d8fa7b7f4da50c27fd51a75723",
    "count_view": 0
  },
  {
    "link_thumb": "https://live.staticflickr.com/65535/51547788577_25947f37f6_n.jpg",
    "id_album": "-316663319",
    "description": "ANIME_PIC_f961fd8d9aa924c83037c641cace0b4c,[Girl],[isBoyAnime],[isCoupleAnime],[isGirlAnime],[isCuteAnime]",
    "title": "ANIME_PIC_f961fd8d9aa924c83037c641cace0b4c",
    "link_img": "https://live.staticflickr.com/65535/51547788577_6dfdd5cdb3_o.jpg",
    "id_image": "ANIME_PIC_f961fd8d9aa924c83037c641cace0b4c",
    "count_view": 0
  },
  {
    "link_thumb": "https://live.staticflickr.com/65535/51548827558_f2009b83f2_n.jpg",
    "id_album": "-316663319",
    "description": "ANIME_PIC_f964d0a7d4880b87633c0ece70bb6e44,[Girl],[isGirlAnime],[isCuteAnime],[isGirlsLoliAnime]",
    "title": "ANIME_PIC_f964d0a7d4880b87633c0ece70bb6e44",
    "link_img": "https://live.staticflickr.com/65535/51548827558_69b69198bc_o.jpg",
    "id_image": "ANIME_PIC_f964d0a7d4880b87633c0ece70bb6e44",
    "count_view": 0
  },
  {
    "link_thumb": "https://live.staticflickr.com/65535/51548827923_3c64612619_n.jpg",
    "id_album": "-316663319",
    "description": "ANIME_PIC_f968bdc9b5ed8bdf978713500070f3f1,[Girl],[isGirlAnime],[isCuteAnime],[isGirlEarsNekoAnime],[isSadAnimeGirl],[isSadAnime]",
    "title": "ANIME_PIC_f968bdc9b5ed8bdf978713500070f3f1",
    "link_img": "https://live.staticflickr.com/65535/51548827923_8e295d7b94_o.jpg",
    "id_image": "ANIME_PIC_f968bdc9b5ed8bdf978713500070f3f1",
    "count_view": 0
  },
  {
    "link_thumb": "https://live.staticflickr.com/65535/51548589961_6008c06dbd_n.jpg",
    "id_album": "-316663319",
    "description": "ANIME_PIC_f969cc831d408ce09ea8168d0dfa6074,[Girl],[isGirlAnime],[isCuteAnime]",
    "title": "ANIME_PIC_f969cc831d408ce09ea8168d0dfa6074",
    "link_img": "https://live.staticflickr.com/65535/51548589961_27992471ee_o.jpg",
    "id_image": "ANIME_PIC_f969cc831d408ce09ea8168d0dfa6074",
    "count_view": 0
  },
  {
    "link_thumb": "https://live.staticflickr.com/65535/51549509570_5634e1a02b_n.jpg",
    "id_album": "-316663319",
    "description": "ANIME_PIC_f969efaef16b1a860bff387e36d26416,[Girl],[isGirlAnime],[isCuteAnime]",
    "title": "ANIME_PIC_f969efaef16b1a860bff387e36d26416",
    "link_img": "https://live.staticflickr.com/65535/51549509570_28dc3bc051_o.png",
    "id_image": "ANIME_PIC_f969efaef16b1a860bff387e36d26416",
    "count_view": 0
  },
  {
    "link_thumb": "https://live.staticflickr.com/65535/51548590446_f73af17f92_n.jpg",
    "id_album": "-316663319",
    "description": "ANIME_PIC_f96d79487d31ba606038f4fc4b9464dc,[Girl],[isGirlAnime],[isCuteAnime]",
    "title": "ANIME_PIC_f96d79487d31ba606038f4fc4b9464dc",
    "link_img": "https://live.staticflickr.com/65535/51548590446_b2bc876cd2_o.jpg",
    "id_image": "ANIME_PIC_f96d79487d31ba606038f4fc4b9464dc",
    "count_view": 0
  },
  {
    "link_thumb": "https://live.staticflickr.com/65535/51549316989_248735f3e6_n.jpg",
    "id_album": "-316663319",
    "description": "ANIME_PIC_f96eb63473103ff49108cc1d426c413f,[Girl],[isGirlAnime],[isCuteAnime],[isGirlsLoliAnime]",
    "title": "ANIME_PIC_f96eb63473103ff49108cc1d426c413f",
    "link_img": "https://live.staticflickr.com/65535/51549316989_91eeee5f35_o.jpg",
    "id_image": "ANIME_PIC_f96eb63473103ff49108cc1d426c413f",
    "count_view": 0
  },
  {
    "link_thumb": "https://live.staticflickr.com/65535/51548590986_29e30e8bbb_n.jpg",
    "id_album": "-316663319",
    "description": "ANIME_PIC_f971eda0284822a943496f1823396b41,[Girl],[isGirlAnime],[isCuteAnime],[isGirlsLoliAnime]",
    "title": "ANIME_PIC_f971eda0284822a943496f1823396b41",
    "link_img": "https://live.staticflickr.com/65535/51548590986_6a75cb477c_o.jpg",
    "id_image": "ANIME_PIC_f971eda0284822a943496f1823396b41",
    "count_view": 0
  },
  {
    "link_thumb": "https://live.staticflickr.com/65535/51549317564_c8ccfe96f0_n.jpg",
    "id_album": "-316663319",
    "description": "ANIME_PIC_f9751a63a48aa6bc20706aa2cdefec30,[Girl],[isBoyAnime],[isGirlAnime],[isCuteAnime]",
    "title": "ANIME_PIC_f9751a63a48aa6bc20706aa2cdefec30",
    "link_img": "https://live.staticflickr.com/65535/51549317564_2a79e79f18_o.jpg",
    "id_image": "ANIME_PIC_f9751a63a48aa6bc20706aa2cdefec30",
    "count_view": 0
  },
  {
    "link_thumb": "https://live.staticflickr.com/65535/51549510895_67c02b4832_n.jpg",
    "id_album": "-316663319",
    "description": "ANIME_PIC_f9768bed4ee8463f7560318e70d1f3d9,[Girl],[isGirlAnime],[isCuteAnime],[isGirlEarsNekoAnime],[isGirlsLoliAnime]",
    "title": "ANIME_PIC_f9768bed4ee8463f7560318e70d1f3d9",
    "link_img": "https://live.staticflickr.com/65535/51549510895_66e0e22a40_o.png",
    "id_image": "ANIME_PIC_f9768bed4ee8463f7560318e70d1f3d9",
    "count_view": 0
  },
  {
    "link_thumb": "https://live.staticflickr.com/65535/51548830203_71edfcb672_n.jpg",
    "id_album": "-316663319",
    "description": "ANIME_PIC_f979bf61ffe2953e23198222a2eb5cbf,[Girl],[isGirlAnime],[isCuteAnime],[isGirlsHatsHoodieAnime],[isGirlsLoliAnime]",
    "title": "ANIME_PIC_f979bf61ffe2953e23198222a2eb5cbf",
    "link_img": "https://live.staticflickr.com/65535/51548830203_55c65014bc_o.png",
    "id_image": "ANIME_PIC_f979bf61ffe2953e23198222a2eb5cbf",
    "count_view": 0
  },
  {
    "link_thumb": "https://live.staticflickr.com/65535/51548592146_65baab8c8a_n.jpg",
    "id_album": "-316663319",
    "description": "ANIME_PIC_f983736fb0186d047f35ba2a181abfee,[Girl],[isBoyAnime],[isGirlAnime],[isCuteAnime],[isGirlsHatsHoodieAnime]",
    "title": "ANIME_PIC_f983736fb0186d047f35ba2a181abfee",
    "link_img": "https://live.staticflickr.com/65535/51548592146_5f1f60ef71_o.jpg",
    "id_image": "ANIME_PIC_f983736fb0186d047f35ba2a181abfee",
    "count_view": 0
  },
  {
    "link_thumb": "https://live.staticflickr.com/65535/51548592386_79653d3a83_n.jpg",
    "id_album": "-316663319",
    "description": "ANIME_PIC_f9844c8ac23215384d45fee803b8b9c3,[Girl],[isGirlAnime],[isCuteAnime]",
    "title": "ANIME_PIC_f9844c8ac23215384d45fee803b8b9c3",
    "link_img": "https://live.staticflickr.com/65535/51548592386_169f6f2533_o.jpg",
    "id_image": "ANIME_PIC_f9844c8ac23215384d45fee803b8b9c3",
    "count_view": 0
  },
  {
    "link_thumb": "https://live.staticflickr.com/65535/51549319059_d98e98159d_n.jpg",
    "id_album": "-316663319",
    "description": "ANIME_PIC_f9852c480f472f436925fbb4106c86f1,[Girl],[isGirlAnime],[isCuteAnime],[isGirlFaceMasksAnime],[isGirlsLoliAnime]",
    "title": "ANIME_PIC_f9852c480f472f436925fbb4106c86f1",
    "link_img": "https://live.staticflickr.com/65535/51549319059_48257d2847_o.png",
    "id_image": "ANIME_PIC_f9852c480f472f436925fbb4106c86f1",
    "count_view": 0
  },
  {
    "link_thumb": "https://live.staticflickr.com/65535/51549319434_38dddc9f7c_n.jpg",
    "id_album": "-316663319",
    "description": "ANIME_PIC_f985bd5b1e47a53ee2c3a6469c281f8c,[Girl],[isBoyAnime],[isCoupleAnime],[isGirlAnime],[isCuteAnime]",
    "title": "ANIME_PIC_f985bd5b1e47a53ee2c3a6469c281f8c",
    "link_img": "https://live.staticflickr.com/65535/51549319434_e3155fbcbd_o.jpg",
    "id_image": "ANIME_PIC_f985bd5b1e47a53ee2c3a6469c281f8c",
    "count_view": 0
  },
  {
    "link_thumb": "https://live.staticflickr.com/65535/51547792852_058b8a477c_n.jpg",
    "id_album": "-316663319",
    "description": "ANIME_PIC_f9880bf3ccfe8448d38c547c896ce07a,[Girl],[isGirlAnime],[isCuteAnime],[isGirlsLoliAnime]",
    "title": "ANIME_PIC_f9880bf3ccfe8448d38c547c896ce07a",
    "link_img": "https://live.staticflickr.com/65535/51547792852_45e8ea0283_o.png",
    "id_image": "ANIME_PIC_f9880bf3ccfe8448d38c547c896ce07a",
    "count_view": 0
  },
  {
    "link_thumb": "https://live.staticflickr.com/65535/51547793312_d3feca9814_n.jpg",
    "id_album": "-316663319",
    "description": "ANIME_PIC_f988753b09fbe9214bb139d2c701abd5,[Girl],[isGirlAnime],[isCuteAnime],[isGirlEarsNekoAnime]",
    "title": "ANIME_PIC_f988753b09fbe9214bb139d2c701abd5",
    "link_img": "https://live.staticflickr.com/65535/51547793312_62ee705e0d_o.png",
    "id_image": "ANIME_PIC_f988753b09fbe9214bb139d2c701abd5",
    "count_view": 0
  },
  {
    "link_thumb": "https://live.staticflickr.com/65535/51549320564_9c48afcae9_n.jpg",
    "id_album": "-316663319",
    "description": "ANIME_PIC_f988cf919ace126a6ef32a8f58adfda7,[Girl],[isGirlAnime],[isCuteAnime],[isGirlsLoliAnime]",
    "title": "ANIME_PIC_f988cf919ace126a6ef32a8f58adfda7",
    "link_img": "https://live.staticflickr.com/65535/51549320564_cf85da4037_o.jpg",
    "id_image": "ANIME_PIC_f988cf919ace126a6ef32a8f58adfda7",
    "count_view": 0
  },
  {
    "link_thumb": "https://live.staticflickr.com/65535/51549320779_5104f6f82b_n.jpg",
    "id_album": "-316663319",
    "description": "ANIME_PIC_f98f622038af56d6625da192ceccd35a,[Girl],[isGirlAnime],[isCuteAnime]",
    "title": "ANIME_PIC_f98f622038af56d6625da192ceccd35a",
    "link_img": "https://live.staticflickr.com/65535/51549320779_4a17bc2868_o.jpg",
    "id_image": "ANIME_PIC_f98f622038af56d6625da192ceccd35a",
    "count_view": 0
  },
  {
    "link_thumb": "https://live.staticflickr.com/65535/51547794437_a80183ee99_n.jpg",
    "id_album": "-316663319",
    "description": "ANIME_PIC_f99008b5dc2cb18a7398154c8125191a,[Girl],[isGirlAnime],[isCuteAnime],[isGirlsLoliAnime],[isSadAnimeGirl],[isSadAnime]",
    "title": "ANIME_PIC_f99008b5dc2cb18a7398154c8125191a",
    "link_img": "https://live.staticflickr.com/65535/51547794437_64dd972aa3_o.png",
    "id_image": "ANIME_PIC_f99008b5dc2cb18a7398154c8125191a",
    "count_view": 0
  },
  {
    "link_thumb": "https://live.staticflickr.com/65535/51547795037_695edf6dcd_n.jpg",
    "id_album": "-316663319",
    "description": "ANIME_PIC_f9922e4251b30d6956802046313f4bf2,[Girl],[isGirlAnime],[isCuteAnime],[isSadAnimeGirl],[isSadAnime]",
    "title": "ANIME_PIC_f9922e4251b30d6956802046313f4bf2",
    "link_img": "https://live.staticflickr.com/65535/51547795037_2eb31205fb_o.png",
    "id_image": "ANIME_PIC_f9922e4251b30d6956802046313f4bf2",
    "count_view": 0
  },
  {
    "link_thumb": "https://live.staticflickr.com/65535/51547795337_e7c25e19b3_n.jpg",
    "id_album": "-316663319",
    "description": "ANIME_PIC_f9927d4b9fae78c880aaa0c737044d50,[Girl],[isGirlAnime],[isCuteAnime],[isGirlEarsNekoAnime],[isGirlsLoliAnime]",
    "title": "ANIME_PIC_f9927d4b9fae78c880aaa0c737044d50",
    "link_img": "https://live.staticflickr.com/65535/51547795337_3a31654d39_o.jpg",
    "id_image": "ANIME_PIC_f9927d4b9fae78c880aaa0c737044d50",
    "count_view": 0
  },
  {
    "link_thumb": "https://live.staticflickr.com/65535/51549322319_82c348cd3d_n.jpg",
    "id_album": "-316663319",
    "description": "ANIME_PIC_f9970b7d8f7a615a5ef955c6fe56e375,[Girl],[isGirlAnime],[isCuteAnime],[isGirlsHatsHoodieAnime],[isGirlsLoliAnime],[isSadAnimeGirl],[isSadAnime]",
    "title": "ANIME_PIC_f9970b7d8f7a615a5ef955c6fe56e375",
    "link_img": "https://live.staticflickr.com/65535/51549322319_39c471f35f_o.jpg",
    "id_image": "ANIME_PIC_f9970b7d8f7a615a5ef955c6fe56e375",
    "count_view": 0
  },
  {
    "link_thumb": "https://live.staticflickr.com/65535/51549322549_60eaf4e4ff_n.jpg",
    "id_album": "-316663319",
    "description": "ANIME_PIC_f998b0abfef6b25e4b7070045950fc31,[Girl],[isGirlAnime],[isCuteAnime]",
    "title": "ANIME_PIC_f998b0abfef6b25e4b7070045950fc31",
    "link_img": "https://live.staticflickr.com/65535/51549322549_a4c2236a61_o.jpg",
    "id_image": "ANIME_PIC_f998b0abfef6b25e4b7070045950fc31",
    "count_view": 0
  },
  {
    "link_thumb": "https://live.staticflickr.com/65535/51548596401_6b8a5dd648_n.jpg",
    "id_album": "-316663319",
    "description": "ANIME_PIC_f99d8756d138cf957b00be45c47a90aa,[Girl],[isGirlAnime],[isCuteAnime]",
    "title": "ANIME_PIC_f99d8756d138cf957b00be45c47a90aa",
    "link_img": "https://live.staticflickr.com/65535/51548596401_beb70b3d9d_o.jpg",
    "id_image": "ANIME_PIC_f99d8756d138cf957b00be45c47a90aa",
    "count_view": 0
  },
  {
    "link_thumb": "https://live.staticflickr.com/65535/51548835253_0f04b0db47_n.jpg",
    "id_album": "-316663319",
    "description": "ANIME_PIC_f99e91bf119eff91f91763cf36ed5adc,[Girl],[isGirlAnime],[isCuteAnime],[isGirlsLoliAnime]",
    "title": "ANIME_PIC_f99e91bf119eff91f91763cf36ed5adc",
    "link_img": "https://live.staticflickr.com/65535/51548835253_3651222325_o.png",
    "id_image": "ANIME_PIC_f99e91bf119eff91f91763cf36ed5adc",
    "count_view": 0
  },
  {
    "link_thumb": "https://live.staticflickr.com/65535/51548597081_97e8b7c388_n.jpg",
    "id_album": "-316663319",
    "description": "ANIME_PIC_f99f7e9decc0691200b02621e634f9b1,[Girl],[isGirlAnime],[isCuteAnime],[isGirlsLoliAnime],[isSadAnimeGirl],[isSadAnime]",
    "title": "ANIME_PIC_f99f7e9decc0691200b02621e634f9b1",
    "link_img": "https://live.staticflickr.com/65535/51548597081_14b7581778_o.png",
    "id_image": "ANIME_PIC_f99f7e9decc0691200b02621e634f9b1",
    "count_view": 0
  },
  {
    "link_thumb": "https://live.staticflickr.com/65535/51548597396_39458a0379_n.jpg",
    "id_album": "-316663319",
    "description": "ANIME_PIC_f99fde6c484039e286985aea2f0b9ea0,[Girl],[isGirlAnime],[isCuteAnime],[isGirlsHatsHoodieAnime]",
    "title": "ANIME_PIC_f99fde6c484039e286985aea2f0b9ea0",
    "link_img": "https://live.staticflickr.com/65535/51548597396_502047a1d1_o.jpg",
    "id_image": "ANIME_PIC_f99fde6c484039e286985aea2f0b9ea0",
    "count_view": 0
  },
  {
    "link_thumb": "https://live.staticflickr.com/65535/51549324099_bf8b231504_n.jpg",
    "id_album": "-316663319",
    "description": "ANIME_PIC_f9a0c6ef7467398f5904d0dc59ce2df2,[Girl],[isGirlAnime],[isCuteAnime],[isGirlsLoliAnime]",
    "title": "ANIME_PIC_f9a0c6ef7467398f5904d0dc59ce2df2",
    "link_img": "https://live.staticflickr.com/65535/51549324099_2551491fd1_o.png",
    "id_image": "ANIME_PIC_f9a0c6ef7467398f5904d0dc59ce2df2",
    "count_view": 0
  },
  {
    "link_thumb": "https://live.staticflickr.com/65535/51549324319_beff16f674_n.jpg",
    "id_album": "-316663319",
    "description": "ANIME_PIC_f9a172fc9971d7a31ba1b40dfcc9a89d,[Girl],[isGirlAnime],[isCuteAnime]",
    "title": "ANIME_PIC_f9a172fc9971d7a31ba1b40dfcc9a89d",
    "link_img": "https://live.staticflickr.com/65535/51549324319_27cafdeabb_o.png",
    "id_image": "ANIME_PIC_f9a172fc9971d7a31ba1b40dfcc9a89d",
    "count_view": 0
  },
  {
    "link_thumb": "https://live.staticflickr.com/65535/51549324764_5ee8022348_n.jpg",
    "id_album": "-316663319",
    "description": "ANIME_PIC_f9a2644e7a99b86f807cfd81db870ff0,[Girl],[isGirlAnime],[isCuteAnime],[isGirlsLoliAnime],[isSadAnimeGirl],[isSadAnime]",
    "title": "ANIME_PIC_f9a2644e7a99b86f807cfd81db870ff0",
    "link_img": "https://live.staticflickr.com/65535/51549324764_fb63b0d7ca_o.jpg",
    "id_image": "ANIME_PIC_f9a2644e7a99b86f807cfd81db870ff0",
    "count_view": 0
  },
  {
    "link_thumb": "https://live.staticflickr.com/65535/51548837283_fd612bfc88_n.jpg",
    "id_album": "-316663319",
    "description": "ANIME_PIC_f9a7e03fd1a8696dd09e7dac5be48c35,[Girl],[isGirlAnime],[isCuteAnime],[isGirlsHatsHoodieAnime],[isGirlsLoliAnime]",
    "title": "ANIME_PIC_f9a7e03fd1a8696dd09e7dac5be48c35",
    "link_img": "https://live.staticflickr.com/65535/51548837283_df51ea0f9f_o.jpg",
    "id_image": "ANIME_PIC_f9a7e03fd1a8696dd09e7dac5be48c35",
    "count_view": 0
  },
  {
    "link_thumb": "https://live.staticflickr.com/65535/51548837503_35ee5df9fb_n.jpg",
    "id_album": "-316663319",
    "description": "ANIME_PIC_f9ad91edc670d55097712ecb027741ca,[Girl],[isGirlAnime],[isCuteAnime],[isSadAnimeGirl],[isSadAnime]",
    "title": "ANIME_PIC_f9ad91edc670d55097712ecb027741ca",
    "link_img": "https://live.staticflickr.com/65535/51548837503_4b52eb2f13_o.jpg",
    "id_image": "ANIME_PIC_f9ad91edc670d55097712ecb027741ca",
    "count_view": 0
  },
  {
    "link_thumb": "https://live.staticflickr.com/65535/51549518430_c3c53b82f4_n.jpg",
    "id_album": "-316663319",
    "description": "ANIME_PIC_f9aedc81ca25ba2709ebdc99584e6c12,[Girl],[isGirlAnime],[isCuteAnime],[isGirlsLoliAnime]",
    "title": "ANIME_PIC_f9aedc81ca25ba2709ebdc99584e6c12",
    "link_img": "https://live.staticflickr.com/65535/51549518430_99f0496717_o.png",
    "id_image": "ANIME_PIC_f9aedc81ca25ba2709ebdc99584e6c12",
    "count_view": 0
  },
  {
    "link_thumb": "https://live.staticflickr.com/65535/51547798992_44c12028ba_n.jpg",
    "id_album": "-316663319",
    "description": "ANIME_PIC_f9af356d3bd6de0383cdbb25732b53aa,[Girl],[isGirlAnime],[isCuteAnime],[isGirlsHatsHoodieAnime]",
    "title": "ANIME_PIC_f9af356d3bd6de0383cdbb25732b53aa",
    "link_img": "https://live.staticflickr.com/65535/51547798992_2456c1cfeb_o.jpg",
    "id_image": "ANIME_PIC_f9af356d3bd6de0383cdbb25732b53aa",
    "count_view": 0
  },
  {
    "link_thumb": "https://live.staticflickr.com/65535/51549325949_405532a768_n.jpg",
    "id_album": "-316663319",
    "description": "ANIME_PIC_f9b4adfdf0174dce9d096d44e7870d6b,[Girl],[isGirlAnime],[isCuteAnime]",
    "title": "ANIME_PIC_f9b4adfdf0174dce9d096d44e7870d6b",
    "link_img": "https://live.staticflickr.com/65535/51549325949_d2caee1a21_o.png",
    "id_image": "ANIME_PIC_f9b4adfdf0174dce9d096d44e7870d6b",
    "count_view": 0
  },
  {
    "link_thumb": "https://live.staticflickr.com/65535/51549326434_846e88b094_n.jpg",
    "id_album": "-316663319",
    "description": "ANIME_PIC_f9b5af14e014a181a9cbb421c9d477f5,[Girl],[isGirlAnime],[isCuteAnime],[isGirlsLoliAnime],[isSadAnimeGirl],[isSadAnime]",
    "title": "ANIME_PIC_f9b5af14e014a181a9cbb421c9d477f5",
    "link_img": "https://live.staticflickr.com/65535/51549326434_1784279dfa_o.jpg",
    "id_image": "ANIME_PIC_f9b5af14e014a181a9cbb421c9d477f5",
    "count_view": 0
  },
  {
    "link_thumb": "https://live.staticflickr.com/65535/51549519690_2d78c18766_n.jpg",
    "id_album": "-316663319",
    "description": "ANIME_PIC_f9b673153d88f3544c7f569b81b81de0,[Girl],[isGirlAnime],[isCuteAnime],[isSadAnimeGirl],[isSadAnime]",
    "title": "ANIME_PIC_f9b673153d88f3544c7f569b81b81de0",
    "link_img": "https://live.staticflickr.com/65535/51549519690_ec23a0e933_o.jpg",
    "id_image": "ANIME_PIC_f9b673153d88f3544c7f569b81b81de0",
    "count_view": 0
  },
  {
    "link_thumb": "https://live.staticflickr.com/65535/51547800207_f6230c723c_n.jpg",
    "id_album": "-316663319",
    "description": "ANIME_PIC_f9b674529c9fef4c7ed2caf15f7c4468,[Girl],[isGirlAnime],[isCuteAnime],[isGirlsLoliAnime]",
    "title": "ANIME_PIC_f9b674529c9fef4c7ed2caf15f7c4468",
    "link_img": "https://live.staticflickr.com/65535/51547800207_1f6c307b73_o.png",
    "id_image": "ANIME_PIC_f9b674529c9fef4c7ed2caf15f7c4468",
    "count_view": 0
  },
  {
    "link_thumb": "https://live.staticflickr.com/65535/51549327099_08f95c02f0_n.jpg",
    "id_album": "-316663319",
    "description": "ANIME_PIC_f9b785009b236793b440636b4ae3b48a,[Girl],[isGirlAnime],[isCuteAnime],[isGirlsLoliAnime]",
    "title": "ANIME_PIC_f9b785009b236793b440636b4ae3b48a",
    "link_img": "https://live.staticflickr.com/65535/51549327099_fa2a87c724_o.png",
    "id_image": "ANIME_PIC_f9b785009b236793b440636b4ae3b48a",
    "count_view": 0
  },
  {
    "link_thumb": "https://live.staticflickr.com/65535/51549327344_252f1e8a2c_n.jpg",
    "id_album": "-316663319",
    "description": "ANIME_PIC_f9b9445d37d5fc8b7d8292bb6f7937c8,[Girl],[isGirlAnime],[isCuteAnime],[isGirlEarsNekoAnime],[isGirlsLoliAnime],[isGirlsSharpCanineToothAnime]",
    "title": "ANIME_PIC_f9b9445d37d5fc8b7d8292bb6f7937c8",
    "link_img": "https://live.staticflickr.com/65535/51549327344_0d67e3e6cd_o.jpg",
    "id_image": "ANIME_PIC_f9b9445d37d5fc8b7d8292bb6f7937c8",
    "count_view": 0
  },
  {
    "link_thumb": "https://live.staticflickr.com/65535/51548601091_eac9cd4bdb_n.jpg",
    "id_album": "-316663319",
    "description": "ANIME_PIC_f9b9cace6408770f02069c8d3c22ce04,[Girl],[isGirlAnime],[isCuteAnime]",
    "title": "ANIME_PIC_f9b9cace6408770f02069c8d3c22ce04",
    "link_img": "https://live.staticflickr.com/65535/51548601091_d9f97c378d_o.jpg",
    "id_image": "ANIME_PIC_f9b9cace6408770f02069c8d3c22ce04",
    "count_view": 0
  },
  {
    "link_thumb": "https://live.staticflickr.com/65535/51548601281_3c41564576_n.jpg",
    "id_album": "-316663319",
    "description": "ANIME_PIC_f9ba7345ab60803b3cb48f8f48941234,[Girl],[isGirlAnime],[isCuteAnime],[isGirlFaceMasksAnime],[isGirlsHatsHoodieAnime],[isGirlsLoliAnime]",
    "title": "ANIME_PIC_f9ba7345ab60803b3cb48f8f48941234",
    "link_img": "https://live.staticflickr.com/65535/51548601281_ab4f68db79_o.jpg",
    "id_image": "ANIME_PIC_f9ba7345ab60803b3cb48f8f48941234",
    "count_view": 0
  },
  {
    "link_thumb": "https://live.staticflickr.com/65535/51548601486_91eed50387_n.jpg",
    "id_album": "-316663319",
    "description": "ANIME_PIC_f9bb5981c18176fa348ca6b3d21be945,[Girl],[isGirlAnime],[isCuteAnime],[isGirlsHatsHoodieAnime],[isSadAnimeGirl],[isSadAnime]",
    "title": "ANIME_PIC_f9bb5981c18176fa348ca6b3d21be945",
    "link_img": "https://live.staticflickr.com/65535/51548601486_b5bf8ecda9_o.jpg",
    "id_image": "ANIME_PIC_f9bb5981c18176fa348ca6b3d21be945",
    "count_view": 0
  },
  {
    "link_thumb": "https://live.staticflickr.com/65535/51549521415_9f1098e13b_n.jpg",
    "id_album": "-316663319",
    "description": "ANIME_PIC_f9bdf41d332e3246464510a85dfdcb93,[Girl],[isGirlAnime],[isCuteAnime],[isGirlsHatsHoodieAnime]",
    "title": "ANIME_PIC_f9bdf41d332e3246464510a85dfdcb93",
    "link_img": "https://live.staticflickr.com/65535/51549521415_002ff2daea_o.jpg",
    "id_image": "ANIME_PIC_f9bdf41d332e3246464510a85dfdcb93",
    "count_view": 0
  },
  {
    "link_thumb": "https://live.staticflickr.com/65535/51549328424_7e3666dafa_n.jpg",
    "id_album": "-316663319",
    "description": "ANIME_PIC_f9c01dbf2b63edf4bfa91562e3a3b383,[Girl],[isGirlAnime],[isCuteAnime],[isGirlsHatsHoodieAnime],[isGirlsLoliAnime]",
    "title": "ANIME_PIC_f9c01dbf2b63edf4bfa91562e3a3b383",
    "link_img": "https://live.staticflickr.com/65535/51549328424_f5b09e5b03_o.png",
    "id_image": "ANIME_PIC_f9c01dbf2b63edf4bfa91562e3a3b383",
    "count_view": 0
  },
  {
    "link_thumb": "https://live.staticflickr.com/65535/51548602226_a4262591c3_n.jpg",
    "id_album": "-316663319",
    "description": "ANIME_PIC_f9c13cd759847c2211db573b25c99b8f,[Girl],[isGirlAnime],[isCuteAnime],[isGirlEarsNekoAnime],[isSadAnimeGirl],[isSadAnime]",
    "title": "ANIME_PIC_f9c13cd759847c2211db573b25c99b8f",
    "link_img": "https://live.staticflickr.com/65535/51548602226_2684e7b517_o.jpg",
    "id_image": "ANIME_PIC_f9c13cd759847c2211db573b25c99b8f",
    "count_view": 0
  },
  {
    "link_thumb": "https://live.staticflickr.com/65535/51549329034_2d01771e2d_n.jpg",
    "id_album": "-316663319",
    "description": "ANIME_PIC_f9c381e390ecd25c7299a026bdbe5d42,[Girl],[isGirlAnime],[isCuteAnime],[isGirlsHatsHoodieAnime]",
    "title": "ANIME_PIC_f9c381e390ecd25c7299a026bdbe5d42",
    "link_img": "https://live.staticflickr.com/65535/51549329034_1df2c8df77_o.png",
    "id_image": "ANIME_PIC_f9c381e390ecd25c7299a026bdbe5d42",
    "count_view": 0
  },
  {
    "link_thumb": "https://live.staticflickr.com/65535/51549329544_f5ed91033b_n.jpg",
    "id_album": "-316663319",
    "description": "ANIME_PIC_f9c6009c67410900a2cb5d7a2b2c6f20,[Girl],[isGirlAnime],[isCuteAnime]",
    "title": "ANIME_PIC_f9c6009c67410900a2cb5d7a2b2c6f20",
    "link_img": "https://live.staticflickr.com/65535/51549329544_484a3b58d7_o.jpg",
    "id_image": "ANIME_PIC_f9c6009c67410900a2cb5d7a2b2c6f20",
    "count_view": 0
  },
  {
    "link_thumb": "https://live.staticflickr.com/65535/51548842078_1499ab6eee_n.jpg",
    "id_album": "-316663319",
    "description": "ANIME_PIC_f9c6ec07748b79f561caa290957ed6ee,[Girl],[isGirlAnime],[isCuteAnime],[isSadAnimeGirl],[isSadAnime]",
    "title": "ANIME_PIC_f9c6ec07748b79f561caa290957ed6ee",
    "link_img": "https://live.staticflickr.com/65535/51548842078_d49bb452bf_o.jpg",
    "id_image": "ANIME_PIC_f9c6ec07748b79f561caa290957ed6ee",
    "count_view": 0
  },
  {
    "link_thumb": "https://live.staticflickr.com/65535/51548603411_1d50d32ab2_n.jpg",
    "id_album": "-316663319",
    "description": "ANIME_PIC_f9c856b95a45874181866c3a2be85568,[Girl],[isGirlAnime],[isCuteAnime],[isGirlEarsNekoAnime],[isGirlsHatsHoodieAnime],[isGirlsLoliAnime],[isGirlsSharpCanineToothAnime]",
    "title": "ANIME_PIC_f9c856b95a45874181866c3a2be85568",
    "link_img": "https://live.staticflickr.com/65535/51548603411_313242f684_o.jpg",
    "id_image": "ANIME_PIC_f9c856b95a45874181866c3a2be85568",
    "count_view": 0
  },
  {
    "link_thumb": "https://live.staticflickr.com/65535/51549330344_cf88ed3c20_n.jpg",
    "id_album": "-316663319",
    "description": "ANIME_PIC_f9c85f991580323117190cfc645db6bc,[Girl],[isGirlAnime],[isCuteAnime],[isGirlsLoliAnime]",
    "title": "ANIME_PIC_f9c85f991580323117190cfc645db6bc",
    "link_img": "https://live.staticflickr.com/65535/51549330344_ddb94ccef2_o.jpg",
    "id_image": "ANIME_PIC_f9c85f991580323117190cfc645db6bc",
    "count_view": 0
  },
  {
    "link_thumb": "https://live.staticflickr.com/65535/51548842698_ef3aca9174_n.jpg",
    "id_album": "-316663319",
    "description": "ANIME_PIC_f9ca11c19f8f27e4c5c09380470022a0,[Girl],[isGirlAnime],[isCuteAnime],[isGirlsHatsHoodieAnime]",
    "title": "ANIME_PIC_f9ca11c19f8f27e4c5c09380470022a0",
    "link_img": "https://live.staticflickr.com/65535/51548842698_08126f8a84_o.jpg",
    "id_image": "ANIME_PIC_f9ca11c19f8f27e4c5c09380470022a0",
    "count_view": 0
  },
  {
    "link_thumb": "https://live.staticflickr.com/65535/51548604036_3fac387aba_n.jpg",
    "id_album": "-316663319",
    "description": "ANIME_PIC_f9cb2e036f6c4f1c851cbd656695a107,[Girl],[isGirlAnime],[isCuteAnime],[isSadAnimeGirl],[isSadAnime]",
    "title": "ANIME_PIC_f9cb2e036f6c4f1c851cbd656695a107",
    "link_img": "https://live.staticflickr.com/65535/51548604036_bc3ebea393_o.png",
    "id_image": "ANIME_PIC_f9cb2e036f6c4f1c851cbd656695a107",
    "count_view": 0
  },
  {
    "link_thumb": "https://live.staticflickr.com/65535/51547804842_1ef6371c6d_n.jpg",
    "id_album": "-316663319",
    "description": "ANIME_PIC_f9cb906934d4c99d143ba732b7b3840d,[Girl],[isGirlAnime],[isCuteAnime],[isGirlsLoliAnime]",
    "title": "ANIME_PIC_f9cb906934d4c99d143ba732b7b3840d",
    "link_img": "https://live.staticflickr.com/65535/51547804842_8693d3904a_o.jpg",
    "id_image": "ANIME_PIC_f9cb906934d4c99d143ba732b7b3840d",
    "count_view": 0
  },
  {
    "link_thumb": "https://live.staticflickr.com/65535/51547805052_21301e4cd7_n.jpg",
    "id_album": "-316663319",
    "description": "ANIME_PIC_f9cc3ee41d9126f95e9e188c256a973f,[Girl],[isGirlAnime],[isCuteAnime]",
    "title": "ANIME_PIC_f9cc3ee41d9126f95e9e188c256a973f",
    "link_img": "https://live.staticflickr.com/65535/51547805052_2e936860eb_o.jpg",
    "id_image": "ANIME_PIC_f9cc3ee41d9126f95e9e188c256a973f",
    "count_view": 0
  },
  {
    "link_thumb": "https://live.staticflickr.com/65535/51548844068_3113690e2c_n.jpg",
    "id_album": "-316663319",
    "description": "ANIME_PIC_f9d0e297b331497861971dfb6189c09d,[Girl],[isGirlAnime],[isCuteAnime]",
    "title": "ANIME_PIC_f9d0e297b331497861971dfb6189c09d",
    "link_img": "https://live.staticflickr.com/65535/51548844068_e387513ef1_o.png",
    "id_image": "ANIME_PIC_f9d0e297b331497861971dfb6189c09d",
    "count_view": 0
  },
  {
    "link_thumb": "https://live.staticflickr.com/65535/51547805522_7c50297872_n.jpg",
    "id_album": "-316663319",
    "description": "ANIME_PIC_f9d70f7a4b641904efe16310e0b2dfec,[Girl],[isGirlAnime],[isCuteAnime],[isGirlsHatsHoodieAnime],[isGirlsSharpCanineToothAnime]",
    "title": "ANIME_PIC_f9d70f7a4b641904efe16310e0b2dfec",
    "link_img": "https://live.staticflickr.com/65535/51547805522_32261744bf_o.jpg",
    "id_image": "ANIME_PIC_f9d70f7a4b641904efe16310e0b2dfec",
    "count_view": 0
  },
  {
    "link_thumb": "https://live.staticflickr.com/65535/51549332284_ee32622296_n.jpg",
    "id_album": "-316663319",
    "description": "ANIME_PIC_f9d8a0787853653fbb55ee92100cc383,[Girl],[isGirlAnime],[isSadAnimeGirl],[isSadAnime]",
    "title": "ANIME_PIC_f9d8a0787853653fbb55ee92100cc383",
    "link_img": "https://live.staticflickr.com/65535/51549332284_7f53f73d52_o.jpg",
    "id_image": "ANIME_PIC_f9d8a0787853653fbb55ee92100cc383",
    "count_view": 0
  },
  {
    "link_thumb": "https://live.staticflickr.com/65535/51549525410_9166f10fc7_n.jpg",
    "id_album": "-316663319",
    "description": "ANIME_PIC_f9da5c70135f54d4072458ca8a1fba81,[Girl],[isGirlAnime],[isCuteAnime],[isGirlsLoliAnime]",
    "title": "ANIME_PIC_f9da5c70135f54d4072458ca8a1fba81",
    "link_img": "https://live.staticflickr.com/65535/51549525410_845491dc9b_o.jpg",
    "id_image": "ANIME_PIC_f9da5c70135f54d4072458ca8a1fba81",
    "count_view": 0
  },
  {
    "link_thumb": "https://live.staticflickr.com/65535/51548606366_dfe803edcd_n.jpg",
    "id_album": "-316663319",
    "description": "ANIME_PIC_f9db0145ba96c01bde23932ded39b5a4,[Girl],[isGirlAnime],[isCuteAnime],[isGirlEarsNekoAnime]",
    "title": "ANIME_PIC_f9db0145ba96c01bde23932ded39b5a4",
    "link_img": "https://live.staticflickr.com/65535/51548606366_92cb4d15ec_o.jpg",
    "id_image": "ANIME_PIC_f9db0145ba96c01bde23932ded39b5a4",
    "count_view": 0
  },
  {
    "link_thumb": "https://live.staticflickr.com/65535/51548606576_d0b7c0706b_n.jpg",
    "id_album": "-316663319",
    "description": "ANIME_PIC_f9dc53a007cd4c227ab9e6ce87b1b67c,[Girl],[isGirlAnime],[isCuteAnime]",
    "title": "ANIME_PIC_f9dc53a007cd4c227ab9e6ce87b1b67c",
    "link_img": "https://live.staticflickr.com/65535/51548606576_a2440373a4_o.png",
    "id_image": "ANIME_PIC_f9dc53a007cd4c227ab9e6ce87b1b67c",
    "count_view": 0
  },
  {
    "link_thumb": "https://live.staticflickr.com/65535/51549526295_89c0f6d1bb_n.jpg",
    "id_album": "-316663319",
    "description": "ANIME_PIC_f9e1b25756fa18914b71b096cc6439cc,[Girl],[isGirlAnime],[isCuteAnime],[isGirlsLoliAnime]",
    "title": "ANIME_PIC_f9e1b25756fa18914b71b096cc6439cc",
    "link_img": "https://live.staticflickr.com/65535/51549526295_91593d81e3_o.png",
    "id_image": "ANIME_PIC_f9e1b25756fa18914b71b096cc6439cc",
    "count_view": 0
  },
  {
    "link_thumb": "https://live.staticflickr.com/65535/51549526865_75e9a9164b_n.jpg",
    "id_album": "-316663319",
    "description": "ANIME_PIC_f9e1c5aff8e19b1ce732c728326faa31,[Girl],[isGirlAnime],[isCuteAnime],[isGirlsHatsHoodieAnime]",
    "title": "ANIME_PIC_f9e1c5aff8e19b1ce732c728326faa31",
    "link_img": "https://live.staticflickr.com/65535/51549526865_eb5f1725dc_o.png",
    "id_image": "ANIME_PIC_f9e1c5aff8e19b1ce732c728326faa31",
    "count_view": 0
  },
  {
    "link_thumb": "https://live.staticflickr.com/65535/51548607706_8728a4210d_n.jpg",
    "id_album": "-316663319",
    "description": "ANIME_PIC_f9e36f3cb3ee43f38612746e806b5c71,[Girl],[isGirlAnime],[isCuteAnime],[isGirlsLoliAnime],[isSadAnimeGirl],[isSadAnime]",
    "title": "ANIME_PIC_f9e36f3cb3ee43f38612746e806b5c71",
    "link_img": "https://live.staticflickr.com/65535/51548607706_fc43167e25_o.jpg",
    "id_image": "ANIME_PIC_f9e36f3cb3ee43f38612746e806b5c71",
    "count_view": 0
  },
  {
    "link_thumb": "https://live.staticflickr.com/65535/51547807872_e23351e841_n.jpg",
    "id_album": "-316663319",
    "description": "ANIME_PIC_f9e70222539c6a57b3e8a8a15ffaba71,[Girl],[isGirlAnime],[isCuteAnime]",
    "title": "ANIME_PIC_f9e70222539c6a57b3e8a8a15ffaba71",
    "link_img": "https://live.staticflickr.com/65535/51547807872_a8402be45c_o.jpg",
    "id_image": "ANIME_PIC_f9e70222539c6a57b3e8a8a15ffaba71",
    "count_view": 0
  },
  {
    "link_thumb": "https://live.staticflickr.com/65535/51549334699_8cdb631ed7_n.jpg",
    "id_album": "-316663319",
    "description": "ANIME_PIC_f9ea9a5ef0bc279162c1efa340f0d022,[Girl],[isGirlAnime],[isCuteAnime]",
    "title": "ANIME_PIC_f9ea9a5ef0bc279162c1efa340f0d022",
    "link_img": "https://live.staticflickr.com/65535/51549334699_ac7b4d288b_o.jpg",
    "id_image": "ANIME_PIC_f9ea9a5ef0bc279162c1efa340f0d022",
    "count_view": 0
  },
  {
    "link_thumb": "https://live.staticflickr.com/65535/51547808362_ba083fbfcb_n.jpg",
    "id_album": "-316663319",
    "description": "ANIME_PIC_f9ed1b3686fa788f8dd005b166eb7698,[Girl],[isGirlAnime],[isCuteAnime],[isGirlsLoliAnime]",
    "title": "ANIME_PIC_f9ed1b3686fa788f8dd005b166eb7698",
    "link_img": "https://live.staticflickr.com/65535/51547808362_4aa7d59147_o.jpg",
    "id_image": "ANIME_PIC_f9ed1b3686fa788f8dd005b166eb7698",
    "count_view": 0
  },
  {
    "link_thumb": "https://live.staticflickr.com/65535/51548847393_63ccd58a44_n.jpg",
    "id_album": "-316663319",
    "description": "ANIME_PIC_f9f5c4fa0e97936b6237d87ba5285a5d,[Girl],[isGirlAnime],[isCuteAnime],[isGirlsHatsHoodieAnime],[isGirlsLoliAnime]",
    "title": "ANIME_PIC_f9f5c4fa0e97936b6237d87ba5285a5d",
    "link_img": "https://live.staticflickr.com/65535/51548847393_41ae782a93_o.jpg",
    "id_image": "ANIME_PIC_f9f5c4fa0e97936b6237d87ba5285a5d",
    "count_view": 0
  },
  {
    "link_thumb": "https://live.staticflickr.com/65535/51548608986_d9f4be04ca_n.jpg",
    "id_album": "-316663319",
    "description": "ANIME_PIC_f9f71e58f58ddaec14fccce0c5362851,[Girl],[isGirlAnime],[isCuteAnime],[isSadAnimeGirl],[isSadAnime]",
    "title": "ANIME_PIC_f9f71e58f58ddaec14fccce0c5362851",
    "link_img": "https://live.staticflickr.com/65535/51548608986_4ef611dec9_o.jpg",
    "id_image": "ANIME_PIC_f9f71e58f58ddaec14fccce0c5362851",
    "count_view": 0
  },
  {
    "link_thumb": "https://live.staticflickr.com/65535/51549335544_2ff477dcd0_n.jpg",
    "id_album": "-316663319",
    "description": "ANIME_PIC_f9f78049561002bc3088cda366704482,[Girl],[isGirlAnime],[isCuteAnime],[isGirlsLoliAnime]",
    "title": "ANIME_PIC_f9f78049561002bc3088cda366704482",
    "link_img": "https://live.staticflickr.com/65535/51549335544_57189a8a5b_o.png",
    "id_image": "ANIME_PIC_f9f78049561002bc3088cda366704482",
    "count_view": 0
  },
  {
    "link_thumb": "https://live.staticflickr.com/65535/51547809592_b0de7f438a_n.jpg",
    "id_album": "-316663319",
    "description": "ANIME_PIC_f9f96f4671124ffebc1fe18b494e7889,[Girl],[isGirlAnime],[isCuteAnime],[isGirlsLoliAnime]",
    "title": "ANIME_PIC_f9f96f4671124ffebc1fe18b494e7889",
    "link_img": "https://live.staticflickr.com/65535/51547809592_759f5c5c04_o.jpg",
    "id_image": "ANIME_PIC_f9f96f4671124ffebc1fe18b494e7889",
    "count_view": 0
  },
  {
    "link_thumb": "https://live.staticflickr.com/65535/51547809977_bc24dfc1d0_n.jpg",
    "id_album": "-316663319",
    "description": "ANIME_PIC_f9fc7e06cdce5ee94e08a24ed7c18b24,[Girl],[isGirlAnime],[isCuteAnime],[isGirlsLoliAnime]",
    "title": "ANIME_PIC_f9fc7e06cdce5ee94e08a24ed7c18b24",
    "link_img": "https://live.staticflickr.com/65535/51547809977_3ff4a86690_o.jpg",
    "id_image": "ANIME_PIC_f9fc7e06cdce5ee94e08a24ed7c18b24",
    "count_view": 0
  },
  {
    "link_thumb": "https://live.staticflickr.com/65535/51547810272_0f61f65f3a_n.jpg",
    "id_album": "-316663319",
    "description": "ANIME_PIC_f9fe93d2b5ceaba0047ed26127e06cea,[Girl],[isGirlAnime],[isCuteAnime],[isGirlsLoliAnime],[isSadAnimeGirl],[isSadAnime]",
    "title": "ANIME_PIC_f9fe93d2b5ceaba0047ed26127e06cea",
    "link_img": "https://live.staticflickr.com/65535/51547810272_d7aeeba503_o.jpg",
    "id_image": "ANIME_PIC_f9fe93d2b5ceaba0047ed26127e06cea",
    "count_view": 0
  },
  {
    "link_thumb": "https://live.staticflickr.com/65535/51548848833_36c471d5e0_n.jpg",
    "id_album": "-316663319",
    "description": "ANIME_PIC_fa000e639f9daf86540fa30ec9a6a68f,[Girl],[isGirlAnime],[isCuteAnime],[isGirlsHatsHoodieAnime]",
    "title": "ANIME_PIC_fa000e639f9daf86540fa30ec9a6a68f",
    "link_img": "https://live.staticflickr.com/65535/51548848833_2d12abd3d5_o.jpg",
    "id_image": "ANIME_PIC_fa000e639f9daf86540fa30ec9a6a68f",
    "count_view": 0
  },
  {
    "link_thumb": "https://live.staticflickr.com/65535/51548849068_6210fcca71_n.jpg",
    "id_album": "-316663319",
    "description": "ANIME_PIC_fa02ec167b8819b19eab7c3ba1b65366,[Girl],[isGirlAnime],[isCuteAnime],[isGirlsHatsHoodieAnime],[isGirlsLoliAnime]",
    "title": "ANIME_PIC_fa02ec167b8819b19eab7c3ba1b65366",
    "link_img": "https://live.staticflickr.com/65535/51548849068_bbf031e2a7_o.png",
    "id_image": "ANIME_PIC_fa02ec167b8819b19eab7c3ba1b65366",
    "count_view": 0
  },
  {
    "link_thumb": "https://live.staticflickr.com/65535/51547810947_ffc238d0d3_n.jpg",
    "id_album": "-316663319",
    "description": "ANIME_PIC_fa0694704eca24d2b59c18e0b5292b8e,[Girl],[isGirlAnime],[isCuteAnime],[isGirlsLoliAnime],[isSadAnimeGirl],[isSadAnime]",
    "title": "ANIME_PIC_fa0694704eca24d2b59c18e0b5292b8e",
    "link_img": "https://live.staticflickr.com/65535/51547810947_be461fcebe_o.png",
    "id_image": "ANIME_PIC_fa0694704eca24d2b59c18e0b5292b8e",
    "count_view": 0
  },
  {
    "link_thumb": "https://live.staticflickr.com/65535/51547811177_dc0cd607bc_n.jpg",
    "id_album": "-316663319",
    "description": "ANIME_PIC_fa11a7a5b1d67689ec5ab2df7d3acee7,[Girl],[isGirlAnime],[isCuteAnime],[isGirlsLoliAnime]",
    "title": "ANIME_PIC_fa11a7a5b1d67689ec5ab2df7d3acee7",
    "link_img": "https://live.staticflickr.com/65535/51547811177_f6ee846ca3_o.jpg",
    "id_image": "ANIME_PIC_fa11a7a5b1d67689ec5ab2df7d3acee7",
    "count_view": 0
  },
  {
    "link_thumb": "https://live.staticflickr.com/65535/51548611336_8c7d552f0e_n.jpg",
    "id_album": "-316663319",
    "description": "ANIME_PIC_fa167aea679dd54485bf2853d3f22b44,[Girl],[isGirlAnime],[isCuteAnime],[isGirlsLoliAnime]",
    "title": "ANIME_PIC_fa167aea679dd54485bf2853d3f22b44",
    "link_img": "https://live.staticflickr.com/65535/51548611336_cafe175a9a_o.jpg",
    "id_image": "ANIME_PIC_fa167aea679dd54485bf2853d3f22b44",
    "count_view": 0
  },
  {
    "link_thumb": "https://live.staticflickr.com/65535/51548849958_0c527a5dd3_n.jpg",
    "id_album": "-316663319",
    "description": "ANIME_PIC_fa1cf6f5a45cb022b78a7bfdc2b7ca78,[Girl],[isGirlAnime],[isCuteAnime],[isGirlsHatsHoodieAnime],[isGirlsLoliAnime]",
    "title": "ANIME_PIC_fa1cf6f5a45cb022b78a7bfdc2b7ca78",
    "link_img": "https://live.staticflickr.com/65535/51548849958_643991d942_o.jpg",
    "id_image": "ANIME_PIC_fa1cf6f5a45cb022b78a7bfdc2b7ca78",
    "count_view": 0
  },
  {
    "link_thumb": "https://live.staticflickr.com/65535/51548850143_002a6f1cae_n.jpg",
    "id_album": "-316663319",
    "description": "ANIME_PIC_fa1d6cebb3c9ca8d6892b9528a7b7ccd,[Girl],[isGirlAnime],[isCuteAnime],[isGirlsLoliAnime]",
    "title": "ANIME_PIC_fa1d6cebb3c9ca8d6892b9528a7b7ccd",
    "link_img": "https://live.staticflickr.com/65535/51548850143_3d2bdee0c9_o.png",
    "id_image": "ANIME_PIC_fa1d6cebb3c9ca8d6892b9528a7b7ccd",
    "count_view": 0
  },
  {
    "link_thumb": "https://live.staticflickr.com/65535/51547811962_a5b07ef3b5_n.jpg",
    "id_album": "-316663319",
    "description": "ANIME_PIC_fa1df29d43dd6b98d03530ff313086e7,[Girl],[isGirlAnime],[isCuteAnime],[isGirlsLoliAnime]",
    "title": "ANIME_PIC_fa1df29d43dd6b98d03530ff313086e7",
    "link_img": "https://live.staticflickr.com/65535/51547811962_90e148dea4_o.png",
    "id_image": "ANIME_PIC_fa1df29d43dd6b98d03530ff313086e7",
    "count_view": 0
  },
  {
    "link_thumb": "https://live.staticflickr.com/65535/51549531875_f5c226f6bc_n.jpg",
    "id_album": "-316663319",
    "description": "ANIME_PIC_fa258a3cce645342eb7eeddf48cee404,[Girl],[isGirlAnime],[isCuteAnime],[isGirlsLoliAnime],[isSadAnimeGirl],[isSadAnime]",
    "title": "ANIME_PIC_fa258a3cce645342eb7eeddf48cee404",
    "link_img": "https://live.staticflickr.com/65535/51549531875_f89cc86264_o.png",
    "id_image": "ANIME_PIC_fa258a3cce645342eb7eeddf48cee404",
    "count_view": 0
  },
  {
    "link_thumb": "https://live.staticflickr.com/65535/51549339139_d84665df63_n.jpg",
    "id_album": "-316663319",
    "description": "ANIME_PIC_fa261ab9db0dc3de35b7648c8a8b61d4,[Girl],[isGirlAnime],[isCuteAnime],[isGirlFaceMasksAnime],[isGirlsLoliAnime]",
    "title": "ANIME_PIC_fa261ab9db0dc3de35b7648c8a8b61d4",
    "link_img": "https://live.staticflickr.com/65535/51549339139_ef5533b3e0_o.jpg",
    "id_image": "ANIME_PIC_fa261ab9db0dc3de35b7648c8a8b61d4",
    "count_view": 0
  },
  {
    "link_thumb": "https://live.staticflickr.com/65535/51547813262_b6ffb4c31b_n.jpg",
    "id_album": "-316663319",
    "description": "ANIME_PIC_fa2af067208df7318ade59df7b32deb9,[Girl],[isGirlAnime],[isCuteAnime],[isGirlEarsNekoAnime],[isGirlsLoliAnime]",
    "title": "ANIME_PIC_fa2af067208df7318ade59df7b32deb9",
    "link_img": "https://live.staticflickr.com/65535/51547813262_c203b540d6_o.png",
    "id_image": "ANIME_PIC_fa2af067208df7318ade59df7b32deb9",
    "count_view": 0
  },
  {
    "link_thumb": "https://live.staticflickr.com/65535/51548852573_24f2b0e468_n.jpg",
    "id_album": "-316663319",
    "description": "ANIME_PIC_fa2bae680b4bb68fb7ccf54e02ec9514,[Girl],[isGirlAnime],[isCuteAnime],[isGirlEarsNekoAnime],[isGirlsLoliAnime]",
    "title": "ANIME_PIC_fa2bae680b4bb68fb7ccf54e02ec9514",
    "link_img": "https://live.staticflickr.com/65535/51548852573_03286e4f1e_o.jpg",
    "id_image": "ANIME_PIC_fa2bae680b4bb68fb7ccf54e02ec9514",
    "count_view": 0
  },
  {
    "link_thumb": "https://live.staticflickr.com/65535/51549533820_2670b1ac19_n.jpg",
    "id_album": "-316663319",
    "description": "ANIME_PIC_fa2d760739d452985c102e99aadbacb4,[Girl],[isGirlAnime],[isCuteAnime],[isSadAnimeGirl],[isSadAnime]",
    "title": "ANIME_PIC_fa2d760739d452985c102e99aadbacb4",
    "link_img": "https://live.staticflickr.com/65535/51549533820_f64143c291_o.jpg",
    "id_image": "ANIME_PIC_fa2d760739d452985c102e99aadbacb4",
    "count_view": 0
  },
  {
    "link_thumb": "https://live.staticflickr.com/65535/51547814637_9b35165eb6_n.jpg",
    "id_album": "-316663319",
    "description": "ANIME_PIC_fa2fb5fc7cb537f03a2e399fab713154,[Girl],[isGirlAnime],[isCuteAnime],[isGirlsLoliAnime]",
    "title": "ANIME_PIC_fa2fb5fc7cb537f03a2e399fab713154",
    "link_img": "https://live.staticflickr.com/65535/51547814637_6e8b3cca31_o.png",
    "id_image": "ANIME_PIC_fa2fb5fc7cb537f03a2e399fab713154",
    "count_view": 0
  },
  {
    "link_thumb": "https://live.staticflickr.com/65535/51548853388_042af9d349_n.jpg",
    "id_album": "-316663319",
    "description": "ANIME_PIC_fa3054341881bde8999412d5b7856ea0,[Girl],[isGirlAnime],[isCuteAnime],[isGirlFaceMasksAnime],[isGirlsLoliAnime]",
    "title": "ANIME_PIC_fa3054341881bde8999412d5b7856ea0",
    "link_img": "https://live.staticflickr.com/65535/51548853388_c8136e1d62_o.jpg",
    "id_image": "ANIME_PIC_fa3054341881bde8999412d5b7856ea0",
    "count_view": 0
  },
  {
    "link_thumb": "https://live.staticflickr.com/65535/51548853723_9e54a6d954_n.jpg",
    "id_album": "-316663319",
    "description": "ANIME_PIC_fa3075482184992db835999863c14cea,[Girl],[isGirlAnime],[isCuteAnime]",
    "title": "ANIME_PIC_fa3075482184992db835999863c14cea",
    "link_img": "https://live.staticflickr.com/65535/51548853723_785197473e_o.jpg",
    "id_image": "ANIME_PIC_fa3075482184992db835999863c14cea",
    "count_view": 0
  },
  {
    "link_thumb": "https://live.staticflickr.com/65535/51547815472_909a3cede9_n.jpg",
    "id_album": "-316663319",
    "description": "ANIME_PIC_fa3257df5cd28b73c1698cb6aabf2e72,[Girl],[isGirlAnime],[isCuteAnime],[isGirlEarsNekoAnime],[isGirlsLoliAnime]",
    "title": "ANIME_PIC_fa3257df5cd28b73c1698cb6aabf2e72",
    "link_img": "https://live.staticflickr.com/65535/51547815472_e8f4769fb2_o.jpg",
    "id_image": "ANIME_PIC_fa3257df5cd28b73c1698cb6aabf2e72",
    "count_view": 0
  },
  {
    "link_thumb": "https://live.staticflickr.com/65535/51547815737_7fd2e7ec07_n.jpg",
    "id_album": "-316663319",
    "description": "ANIME_PIC_fa33e88ddcf96c206baaccece8041e8b,[Girl],[isGirlAnime],[isCuteAnime],[isGirlsLoliAnime],[isSadAnimeGirl],[isSadAnime]",
    "title": "ANIME_PIC_fa33e88ddcf96c206baaccece8041e8b",
    "link_img": "https://live.staticflickr.com/65535/51547815737_780ed9e9d8_o.png",
    "id_image": "ANIME_PIC_fa33e88ddcf96c206baaccece8041e8b",
    "count_view": 0
  },
  {
    "link_thumb": "https://live.staticflickr.com/65535/51548854483_43745cf858_n.jpg",
    "id_album": "-316663319",
    "description": "ANIME_PIC_fa39e3b39e73767430172f2017c2ffcc,[Girl],[isGirlAnime],[isCuteAnime]",
    "title": "ANIME_PIC_fa39e3b39e73767430172f2017c2ffcc",
    "link_img": "https://live.staticflickr.com/65535/51548854483_92a110fdd3_o.jpg",
    "id_image": "ANIME_PIC_fa39e3b39e73767430172f2017c2ffcc",
    "count_view": 0
  },
  {
    "link_thumb": "https://live.staticflickr.com/65535/51548854683_3816f5aa35_n.jpg",
    "id_album": "-316663319",
    "description": "ANIME_PIC_fa3c8a36f16ccf31cc38640da495869d,[Girl],[isGirlAnime],[isCuteAnime],[isGirlsHatsHoodieAnime],[isGirlsLoliAnime]",
    "title": "ANIME_PIC_fa3c8a36f16ccf31cc38640da495869d",
    "link_img": "https://live.staticflickr.com/65535/51548854683_a119d0c1fc_o.png",
    "id_image": "ANIME_PIC_fa3c8a36f16ccf31cc38640da495869d",
    "count_view": 0
  },
  {
    "link_thumb": "https://live.staticflickr.com/65535/51549535820_9acf03887a_n.jpg",
    "id_album": "-316663319",
    "description": "ANIME_PIC_fa3cb6d14c2cbc0e7d3369d8e39b80da,[Girl],[isGirlAnime],[isCuteAnime]",
    "title": "ANIME_PIC_fa3cb6d14c2cbc0e7d3369d8e39b80da",
    "link_img": "https://live.staticflickr.com/65535/51549535820_efae25afc8_o.jpg",
    "id_image": "ANIME_PIC_fa3cb6d14c2cbc0e7d3369d8e39b80da",
    "count_view": 0
  },
  {
    "link_thumb": "https://live.staticflickr.com/65535/51548855188_f13f187701_n.jpg",
    "id_album": "-316663319",
    "description": "ANIME_PIC_fa3e78c79bcb0714dcdd56c6e8053cac,[Girl],[isGirlAnime],[isCuteAnime]",
    "title": "ANIME_PIC_fa3e78c79bcb0714dcdd56c6e8053cac",
    "link_img": "https://live.staticflickr.com/65535/51548855188_428a82bb60_o.jpg",
    "id_image": "ANIME_PIC_fa3e78c79bcb0714dcdd56c6e8053cac",
    "count_view": 0
  },
  {
    "link_thumb": "https://live.staticflickr.com/65535/51549343124_0b2d7437b8_n.jpg",
    "id_album": "-316663319",
    "description": "ANIME_PIC_fa3f408f8ab52f9da358fc14e700738f,[Girl],[isGirlAnime],[isCuteAnime],[isGirlsLoliAnime]",
    "title": "ANIME_PIC_fa3f408f8ab52f9da358fc14e700738f",
    "link_img": "https://live.staticflickr.com/65535/51549343124_31d2fe86e4_o.jpg",
    "id_image": "ANIME_PIC_fa3f408f8ab52f9da358fc14e700738f",
    "count_view": 0
  },
  {
    "link_thumb": "https://live.staticflickr.com/65535/51548855673_30bf7e4957_n.jpg",
    "id_album": "-316663319",
    "description": "ANIME_PIC_fa43b6eec85665e3c155d7cdfc1070ab,[Girl],[isGirlAnime],[isCuteAnime],[isGirlsLoliAnime],[isSadAnimeGirl],[isSadAnime]",
    "title": "ANIME_PIC_fa43b6eec85665e3c155d7cdfc1070ab",
    "link_img": "https://live.staticflickr.com/65535/51548855673_ae3479cbc4_o.png",
    "id_image": "ANIME_PIC_fa43b6eec85665e3c155d7cdfc1070ab",
    "count_view": 0
  },
  {
    "link_thumb": "https://live.staticflickr.com/65535/51549536820_2234a014ee_n.jpg",
    "id_album": "-316663319",
    "description": "ANIME_PIC_fa470361e8116708c25812f01814e4d1,[Girl],[isGirlAnime],[isCuteAnime],[isGirlsLoliAnime]",
    "title": "ANIME_PIC_fa470361e8116708c25812f01814e4d1",
    "link_img": "https://live.staticflickr.com/65535/51549536820_5d59ddbe04_o.jpg",
    "id_image": "ANIME_PIC_fa470361e8116708c25812f01814e4d1",
    "count_view": 0
  },
  {
    "link_thumb": "https://live.staticflickr.com/65535/51548617531_8973092407_n.jpg",
    "id_album": "-316663319",
    "description": "ANIME_PIC_fa476a4ab6bbbfd0f1f8498f9ae2fc4f,[Girl],[isGirlAnime],[isCuteAnime]",
    "title": "ANIME_PIC_fa476a4ab6bbbfd0f1f8498f9ae2fc4f",
    "link_img": "https://live.staticflickr.com/65535/51548617531_97168bc756_o.jpg",
    "id_image": "ANIME_PIC_fa476a4ab6bbbfd0f1f8498f9ae2fc4f",
    "count_view": 0
  },
  {
    "link_thumb": "https://live.staticflickr.com/65535/51549537265_b69379b815_n.jpg",
    "id_album": "-316663319",
    "description": "ANIME_PIC_fa48245064f4515f69b16b08679cd074,[Girl],[isGirlAnime],[isCuteAnime],[isGirlEarsNekoAnime],[isGirlsLoliAnime]",
    "title": "ANIME_PIC_fa48245064f4515f69b16b08679cd074",
    "link_img": "https://live.staticflickr.com/65535/51549537265_4639cd7e01_o.jpg",
    "id_image": "ANIME_PIC_fa48245064f4515f69b16b08679cd074",
    "count_view": 0
  },
  {
    "link_thumb": "https://live.staticflickr.com/65535/51548617996_98a0bd0fd8_n.jpg",
    "id_album": "-316663319",
    "description": "ANIME_PIC_fa48b705ba83938d65edbcc0d3bff0d9,[Girl],[isGirlAnime],[isCuteAnime],[isGirlsHatsHoodieAnime],[isSadAnimeGirl],[isSadAnime]",
    "title": "ANIME_PIC_fa48b705ba83938d65edbcc0d3bff0d9",
    "link_img": "https://live.staticflickr.com/65535/51548617996_b99e49d987_o.png",
    "id_image": "ANIME_PIC_fa48b705ba83938d65edbcc0d3bff0d9",
    "count_view": 0
  },
  {
    "link_thumb": "https://live.staticflickr.com/65535/51548856983_e98b0726ea_n.jpg",
    "id_album": "-316663319",
    "description": "ANIME_PIC_fa492518682530c39fc1bed5406b98c1,[Girl],[isGirlAnime],[isCuteAnime],[isGirlsLoliAnime],[isGirlsSharpCanineToothAnime]",
    "title": "ANIME_PIC_fa492518682530c39fc1bed5406b98c1",
    "link_img": "https://live.staticflickr.com/65535/51548856983_bc51ebbdab_o.jpg",
    "id_image": "ANIME_PIC_fa492518682530c39fc1bed5406b98c1",
    "count_view": 0
  },
  {
    "link_thumb": "https://live.staticflickr.com/65535/51549537965_a199e72850_n.jpg",
    "id_album": "-316663319",
    "description": "ANIME_PIC_fa49edf1d14db2be9a4a82aaae42952c,[Girl],[isGirlAnime],[isCuteAnime],[isGirlsHatsHoodieAnime],[isGirlsLoliAnime]",
    "title": "ANIME_PIC_fa49edf1d14db2be9a4a82aaae42952c",
    "link_img": "https://live.staticflickr.com/65535/51549537965_ddd95e1aa6_o.png",
    "id_image": "ANIME_PIC_fa49edf1d14db2be9a4a82aaae42952c",
    "count_view": 0
  },
  {
    "link_thumb": "https://live.staticflickr.com/65535/51548857753_4fa796e4c0_n.jpg",
    "id_album": "-316663319",
    "description": "ANIME_PIC_fa4f1a833167604e23d4a43623bafd4d,[Girl],[isGirlAnime],[isCuteAnime]",
    "title": "ANIME_PIC_fa4f1a833167604e23d4a43623bafd4d",
    "link_img": "https://live.staticflickr.com/65535/51548857753_615e13d076_o.png",
    "id_image": "ANIME_PIC_fa4f1a833167604e23d4a43623bafd4d",
    "count_view": 0
  },
  {
    "link_thumb": "https://live.staticflickr.com/65535/51547819457_eedea4bcdc_n.jpg",
    "id_album": "-316663319",
    "description": "ANIME_PIC_fa4f91fa6a95f97e998e903d2cb43064,[Girl],[isGirlAnime],[isCuteAnime],[isGirlsLoliAnime],[isSadAnimeGirl],[isSadAnime]",
    "title": "ANIME_PIC_fa4f91fa6a95f97e998e903d2cb43064",
    "link_img": "https://live.staticflickr.com/65535/51547819457_4eeb707cdc_o.jpg",
    "id_image": "ANIME_PIC_fa4f91fa6a95f97e998e903d2cb43064",
    "count_view": 0
  },
  {
    "link_thumb": "https://live.staticflickr.com/65535/51549345744_c7fb099001_n.jpg",
    "id_album": "-316663319",
    "description": "ANIME_PIC_fa509547c9be43e1e0359c82f699337c,[Girl],[isGirlAnime],[isCuteAnime],[isGirlsHatsHoodieAnime],[isGirlsLoliAnime]",
    "title": "ANIME_PIC_fa509547c9be43e1e0359c82f699337c",
    "link_img": "https://live.staticflickr.com/65535/51549345744_3b27c0defa_o.jpg",
    "id_image": "ANIME_PIC_fa509547c9be43e1e0359c82f699337c",
    "count_view": 0
  },
  {
    "link_thumb": "https://live.staticflickr.com/65535/51549345964_b3ab00775f_n.jpg",
    "id_album": "-316663319",
    "description": "ANIME_PIC_fa5635f183e01330dc1541c3aa875e04,[Girl],[isGirlAnime],[isSadAnimeGirl],[isSadAnime]",
    "title": "ANIME_PIC_fa5635f183e01330dc1541c3aa875e04",
    "link_img": "https://live.staticflickr.com/65535/51549345964_39ae6cedd5_o.jpg",
    "id_image": "ANIME_PIC_fa5635f183e01330dc1541c3aa875e04",
    "count_view": 0
  },
  {
    "link_thumb": "https://live.staticflickr.com/65535/51548619991_58d0c60c17_n.jpg",
    "id_album": "-316663319",
    "description": "ANIME_PIC_fa5aa705ff8627a8dc59c6e35a613d5d,[Girl],[isGirlAnime],[isCuteAnime],[isGirlsLoliAnime]",
    "title": "ANIME_PIC_fa5aa705ff8627a8dc59c6e35a613d5d",
    "link_img": "https://live.staticflickr.com/65535/51548619991_d3076d8191_o.jpg",
    "id_image": "ANIME_PIC_fa5aa705ff8627a8dc59c6e35a613d5d",
    "count_view": 0
  },
  {
    "link_thumb": "https://live.staticflickr.com/65535/51547820507_e3be6782a3_n.jpg",
    "id_album": "-316663319",
    "description": "ANIME_PIC_fa5abcb94eb7bed5972f802cbddf46cd,[Girl],[isGirlAnime],[isCuteAnime]",
    "title": "ANIME_PIC_fa5abcb94eb7bed5972f802cbddf46cd",
    "link_img": "https://live.staticflickr.com/65535/51547820507_624dc304f6_o.jpg",
    "id_image": "ANIME_PIC_fa5abcb94eb7bed5972f802cbddf46cd",
    "count_view": 0
  },
  {
    "link_thumb": "https://live.staticflickr.com/65535/51548620466_c053c8f49b_n.jpg",
    "id_album": "-316663319",
    "description": "ANIME_PIC_fa5c4795051ec9e0e36a548235aa9500,[Girl],[isGirlAnime],[isCuteAnime],[isSadAnimeGirl],[isSadAnime]",
    "title": "ANIME_PIC_fa5c4795051ec9e0e36a548235aa9500",
    "link_img": "https://live.staticflickr.com/65535/51548620466_492eb5e2d4_o.jpg",
    "id_image": "ANIME_PIC_fa5c4795051ec9e0e36a548235aa9500",
    "count_view": 0
  },
  {
    "link_thumb": "https://live.staticflickr.com/65535/51548620666_883f2b2949_n.jpg",
    "id_album": "-316663319",
    "description": "ANIME_PIC_fa5d7c2870d3ff88c087b9d1d5db8f2a,[Girl],[isGirlAnime],[isCuteAnime],[isGirlFaceMasksAnime]",
    "title": "ANIME_PIC_fa5d7c2870d3ff88c087b9d1d5db8f2a",
    "link_img": "https://live.staticflickr.com/65535/51548620666_bbb33f31df_o.jpg",
    "id_image": "ANIME_PIC_fa5d7c2870d3ff88c087b9d1d5db8f2a",
    "count_view": 0
  },
  {
    "link_thumb": "https://live.staticflickr.com/65535/51549540345_8858c4b746_n.jpg",
    "id_album": "-316663319",
    "description": "ANIME_PIC_fa5f2889b9940222d9fce38ec9d019b8,[Girl],[isGirlAnime],[isCuteAnime],[isGirlsLoliAnime]",
    "title": "ANIME_PIC_fa5f2889b9940222d9fce38ec9d019b8",
    "link_img": "https://live.staticflickr.com/65535/51549540345_f50e6a3d13_o.jpg",
    "id_image": "ANIME_PIC_fa5f2889b9940222d9fce38ec9d019b8",
    "count_view": 0
  },
  {
    "link_thumb": "https://live.staticflickr.com/65535/51548621091_65986882fb_n.jpg",
    "id_album": "-316663319",
    "description": "ANIME_PIC_fa6175f2d6fc19ef74bb41dc2cebf43f,[Girl],[isGirlAnime],[isCuteAnime]",
    "title": "ANIME_PIC_fa6175f2d6fc19ef74bb41dc2cebf43f",
    "link_img": "https://live.staticflickr.com/65535/51548621091_102a16439c_o.jpg",
    "id_image": "ANIME_PIC_fa6175f2d6fc19ef74bb41dc2cebf43f",
    "count_view": 0
  },
  {
    "link_thumb": "https://live.staticflickr.com/65535/51548621226_02cf86e7d2_n.jpg",
    "id_album": "-316663319",
    "description": "ANIME_PIC_fa61d5d17cea7de2fe4b8fe2ebc87008,[Girl],[isGirlAnime],[isCuteAnime],[isGirlsHatsHoodieAnime],[isGirlsLoliAnime]",
    "title": "ANIME_PIC_fa61d5d17cea7de2fe4b8fe2ebc87008",
    "link_img": "https://live.staticflickr.com/65535/51548621226_f78879a5ee_o.png",
    "id_image": "ANIME_PIC_fa61d5d17cea7de2fe4b8fe2ebc87008",
    "count_view": 0
  },
  {
    "link_thumb": "https://live.staticflickr.com/65535/51549541025_e0cf8f63a0_n.jpg",
    "id_album": "-316663319",
    "description": "ANIME_PIC_fa6286460e5611ef03a843e677912c9d,[Girl],[isGirlAnime],[isCuteAnime],[isGirlsLoliAnime],[isSadAnimeGirl],[isSadAnime]",
    "title": "ANIME_PIC_fa6286460e5611ef03a843e677912c9d",
    "link_img": "https://live.staticflickr.com/65535/51549541025_8e6765f885_o.jpg",
    "id_image": "ANIME_PIC_fa6286460e5611ef03a843e677912c9d",
    "count_view": 0
  },
  {
    "link_thumb": "https://live.staticflickr.com/65535/51547822182_8e4d021b7f_n.jpg",
    "id_album": "-316663319",
    "description": "ANIME_PIC_fa62d444bb1504399f83da8640ef8c89,[Girl],[isGirlAnime],[isCuteAnime],[isGirlsLoliAnime],[isSadAnimeGirl],[isSadAnime]",
    "title": "ANIME_PIC_fa62d444bb1504399f83da8640ef8c89",
    "link_img": "https://live.staticflickr.com/65535/51547822182_50a7091125_o.jpg",
    "id_image": "ANIME_PIC_fa62d444bb1504399f83da8640ef8c89",
    "count_view": 0
  },
  {
    "link_thumb": "https://live.staticflickr.com/65535/51548621881_386634988d_n.jpg",
    "id_album": "-316663319",
    "description": "ANIME_PIC_fa715ec0f303907636268fe7a9135124,[Girl],[isGirlAnime],[isCuteAnime]",
    "title": "ANIME_PIC_fa715ec0f303907636268fe7a9135124",
    "link_img": "https://live.staticflickr.com/65535/51548621881_6aa3483171_o.jpg",
    "id_image": "ANIME_PIC_fa715ec0f303907636268fe7a9135124",
    "count_view": 0
  },
  {
    "link_thumb": "https://live.staticflickr.com/65535/51549541720_10a801c3c1_n.jpg",
    "id_album": "-316663319",
    "description": "ANIME_PIC_fa7885e98b5256af90ea7ffdbfe71063,[Girl],[isGirlAnime],[isCuteAnime]",
    "title": "ANIME_PIC_fa7885e98b5256af90ea7ffdbfe71063",
    "link_img": "https://live.staticflickr.com/65535/51549541720_a15e8ca113_o.jpg",
    "id_image": "ANIME_PIC_fa7885e98b5256af90ea7ffdbfe71063",
    "count_view": 0
  },
  {
    "link_thumb": "https://live.staticflickr.com/65535/51549348739_cfd2169eb4_n.jpg",
    "id_album": "-316663319",
    "description": "ANIME_PIC_fa7cfef62bfc3ef36b6297928b866654,[Girl],[isGirlAnime],[isCuteAnime],[isGirlsLoliAnime],[isSadAnimeGirl],[isSadAnime]",
    "title": "ANIME_PIC_fa7cfef62bfc3ef36b6297928b866654",
    "link_img": "https://live.staticflickr.com/65535/51549348739_71579af0cd_o.jpg",
    "id_image": "ANIME_PIC_fa7cfef62bfc3ef36b6297928b866654",
    "count_view": 0
  },
  {
    "link_thumb": "https://live.staticflickr.com/65535/51548622646_c766677e2f_n.jpg",
    "id_album": "-316663319",
    "description": "ANIME_PIC_fa7dbe705e92c54011bcc5be008f1b62,[Girl],[isGirlAnime],[isCuteAnime],[isGirlsLoliAnime]",
    "title": "ANIME_PIC_fa7dbe705e92c54011bcc5be008f1b62",
    "link_img": "https://live.staticflickr.com/65535/51548622646_19f015f3d5_o.png",
    "id_image": "ANIME_PIC_fa7dbe705e92c54011bcc5be008f1b62",
    "count_view": 0
  },
  {
    "link_thumb": "https://live.staticflickr.com/65535/51548861778_79402e798f_n.jpg",
    "id_album": "-316663319",
    "description": "ANIME_PIC_fa812b73d66baf2e18c3abeac5b4935f,[Girl],[isGirlAnime],[isCuteAnime],[isGirlsLoliAnime]",
    "title": "ANIME_PIC_fa812b73d66baf2e18c3abeac5b4935f",
    "link_img": "https://live.staticflickr.com/65535/51548861778_6d3cef1d16_o.png",
    "id_image": "ANIME_PIC_fa812b73d66baf2e18c3abeac5b4935f",
    "count_view": 0
  },
  {
    "link_thumb": "https://live.staticflickr.com/65535/51548623381_a576ac2a14_n.jpg",
    "id_album": "-316663319",
    "description": "ANIME_PIC_fa8455c9f9881321da4c51456ca36149,[Girl],[isGirlAnime],[isGirlsHornsAnime]",
    "title": "ANIME_PIC_fa8455c9f9881321da4c51456ca36149",
    "link_img": "https://live.staticflickr.com/65535/51548623381_caf0238bb9_o.png",
    "id_image": "ANIME_PIC_fa8455c9f9881321da4c51456ca36149",
    "count_view": 0
  },
  {
    "link_thumb": "https://live.staticflickr.com/65535/51548623851_730690ed99_n.jpg",
    "id_album": "-316663319",
    "description": "ANIME_PIC_fa869d4fd7dd3a0aa3a26408850671d1,[Girl],[isGirlAnime],[isCuteAnime]",
    "title": "ANIME_PIC_fa869d4fd7dd3a0aa3a26408850671d1",
    "link_img": "https://live.staticflickr.com/65535/51548623851_3118efeaeb_o.jpg",
    "id_image": "ANIME_PIC_fa869d4fd7dd3a0aa3a26408850671d1",
    "count_view": 0
  },
  {
    "link_thumb": "https://live.staticflickr.com/65535/51549350344_166aa51738_n.jpg",
    "id_album": "-316663319",
    "description": "ANIME_PIC_fa8cd80bcfc1d351e3791699bee93d52,[Girl],[isGirlAnime],[isCuteAnime]",
    "title": "ANIME_PIC_fa8cd80bcfc1d351e3791699bee93d52",
    "link_img": "https://live.staticflickr.com/65535/51549350344_0a10899f90_o.jpg",
    "id_image": "ANIME_PIC_fa8cd80bcfc1d351e3791699bee93d52",
    "count_view": 0
  },
  {
    "link_thumb": "https://live.staticflickr.com/65535/51549543855_03c82cacf4_n.jpg",
    "id_album": "-316663319",
    "description": "ANIME_PIC_fa9152eecfc957281472dfd596eeb077,[Girl],[isGirlAnime],[isCuteAnime]",
    "title": "ANIME_PIC_fa9152eecfc957281472dfd596eeb077",
    "link_img": "https://live.staticflickr.com/65535/51549543855_f7447e0e08_o.jpg",
    "id_image": "ANIME_PIC_fa9152eecfc957281472dfd596eeb077",
    "count_view": 0
  },
  {
    "link_thumb": "https://live.staticflickr.com/65535/51547825407_92e30a6bcc_n.jpg",
    "id_album": "-316663319",
    "description": "ANIME_PIC_fa96c09cd161a53aed25687bf4db3cdd,[Girl],[isGirlAnime],[isCuteAnime]",
    "title": "ANIME_PIC_fa96c09cd161a53aed25687bf4db3cdd",
    "link_img": "https://live.staticflickr.com/65535/51547825407_0c554767c5_o.png",
    "id_image": "ANIME_PIC_fa96c09cd161a53aed25687bf4db3cdd",
    "count_view": 0
  },
  {
    "link_thumb": "https://live.staticflickr.com/65535/51548864133_c6b1430cd0_n.jpg",
    "id_album": "-316663319",
    "description": "ANIME_PIC_fa98fbc2d73cb280eb6f93937b03414c,[Girl],[isGirlAnime],[isCuteAnime],[isGirlsLoliAnime],[isSadAnimeGirl],[isSadAnime]",
    "title": "ANIME_PIC_fa98fbc2d73cb280eb6f93937b03414c",
    "link_img": "https://live.staticflickr.com/65535/51548864133_332c778d52_o.png",
    "id_image": "ANIME_PIC_fa98fbc2d73cb280eb6f93937b03414c",
    "count_view": 0
  },
  {
    "link_thumb": "https://live.staticflickr.com/65535/51548864558_670f7ecf51_n.jpg",
    "id_album": "-316663319",
    "description": "ANIME_PIC_fa99c4fafd305ea02b3c4aa657c2bfa5,[Girl],[isGirlAnime],[isCuteAnime],[isGirlsLoliAnime]",
    "title": "ANIME_PIC_fa99c4fafd305ea02b3c4aa657c2bfa5",
    "link_img": "https://live.staticflickr.com/65535/51548864558_d1028080da_o.png",
    "id_image": "ANIME_PIC_fa99c4fafd305ea02b3c4aa657c2bfa5",
    "count_view": 0
  },
  {
    "link_thumb": "https://live.staticflickr.com/65535/51549545485_aac020f36b_n.jpg",
    "id_album": "-316663319",
    "description": "ANIME_PIC_fa9a631311c24b3b2b2a124680d84d01,[Girl],[isGirlAnime],[isCuteAnime],[isGirlsHatsHoodieAnime],[isGirlsLoliAnime],[isSadAnimeGirl],[isSadAnime]",
    "title": "ANIME_PIC_fa9a631311c24b3b2b2a124680d84d01",
    "link_img": "https://live.staticflickr.com/65535/51549545485_ded6e5dffe_o.png",
    "id_image": "ANIME_PIC_fa9a631311c24b3b2b2a124680d84d01",
    "count_view": 0
  },
  {
    "link_thumb": "https://live.staticflickr.com/65535/51549352409_b3256face8_n.jpg",
    "id_album": "-316663319",
    "description": "ANIME_PIC_fa9e0c65d20787c94bcf669ba13c7ca4,[Girl],[isGirlAnime],[isCuteAnime]",
    "title": "ANIME_PIC_fa9e0c65d20787c94bcf669ba13c7ca4",
    "link_img": "https://live.staticflickr.com/65535/51549352409_74f632749d_o.png",
    "id_image": "ANIME_PIC_fa9e0c65d20787c94bcf669ba13c7ca4",
    "count_view": 0
  },
  {
    "link_thumb": "https://live.staticflickr.com/65535/51549546120_0e6f5df8c9_n.jpg",
    "id_album": "-316663319",
    "description": "ANIME_PIC_fa9f0f78f028eb47037d4d95e4ed0211,[Girl],[isGirlAnime],[isCuteAnime]",
    "title": "ANIME_PIC_fa9f0f78f028eb47037d4d95e4ed0211",
    "link_img": "https://live.staticflickr.com/65535/51549546120_31976ccd4a_o.jpg",
    "id_image": "ANIME_PIC_fa9f0f78f028eb47037d4d95e4ed0211",
    "count_view": 0
  },
  {
    "link_thumb": "https://live.staticflickr.com/65535/51549353074_a2699c7c5f_n.jpg",
    "id_album": "-316663319",
    "description": "ANIME_PIC_fa9f5763c446185f2eadc241a9df503e,[Girl],[isGirlAnime],[isCuteAnime],[isGirlsLoliAnime],[isSadAnimeGirl],[isSadAnime]",
    "title": "ANIME_PIC_fa9f5763c446185f2eadc241a9df503e",
    "link_img": "https://live.staticflickr.com/65535/51549353074_08259c0785_o.png",
    "id_image": "ANIME_PIC_fa9f5763c446185f2eadc241a9df503e",
    "count_view": 0
  },
  {
    "link_thumb": "https://live.staticflickr.com/65535/51549353464_edcf016c3b_n.jpg",
    "id_album": "-316663319",
    "description": "ANIME_PIC_faa05b9ffda4e8fbd3a11d0d625ebe00,[Girl],[isGirlAnime],[isCuteAnime],[isGirlEarsNekoAnime],[isGirlsHatsHoodieAnime],[isGirlsLoliAnime],[isGirlsSharpCanineToothAnime]",
    "title": "ANIME_PIC_faa05b9ffda4e8fbd3a11d0d625ebe00",
    "link_img": "https://live.staticflickr.com/65535/51549353464_f908fb739e_o.jpg",
    "id_image": "ANIME_PIC_faa05b9ffda4e8fbd3a11d0d625ebe00",
    "count_view": 0
  },
  {
    "link_thumb": "https://live.staticflickr.com/65535/51547828352_14577a6e59_n.jpg",
    "id_album": "-316663319",
    "description": "ANIME_PIC_faa59a2539ceb71c8c2fc79945cd279d,[Girl],[isGirlAnime],[isCuteAnime],[isGirlEarsNekoAnime],[isGirlsLoliAnime],[isSadAnimeGirl],[isSadAnime]",
    "title": "ANIME_PIC_faa59a2539ceb71c8c2fc79945cd279d",
    "link_img": "https://live.staticflickr.com/65535/51547828352_6623ee630f_o.jpg",
    "id_image": "ANIME_PIC_faa59a2539ceb71c8c2fc79945cd279d",
    "count_view": 0
  },
  {
    "link_thumb": "https://live.staticflickr.com/65535/51549353984_9738f77f21_n.jpg",
    "id_album": "-316663319",
    "description": "ANIME_PIC_faa656fbbedd641a158747edb2a5b4dc,[Girl],[isGirlAnime],[isCuteAnime],[isGirlsLoliAnime]",
    "title": "ANIME_PIC_faa656fbbedd641a158747edb2a5b4dc",
    "link_img": "https://live.staticflickr.com/65535/51549353984_a4e96265c4_o.jpg",
    "id_image": "ANIME_PIC_faa656fbbedd641a158747edb2a5b4dc",
    "count_view": 0
  },
  {
    "link_thumb": "https://live.staticflickr.com/65535/51547828797_6963200cf8_n.jpg",
    "id_album": "-316663319",
    "description": "ANIME_PIC_faa89513def14ffd7ddb689794e914ce,[Girl],[isGirlAnime],[isCuteAnime]",
    "title": "ANIME_PIC_faa89513def14ffd7ddb689794e914ce",
    "link_img": "https://live.staticflickr.com/65535/51547828797_989bb0393e_o.jpg",
    "id_image": "ANIME_PIC_faa89513def14ffd7ddb689794e914ce",
    "count_view": 0
  },
  {
    "link_thumb": "https://live.staticflickr.com/65535/51548867048_00c9f4a639_n.jpg",
    "id_album": "-316663319",
    "description": "ANIME_PIC_faaa3fe5833a4660d739595807c41d1f,[Girl],[isGirlAnime],[isCuteAnime],[isGirlsLoliAnime]",
    "title": "ANIME_PIC_faaa3fe5833a4660d739595807c41d1f",
    "link_img": "https://live.staticflickr.com/65535/51548867048_737525a9f8_o.jpg",
    "id_image": "ANIME_PIC_faaa3fe5833a4660d739595807c41d1f",
    "count_view": 0
  },
  {
    "link_thumb": "https://live.staticflickr.com/65535/51548867238_5637deafa8_n.jpg",
    "id_album": "-316663319",
    "description": "ANIME_PIC_faab36555f8cfc190ad910f7e8d1245d,[Girl],[isGirlAnime],[isCuteAnime],[isSadAnimeGirl],[isSadAnime]",
    "title": "ANIME_PIC_faab36555f8cfc190ad910f7e8d1245d",
    "link_img": "https://live.staticflickr.com/65535/51548867238_46f45d9644_o.jpg",
    "id_image": "ANIME_PIC_faab36555f8cfc190ad910f7e8d1245d",
    "count_view": 0
  },
  {
    "link_thumb": "https://live.staticflickr.com/65535/51547829427_915453261c_n.jpg",
    "id_album": "-316663319",
    "description": "ANIME_PIC_fab001effd5de5c497bed3e4df7e90e1,[Girl],[isGirlAnime],[isCuteAnime],[isGirlsLoliAnime]",
    "title": "ANIME_PIC_fab001effd5de5c497bed3e4df7e90e1",
    "link_img": "https://live.staticflickr.com/65535/51547829427_3cf6a08704_o.jpg",
    "id_image": "ANIME_PIC_fab001effd5de5c497bed3e4df7e90e1",
    "count_view": 0
  },
  {
    "link_thumb": "https://live.staticflickr.com/65535/51549548335_d39c743d71_n.jpg",
    "id_album": "-316663319",
    "description": "ANIME_PIC_fab03c0df13b25f9cc112c37be3ef64c,[Girl],[isGirlAnime],[isCuteAnime]",
    "title": "ANIME_PIC_fab03c0df13b25f9cc112c37be3ef64c",
    "link_img": "https://live.staticflickr.com/65535/51549548335_a16f426e3b_o.jpg",
    "id_image": "ANIME_PIC_fab03c0df13b25f9cc112c37be3ef64c",
    "count_view": 0
  },
  {
    "link_thumb": "https://live.staticflickr.com/65535/51549355279_dc9e463260_n.jpg",
    "id_album": "-316663319",
    "description": "ANIME_PIC_fab07245719e70b41b4eb57fe9f22daf,[Girl],[isGirlAnime],[isCuteAnime],[isGirlsLoliAnime]",
    "title": "ANIME_PIC_fab07245719e70b41b4eb57fe9f22daf",
    "link_img": "https://live.staticflickr.com/65535/51549355279_7d87c2d8ef_o.jpg",
    "id_image": "ANIME_PIC_fab07245719e70b41b4eb57fe9f22daf",
    "count_view": 0
  },
  {
    "link_thumb": "https://live.staticflickr.com/65535/51549355484_66ff3bc5e3_n.jpg",
    "id_album": "-316663319",
    "description": "ANIME_PIC_fab834e5cc6111d61b28b9adf954e963,[Girl],[isGirlAnime],[isCuteAnime],[isGirlsLoliAnime],[isSadAnimeGirl],[isSadAnime]",
    "title": "ANIME_PIC_fab834e5cc6111d61b28b9adf954e963",
    "link_img": "https://live.staticflickr.com/65535/51549355484_a9cc481af7_o.png",
    "id_image": "ANIME_PIC_fab834e5cc6111d61b28b9adf954e963",
    "count_view": 0
  },
  {
    "link_thumb": "https://live.staticflickr.com/65535/51549549125_8ee4bc522d_n.jpg",
    "id_album": "-316663319",
    "description": "ANIME_PIC_fab84efc061f68e490cfb3000fec2b10,[Girl],[isGirlAnime],[isCuteAnime]",
    "title": "ANIME_PIC_fab84efc061f68e490cfb3000fec2b10",
    "link_img": "https://live.staticflickr.com/65535/51549549125_b4a28283a9_o.jpg",
    "id_image": "ANIME_PIC_fab84efc061f68e490cfb3000fec2b10",
    "count_view": 0
  },
  {
    "link_thumb": "https://live.staticflickr.com/65535/51547830732_93cb54602f_n.jpg",
    "id_album": "-316663319",
    "description": "ANIME_PIC_fab88eaad9e6b4fad51fc9560f3207d5,[Girl],[isGirlAnime],[isCuteAnime],[isGirlsLoliAnime]",
    "title": "ANIME_PIC_fab88eaad9e6b4fad51fc9560f3207d5",
    "link_img": "https://live.staticflickr.com/65535/51547830732_ca121b097a_o.jpg",
    "id_image": "ANIME_PIC_fab88eaad9e6b4fad51fc9560f3207d5",
    "count_view": 0
  },
  {
    "link_thumb": "https://live.staticflickr.com/65535/51549549525_265be1a555_n.jpg",
    "id_album": "-316663319",
    "description": "ANIME_PIC_fab9775fe6882102f18d8800ec6f008b,[Girl],[isGirlAnime],[isCuteAnime],[isGirlsHatsHoodieAnime]",
    "title": "ANIME_PIC_fab9775fe6882102f18d8800ec6f008b",
    "link_img": "https://live.staticflickr.com/65535/51549549525_ebff74ef24_o.jpg",
    "id_image": "ANIME_PIC_fab9775fe6882102f18d8800ec6f008b",
    "count_view": 0
  },
  {
    "link_thumb": "https://live.staticflickr.com/65535/51548869018_5bef155cbd_n.jpg",
    "id_album": "-316663319",
    "description": "ANIME_PIC_fab98001dee858a6bb972f79796acbde,[Girl],[isGirlAnime],[isCuteAnime]",
    "title": "ANIME_PIC_fab98001dee858a6bb972f79796acbde",
    "link_img": "https://live.staticflickr.com/65535/51548869018_e4bf188485_o.jpg",
    "id_image": "ANIME_PIC_fab98001dee858a6bb972f79796acbde",
    "count_view": 0
  },
  {
    "link_thumb": "https://live.staticflickr.com/65535/51548869183_ee36b77625_n.jpg",
    "id_album": "-316663319",
    "description": "ANIME_PIC_faba58a1cba2e8be424ba459a1583e72,[Girl],[isGirlAnime],[isCuteAnime]",
    "title": "ANIME_PIC_faba58a1cba2e8be424ba459a1583e72",
    "link_img": "https://live.staticflickr.com/65535/51548869183_f02ccbc51c_o.jpg",
    "id_image": "ANIME_PIC_faba58a1cba2e8be424ba459a1583e72",
    "count_view": 0
  },
  {
    "link_thumb": "https://live.staticflickr.com/65535/51548630921_1abb6ff41d_n.jpg",
    "id_album": "-316663319",
    "description": "ANIME_PIC_fabe4ae4c0b3f82b58cb43f0bdd97bab,[Girl],[isGirlAnime],[isCuteAnime],[isGirlsLoliAnime]",
    "title": "ANIME_PIC_fabe4ae4c0b3f82b58cb43f0bdd97bab",
    "link_img": "https://live.staticflickr.com/65535/51548630921_db6e718451_o.jpg",
    "id_image": "ANIME_PIC_fabe4ae4c0b3f82b58cb43f0bdd97bab",
    "count_view": 0
  },
  {
    "link_thumb": "https://live.staticflickr.com/65535/51549356964_0b4a3d953f_n.jpg",
    "id_album": "-316663319",
    "description": "ANIME_PIC_fac090b1f469f55c750830bf2ee716bc,[Girl],[isGirlAnime],[isCuteAnime],[isGirlsHatsHoodieAnime],[isGirlsLoliAnime],[isGirlsSharpCanineToothAnime]",
    "title": "ANIME_PIC_fac090b1f469f55c750830bf2ee716bc",
    "link_img": "https://live.staticflickr.com/65535/51549356964_3160cb11ee_o.png",
    "id_image": "ANIME_PIC_fac090b1f469f55c750830bf2ee716bc",
    "count_view": 0
  },
  {
    "link_thumb": "https://live.staticflickr.com/65535/51549357389_cd49b2986c_n.jpg",
    "id_album": "-316663319",
    "description": "ANIME_PIC_fac26d2550eb50967a28ec35b72e0c79,[Girl],[isGirlAnime],[isCuteAnime],[isSceneryArts]",
    "title": "ANIME_PIC_fac26d2550eb50967a28ec35b72e0c79",
    "link_img": "https://live.staticflickr.com/65535/51549357389_25cc6d0bff_o.jpg",
    "id_image": "ANIME_PIC_fac26d2550eb50967a28ec35b72e0c79",
    "count_view": 0
  },
  {
    "link_thumb": "https://live.staticflickr.com/65535/51549550785_7a69a7379b_n.jpg",
    "id_album": "-316663319",
    "description": "ANIME_PIC_fac78488d74b4d18deb3d19229616f08,[Girl],[isGirlAnime],[isCuteAnime],[isGirlsLoliAnime]",
    "title": "ANIME_PIC_fac78488d74b4d18deb3d19229616f08",
    "link_img": "https://live.staticflickr.com/65535/51549550785_eef555743c_o.jpg",
    "id_image": "ANIME_PIC_fac78488d74b4d18deb3d19229616f08",
    "count_view": 0
  },
  {
    "link_thumb": "https://live.staticflickr.com/65535/51547832387_44d551ba70_n.jpg",
    "id_album": "-316663319",
    "description": "ANIME_PIC_fac83097a3cfeb00a177d7764a639b7e,[Girl],[isGirlAnime],[isCuteAnime],[isGirlsHatsHoodieAnime],[isGirlsLoliAnime]",
    "title": "ANIME_PIC_fac83097a3cfeb00a177d7764a639b7e",
    "link_img": "https://live.staticflickr.com/65535/51547832387_be2259d9cb_o.jpg",
    "id_image": "ANIME_PIC_fac83097a3cfeb00a177d7764a639b7e",
    "count_view": 0
  },
  {
    "link_thumb": "https://live.staticflickr.com/65535/51549551150_5d13998116_n.jpg",
    "id_album": "-316663319",
    "description": "ANIME_PIC_facf1b2a8d975d7a713cfc3b825639f4,[Girl],[isGirlAnime],[isCuteAnime],[isGirlsLoliAnime],[isSadAnimeGirl],[isSadAnime]",
    "title": "ANIME_PIC_facf1b2a8d975d7a713cfc3b825639f4",
    "link_img": "https://live.staticflickr.com/65535/51549551150_a208737d4a_o.jpg",
    "id_image": "ANIME_PIC_facf1b2a8d975d7a713cfc3b825639f4",
    "count_view": 0
  },
  {
    "link_thumb": "https://live.staticflickr.com/65535/51549358264_acf07ce7e3_n.jpg",
    "id_album": "-316663319",
    "description": "ANIME_PIC_fad0375d3b01b8e060a423ef6d40e7d9,[Girl],[isGirlAnime],[isCuteAnime]",
    "title": "ANIME_PIC_fad0375d3b01b8e060a423ef6d40e7d9",
    "link_img": "https://live.staticflickr.com/65535/51549358264_1ddc2ae83d_o.jpg",
    "id_image": "ANIME_PIC_fad0375d3b01b8e060a423ef6d40e7d9",
    "count_view": 0
  },
  {
    "link_thumb": "https://live.staticflickr.com/65535/51548870933_93b86fb4cf_n.jpg",
    "id_album": "-316663319",
    "description": "ANIME_PIC_fad2b331495efbfac0400540b4a480c2,[Girl],[isGirlAnime],[isCuteAnime],[isSadAnimeGirl],[isSadAnime]",
    "title": "ANIME_PIC_fad2b331495efbfac0400540b4a480c2",
    "link_img": "https://live.staticflickr.com/65535/51548870933_59de115083_o.jpg",
    "id_image": "ANIME_PIC_fad2b331495efbfac0400540b4a480c2",
    "count_view": 0
  },
  {
    "link_thumb": "https://live.staticflickr.com/65535/51548632981_2d24a22fc6_n.jpg",
    "id_album": "-316663319",
    "description": "ANIME_PIC_fad46f105b9b057f8e75d0ba17ee1add,[Girl],[isGirlAnime],[isCuteAnime],[isGirlsHatsHoodieAnime],[isGirlsLoliAnime]",
    "title": "ANIME_PIC_fad46f105b9b057f8e75d0ba17ee1add",
    "link_img": "https://live.staticflickr.com/65535/51548632981_9fb86bca1e_o.jpg",
    "id_image": "ANIME_PIC_fad46f105b9b057f8e75d0ba17ee1add",
    "count_view": 0
  },
  {
    "link_thumb": "https://live.staticflickr.com/65535/51549552115_afea2d67dc_n.jpg",
    "id_album": "-316663319",
    "description": "ANIME_PIC_fad5f982403cab034215692e61d8dbec,[Girl],[isGirlAnime],[isCuteAnime]",
    "title": "ANIME_PIC_fad5f982403cab034215692e61d8dbec",
    "link_img": "https://live.staticflickr.com/65535/51549552115_c1358b194f_o.jpg",
    "id_image": "ANIME_PIC_fad5f982403cab034215692e61d8dbec",
    "count_view": 0
  },
  {
    "link_thumb": "https://live.staticflickr.com/65535/51547833842_d8b0ab40a8_n.jpg",
    "id_album": "-316663319",
    "description": "ANIME_PIC_fad66e215579c5e92b2d851d44595e2e,[Girl],[isGirlAnime],[isCuteAnime],[isGirlEarsNekoAnime],[isGirlsLoliAnime]",
    "title": "ANIME_PIC_fad66e215579c5e92b2d851d44595e2e",
    "link_img": "https://live.staticflickr.com/65535/51547833842_3c3c61d70d_o.jpg",
    "id_image": "ANIME_PIC_fad66e215579c5e92b2d851d44595e2e",
    "count_view": 0
  },
  {
    "link_thumb": "https://live.staticflickr.com/65535/51549359384_87e13011ed_n.jpg",
    "id_album": "-316663319",
    "description": "ANIME_PIC_fad8a262c905fa873c8e2c7cdd507534,[Girl],[isGirlAnime],[isCuteAnime],[isGirlsLoliAnime]",
    "title": "ANIME_PIC_fad8a262c905fa873c8e2c7cdd507534",
    "link_img": "https://live.staticflickr.com/65535/51549359384_8a9bb6bb3c_o.jpg",
    "id_image": "ANIME_PIC_fad8a262c905fa873c8e2c7cdd507534",
    "count_view": 0
  },
  {
    "link_thumb": "https://live.staticflickr.com/65535/51548872003_a48a153cd8_n.jpg",
    "id_album": "-316663319",
    "description": "ANIME_PIC_fadafa5bcbd27b7251ef04d621f7f0bc,[Girl],[isGirlAnime],[isCuteAnime],[isGirlsLoliAnime]",
    "title": "ANIME_PIC_fadafa5bcbd27b7251ef04d621f7f0bc",
    "link_img": "https://live.staticflickr.com/65535/51548872003_7f9e76460d_o.jpg",
    "id_image": "ANIME_PIC_fadafa5bcbd27b7251ef04d621f7f0bc",
    "count_view": 0
  },
  {
    "link_thumb": "https://live.staticflickr.com/65535/51549359844_95983ac9db_n.jpg",
    "id_album": "-316663319",
    "description": "ANIME_PIC_fae109362d352a8af62eafc40beaf5ed,[Girl],[isGirlAnime],[isCuteAnime]",
    "title": "ANIME_PIC_fae109362d352a8af62eafc40beaf5ed",
    "link_img": "https://live.staticflickr.com/65535/51549359844_97771d7ec9_o.jpg",
    "id_image": "ANIME_PIC_fae109362d352a8af62eafc40beaf5ed",
    "count_view": 0
  },
  {
    "link_thumb": "https://live.staticflickr.com/65535/51548634311_43fb9b1c2f_n.jpg",
    "id_album": "-316663319",
    "description": "ANIME_PIC_fae2b27c08ff8ca3f250aa511ced71a9,[Girl],[isGirlAnime],[isCuteAnime],[isGirlsLoliAnime]",
    "title": "ANIME_PIC_fae2b27c08ff8ca3f250aa511ced71a9",
    "link_img": "https://live.staticflickr.com/65535/51548634311_b256b4fc2b_o.png",
    "id_image": "ANIME_PIC_fae2b27c08ff8ca3f250aa511ced71a9",
    "count_view": 0
  },
  {
    "link_thumb": "https://live.staticflickr.com/65535/51549553515_493043e079_n.jpg",
    "id_album": "-316663319",
    "description": "ANIME_PIC_fae331b78a3c6a5d143a09aa6ada3244,[Girl],[isGirlAnime],[isCuteAnime],[isGirlsHatsHoodieAnime],[isGirlsLoliAnime]",
    "title": "ANIME_PIC_fae331b78a3c6a5d143a09aa6ada3244",
    "link_img": "https://live.staticflickr.com/65535/51549553515_80f6f3afb2_o.png",
    "id_image": "ANIME_PIC_fae331b78a3c6a5d143a09aa6ada3244",
    "count_view": 0
  }
]