[
  {
    "total_img": 15136,
    "number_page": 76,
    "title": "Girls Loli",
    "tag": "Girls Loli,",
    "description": "Girls Loli",
    "link_thumb": "https://live.staticflickr.com/65535/51542199025_2343ce2f5b_n.jpg",
    "id_album": "-1584065887",
    "total_view": 15136
  },
  {
    "total_img": 6447,
    "number_page": 33,
    "title": "Girls Sad",
    "tag": "Girls Sad,",
    "description": "Girls Sad",
    "link_thumb": "https://live.staticflickr.com/65535/51540482412_c1e8ea7f3c_n.jpg",
    "id_album": "1650283598",
    "total_view": 6447
  }
]