[
  {
    "link_thumb": "https://live.staticflickr.com/65535/47992611842_ce23522303_n.jpg",
    "id_album": "84226967",
    "description": "GodEater_642264",
    "title": "GodEater_642264",
    "link_img": "https://live.staticflickr.com/65535/47992611842_01ccd16f36_o.jpg",
    "id_image": "GodEater_642264",
    "count_view": 0
  },
  {
    "link_thumb": "https://live.staticflickr.com/65535/47992618357_d3967f30d8_n.jpg",
    "id_album": "84226967",
    "description": "GodEater_665545",
    "title": "GodEater_665545",
    "link_img": "https://live.staticflickr.com/65535/47992618357_fbb774c886_o.jpg",
    "id_image": "GodEater_665545",
    "count_view": 0
  }
]