[
  {
    "total_img": 33,
    "number_page": 1,
    "title": "Seraph of the End",
    "tag": "Water, Sky, Green Eyes, Moon, Apocalypse, Yoichi Saotome, Scythe, Black Hair, Guren Ichinose, Uniform, Crying, Glow, Weapon, Long Hair, Thigh Highs, Beach, Anime, Sword, Yuichiro Hyakuya, Fangs, Bikini, Headdress, Braid, Fence, Collar, Mahiru Hiragi, Glove, Purple Eyes, Purple Hair, Makoto Narumi, Demon, Reflection, Black Dress, Smile, Boy, Red Eyes, Shigure Yukimi, Skirt, Kureto Hiragi, Asuramaru Seraph Of The End, Belt, Blush, Man, Orange Eyes, Angry, Shinoa Hiragi, Sitting, Glass, White Dress, Blonde, Twintails, Barefoot, Mitsuba Sangu, Akane Hyakuya, bow Clothing, Krul Tepes, Short Hair, Katana, Window, Flower, Dress, Brown Eyes, Brown Hair, Pink Eyes, Headband, Pink Hair, School Uniform, Cape, Shiho Kimizuki, Post Apocalyptic, Mikaela Hyakuya, Blue Eyes, Thigh Boots, Blue Hair, Seraph of the End, Pointed Ears, Boots, Cloud, Hat, Vampire, Tears",
    "description": "Seraph of the End",
    "link_thumb": "https://live.staticflickr.com/65535/48055327973_a51d4af6eb_n.jpg",
    "id_album": "395777491",
    "total_view": 33
  },
  {
    "total_img": 1083,
    "number_page": 6,
    "title": "Anime",
    "tag": "Anime,",
    "description": "Anime",
    "link_thumb": "https://live.staticflickr.com/65535/48066953706_2771a62522_n.jpg",
    "id_album": "-1920923841",
    "total_view": 1083
  },
  {
    "total_img": 48,
    "number_page": 1,
    "title": "Belt",
    "tag": "Belt,",
    "description": "Belt",
    "link_thumb": "https://live.staticflickr.com/65535/48064724673_93cf68577f_n.jpg",
    "id_album": "-1564039172",
    "total_view": 48
  },
  {
    "total_img": 752,
    "number_page": 4,
    "title": "Black Hair",
    "tag": "Black Hair,",
    "description": "Black Hair",
    "link_thumb": "https://live.staticflickr.com/65535/48066328668_b63565e5e3_n.jpg",
    "id_album": "1485204216",
    "total_view": 752
  },
  {
    "total_img": 2585,
    "number_page": 13,
    "title": "Boy",
    "tag": "Boy,",
    "description": "Boy",
    "link_thumb": "https://live.staticflickr.com/65535/51541746745_541d4f2e57_n.jpg",
    "id_album": "-1694302085",
    "total_view": 2226
  },
  {
    "total_img": 149,
    "number_page": 1,
    "title": "Glove",
    "tag": "Glove,",
    "description": "Glove",
    "link_thumb": "https://live.staticflickr.com/65535/48066945096_efda4835b6_n.jpg",
    "id_album": "762495387",
    "total_view": 149
  },
  {
    "total_img": 10,
    "number_page": 1,
    "title": "Glow",
    "tag": "Glow,",
    "description": "Glow",
    "link_thumb": "https://live.staticflickr.com/65535/48059978751_d8f651701a_n.jpg",
    "id_album": "-392755768",
    "total_view": 10
  },
  {
    "total_img": 324,
    "number_page": 2,
    "title": "Green Eyes",
    "tag": "Green Eyes,",
    "description": "Green Eyes",
    "link_thumb": "https://live.staticflickr.com/65535/48609891276_d6beb9cf73_n.jpg",
    "id_album": "-807234764",
    "total_view": 324
  },
  {
    "total_img": 87,
    "number_page": 1,
    "title": "Katana",
    "tag": "Katana,",
    "description": "Katana",
    "link_thumb": "https://live.staticflickr.com/65535/48065453053_3e6af165f7_n.jpg",
    "id_album": "849592395",
    "total_view": 87
  },
  {
    "total_img": 10,
    "number_page": 1,
    "title": "Mikaela Hyakuya",
    "tag": "Mikaela Hyakuya,",
    "description": "Mikaela Hyakuya",
    "link_thumb": "https://live.staticflickr.com/65535/48055331181_30dab6d4e6_n.jpg",
    "id_album": "-1377860406",
    "total_view": 10
  },
  {
    "total_img": 900,
    "number_page": 5,
    "title": "Short Hair",
    "tag": "Short Hair,",
    "description": "Short Hair",
    "link_thumb": "https://live.staticflickr.com/65535/48066522393_1c85dd9992_n.jpg",
    "id_album": "1749242000",
    "total_view": 900
  },
  {
    "total_img": 227,
    "number_page": 2,
    "title": "Sword",
    "tag": "Sword,",
    "description": "Sword",
    "link_thumb": "https://live.staticflickr.com/65535/48066236812_016da70fda_n.jpg",
    "id_album": "1537983478",
    "total_view": 227
  },
  {
    "total_img": 69,
    "number_page": 1,
    "title": "Uniform",
    "tag": "Uniform,",
    "description": "Uniform",
    "link_thumb": "https://live.staticflickr.com/65535/48066239673_c500760986_n.jpg",
    "id_album": "-732815820",
    "total_view": 69
  },
  {
    "total_img": 160,
    "number_page": 1,
    "title": "Weapon",
    "tag": "Weapon,",
    "description": "Weapon",
    "link_thumb": "https://live.staticflickr.com/65535/48064187561_d6de2ba663_n.jpg",
    "id_album": "-1235964761",
    "total_view": 160
  },
  {
    "total_img": 17,
    "number_page": 1,
    "title": "Yuichiro Hyakuya",
    "tag": "Yuichiro Hyakuya,",
    "description": "Yuichiro Hyakuya",
    "link_thumb": "https://live.staticflickr.com/65535/48055331181_30dab6d4e6_n.jpg",
    "id_album": "381672367",
    "total_view": 17
  }
]