[
  {
    "total_img": 5,
    "number_page": 1,
    "title": "Bili Bili Douga",
    "tag": "Bili Girl 22, Bili Girl 33, Bili Bili Douga",
    "description": "Bili Bili Douga",
    "link_thumb": "https://live.staticflickr.com/65535/47895935541_63da2fd1b5_n.jpg",
    "id_album": "418819638",
    "total_view": 5
  }
]