[
  {
    "total_img": 107,
    "number_page": 1,
    "title": "Toradora",
    "tag": "Toradora, Ryuuji Takasu, Nanako Kashii, Graffiti, Brown Hair, Yusaku Kitamura, Inko Toradora, Maya Kihara, School Uniform, Minori Kushieda, Taiga Aisaka, Boy, Long Hair, Kitamura Yus, Winter, Ami Kawashima, Yasuko Takasu, Koji Haruta, Sumire Kano, Katana, Hisamitsu Noto",
    "description": "Toradora",
    "link_thumb": "https://live.staticflickr.com/65535/48060603013_59c64e5e8b_n.jpg",
    "id_album": "-423739126",
    "total_view": 107
  }
]