[
  {
    "total_img": 112,
    "number_page": 1,
    "title": "Angels Of Death",
    "tag": "Angels Of Death, Orange Eyes, Moon, Scythe, Angels of Death, Black Hair, Crying, Blonde, Long Hair, Anime, Bandage, Heterochromia, Abraham Gray, Zack Angels Of Death, Gray Angels Of Death, Hood, Coat, Catherine Ward, Brown Hair, Yellow Eyes, Boy, Red Eyes, Edward Eddie Mason, Blue Eyes, Rachel Gardner, Daniel Dickens, Syringe, Halloween, Edward Mason, Tears",
    "description": "Angels Of Death",
    "link_thumb": "https://live.staticflickr.com/65535/48609736342_1f54ab9d43_n.jpg",
    "id_album": "1456867237",
    "total_view": 112
  },
  {
    "total_img": 1083,
    "number_page": 6,
    "title": "Anime",
    "tag": "Anime,",
    "description": "Anime",
    "link_thumb": "https://live.staticflickr.com/65535/48066953706_2771a62522_n.jpg",
    "id_album": "-1920923841",
    "total_view": 1083
  },
  {
    "total_img": 752,
    "number_page": 4,
    "title": "Black Hair",
    "tag": "Black Hair,",
    "description": "Black Hair",
    "link_thumb": "https://live.staticflickr.com/65535/48066328668_b63565e5e3_n.jpg",
    "id_album": "1485204216",
    "total_view": 752
  },
  {
    "total_img": 771,
    "number_page": 4,
    "title": "Blonde",
    "tag": "Blonde,",
    "description": "Blonde",
    "link_thumb": "https://live.staticflickr.com/65535/48066912028_16d8f475b6_n.jpg",
    "id_album": "-768622073",
    "total_view": 771
  },
  {
    "total_img": 959,
    "number_page": 5,
    "title": "Blue Eyes",
    "tag": "Blue Eyes,",
    "description": "Blue Eyes",
    "link_thumb": "https://live.staticflickr.com/65535/48609891276_d6beb9cf73_n.jpg",
    "id_album": "737375568",
    "total_view": 959
  },
  {
    "total_img": 2585,
    "number_page": 13,
    "title": "Boy",
    "tag": "Boy,",
    "description": "Boy",
    "link_thumb": "https://live.staticflickr.com/65535/51541746745_541d4f2e57_n.jpg",
    "id_album": "-1694302085",
    "total_view": 2226
  },
  {
    "total_img": 145,
    "number_page": 1,
    "title": "Rachel Gardner",
    "tag": "Rachel Gardner,",
    "description": "Rachel Gardner",
    "link_thumb": "https://live.staticflickr.com/65535/48055152712_84a582b204_n.jpg",
    "id_album": "-1799133835",
    "total_view": 145
  },
  {
    "total_img": 23,
    "number_page": 1,
    "title": "Scythe",
    "tag": "Scythe,",
    "description": "Scythe",
    "link_thumb": "https://live.staticflickr.com/65535/48061148853_54be44dcfe_n.jpg",
    "id_album": "1221901976",
    "total_view": 23
  },
  {
    "total_img": 121,
    "number_page": 1,
    "title": "Zack Angels Of Death",
    "tag": "Zack Angels Of Death,",
    "description": "Zack Angels Of Death",
    "link_thumb": "https://live.staticflickr.com/65535/48055152712_84a582b204_n.jpg",
    "id_album": "2072764650",
    "total_view": 121
  }
]