[
  {
    "link_thumb": "https://live.staticflickr.com/65535/51546095887_933933aa88_n.jpg",
    "id_album": "-316663319",
    "description": "ANIME_PIC_c17e4ae83ae5d058b145c100dd0bced9,[Girl],[isGirlAnime],[isCuteAnime],[isGirlsHatsHoodieAnime],[isGirlsLoliAnime]",
    "title": "ANIME_PIC_c17e4ae83ae5d058b145c100dd0bced9",
    "link_img": "https://live.staticflickr.com/65535/51546095887_aa5da840a6_o.jpg",
    "id_image": "ANIME_PIC_c17e4ae83ae5d058b145c100dd0bced9",
    "count_view": 0
  },
  {
    "link_thumb": "https://live.staticflickr.com/65535/51547138928_8ccf977261_n.jpg",
    "id_album": "-316663319",
    "description": "ANIME_PIC_c180a1a1a44125edadd6e5dae6fe73ae,[Girl],[isGirlAnime],[isCuteAnime],[isGirlsLoliAnime]",
    "title": "ANIME_PIC_c180a1a1a44125edadd6e5dae6fe73ae",
    "link_img": "https://live.staticflickr.com/65535/51547138928_3131e3e643_o.jpg",
    "id_image": "ANIME_PIC_c180a1a1a44125edadd6e5dae6fe73ae",
    "count_view": 0
  },
  {
    "link_thumb": "https://live.staticflickr.com/65535/51546096562_1a82866f1d_n.jpg",
    "id_album": "-316663319",
    "description": "ANIME_PIC_c18687945f86ca56f83f88d29684fe42,[Girl],[isGirlAnime],[isCuteAnime],[isGirlsHatsHoodieAnime]",
    "title": "ANIME_PIC_c18687945f86ca56f83f88d29684fe42",
    "link_img": "https://live.staticflickr.com/65535/51546096562_7e95e5f847_o.jpg",
    "id_image": "ANIME_PIC_c18687945f86ca56f83f88d29684fe42",
    "count_view": 0
  },
  {
    "link_thumb": "https://live.staticflickr.com/65535/51547819100_8b3f3ba415_n.jpg",
    "id_album": "-316663319",
    "description": "ANIME_PIC_c18803edc6a16d014a4a4ee60333e006,[Girl],[isGirlAnime],[isCuteAnime],[isGirlsLoliAnime],[isSadAnimeGirl],[isSadAnime]",
    "title": "ANIME_PIC_c18803edc6a16d014a4a4ee60333e006",
    "link_img": "https://live.staticflickr.com/65535/51547819100_359a22ff60_o.jpg",
    "id_image": "ANIME_PIC_c18803edc6a16d014a4a4ee60333e006",
    "count_view": 0
  },
  {
    "link_thumb": "https://live.staticflickr.com/65535/51547139843_85bfe606c9_n.jpg",
    "id_album": "-316663319",
    "description": "ANIME_PIC_c188387b7859694424594de9d1b79205,[Girl],[isGirlAnime],[isCuteAnime],[isGirlsHatsHoodieAnime],[isGirlsLoliAnime]",
    "title": "ANIME_PIC_c188387b7859694424594de9d1b79205",
    "link_img": "https://live.staticflickr.com/65535/51547139843_86ecb58dd8_o.jpg",
    "id_image": "ANIME_PIC_c188387b7859694424594de9d1b79205",
    "count_view": 0
  },
  {
    "link_thumb": "https://live.staticflickr.com/65535/51547819595_a07064a450_n.jpg",
    "id_album": "-316663319",
    "description": "ANIME_PIC_c188a735f3e3a2e89f1ad3e6396d1a0c,[Girl],[isGirlAnime],[isCuteAnime],[isGirlsLoliAnime],[isSadAnimeGirl],[isSadAnime]",
    "title": "ANIME_PIC_c188a735f3e3a2e89f1ad3e6396d1a0c",
    "link_img": "https://live.staticflickr.com/65535/51547819595_8c50fc5d5f_o.jpg",
    "id_image": "ANIME_PIC_c188a735f3e3a2e89f1ad3e6396d1a0c",
    "count_view": 0
  },
  {
    "link_thumb": "https://live.staticflickr.com/65535/51546898111_d48271ffc0_n.jpg",
    "id_album": "-316663319",
    "description": "ANIME_PIC_c18a8c920eca2685a4b0d4ce2e68e9e3,[Girl],[isGirlAnime],[isCuteAnime],[isGirlsHornsAnime]",
    "title": "ANIME_PIC_c18a8c920eca2685a4b0d4ce2e68e9e3",
    "link_img": "https://live.staticflickr.com/65535/51546898111_253097ef91_o.jpg",
    "id_image": "ANIME_PIC_c18a8c920eca2685a4b0d4ce2e68e9e3",
    "count_view": 0
  },
  {
    "link_thumb": "https://live.staticflickr.com/65535/51546097732_76ee39887a_n.jpg",
    "id_album": "-316663319",
    "description": "ANIME_PIC_c18d3f02884589a75388a23cf2a944b5,[Girl],[isGirlAnime],[isCuteAnime]",
    "title": "ANIME_PIC_c18d3f02884589a75388a23cf2a944b5",
    "link_img": "https://live.staticflickr.com/65535/51546097732_b7165d79ff_o.jpg",
    "id_image": "ANIME_PIC_c18d3f02884589a75388a23cf2a944b5",
    "count_view": 0
  },
  {
    "link_thumb": "https://live.staticflickr.com/65535/51547140763_56d585a88a_n.jpg",
    "id_album": "-316663319",
    "description": "ANIME_PIC_c18e33ea6d1ad2369d568b347b8dc561,[Girl],[isGirlAnime],[isCuteAnime],[isGirlEarsNekoAnime],[isGirlsLoliAnime],[isGirlsSharpCanineToothAnime]",
    "title": "ANIME_PIC_c18e33ea6d1ad2369d568b347b8dc561",
    "link_img": "https://live.staticflickr.com/65535/51547140763_15e6b751bc_o.jpg",
    "id_image": "ANIME_PIC_c18e33ea6d1ad2369d568b347b8dc561",
    "count_view": 0
  },
  {
    "link_thumb": "https://live.staticflickr.com/65535/51547141043_3f00e143ca_n.jpg",
    "id_album": "-316663319",
    "description": "ANIME_PIC_c1907eacbced159926cd115355955d21,[Girl],[isGirlAnime],[isCuteAnime],[isGirlsLoliAnime],[isSadAnimeGirl],[isSadAnime]",
    "title": "ANIME_PIC_c1907eacbced159926cd115355955d21",
    "link_img": "https://live.staticflickr.com/65535/51547141043_96b7b56807_o.png",
    "id_image": "ANIME_PIC_c1907eacbced159926cd115355955d21",
    "count_view": 0
  },
  {
    "link_thumb": "https://live.staticflickr.com/65535/51547141373_c76560a196_n.jpg",
    "id_album": "-316663319",
    "description": "ANIME_PIC_c191b67f5451b7358f6a4cbf22b1164b,[Girl],[isGirlAnime],[isCuteAnime],[isGirlsLoliAnime]",
    "title": "ANIME_PIC_c191b67f5451b7358f6a4cbf22b1164b",
    "link_img": "https://live.staticflickr.com/65535/51547141373_7aa5e5fbba_o.jpg",
    "id_image": "ANIME_PIC_c191b67f5451b7358f6a4cbf22b1164b",
    "count_view": 0
  },
  {
    "link_thumb": "https://live.staticflickr.com/65535/51546899361_d5ae357c97_n.jpg",
    "id_album": "-316663319",
    "description": "ANIME_PIC_c1922c9a75b584df4b1aa6a48bc82550,[Girl],[isGirlAnime],[isCuteAnime],[isGirlsLoliAnime]",
    "title": "ANIME_PIC_c1922c9a75b584df4b1aa6a48bc82550",
    "link_img": "https://live.staticflickr.com/65535/51546899361_5524c6819e_o.jpg",
    "id_image": "ANIME_PIC_c1922c9a75b584df4b1aa6a48bc82550",
    "count_view": 0
  },
  {
    "link_thumb": "https://live.staticflickr.com/65535/51546899656_71b9f3fc38_n.jpg",
    "id_album": "-316663319",
    "description": "ANIME_PIC_c1948f12e9475491ba3eabc9d8c887b3,[Girl],[isGirlAnime],[isCuteAnime],[isGirlEarsNekoAnime],[isGirlsHatsHoodieAnime],[isGirlsLoliAnime]",
    "title": "ANIME_PIC_c1948f12e9475491ba3eabc9d8c887b3",
    "link_img": "https://live.staticflickr.com/65535/51546899656_fea3afd24d_o.png",
    "id_image": "ANIME_PIC_c1948f12e9475491ba3eabc9d8c887b3",
    "count_view": 0
  },
  {
    "link_thumb": "https://live.staticflickr.com/65535/51547624594_0dd57441b3_n.jpg",
    "id_album": "-316663319",
    "description": "ANIME_PIC_c19591606aa9a3d33e62c770e5e33fde,[Girl],[isGirlAnime],[isCuteAnime]",
    "title": "ANIME_PIC_c19591606aa9a3d33e62c770e5e33fde",
    "link_img": "https://live.staticflickr.com/65535/51547624594_f0dd6d989f_o.png",
    "id_image": "ANIME_PIC_c19591606aa9a3d33e62c770e5e33fde",
    "count_view": 0
  },
  {
    "link_thumb": "https://live.staticflickr.com/65535/51546900516_5ab4dcd479_n.jpg",
    "id_album": "-316663319",
    "description": "ANIME_PIC_c195eb99303784ef3ae7809c8e939d66,[Girl],[isGirlAnime],[isCuteAnime],[isGirlEarsNekoAnime],[isGirlsLoliAnime]",
    "title": "ANIME_PIC_c195eb99303784ef3ae7809c8e939d66",
    "link_img": "https://live.staticflickr.com/65535/51546900516_de78aa3323_o.png",
    "id_image": "ANIME_PIC_c195eb99303784ef3ae7809c8e939d66",
    "count_view": 0
  },
  {
    "link_thumb": "https://live.staticflickr.com/65535/51546901056_8a4ec23644_n.jpg",
    "id_album": "-316663319",
    "description": "ANIME_PIC_c19bf894fd3691a1935d1cdf7f27a1a8,[Girl],[isGirlAnime],[isCuteAnime],[isGirlsLoliAnime],[isSadAnimeGirl],[isSadAnime]",
    "title": "ANIME_PIC_c19bf894fd3691a1935d1cdf7f27a1a8",
    "link_img": "https://live.staticflickr.com/65535/51546901056_119b212989_o.jpg",
    "id_image": "ANIME_PIC_c19bf894fd3691a1935d1cdf7f27a1a8",
    "count_view": 0
  },
  {
    "link_thumb": "https://live.staticflickr.com/65535/51547822925_6f75f269c6_n.jpg",
    "id_album": "-316663319",
    "description": "ANIME_PIC_c19eff07e89365c98ec6060fa266fd8e,[Girl],[isGirlAnime],[isCuteAnime],[isGirlsLoliAnime],[isSadAnimeGirl],[isSadAnime]",
    "title": "ANIME_PIC_c19eff07e89365c98ec6060fa266fd8e",
    "link_img": "https://live.staticflickr.com/65535/51547822925_972fa5fbef_o.jpg",
    "id_image": "ANIME_PIC_c19eff07e89365c98ec6060fa266fd8e",
    "count_view": 0
  },
  {
    "link_thumb": "https://live.staticflickr.com/65535/51547143748_dec026df07_n.jpg",
    "id_album": "-316663319",
    "description": "ANIME_PIC_c1a0009de1194f9d4c44e9ce9622d62e,[Girl],[isGirlAnime],[isCuteAnime]",
    "title": "ANIME_PIC_c1a0009de1194f9d4c44e9ce9622d62e",
    "link_img": "https://live.staticflickr.com/65535/51547143748_fd55060b2d_o.jpg",
    "id_image": "ANIME_PIC_c1a0009de1194f9d4c44e9ce9622d62e",
    "count_view": 0
  },
  {
    "link_thumb": "https://live.staticflickr.com/65535/51547144023_773957e4ab_n.jpg",
    "id_album": "-316663319",
    "description": "ANIME_PIC_c1a38ed0478e0c4f45d1f8b85a159348,[Girl],[isGirlAnime],[isCuteAnime],[isGirlsLoliAnime]",
    "title": "ANIME_PIC_c1a38ed0478e0c4f45d1f8b85a159348",
    "link_img": "https://live.staticflickr.com/65535/51547144023_04b2473162_o.jpg",
    "id_image": "ANIME_PIC_c1a38ed0478e0c4f45d1f8b85a159348",
    "count_view": 0
  },
  {
    "link_thumb": "https://live.staticflickr.com/65535/51546101197_2dd3a401e6_n.jpg",
    "id_album": "-316663319",
    "description": "ANIME_PIC_c1a481e03b21a60a377f64fae4de6e37,[Girl],[isGirlAnime],[isCuteAnime],[isSadAnimeGirl],[isSadAnime]",
    "title": "ANIME_PIC_c1a481e03b21a60a377f64fae4de6e37",
    "link_img": "https://live.staticflickr.com/65535/51546101197_551e36308e_o.png",
    "id_image": "ANIME_PIC_c1a481e03b21a60a377f64fae4de6e37",
    "count_view": 0
  },
  {
    "link_thumb": "https://live.staticflickr.com/65535/51547824910_b6074fcc68_n.jpg",
    "id_album": "-316663319",
    "description": "ANIME_PIC_c1a6c8508972d54c07b3dc198b0d11ab,[Girl],[isGirlAnime],[isCuteAnime],[isGirlsLoliAnime]",
    "title": "ANIME_PIC_c1a6c8508972d54c07b3dc198b0d11ab",
    "link_img": "https://live.staticflickr.com/65535/51547824910_e999b557c3_o.jpg",
    "id_image": "ANIME_PIC_c1a6c8508972d54c07b3dc198b0d11ab",
    "count_view": 0
  },
  {
    "link_thumb": "https://live.staticflickr.com/65535/51546903446_77c4fd385e_n.jpg",
    "id_album": "-316663319",
    "description": "ANIME_PIC_c1a73fd6c2b809c99f59cd4957d77361,[Girl],[isGirlAnime],[isCuteAnime]",
    "title": "ANIME_PIC_c1a73fd6c2b809c99f59cd4957d77361",
    "link_img": "https://live.staticflickr.com/65535/51546903446_2aed45db95_o.png",
    "id_image": "ANIME_PIC_c1a73fd6c2b809c99f59cd4957d77361",
    "count_view": 0
  },
  {
    "link_thumb": "https://live.staticflickr.com/65535/51547825665_4908155861_n.jpg",
    "id_album": "-316663319",
    "description": "ANIME_PIC_c1a8f9770d94539694a27caa5c0bd6bf,[Girl],[isGirlAnime],[isCuteAnime],[isSadAnimeGirl],[isSadAnime]",
    "title": "ANIME_PIC_c1a8f9770d94539694a27caa5c0bd6bf",
    "link_img": "https://live.staticflickr.com/65535/51547825665_4a5a8244b5_o.jpg",
    "id_image": "ANIME_PIC_c1a8f9770d94539694a27caa5c0bd6bf",
    "count_view": 0
  },
  {
    "link_thumb": "https://live.staticflickr.com/65535/51547628484_eb57453e9e_n.jpg",
    "id_album": "-316663319",
    "description": "ANIME_PIC_c1ada00a10bd61b50677e01f2e8136ff,[Girl],[isGirlAnime],[isGirlsHatsHoodieAnime]",
    "title": "ANIME_PIC_c1ada00a10bd61b50677e01f2e8136ff",
    "link_img": "https://live.staticflickr.com/65535/51547628484_28f4dc344f_o.png",
    "id_image": "ANIME_PIC_c1ada00a10bd61b50677e01f2e8136ff",
    "count_view": 0
  },
  {
    "link_thumb": "https://live.staticflickr.com/65535/51547629049_ac6b343b18_n.jpg",
    "id_album": "-316663319",
    "description": "ANIME_PIC_c1ada2e1b686475ee4e380369ae1ddc2,[Girl],[isGirlAnime],[isCuteAnime]",
    "title": "ANIME_PIC_c1ada2e1b686475ee4e380369ae1ddc2",
    "link_img": "https://live.staticflickr.com/65535/51547629049_f391f2618f_o.jpg",
    "id_image": "ANIME_PIC_c1ada2e1b686475ee4e380369ae1ddc2",
    "count_view": 0
  },
  {
    "link_thumb": "https://live.staticflickr.com/65535/51546103907_d149203dd5_n.jpg",
    "id_album": "-316663319",
    "description": "ANIME_PIC_c1adabef0926b1154a246c85c1e673cf,[Girl],[isGirlAnime],[isCuteAnime],[isGirlsHatsHoodieAnime],[isGirlsLoliAnime]",
    "title": "ANIME_PIC_c1adabef0926b1154a246c85c1e673cf",
    "link_img": "https://live.staticflickr.com/65535/51546103907_a3e01dc642_o.png",
    "id_image": "ANIME_PIC_c1adabef0926b1154a246c85c1e673cf",
    "count_view": 0
  },
  {
    "link_thumb": "https://live.staticflickr.com/65535/51547629949_05b1623934_n.jpg",
    "id_album": "-316663319",
    "description": "ANIME_PIC_c1b1d18c0ad4564546746ba929c0e65f,[Girl],[isGirlAnime],[isSadAnimeGirl],[isSadAnime]",
    "title": "ANIME_PIC_c1b1d18c0ad4564546746ba929c0e65f",
    "link_img": "https://live.staticflickr.com/65535/51547629949_eef1b69d12_o.png",
    "id_image": "ANIME_PIC_c1b1d18c0ad4564546746ba929c0e65f",
    "count_view": 0
  },
  {
    "link_thumb": "https://live.staticflickr.com/65535/51546906411_bd95f2a376_n.jpg",
    "id_album": "-316663319",
    "description": "ANIME_PIC_c1b5c898ca41b603858e241414537729,[Girl],[isGirlAnime],[isCuteAnime],[isGirlEarsNekoAnime],[isGirlsLoliAnime],[isGirlsSharpCanineToothAnime]",
    "title": "ANIME_PIC_c1b5c898ca41b603858e241414537729",
    "link_img": "https://live.staticflickr.com/65535/51546906411_4b83ee6954_o.png",
    "id_image": "ANIME_PIC_c1b5c898ca41b603858e241414537729",
    "count_view": 0
  },
  {
    "link_thumb": "https://live.staticflickr.com/65535/51546907151_e047b2e659_n.jpg",
    "id_album": "-316663319",
    "description": "ANIME_PIC_c1baa7e5abd3d92acbc0b2dafbb0b460,[Girl],[isGirlAnime],[isCuteAnime],[isGirlsLoliAnime]",
    "title": "ANIME_PIC_c1baa7e5abd3d92acbc0b2dafbb0b460",
    "link_img": "https://live.staticflickr.com/65535/51546907151_fdbaa8614a_o.png",
    "id_image": "ANIME_PIC_c1baa7e5abd3d92acbc0b2dafbb0b460",
    "count_view": 0
  },
  {
    "link_thumb": "https://live.staticflickr.com/65535/51547149708_02bec24d6a_n.jpg",
    "id_album": "-316663319",
    "description": "ANIME_PIC_c1bb383933344ce03386e77dc3fd257c,[Girl],[isGirlAnime],[isCuteAnime],[isGirlsHatsHoodieAnime],[isGirlsLoliAnime],[isSadAnimeGirl],[isGirlsSharpCanineToothAnime],[isSadAnime]",
    "title": "ANIME_PIC_c1bb383933344ce03386e77dc3fd257c",
    "link_img": "https://live.staticflickr.com/65535/51547149708_8210598044_o.jpg",
    "id_image": "ANIME_PIC_c1bb383933344ce03386e77dc3fd257c",
    "count_view": 0
  },
  {
    "link_thumb": "https://live.staticflickr.com/65535/51547829465_62fd21bdc4_n.jpg",
    "id_album": "-316663319",
    "description": "ANIME_PIC_c1bc1791cda03674da699d62e3790dc3,[Girl],[isBoyAnime],[isGirlAnime],[isCuteAnime]",
    "title": "ANIME_PIC_c1bc1791cda03674da699d62e3790dc3",
    "link_img": "https://live.staticflickr.com/65535/51547829465_fa5e76d0e6_o.png",
    "id_image": "ANIME_PIC_c1bc1791cda03674da699d62e3790dc3",
    "count_view": 0
  },
  {
    "link_thumb": "https://live.staticflickr.com/65535/51547830110_49211f6907_n.jpg",
    "id_album": "-316663319",
    "description": "ANIME_PIC_c1beef9273af4f662905742d72822f1c,[Girl],[isGirlAnime],[isCuteAnime],[isGirlEarsNekoAnime],[isGirlsLoliAnime]",
    "title": "ANIME_PIC_c1beef9273af4f662905742d72822f1c",
    "link_img": "https://live.staticflickr.com/65535/51547830110_6793b7d614_o.jpg",
    "id_image": "ANIME_PIC_c1beef9273af4f662905742d72822f1c",
    "count_view": 0
  },
  {
    "link_thumb": "https://live.staticflickr.com/65535/51547633519_b84c4b9d13_n.jpg",
    "id_album": "-316663319",
    "description": "ANIME_PIC_c1c0194238b74bcfb3070edf09fbbd69,[Girl],[isGirlAnime],[isCuteAnime],[isGirlEarsNekoAnime]",
    "title": "ANIME_PIC_c1c0194238b74bcfb3070edf09fbbd69",
    "link_img": "https://live.staticflickr.com/65535/51547633519_5a140cc0d8_o.jpg",
    "id_image": "ANIME_PIC_c1c0194238b74bcfb3070edf09fbbd69",
    "count_view": 0
  },
  {
    "link_thumb": "https://live.staticflickr.com/65535/51546909556_9fb65b5156_n.jpg",
    "id_album": "-316663319",
    "description": "ANIME_PIC_c1c791d72e4755d9354cc4b89356926a,[Girl],[isGirlAnime],[isCuteAnime],[isGirlsLoliAnime],[isSadAnimeGirl],[isSadAnime]",
    "title": "ANIME_PIC_c1c791d72e4755d9354cc4b89356926a",
    "link_img": "https://live.staticflickr.com/65535/51546909556_d4faced945_o.jpg",
    "id_image": "ANIME_PIC_c1c791d72e4755d9354cc4b89356926a",
    "count_view": 0
  },
  {
    "link_thumb": "https://live.staticflickr.com/65535/51546909956_1acf50ca34_n.jpg",
    "id_album": "-316663319",
    "description": "ANIME_PIC_c1c7945b8177988f8308684e9812ce94,[Girl],[isGirlAnime],[isCuteAnime],[isGirlsLoliAnime]",
    "title": "ANIME_PIC_c1c7945b8177988f8308684e9812ce94",
    "link_img": "https://live.staticflickr.com/65535/51546909956_ab91b72aae_o.png",
    "id_image": "ANIME_PIC_c1c7945b8177988f8308684e9812ce94",
    "count_view": 0
  },
  {
    "link_thumb": "https://live.staticflickr.com/65535/51546910466_c5cf3144b1_n.jpg",
    "id_album": "-316663319",
    "description": "ANIME_PIC_c1ca77694c241861f4c6a8c8d3d27ab4,[Girl],[isGirlAnime],[isSadAnimeGirl],[isSadAnime]",
    "title": "ANIME_PIC_c1ca77694c241861f4c6a8c8d3d27ab4",
    "link_img": "https://live.staticflickr.com/65535/51546910466_7babb3121f_o.jpg",
    "id_image": "ANIME_PIC_c1ca77694c241861f4c6a8c8d3d27ab4",
    "count_view": 0
  },
  {
    "link_thumb": "https://live.staticflickr.com/65535/51547832030_0bd9d95828_n.jpg",
    "id_album": "-316663319",
    "description": "ANIME_PIC_c1d3d21df504acad780a7163c72cfeea,[Girl],[isGirlAnime],[isCuteAnime],[isGirlsHatsHoodieAnime],[isGirlsLoliAnime]",
    "title": "ANIME_PIC_c1d3d21df504acad780a7163c72cfeea",
    "link_img": "https://live.staticflickr.com/65535/51547832030_160ddd782b_o.jpg",
    "id_image": "ANIME_PIC_c1d3d21df504acad780a7163c72cfeea",
    "count_view": 0
  },
  {
    "link_thumb": "https://live.staticflickr.com/65535/51546911101_c1d5b35e7c_n.jpg",
    "id_album": "-316663319",
    "description": "ANIME_PIC_c1db656f4551c3e01159b8b3ecedbbd3,[Girl],[isGirlAnime],[isCuteAnime]",
    "title": "ANIME_PIC_c1db656f4551c3e01159b8b3ecedbbd3",
    "link_img": "https://live.staticflickr.com/65535/51546911101_17d28f9637_o.jpg",
    "id_image": "ANIME_PIC_c1db656f4551c3e01159b8b3ecedbbd3",
    "count_view": 0
  },
  {
    "link_thumb": "https://live.staticflickr.com/65535/51547153223_b16823b543_n.jpg",
    "id_album": "-316663319",
    "description": "ANIME_PIC_c1e82b2448fc0ba6722ec22197a8faaf,[Girl],[isGirlAnime],[isCuteAnime],[isSadAnimeGirl],[isSadAnime]",
    "title": "ANIME_PIC_c1e82b2448fc0ba6722ec22197a8faaf",
    "link_img": "https://live.staticflickr.com/65535/51547153223_2b09233f81_o.jpg",
    "id_image": "ANIME_PIC_c1e82b2448fc0ba6722ec22197a8faaf",
    "count_view": 0
  },
  {
    "link_thumb": "https://live.staticflickr.com/65535/51547636094_dcd51d4a7e_n.jpg",
    "id_album": "-316663319",
    "description": "ANIME_PIC_c1e9336d6cfc8fff673159a693d3f0aa,[Girl],[isGirlAnime],[isCuteAnime]",
    "title": "ANIME_PIC_c1e9336d6cfc8fff673159a693d3f0aa",
    "link_img": "https://live.staticflickr.com/65535/51547636094_9ba6b63729_o.jpg",
    "id_image": "ANIME_PIC_c1e9336d6cfc8fff673159a693d3f0aa",
    "count_view": 0
  },
  {
    "link_thumb": "https://live.staticflickr.com/65535/51547153858_b5bee24f82_n.jpg",
    "id_album": "-316663319",
    "description": "ANIME_PIC_c1e9bd9e00dd8a5a19b4ad9e6e196cee,[Girl],[isGirlAnime],[isCuteAnime],[isGirlsLoliAnime]",
    "title": "ANIME_PIC_c1e9bd9e00dd8a5a19b4ad9e6e196cee",
    "link_img": "https://live.staticflickr.com/65535/51547153858_2925fb2769_o.jpg",
    "id_image": "ANIME_PIC_c1e9bd9e00dd8a5a19b4ad9e6e196cee",
    "count_view": 0
  },
  {
    "link_thumb": "https://live.staticflickr.com/65535/51546111087_9c3bda29bf_n.jpg",
    "id_album": "-316663319",
    "description": "ANIME_PIC_c1eb3a8889c349f16abec4c47f5ecb79,[Girl],[isGirlAnime],[isCuteAnime],[isGirlsLoliAnime]",
    "title": "ANIME_PIC_c1eb3a8889c349f16abec4c47f5ecb79",
    "link_img": "https://live.staticflickr.com/65535/51546111087_210ac1fb3e_o.jpg",
    "id_image": "ANIME_PIC_c1eb3a8889c349f16abec4c47f5ecb79",
    "count_view": 0
  },
  {
    "link_thumb": "https://live.staticflickr.com/65535/51546912831_f4f1ceab8d_n.jpg",
    "id_album": "-316663319",
    "description": "ANIME_PIC_c1ec3d4404092413ec464519dd789540,[Girl],[isGirlAnime],[isCuteAnime],[isGirlsHatsHoodieAnime],[isGirlsLoliAnime]",
    "title": "ANIME_PIC_c1ec3d4404092413ec464519dd789540",
    "link_img": "https://live.staticflickr.com/65535/51546912831_9a0a3783ce_o.jpg",
    "id_image": "ANIME_PIC_c1ec3d4404092413ec464519dd789540",
    "count_view": 0
  },
  {
    "link_thumb": "https://live.staticflickr.com/65535/51547834660_27ac7bea4e_n.jpg",
    "id_album": "-316663319",
    "description": "ANIME_PIC_c1fb3af4db34e5e542d82f392af6df4f,[Girl],[isGirlAnime],[isCuteAnime],[isGirlsLoliAnime]",
    "title": "ANIME_PIC_c1fb3af4db34e5e542d82f392af6df4f",
    "link_img": "https://live.staticflickr.com/65535/51547834660_7b84ed00e2_o.jpg",
    "id_image": "ANIME_PIC_c1fb3af4db34e5e542d82f392af6df4f",
    "count_view": 0
  },
  {
    "link_thumb": "https://live.staticflickr.com/65535/51547155418_a18bf0d5f1_n.jpg",
    "id_album": "-316663319",
    "description": "ANIME_PIC_c200327284c1acde802761737b21399c,[Girl],[isGirlAnime],[isCuteAnime]",
    "title": "ANIME_PIC_c200327284c1acde802761737b21399c",
    "link_img": "https://live.staticflickr.com/65535/51547155418_66c7f8ee31_o.jpg",
    "id_image": "ANIME_PIC_c200327284c1acde802761737b21399c",
    "count_view": 0
  },
  {
    "link_thumb": "https://live.staticflickr.com/65535/51546914071_e5b01a0d6f_n.jpg",
    "id_album": "-316663319",
    "description": "ANIME_PIC_c200d364e6df38207404861f8a3912e8,[Girl],[isGirlAnime],[isCuteAnime],[isGirlsLoliAnime]",
    "title": "ANIME_PIC_c200d364e6df38207404861f8a3912e8",
    "link_img": "https://live.staticflickr.com/65535/51546914071_3acfc4b2d7_o.png",
    "id_image": "ANIME_PIC_c200d364e6df38207404861f8a3912e8",
    "count_view": 0
  },
  {
    "link_thumb": "https://live.staticflickr.com/65535/51547835825_818d5987e4_n.jpg",
    "id_album": "-316663319",
    "description": "ANIME_PIC_c20140d046219f872755b6f8004a56ff,[Girl],[isGirlAnime],[isCuteAnime],[isGirlsHatsHoodieAnime],[isGirlsLoliAnime]",
    "title": "ANIME_PIC_c20140d046219f872755b6f8004a56ff",
    "link_img": "https://live.staticflickr.com/65535/51547835825_c42e76f36e_o.jpg",
    "id_image": "ANIME_PIC_c20140d046219f872755b6f8004a56ff",
    "count_view": 0
  },
  {
    "link_thumb": "https://live.staticflickr.com/65535/51547836045_7f75f81072_n.jpg",
    "id_album": "-316663319",
    "description": "ANIME_PIC_c20469a59ef78f51114e4a66b9521582,[Girl],[isGirlAnime],[isCuteAnime]",
    "title": "ANIME_PIC_c20469a59ef78f51114e4a66b9521582",
    "link_img": "https://live.staticflickr.com/65535/51547836045_bcaa331e10_o.jpg",
    "id_image": "ANIME_PIC_c20469a59ef78f51114e4a66b9521582",
    "count_view": 0
  },
  {
    "link_thumb": "https://live.staticflickr.com/65535/51546915061_880d6ff1ca_n.jpg",
    "id_album": "-316663319",
    "description": "ANIME_PIC_c20700d7b2006049f0d68ec498237203,[Girl],[isGirlAnime],[isCuteAnime],[isGirlsHatsHoodieAnime],[isGirlsLoliAnime]",
    "title": "ANIME_PIC_c20700d7b2006049f0d68ec498237203",
    "link_img": "https://live.staticflickr.com/65535/51546915061_ef75b8b3b4_o.jpg",
    "id_image": "ANIME_PIC_c20700d7b2006049f0d68ec498237203",
    "count_view": 0
  },
  {
    "link_thumb": "https://live.staticflickr.com/65535/51547639719_4ac6603eeb_n.jpg",
    "id_album": "-316663319",
    "description": "ANIME_PIC_c207970c47494dc10c33e57034039f9b,[Girl],[isGirlAnime],[isCuteAnime]",
    "title": "ANIME_PIC_c207970c47494dc10c33e57034039f9b",
    "link_img": "https://live.staticflickr.com/65535/51547639719_8ebfcb9c90_o.jpg",
    "id_image": "ANIME_PIC_c207970c47494dc10c33e57034039f9b",
    "count_view": 0
  },
  {
    "link_thumb": "https://live.staticflickr.com/65535/51546114447_ea6efb1cb6_n.jpg",
    "id_album": "-316663319",
    "description": "ANIME_PIC_c20ab1b9092f7b3ce1fad21365763bfe,[Girl],[isGirlAnime],[isCuteAnime],[isGirlsHatsHoodieAnime],[isGirlsLoliAnime]",
    "title": "ANIME_PIC_c20ab1b9092f7b3ce1fad21365763bfe",
    "link_img": "https://live.staticflickr.com/65535/51546114447_ca0b7d9d5a_o.jpg",
    "id_image": "ANIME_PIC_c20ab1b9092f7b3ce1fad21365763bfe",
    "count_view": 0
  },
  {
    "link_thumb": "https://live.staticflickr.com/65535/51546916111_7f13b8e66e_n.jpg",
    "id_album": "-316663319",
    "description": "ANIME_PIC_c2100e976c937fa166aa01eda0bd4ad1,[Girl],[isGirlAnime],[isCuteAnime],[isGirlEarsNekoAnime],[isGirlsLoliAnime],[isGirlsSharpCanineToothAnime]",
    "title": "ANIME_PIC_c2100e976c937fa166aa01eda0bd4ad1",
    "link_img": "https://live.staticflickr.com/65535/51546916111_9efc6e3029_o.png",
    "id_image": "ANIME_PIC_c2100e976c937fa166aa01eda0bd4ad1",
    "count_view": 0
  },
  {
    "link_thumb": "https://live.staticflickr.com/65535/51546115592_3a286717b0_n.jpg",
    "id_album": "-316663319",
    "description": "ANIME_PIC_c214112513d7715ecbcc39558d6fec40,[Girl],[isGirlAnime],[isCuteAnime]",
    "title": "ANIME_PIC_c214112513d7715ecbcc39558d6fec40",
    "link_img": "https://live.staticflickr.com/65535/51546115592_0006d07054_o.jpg",
    "id_image": "ANIME_PIC_c214112513d7715ecbcc39558d6fec40",
    "count_view": 0
  },
  {
    "link_thumb": "https://live.staticflickr.com/65535/51547838625_ab98748d4e_n.jpg",
    "id_album": "-316663319",
    "description": "ANIME_PIC_c2164327f36df680e750dbe6c5272e4c,[Girl],[isGirlAnime],[isCuteAnime],[isGirlsHatsHoodieAnime],[isGirlsLoliAnime]",
    "title": "ANIME_PIC_c2164327f36df680e750dbe6c5272e4c",
    "link_img": "https://live.staticflickr.com/65535/51547838625_d7becc23dd_o.jpg",
    "id_image": "ANIME_PIC_c2164327f36df680e750dbe6c5272e4c",
    "count_view": 0
  },
  {
    "link_thumb": "https://live.staticflickr.com/65535/51546116322_4311509cb2_n.jpg",
    "id_album": "-316663319",
    "description": "ANIME_PIC_c217828782a124bd300b37307f8f6faa,[Girl],[isGirlAnime],[isCuteAnime],[isGirlsLoliAnime]",
    "title": "ANIME_PIC_c217828782a124bd300b37307f8f6faa",
    "link_img": "https://live.staticflickr.com/65535/51546116322_60d5652e24_o.jpg",
    "id_image": "ANIME_PIC_c217828782a124bd300b37307f8f6faa",
    "count_view": 0
  },
  {
    "link_thumb": "https://live.staticflickr.com/65535/51547159623_129d877a7f_n.jpg",
    "id_album": "-316663319",
    "description": "ANIME_PIC_c21c46a427ba2459e2e576eaac1540ca,[Girl],[isGirlAnime],[isCuteAnime],[isGirlsLoliAnime]",
    "title": "ANIME_PIC_c21c46a427ba2459e2e576eaac1540ca",
    "link_img": "https://live.staticflickr.com/65535/51547159623_e3b68aabcc_o.jpg",
    "id_image": "ANIME_PIC_c21c46a427ba2459e2e576eaac1540ca",
    "count_view": 0
  },
  {
    "link_thumb": "https://live.staticflickr.com/65535/51547642554_477905a987_n.jpg",
    "id_album": "-316663319",
    "description": "ANIME_PIC_c21e9faab89b0ac0694c60cda1da5e35,[Girl],[isGirlAnime],[isCuteAnime],[isGirlsLoliAnime]",
    "title": "ANIME_PIC_c21e9faab89b0ac0694c60cda1da5e35",
    "link_img": "https://live.staticflickr.com/65535/51547642554_b25bbb83b7_o.jpg",
    "id_image": "ANIME_PIC_c21e9faab89b0ac0694c60cda1da5e35",
    "count_view": 0
  },
  {
    "link_thumb": "https://live.staticflickr.com/65535/51547840200_a0b48c2ec6_n.jpg",
    "id_album": "-316663319",
    "description": "ANIME_PIC_c21ff4f87cb35625d4f025072289d216,[Girl],[isGirlAnime],[isCuteAnime],[isGirlsLoliAnime],[isSadAnimeGirl],[isSadAnime]",
    "title": "ANIME_PIC_c21ff4f87cb35625d4f025072289d216",
    "link_img": "https://live.staticflickr.com/65535/51547840200_006df63db2_o.png",
    "id_image": "ANIME_PIC_c21ff4f87cb35625d4f025072289d216",
    "count_view": 0
  },
  {
    "link_thumb": "https://live.staticflickr.com/65535/51547160963_48e37a78ed_n.jpg",
    "id_album": "-316663319",
    "description": "ANIME_PIC_c221e0dcea17098d0336724cf30ff874,[Girl],[isGirlAnime],[isCuteAnime],[isGirlsLoliAnime]",
    "title": "ANIME_PIC_c221e0dcea17098d0336724cf30ff874",
    "link_img": "https://live.staticflickr.com/65535/51547160963_f3bf0a3c2d_o.png",
    "id_image": "ANIME_PIC_c221e0dcea17098d0336724cf30ff874",
    "count_view": 0
  },
  {
    "link_thumb": "https://live.staticflickr.com/65535/51546118592_cf77cd58fc_n.jpg",
    "id_album": "-316663319",
    "description": "ANIME_PIC_c221ebc27e7ae48081e845f71ad26b9f,[Girl],[isGirlAnime],[isCuteAnime]",
    "title": "ANIME_PIC_c221ebc27e7ae48081e845f71ad26b9f",
    "link_img": "https://live.staticflickr.com/65535/51546118592_4dd6e42d92_o.jpg",
    "id_image": "ANIME_PIC_c221ebc27e7ae48081e845f71ad26b9f",
    "count_view": 0
  },
  {
    "link_thumb": "https://live.staticflickr.com/65535/51546920391_e633502fc4_n.jpg",
    "id_album": "-316663319",
    "description": "ANIME_PIC_c223ed2f4346493ae148889b452e527d,[Girl],[isGirlAnime],[isCuteAnime],[isGirlFaceMasksAnime],[isGirlsLoliAnime]",
    "title": "ANIME_PIC_c223ed2f4346493ae148889b452e527d",
    "link_img": "https://live.staticflickr.com/65535/51546920391_03dee5c3d9_o.png",
    "id_image": "ANIME_PIC_c223ed2f4346493ae148889b452e527d",
    "count_view": 0
  },
  {
    "link_thumb": "https://live.staticflickr.com/65535/51547842555_085d62df79_n.jpg",
    "id_album": "-316663319",
    "description": "ANIME_PIC_c226bab2cdc685eb0a4e34cc6a9b366e,[Girl],[isGirlAnime],[isCuteAnime],[isGirlsLoliAnime]",
    "title": "ANIME_PIC_c226bab2cdc685eb0a4e34cc6a9b366e",
    "link_img": "https://live.staticflickr.com/65535/51547842555_7ba02b5e67_o.png",
    "id_image": "ANIME_PIC_c226bab2cdc685eb0a4e34cc6a9b366e",
    "count_view": 0
  },
  {
    "link_thumb": "https://live.staticflickr.com/65535/51547163158_88864fd745_n.jpg",
    "id_album": "-316663319",
    "description": "ANIME_PIC_c2274f9551a8d4962437641e519e4754,[Girl],[isGirlAnime],[isCuteAnime]",
    "title": "ANIME_PIC_c2274f9551a8d4962437641e519e4754",
    "link_img": "https://live.staticflickr.com/65535/51547163158_9d712f5c10_o.jpg",
    "id_image": "ANIME_PIC_c2274f9551a8d4962437641e519e4754",
    "count_view": 0
  },
  {
    "link_thumb": "https://live.staticflickr.com/65535/51546921751_c8df8b4e73_n.jpg",
    "id_album": "-316663319",
    "description": "ANIME_PIC_c228708b559c4eac8749bff8a3b59e6a,[Girl],[isGirlAnime],[isCuteAnime],[isGirlsLoliAnime],[isGirlsSharpCanineToothAnime]",
    "title": "ANIME_PIC_c228708b559c4eac8749bff8a3b59e6a",
    "link_img": "https://live.staticflickr.com/65535/51546921751_673216c108_o.png",
    "id_image": "ANIME_PIC_c228708b559c4eac8749bff8a3b59e6a",
    "count_view": 0
  },
  {
    "link_thumb": "https://live.staticflickr.com/65535/51547646294_41b4de3d6d_n.jpg",
    "id_album": "-316663319",
    "description": "ANIME_PIC_c22ab752e83e93fb250c8753e84f0e10,[Girl],[isGirlAnime],[isCuteAnime],[isGirlsHatsHoodieAnime],[isGirlsLoliAnime]",
    "title": "ANIME_PIC_c22ab752e83e93fb250c8753e84f0e10",
    "link_img": "https://live.staticflickr.com/65535/51547646294_d2ae079f19_o.jpg",
    "id_image": "ANIME_PIC_c22ab752e83e93fb250c8753e84f0e10",
    "count_view": 0
  },
  {
    "link_thumb": "https://live.staticflickr.com/65535/51547164373_a5ce0f2ca6_n.jpg",
    "id_album": "-316663319",
    "description": "ANIME_PIC_c22d20161a0f457a4ef24c8a42a00dac,[Girl],[isGirlAnime],[isCuteAnime]",
    "title": "ANIME_PIC_c22d20161a0f457a4ef24c8a42a00dac",
    "link_img": "https://live.staticflickr.com/65535/51547164373_46c4334b0c_o.jpg",
    "id_image": "ANIME_PIC_c22d20161a0f457a4ef24c8a42a00dac",
    "count_view": 0
  },
  {
    "link_thumb": "https://live.staticflickr.com/65535/51546121587_2bbe129bfa_n.jpg",
    "id_album": "-316663319",
    "description": "ANIME_PIC_c22e5d80971b02234236a1eb0ff48be8,[Girl],[isGirlAnime],[isCuteAnime],[isGirlsLoliAnime]",
    "title": "ANIME_PIC_c22e5d80971b02234236a1eb0ff48be8",
    "link_img": "https://live.staticflickr.com/65535/51546121587_9998882581_o.jpg",
    "id_image": "ANIME_PIC_c22e5d80971b02234236a1eb0ff48be8",
    "count_view": 0
  },
  {
    "link_thumb": "https://live.staticflickr.com/65535/51547845335_2b5e79572c_n.jpg",
    "id_album": "-316663319",
    "description": "ANIME_PIC_c22f133054628b11e1c636e050b0eff2,[Girl],[isGirlAnime],[isCuteAnime],[isGirlsLoliAnime]",
    "title": "ANIME_PIC_c22f133054628b11e1c636e050b0eff2",
    "link_img": "https://live.staticflickr.com/65535/51547845335_89b896572b_o.png",
    "id_image": "ANIME_PIC_c22f133054628b11e1c636e050b0eff2",
    "count_view": 0
  },
  {
    "link_thumb": "https://live.staticflickr.com/65535/51547649134_dd409b6b80_n.jpg",
    "id_album": "-316663319",
    "description": "ANIME_PIC_c2313823ac8e7301f8a8d07e3bb00ab3,[Girl],[isGirlAnime],[isCuteAnime]",
    "title": "ANIME_PIC_c2313823ac8e7301f8a8d07e3bb00ab3",
    "link_img": "https://live.staticflickr.com/65535/51547649134_0d36716a50_o.png",
    "id_image": "ANIME_PIC_c2313823ac8e7301f8a8d07e3bb00ab3",
    "count_view": 0
  },
  {
    "link_thumb": "https://live.staticflickr.com/65535/51546925631_66f32c6f84_n.jpg",
    "id_album": "-316663319",
    "description": "ANIME_PIC_c232550cd5392f47820547d1f0c7d603,[Girl],[isGirlAnime],[isCuteAnime],[isGirlsLoliAnime]",
    "title": "ANIME_PIC_c232550cd5392f47820547d1f0c7d603",
    "link_img": "https://live.staticflickr.com/65535/51546925631_2a64e845b0_o.jpg",
    "id_image": "ANIME_PIC_c232550cd5392f47820547d1f0c7d603",
    "count_view": 0
  },
  {
    "link_thumb": "https://live.staticflickr.com/65535/51547167493_57894bef41_n.jpg",
    "id_album": "-316663319",
    "description": "ANIME_PIC_c234cfa6c81e76859e1a41fd17f66b1e,[Girl],[isGirlAnime],[isCuteAnime],[isGirlsHatsHoodieAnime],[isGirlsLoliAnime]",
    "title": "ANIME_PIC_c234cfa6c81e76859e1a41fd17f66b1e",
    "link_img": "https://live.staticflickr.com/65535/51547167493_cd50db0421_o.jpg",
    "id_image": "ANIME_PIC_c234cfa6c81e76859e1a41fd17f66b1e",
    "count_view": 0
  },
  {
    "link_thumb": "https://live.staticflickr.com/65535/51547847970_cc4e49194c_n.jpg",
    "id_album": "-316663319",
    "description": "ANIME_PIC_c2377840c0c65cc48deb032e5e8a0e7d,[Girl],[isGirlAnime],[isCuteAnime]",
    "title": "ANIME_PIC_c2377840c0c65cc48deb032e5e8a0e7d",
    "link_img": "https://live.staticflickr.com/65535/51547847970_846eb6652d_o.png",
    "id_image": "ANIME_PIC_c2377840c0c65cc48deb032e5e8a0e7d",
    "count_view": 0
  },
  {
    "link_thumb": "https://live.staticflickr.com/65535/51546125017_858d862412_n.jpg",
    "id_album": "-316663319",
    "description": "ANIME_PIC_c2397fdb579d445abb993fb113db8b60,[Girl],[isGirlAnime],[isCuteAnime],[isGirlsLoliAnime]",
    "title": "ANIME_PIC_c2397fdb579d445abb993fb113db8b60",
    "link_img": "https://live.staticflickr.com/65535/51546125017_2d601b8dbb_o.png",
    "id_image": "ANIME_PIC_c2397fdb579d445abb993fb113db8b60",
    "count_view": 0
  },
  {
    "link_thumb": "https://live.staticflickr.com/65535/51547849030_55db9276f1_n.jpg",
    "id_album": "-316663319",
    "description": "ANIME_PIC_c23b8003c606654275bb25e3919d6180,[Girl],[isGirlAnime],[isCuteAnime],[isGirlsHatsHoodieAnime]",
    "title": "ANIME_PIC_c23b8003c606654275bb25e3919d6180",
    "link_img": "https://live.staticflickr.com/65535/51547849030_1ae291bc1b_o.jpg",
    "id_image": "ANIME_PIC_c23b8003c606654275bb25e3919d6180",
    "count_view": 0
  },
  {
    "link_thumb": "https://live.staticflickr.com/65535/51546927786_e925e87aa4_n.jpg",
    "id_album": "-316663319",
    "description": "ANIME_PIC_c23fbd6ae997f9207e29e69cbfe6ac1d,[Girl],[isGirlAnime],[isCuteAnime]",
    "title": "ANIME_PIC_c23fbd6ae997f9207e29e69cbfe6ac1d",
    "link_img": "https://live.staticflickr.com/65535/51546927786_8fb1e4d137_o.jpg",
    "id_image": "ANIME_PIC_c23fbd6ae997f9207e29e69cbfe6ac1d",
    "count_view": 0
  },
  {
    "link_thumb": "https://live.staticflickr.com/65535/51546928196_16673ed8ac_n.jpg",
    "id_album": "-316663319",
    "description": "ANIME_PIC_c23fc6e7a091de334c3879771450a8f7,[Girl],[isGirlAnime],[isSadAnimeGirl],[isSadAnime]",
    "title": "ANIME_PIC_c23fc6e7a091de334c3879771450a8f7",
    "link_img": "https://live.staticflickr.com/65535/51546928196_1b8bcfd8c3_o.jpg",
    "id_image": "ANIME_PIC_c23fc6e7a091de334c3879771450a8f7",
    "count_view": 0
  },
  {
    "link_thumb": "https://live.staticflickr.com/65535/51547169983_5aca22c9eb_n.jpg",
    "id_album": "-316663319",
    "description": "ANIME_PIC_c243d617d551dde31633f00448ebadb7,[Girl],[isGirlAnime],[isCuteAnime],[isSadAnimeGirl],[isSadAnime]",
    "title": "ANIME_PIC_c243d617d551dde31633f00448ebadb7",
    "link_img": "https://live.staticflickr.com/65535/51547169983_79d77f0b94_o.jpg",
    "id_image": "ANIME_PIC_c243d617d551dde31633f00448ebadb7",
    "count_view": 0
  },
  {
    "link_thumb": "https://live.staticflickr.com/65535/51553619050_79ca8056bc_n.jpg",
    "id_album": "-316663319",
    "description": "ANIME_PIC_c24557029ed5d3ed27692104253cffae,[Girl],[isGirlAnime],[isCuteAnime],[isGirlsHatsHoodieAnime]",
    "title": "ANIME_PIC_c24557029ed5d3ed27692104253cffae",
    "link_img": "https://live.staticflickr.com/65535/51553619050_9d2ca11e7d_o.jpg",
    "id_image": "ANIME_PIC_c24557029ed5d3ed27692104253cffae",
    "count_view": 0
  },
  {
    "link_thumb": "https://live.staticflickr.com/65535/51546931956_bdd5f94064_n.jpg",
    "id_album": "-316663319",
    "description": "ANIME_PIC_c24813eb86f817fa1087b494e2fff489,[Girl],[isGirlAnime],[isCuteAnime]",
    "title": "ANIME_PIC_c24813eb86f817fa1087b494e2fff489",
    "link_img": "https://live.staticflickr.com/65535/51546931956_df7a70e192_o.jpg",
    "id_image": "ANIME_PIC_c24813eb86f817fa1087b494e2fff489",
    "count_view": 0
  },
  {
    "link_thumb": "https://live.staticflickr.com/65535/51546130132_d814b03b40_n.jpg",
    "id_album": "-316663319",
    "description": "ANIME_PIC_c24a054bb8c03a2ca101b34e86569c31,[Girl],[isGirlAnime],[isCuteAnime]",
    "title": "ANIME_PIC_c24a054bb8c03a2ca101b34e86569c31",
    "link_img": "https://live.staticflickr.com/65535/51546130132_522c985d40_o.jpg",
    "id_image": "ANIME_PIC_c24a054bb8c03a2ca101b34e86569c31",
    "count_view": 0
  },
  {
    "link_thumb": "https://live.staticflickr.com/65535/51546932596_8a1ecb074f_n.jpg",
    "id_album": "-316663319",
    "description": "ANIME_PIC_c24d6f52da5a6b47bb9cb185f2e8ef70,[Girl],[isGirlAnime],[isCuteAnime],[isGirlsHatsHoodieAnime]",
    "title": "ANIME_PIC_c24d6f52da5a6b47bb9cb185f2e8ef70",
    "link_img": "https://live.staticflickr.com/65535/51546932596_db59395d49_o.jpg",
    "id_image": "ANIME_PIC_c24d6f52da5a6b47bb9cb185f2e8ef70",
    "count_view": 0
  },
  {
    "link_thumb": "https://live.staticflickr.com/65535/51547656104_1d66e1f33f_n.jpg",
    "id_album": "-316663319",
    "description": "ANIME_PIC_c24d92eba464bc2cbd278d6ee6ef361c,[Girl],[isGirlAnime],[isCuteAnime],[isGirlsLoliAnime],[isSadAnimeGirl],[isSadAnime]",
    "title": "ANIME_PIC_c24d92eba464bc2cbd278d6ee6ef361c",
    "link_img": "https://live.staticflickr.com/65535/51547656104_1390945075_o.jpg",
    "id_image": "ANIME_PIC_c24d92eba464bc2cbd278d6ee6ef361c",
    "count_view": 0
  },
  {
    "link_thumb": "https://live.staticflickr.com/65535/51547854870_e72b7c6b46_n.jpg",
    "id_album": "-316663319",
    "description": "ANIME_PIC_c250ab8e0723d23614451fce94ab1c9b,[Girl],[isGirlAnime],[isCuteAnime],[isGirlsHatsHoodieAnime],[isGirlsLoliAnime],[isSadAnimeGirl],[isSadAnime]",
    "title": "ANIME_PIC_c250ab8e0723d23614451fce94ab1c9b",
    "link_img": "https://live.staticflickr.com/65535/51547854870_33e3e499a8_o.png",
    "id_image": "ANIME_PIC_c250ab8e0723d23614451fce94ab1c9b",
    "count_view": 0
  },
  {
    "link_thumb": "https://live.staticflickr.com/65535/51546131802_bb094c6d99_n.jpg",
    "id_album": "-316663319",
    "description": "ANIME_PIC_c253fbb35428aedae8b883813e5291c9,[Girl],[isGirlAnime],[isCuteAnime],[isGirlEarsNekoAnime],[isGirlsLoliAnime]",
    "title": "ANIME_PIC_c253fbb35428aedae8b883813e5291c9",
    "link_img": "https://live.staticflickr.com/65535/51546131802_804a881f50_o.jpg",
    "id_image": "ANIME_PIC_c253fbb35428aedae8b883813e5291c9",
    "count_view": 0
  },
  {
    "link_thumb": "https://live.staticflickr.com/65535/51546132167_3de50e5a16_n.jpg",
    "id_album": "-316663319",
    "description": "ANIME_PIC_c255f819f2b3275ddfc7d84872baf6c0,[Girl],[isGirlAnime],[isCuteAnime],[isGirlsLoliAnime]",
    "title": "ANIME_PIC_c255f819f2b3275ddfc7d84872baf6c0",
    "link_img": "https://live.staticflickr.com/65535/51546132167_c9477817dc_o.jpg",
    "id_image": "ANIME_PIC_c255f819f2b3275ddfc7d84872baf6c0",
    "count_view": 0
  },
  {
    "link_thumb": "https://live.staticflickr.com/65535/51546132527_e25c69304d_n.jpg",
    "id_album": "-316663319",
    "description": "ANIME_PIC_c2572c50847f3784a9315a084aad42f3,[Girl],[isGirlAnime],[isCuteAnime],[isGirlsLoliAnime]",
    "title": "ANIME_PIC_c2572c50847f3784a9315a084aad42f3",
    "link_img": "https://live.staticflickr.com/65535/51546132527_04fd00832c_o.jpg",
    "id_image": "ANIME_PIC_c2572c50847f3784a9315a084aad42f3",
    "count_view": 0
  },
  {
    "link_thumb": "https://live.staticflickr.com/65535/51547658814_4f4c4c575b_n.jpg",
    "id_album": "-316663319",
    "description": "ANIME_PIC_c25850d0636710f7b3224b5154f9ded0,[Girl],[isGirlAnime],[isCuteAnime],[isGirlsLoliAnime]",
    "title": "ANIME_PIC_c25850d0636710f7b3224b5154f9ded0",
    "link_img": "https://live.staticflickr.com/65535/51547658814_31e20e2f65_o.jpg",
    "id_image": "ANIME_PIC_c25850d0636710f7b3224b5154f9ded0",
    "count_view": 0
  },
  {
    "link_thumb": "https://live.staticflickr.com/65535/51546936161_8d29ae76eb_n.jpg",
    "id_album": "-316663319",
    "description": "ANIME_PIC_c25a5a3130021dd0c79306a7d38035b9,[Girl],[isGirlAnime],[isCuteAnime],[isGirlsLoliAnime]",
    "title": "ANIME_PIC_c25a5a3130021dd0c79306a7d38035b9",
    "link_img": "https://live.staticflickr.com/65535/51546936161_77995a7146_o.jpg",
    "id_image": "ANIME_PIC_c25a5a3130021dd0c79306a7d38035b9",
    "count_view": 0
  },
  {
    "link_thumb": "https://live.staticflickr.com/65535/51546936661_e4bf89e79a_n.jpg",
    "id_album": "-316663319",
    "description": "ANIME_PIC_c25c9c00c221e47721f15e72c7b6c030,[Girl],[isGirlAnime],[isCuteAnime],[isGirlsLoliAnime]",
    "title": "ANIME_PIC_c25c9c00c221e47721f15e72c7b6c030",
    "link_img": "https://live.staticflickr.com/65535/51546936661_7beb6c4425_o.jpg",
    "id_image": "ANIME_PIC_c25c9c00c221e47721f15e72c7b6c030",
    "count_view": 0
  },
  {
    "link_thumb": "https://live.staticflickr.com/65535/51547177878_c837d15ef3_n.jpg",
    "id_album": "-316663319",
    "description": "ANIME_PIC_c25f409007eeb2b6d39f4473d1f829cf,[Girl],[isGirlAnime],[isCuteAnime],[isGirlsHornsAnime],[isGirlsLoliAnime]",
    "title": "ANIME_PIC_c25f409007eeb2b6d39f4473d1f829cf",
    "link_img": "https://live.staticflickr.com/65535/51547177878_fd4122be63_o.jpg",
    "id_image": "ANIME_PIC_c25f409007eeb2b6d39f4473d1f829cf",
    "count_view": 0
  },
  {
    "link_thumb": "https://live.staticflickr.com/65535/51547178388_5b801534d1_n.jpg",
    "id_album": "-316663319",
    "description": "ANIME_PIC_c26199c7e20fc73169fc311c0d945e64,[Girl],[isGirlAnime],[isCuteAnime]",
    "title": "ANIME_PIC_c26199c7e20fc73169fc311c0d945e64",
    "link_img": "https://live.staticflickr.com/65535/51547178388_1b4815f7d0_o.png",
    "id_image": "ANIME_PIC_c26199c7e20fc73169fc311c0d945e64",
    "count_view": 0
  },
  {
    "link_thumb": "https://live.staticflickr.com/65535/51546937961_b901af939e_n.jpg",
    "id_album": "-316663319",
    "description": "ANIME_PIC_c262ab2ef979b7acc5ba93c384b70f77,[Girl],[isGirlAnime],[isCuteAnime],[isGirlsLoliAnime]",
    "title": "ANIME_PIC_c262ab2ef979b7acc5ba93c384b70f77",
    "link_img": "https://live.staticflickr.com/65535/51546937961_86c3c0cae3_o.jpg",
    "id_image": "ANIME_PIC_c262ab2ef979b7acc5ba93c384b70f77",
    "count_view": 0
  },
  {
    "link_thumb": "https://live.staticflickr.com/65535/51546136027_0963ba71d4_n.jpg",
    "id_album": "-316663319",
    "description": "ANIME_PIC_c268d40f08b70ffdb87d0204e3594d79,[Girl],[isGirlAnime],[isCuteAnime],[isGirlsLoliAnime],[isSadAnimeGirl],[isSadAnime]",
    "title": "ANIME_PIC_c268d40f08b70ffdb87d0204e3594d79",
    "link_img": "https://live.staticflickr.com/65535/51546136027_173685c515_o.jpg",
    "id_image": "ANIME_PIC_c268d40f08b70ffdb87d0204e3594d79",
    "count_view": 0
  },
  {
    "link_thumb": "https://live.staticflickr.com/65535/51546938611_840d136847_n.jpg",
    "id_album": "-316663319",
    "description": "ANIME_PIC_c26c2b249596cfe341eef2670999349c,[Girl],[isGirlAnime],[isCuteAnime]",
    "title": "ANIME_PIC_c26c2b249596cfe341eef2670999349c",
    "link_img": "https://live.staticflickr.com/65535/51546938611_4c63c131a4_o.jpg",
    "id_image": "ANIME_PIC_c26c2b249596cfe341eef2670999349c",
    "count_view": 0
  },
  {
    "link_thumb": "https://live.staticflickr.com/65535/51547860600_663117ba2c_n.jpg",
    "id_album": "-316663319",
    "description": "ANIME_PIC_c26dee1adb4ab22dffa0088366111a22,[Girl],[isGirlAnime],[isCuteAnime]",
    "title": "ANIME_PIC_c26dee1adb4ab22dffa0088366111a22",
    "link_img": "https://live.staticflickr.com/65535/51547860600_bf54a21cb1_o.jpg",
    "id_image": "ANIME_PIC_c26dee1adb4ab22dffa0088366111a22",
    "count_view": 0
  },
  {
    "link_thumb": "https://live.staticflickr.com/65535/51547662339_e1a2bd8786_n.jpg",
    "id_album": "-316663319",
    "description": "ANIME_PIC_c26fce05f0902eefdb4b2da7d2380a23,[Girl],[isGirlAnime],[isCuteAnime],[isGirlsLoliAnime]",
    "title": "ANIME_PIC_c26fce05f0902eefdb4b2da7d2380a23",
    "link_img": "https://live.staticflickr.com/65535/51547662339_32f7a2ccf5_o.jpg",
    "id_image": "ANIME_PIC_c26fce05f0902eefdb4b2da7d2380a23",
    "count_view": 0
  },
  {
    "link_thumb": "https://live.staticflickr.com/65535/51547180508_33d3d124de_n.jpg",
    "id_album": "-316663319",
    "description": "ANIME_PIC_c27281e6468ff702656a5084653c3735,[Girl],[isGirlAnime],[isCuteAnime],[isGirlEarsNekoAnime],[isGirlsLoliAnime]",
    "title": "ANIME_PIC_c27281e6468ff702656a5084653c3735",
    "link_img": "https://live.staticflickr.com/65535/51547180508_d1da702972_o.jpg",
    "id_image": "ANIME_PIC_c27281e6468ff702656a5084653c3735",
    "count_view": 0
  },
  {
    "link_thumb": "https://live.staticflickr.com/65535/51547861675_578a11650f_n.jpg",
    "id_album": "-316663319",
    "description": "ANIME_PIC_c27369e6f1ec839bd4d3e0608bda47b8,[Girl],[isGirlAnime],[isCuteAnime]",
    "title": "ANIME_PIC_c27369e6f1ec839bd4d3e0608bda47b8",
    "link_img": "https://live.staticflickr.com/65535/51547861675_87036f59e8_o.jpg",
    "id_image": "ANIME_PIC_c27369e6f1ec839bd4d3e0608bda47b8",
    "count_view": 0
  },
  {
    "link_thumb": "https://live.staticflickr.com/65535/51546940226_3da6052ed4_n.jpg",
    "id_album": "-316663319",
    "description": "ANIME_PIC_c275a15104301452a47f0a3e97962d2b,[Girl],[isGirlAnime],[isSadAnimeGirl],[isSadAnime]",
    "title": "ANIME_PIC_c275a15104301452a47f0a3e97962d2b",
    "link_img": "https://live.staticflickr.com/65535/51546940226_0af6f7331c_o.png",
    "id_image": "ANIME_PIC_c275a15104301452a47f0a3e97962d2b",
    "count_view": 0
  },
  {
    "link_thumb": "https://live.staticflickr.com/65535/51547181798_d5a4425fe4_n.jpg",
    "id_album": "-316663319",
    "description": "ANIME_PIC_c27be719b9c14e3302c41b7bf5ae8b14,[Girl],[isGirlAnime],[isCuteAnime],[isGirlsLoliAnime]",
    "title": "ANIME_PIC_c27be719b9c14e3302c41b7bf5ae8b14",
    "link_img": "https://live.staticflickr.com/65535/51547181798_99c08247f1_o.png",
    "id_image": "ANIME_PIC_c27be719b9c14e3302c41b7bf5ae8b14",
    "count_view": 0
  },
  {
    "link_thumb": "https://live.staticflickr.com/65535/51547863545_9ffb3dc9ac_n.jpg",
    "id_album": "-316663319",
    "description": "ANIME_PIC_c27f7251b75431fd51ba77c563813dd0,[Girl],[isGirlAnime],[isCuteAnime],[isGirlsHatsHoodieAnime]",
    "title": "ANIME_PIC_c27f7251b75431fd51ba77c563813dd0",
    "link_img": "https://live.staticflickr.com/65535/51547863545_d35476e507_o.png",
    "id_image": "ANIME_PIC_c27f7251b75431fd51ba77c563813dd0",
    "count_view": 0
  },
  {
    "link_thumb": "https://live.staticflickr.com/65535/51546942156_847ed1fc9a_n.jpg",
    "id_album": "-316663319",
    "description": "ANIME_PIC_c27fa88629c3044d59914246de761484,[Girl],[isGirlAnime],[isCuteAnime],[isGirlsHatsHoodieAnime],[isGirlsLoliAnime]",
    "title": "ANIME_PIC_c27fa88629c3044d59914246de761484",
    "link_img": "https://live.staticflickr.com/65535/51546942156_482491c9a4_o.jpg",
    "id_image": "ANIME_PIC_c27fa88629c3044d59914246de761484",
    "count_view": 0
  },
  {
    "link_thumb": "https://live.staticflickr.com/65535/51546140882_1a9a794ec0_n.jpg",
    "id_album": "-316663319",
    "description": "ANIME_PIC_c2873b9732c3e3c5c7d151f42b63ca77,[Girl],[isGirlAnime],[isCuteAnime]",
    "title": "ANIME_PIC_c2873b9732c3e3c5c7d151f42b63ca77",
    "link_img": "https://live.staticflickr.com/65535/51546140882_91720cdaf8_o.png",
    "id_image": "ANIME_PIC_c2873b9732c3e3c5c7d151f42b63ca77",
    "count_view": 0
  },
  {
    "link_thumb": "https://live.staticflickr.com/65535/51547184383_7d5ce13026_n.jpg",
    "id_album": "-316663319",
    "description": "ANIME_PIC_c2874a6e202c90f1061b46480cfa6e19,[Girl],[isGirlAnime],[isCuteAnime],[isGirlsHatsHoodieAnime],[isGirlsLoliAnime],[isSadAnimeGirl],[isSadAnime]",
    "title": "ANIME_PIC_c2874a6e202c90f1061b46480cfa6e19",
    "link_img": "https://live.staticflickr.com/65535/51547184383_9fb78edf19_o.png",
    "id_image": "ANIME_PIC_c2874a6e202c90f1061b46480cfa6e19",
    "count_view": 0
  },
  {
    "link_thumb": "https://live.staticflickr.com/65535/51547865500_3a96fb1d87_n.jpg",
    "id_album": "-316663319",
    "description": "ANIME_PIC_c2880252a5b228ec17cfb68ef8fe9ac4,[Girl],[isGirlAnime],[isCuteAnime],[isGirlsHatsHoodieAnime]",
    "title": "ANIME_PIC_c2880252a5b228ec17cfb68ef8fe9ac4",
    "link_img": "https://live.staticflickr.com/65535/51547865500_59802380ce_o.png",
    "id_image": "ANIME_PIC_c2880252a5b228ec17cfb68ef8fe9ac4",
    "count_view": 0
  },
  {
    "link_thumb": "https://live.staticflickr.com/65535/51546142512_2f708affd4_n.jpg",
    "id_album": "-316663319",
    "description": "ANIME_PIC_c291744186d52a41217c94f02069b375,[Girl],[isGirlAnime],[isCuteAnime],[isGirlsLoliAnime]",
    "title": "ANIME_PIC_c291744186d52a41217c94f02069b375",
    "link_img": "https://live.staticflickr.com/65535/51546142512_64d98e99ae_o.jpg",
    "id_image": "ANIME_PIC_c291744186d52a41217c94f02069b375",
    "count_view": 0
  },
  {
    "link_thumb": "https://live.staticflickr.com/65535/51547866440_a016234dd7_n.jpg",
    "id_album": "-316663319",
    "description": "ANIME_PIC_c291877f3918438650abc79d6dc33c94,[Girl],[isGirlAnime],[isCuteAnime],[isGirlsLoliAnime]",
    "title": "ANIME_PIC_c291877f3918438650abc79d6dc33c94",
    "link_img": "https://live.staticflickr.com/65535/51547866440_64ae9d877e_o.png",
    "id_image": "ANIME_PIC_c291877f3918438650abc79d6dc33c94",
    "count_view": 0
  },
  {
    "link_thumb": "https://live.staticflickr.com/65535/51547668184_70ecb274e1_n.jpg",
    "id_album": "-316663319",
    "description": "ANIME_PIC_c293437bd8b2b62f5b15cade2a91b04a,[Girl],[isGirlAnime],[isCuteAnime],[isGirlsLoliAnime],[isSadAnimeGirl],[isSadAnime]",
    "title": "ANIME_PIC_c293437bd8b2b62f5b15cade2a91b04a",
    "link_img": "https://live.staticflickr.com/65535/51547668184_61886b9984_o.jpg",
    "id_image": "ANIME_PIC_c293437bd8b2b62f5b15cade2a91b04a",
    "count_view": 0
  },
  {
    "link_thumb": "https://live.staticflickr.com/65535/51546143717_7028dc16ba_n.jpg",
    "id_album": "-316663319",
    "description": "ANIME_PIC_c294645b973557793c96018b26274a55,[Girl],[isBoyAnime],[isGirlAnime],[isCuteAnime]",
    "title": "ANIME_PIC_c294645b973557793c96018b26274a55",
    "link_img": "https://live.staticflickr.com/65535/51546143717_c7206ff43c_o.jpg",
    "id_image": "ANIME_PIC_c294645b973557793c96018b26274a55",
    "count_view": 0
  },
  {
    "link_thumb": "https://live.staticflickr.com/65535/51547187188_98f4a677b5_n.jpg",
    "id_album": "-316663319",
    "description": "ANIME_PIC_c297c25d9d3760470bee6e8f71d09257,[Girl],[isGirlAnime],[isCuteAnime],[isGirlsLoliAnime]",
    "title": "ANIME_PIC_c297c25d9d3760470bee6e8f71d09257",
    "link_img": "https://live.staticflickr.com/65535/51547187188_c686182af3_o.jpg",
    "id_image": "ANIME_PIC_c297c25d9d3760470bee6e8f71d09257",
    "count_view": 0
  },
  {
    "link_thumb": "https://live.staticflickr.com/65535/51547187673_57532c1b49_n.jpg",
    "id_album": "-316663319",
    "description": "ANIME_PIC_c297c8ce47478824b83fd7e6343b07ca,[Girl],[isGirlAnime],[isSadAnimeGirl],[isSadAnime]",
    "title": "ANIME_PIC_c297c8ce47478824b83fd7e6343b07ca",
    "link_img": "https://live.staticflickr.com/65535/51547187673_74507aa3c5_o.png",
    "id_image": "ANIME_PIC_c297c8ce47478824b83fd7e6343b07ca",
    "count_view": 0
  },
  {
    "link_thumb": "https://live.staticflickr.com/65535/51546145032_bc83809548_n.jpg",
    "id_album": "-316663319",
    "description": "ANIME_PIC_c29c1a55892f103869ed290cafe06584,[Girl],[isGirlAnime],[isCuteAnime],[isGirlEarsNekoAnime],[isGirlsLoliAnime],[isGirlsSharpCanineToothAnime]",
    "title": "ANIME_PIC_c29c1a55892f103869ed290cafe06584",
    "link_img": "https://live.staticflickr.com/65535/51546145032_6de8e3c033_o.jpg",
    "id_image": "ANIME_PIC_c29c1a55892f103869ed290cafe06584",
    "count_view": 0
  },
  {
    "link_thumb": "https://live.staticflickr.com/65535/51546947156_17449a78df_n.jpg",
    "id_album": "-316663319",
    "description": "ANIME_PIC_c29fcf0b0a225e3b638e8ba1c95c2b79,[Girl],[isGirlAnime],[isCuteAnime],[isGirlsLoliAnime]",
    "title": "ANIME_PIC_c29fcf0b0a225e3b638e8ba1c95c2b79",
    "link_img": "https://live.staticflickr.com/65535/51546947156_7cb2bb5f63_o.jpg",
    "id_image": "ANIME_PIC_c29fcf0b0a225e3b638e8ba1c95c2b79",
    "count_view": 0
  },
  {
    "link_thumb": "https://live.staticflickr.com/65535/51546947496_e98b4f29ef_n.jpg",
    "id_album": "-316663319",
    "description": "ANIME_PIC_c2aa328699bd1ace32c795d89cdd5f58,[Girl],[isGirlAnime],[isCuteAnime],[isGirlsLoliAnime]",
    "title": "ANIME_PIC_c2aa328699bd1ace32c795d89cdd5f58",
    "link_img": "https://live.staticflickr.com/65535/51546947496_dfebaa1c60_o.png",
    "id_image": "ANIME_PIC_c2aa328699bd1ace32c795d89cdd5f58",
    "count_view": 0
  },
  {
    "link_thumb": "https://live.staticflickr.com/65535/51546948036_5a0941c8f8_n.jpg",
    "id_album": "-316663319",
    "description": "ANIME_PIC_c2ae7a9acf67300c1b2c3542828dbfe3,[Girl],[isGirlAnime],[isCuteAnime],[isGirlEarsNekoAnime],[isGirlsLoliAnime]",
    "title": "ANIME_PIC_c2ae7a9acf67300c1b2c3542828dbfe3",
    "link_img": "https://live.staticflickr.com/65535/51546948036_4efa0d065f_o.png",
    "id_image": "ANIME_PIC_c2ae7a9acf67300c1b2c3542828dbfe3",
    "count_view": 0
  },
  {
    "link_thumb": "https://live.staticflickr.com/65535/51546948821_cf055f7e46_n.jpg",
    "id_album": "-316663319",
    "description": "ANIME_PIC_c2b2eb674149d25ab88f54c8aeed534c,[Girl],[isGirlAnime],[isCuteAnime]",
    "title": "ANIME_PIC_c2b2eb674149d25ab88f54c8aeed534c",
    "link_img": "https://live.staticflickr.com/65535/51546948821_8e3a6b9d82_o.png",
    "id_image": "ANIME_PIC_c2b2eb674149d25ab88f54c8aeed534c",
    "count_view": 0
  },
  {
    "link_thumb": "https://live.staticflickr.com/65535/51546949326_eb83a3e84a_n.jpg",
    "id_album": "-316663319",
    "description": "ANIME_PIC_c2b594b676264c7d4a30c4833dc4ad69,[Girl],[isGirlAnime],[isCuteAnime]",
    "title": "ANIME_PIC_c2b594b676264c7d4a30c4833dc4ad69",
    "link_img": "https://live.staticflickr.com/65535/51546949326_39cbd2e305_o.jpg",
    "id_image": "ANIME_PIC_c2b594b676264c7d4a30c4833dc4ad69",
    "count_view": 0
  },
  {
    "link_thumb": "https://live.staticflickr.com/65535/51547672529_94dba9e489_n.jpg",
    "id_album": "-316663319",
    "description": "ANIME_PIC_c2b5c265cc793951707e6142da30dfb8,[Girl],[isGirlAnime],[isCuteAnime]",
    "title": "ANIME_PIC_c2b5c265cc793951707e6142da30dfb8",
    "link_img": "https://live.staticflickr.com/65535/51547672529_3e73a6fc96_o.jpg",
    "id_image": "ANIME_PIC_c2b5c265cc793951707e6142da30dfb8",
    "count_view": 0
  },
  {
    "link_thumb": "https://live.staticflickr.com/65535/51547191563_f898b0880f_n.jpg",
    "id_album": "-316663319",
    "description": "ANIME_PIC_c2bd503d92dadaf2095b49acd94e7ff5,[Girl],[isGirlAnime],[isCuteAnime],[isBlackAnime]",
    "title": "ANIME_PIC_c2bd503d92dadaf2095b49acd94e7ff5",
    "link_img": "https://live.staticflickr.com/65535/51547191563_2bf229960d_o.jpg",
    "id_image": "ANIME_PIC_c2bd503d92dadaf2095b49acd94e7ff5",
    "count_view": 0
  },
  {
    "link_thumb": "https://live.staticflickr.com/65535/51547872175_2a743cb987_n.jpg",
    "id_album": "-316663319",
    "description": "ANIME_PIC_c2bdf3af12e5584b6775f2989f376d5e,[Girl],[isGirlAnime],[isCuteAnime],[isGirlsLoliAnime],[isSadAnimeGirl],[isSadAnime]",
    "title": "ANIME_PIC_c2bdf3af12e5584b6775f2989f376d5e",
    "link_img": "https://live.staticflickr.com/65535/51547872175_3bf52c2548_o.jpg",
    "id_image": "ANIME_PIC_c2bdf3af12e5584b6775f2989f376d5e",
    "count_view": 0
  },
  {
    "link_thumb": "https://live.staticflickr.com/65535/51547673484_216f397c01_n.jpg",
    "id_album": "-316663319",
    "description": "ANIME_PIC_c2c2e66fdb0b608ab09e4ad404f73033,[Girl],[isGirlAnime],[isGirlsHatsHoodieAnime]",
    "title": "ANIME_PIC_c2c2e66fdb0b608ab09e4ad404f73033",
    "link_img": "https://live.staticflickr.com/65535/51547673484_552deb490e_o.jpg",
    "id_image": "ANIME_PIC_c2c2e66fdb0b608ab09e4ad404f73033",
    "count_view": 0
  },
  {
    "link_thumb": "https://live.staticflickr.com/65535/51547872800_c0cac9430d_n.jpg",
    "id_album": "-316663319",
    "description": "ANIME_PIC_c2c3beaa3bc7cf365eef550f2a5bd5b2,[Girl],[isGirlAnime],[isCuteAnime],[isSadAnimeGirl],[isSadAnime]",
    "title": "ANIME_PIC_c2c3beaa3bc7cf365eef550f2a5bd5b2",
    "link_img": "https://live.staticflickr.com/65535/51547872800_a4a4798a0e_o.png",
    "id_image": "ANIME_PIC_c2c3beaa3bc7cf365eef550f2a5bd5b2",
    "count_view": 0
  },
  {
    "link_thumb": "https://live.staticflickr.com/65535/51546149452_263ea2f1cd_n.jpg",
    "id_album": "-316663319",
    "description": "ANIME_PIC_c2c6b1be42a44843956b9842e54cfba8,[Girl],[isGirlAnime],[isCuteAnime],[isSadAnimeGirl],[isSadAnime]",
    "title": "ANIME_PIC_c2c6b1be42a44843956b9842e54cfba8",
    "link_img": "https://live.staticflickr.com/65535/51546149452_3fc7237080_o.jpg",
    "id_image": "ANIME_PIC_c2c6b1be42a44843956b9842e54cfba8",
    "count_view": 0
  },
  {
    "link_thumb": "https://live.staticflickr.com/65535/51547873485_047693f2cf_n.jpg",
    "id_album": "-316663319",
    "description": "ANIME_PIC_c2c70d41156b2f429e1f5dba71ad0527,[Girl],[isGirlAnime],[isCuteAnime],[isGirlsHatsHoodieAnime],[isGirlsLoliAnime]",
    "title": "ANIME_PIC_c2c70d41156b2f429e1f5dba71ad0527",
    "link_img": "https://live.staticflickr.com/65535/51547873485_8fdef3ac4a_o.jpg",
    "id_image": "ANIME_PIC_c2c70d41156b2f429e1f5dba71ad0527",
    "count_view": 0
  },
  {
    "link_thumb": "https://live.staticflickr.com/65535/51547193393_8094d72303_n.jpg",
    "id_album": "-316663319",
    "description": "ANIME_PIC_c2d27fef4ba9e9b811455aa54013e080,[Girl],[isGirlAnime],[isCuteAnime]",
    "title": "ANIME_PIC_c2d27fef4ba9e9b811455aa54013e080",
    "link_img": "https://live.staticflickr.com/65535/51547193393_b31f6b4896_o.jpg",
    "id_image": "ANIME_PIC_c2d27fef4ba9e9b811455aa54013e080",
    "count_view": 0
  },
  {
    "link_thumb": "https://live.staticflickr.com/65535/51547675194_d065aa032a_n.jpg",
    "id_album": "-316663319",
    "description": "ANIME_PIC_c2d637c7d848c6c3439cbed04fb85ea6,[Girl],[isGirlAnime],[isCuteAnime],[isGirlsLoliAnime]",
    "title": "ANIME_PIC_c2d637c7d848c6c3439cbed04fb85ea6",
    "link_img": "https://live.staticflickr.com/65535/51547675194_518425bb33_o.png",
    "id_image": "ANIME_PIC_c2d637c7d848c6c3439cbed04fb85ea6",
    "count_view": 0
  },
  {
    "link_thumb": "https://live.staticflickr.com/65535/51547675759_6e605b706c_n.jpg",
    "id_album": "-316663319",
    "description": "ANIME_PIC_c2ddab6af8a363a837d4042e843695ed,[Girl],[isGirlAnime],[isCuteAnime],[isSadAnimeGirl],[isSadAnime]",
    "title": "ANIME_PIC_c2ddab6af8a363a837d4042e843695ed",
    "link_img": "https://live.staticflickr.com/65535/51547675759_20b7bc170c_o.jpg",
    "id_image": "ANIME_PIC_c2ddab6af8a363a837d4042e843695ed",
    "count_view": 0
  },
  {
    "link_thumb": "https://live.staticflickr.com/65535/51547676114_d9eeb52e4f_n.jpg",
    "id_album": "-316663319",
    "description": "ANIME_PIC_c2deef15086241e578d92be31ec0400b,[Girl],[isGirlAnime],[isCuteAnime],[isGirlsHornsAnime],[isGirlsLoliAnime]",
    "title": "ANIME_PIC_c2deef15086241e578d92be31ec0400b",
    "link_img": "https://live.staticflickr.com/65535/51547676114_bc8b5ea968_o.png",
    "id_image": "ANIME_PIC_c2deef15086241e578d92be31ec0400b",
    "count_view": 0
  },
  {
    "link_thumb": "https://live.staticflickr.com/65535/51547875460_9ee735bf94_n.jpg",
    "id_album": "-316663319",
    "description": "ANIME_PIC_c2df88bbb49a27f65338df4db48fad92,[Girl],[isGirlAnime],[isCuteAnime],[isGirlEarsNekoAnime],[isGirlsHatsHoodieAnime],[isGirlsLoliAnime]",
    "title": "ANIME_PIC_c2df88bbb49a27f65338df4db48fad92",
    "link_img": "https://live.staticflickr.com/65535/51547875460_df6ea1cd71_o.jpg",
    "id_image": "ANIME_PIC_c2df88bbb49a27f65338df4db48fad92",
    "count_view": 0
  },
  {
    "link_thumb": "https://live.staticflickr.com/65535/51546954316_949b615daf_n.jpg",
    "id_album": "-316663319",
    "description": "ANIME_PIC_c2e0370809d9c9fe92e43e88f07fe8bf,[Girl],[isGirlAnime],[isCuteAnime],[isGirlsLoliAnime]",
    "title": "ANIME_PIC_c2e0370809d9c9fe92e43e88f07fe8bf",
    "link_img": "https://live.staticflickr.com/65535/51546954316_fd07b94baa_o.jpg",
    "id_image": "ANIME_PIC_c2e0370809d9c9fe92e43e88f07fe8bf",
    "count_view": 0
  },
  {
    "link_thumb": "https://live.staticflickr.com/65535/51547195703_63912a4ae8_n.jpg",
    "id_album": "-316663319",
    "description": "ANIME_PIC_c2e1c71ce29ff30840cf3245201f2571,[Girl],[isGirlAnime],[isCuteAnime]",
    "title": "ANIME_PIC_c2e1c71ce29ff30840cf3245201f2571",
    "link_img": "https://live.staticflickr.com/65535/51547195703_73bebed369_o.jpg",
    "id_image": "ANIME_PIC_c2e1c71ce29ff30840cf3245201f2571",
    "count_view": 0
  },
  {
    "link_thumb": "https://live.staticflickr.com/65535/51546152572_9c002e645b_n.jpg",
    "id_album": "-316663319",
    "description": "ANIME_PIC_c2e4cd9f3434647531d2c7eb373f68a7,[Girl],[isGirlAnime],[isCuteAnime],[isGirlsLoliAnime],[isSadAnimeGirl],[isSadAnime]",
    "title": "ANIME_PIC_c2e4cd9f3434647531d2c7eb373f68a7",
    "link_img": "https://live.staticflickr.com/65535/51546152572_dc8f6d27b4_o.jpg",
    "id_image": "ANIME_PIC_c2e4cd9f3434647531d2c7eb373f68a7",
    "count_view": 0
  },
  {
    "link_thumb": "https://live.staticflickr.com/65535/51546955056_2859f6a972_n.jpg",
    "id_album": "-316663319",
    "description": "ANIME_PIC_c2e6db9d8c332aaa9e5e89c690628f6e,[Girl],[isGirlAnime],[isCuteAnime],[isGirlsLoliAnime]",
    "title": "ANIME_PIC_c2e6db9d8c332aaa9e5e89c690628f6e",
    "link_img": "https://live.staticflickr.com/65535/51546955056_d3872c754f_o.jpg",
    "id_image": "ANIME_PIC_c2e6db9d8c332aaa9e5e89c690628f6e",
    "count_view": 0
  },
  {
    "link_thumb": "https://live.staticflickr.com/65535/51547678219_65179335f8_n.jpg",
    "id_album": "-316663319",
    "description": "ANIME_PIC_c2e99954502819fd4696a297950d44ae,[Girl],[isGirlAnime],[isCuteAnime]",
    "title": "ANIME_PIC_c2e99954502819fd4696a297950d44ae",
    "link_img": "https://live.staticflickr.com/65535/51547678219_6a27337dd0_o.jpg",
    "id_image": "ANIME_PIC_c2e99954502819fd4696a297950d44ae",
    "count_view": 0
  },
  {
    "link_thumb": "https://live.staticflickr.com/65535/51547877220_11cca898be_n.jpg",
    "id_album": "-316663319",
    "description": "ANIME_PIC_c2ebcfa538a5762f4f426b695e217da7,[Girl],[isGirlAnime],[isCuteAnime],[isGirlsHatsHoodieAnime],[isGirlsLoliAnime]",
    "title": "ANIME_PIC_c2ebcfa538a5762f4f426b695e217da7",
    "link_img": "https://live.staticflickr.com/65535/51547877220_e393e961e9_o.jpg",
    "id_image": "ANIME_PIC_c2ebcfa538a5762f4f426b695e217da7",
    "count_view": 0
  },
  {
    "link_thumb": "https://live.staticflickr.com/65535/51547678814_27674b6985_n.jpg",
    "id_album": "-316663319",
    "description": "ANIME_PIC_c2efaffe3259c263d24ece109c288831,[Girl],[isGirlAnime],[isCuteAnime]",
    "title": "ANIME_PIC_c2efaffe3259c263d24ece109c288831",
    "link_img": "https://live.staticflickr.com/65535/51547678814_1aa5fbc60a_o.jpg",
    "id_image": "ANIME_PIC_c2efaffe3259c263d24ece109c288831",
    "count_view": 0
  },
  {
    "link_thumb": "https://live.staticflickr.com/65535/51547679114_b66afc649c_n.jpg",
    "id_album": "-316663319",
    "description": "ANIME_PIC_c2efd315a86e8d417fc18d7ff2335f7a,[Girl],[isGirlAnime],[isCuteAnime],[isGirlsLoliAnime]",
    "title": "ANIME_PIC_c2efd315a86e8d417fc18d7ff2335f7a",
    "link_img": "https://live.staticflickr.com/65535/51547679114_e64df35bd6_o.jpg",
    "id_image": "ANIME_PIC_c2efd315a86e8d417fc18d7ff2335f7a",
    "count_view": 0
  },
  {
    "link_thumb": "https://live.staticflickr.com/65535/51546154292_cdb98a854a_n.jpg",
    "id_album": "-316663319",
    "description": "ANIME_PIC_c2f1f7ca292249549971c75e55e6b69f,[Girl],[isGirlAnime],[isCuteAnime],[isGirlsLoliAnime]",
    "title": "ANIME_PIC_c2f1f7ca292249549971c75e55e6b69f",
    "link_img": "https://live.staticflickr.com/65535/51546154292_d242f9b510_o.png",
    "id_image": "ANIME_PIC_c2f1f7ca292249549971c75e55e6b69f",
    "count_view": 0
  },
  {
    "link_thumb": "https://live.staticflickr.com/65535/51547878430_05d231d1c9_n.jpg",
    "id_album": "-316663319",
    "description": "ANIME_PIC_c2f3c7c3b357e16d99e5eb2140d80a24,[Girl],[isGirlAnime],[isCuteAnime],[isGirlEarsNekoAnime],[isGirlsLoliAnime],[isSadAnimeGirl],[isSadAnime]",
    "title": "ANIME_PIC_c2f3c7c3b357e16d99e5eb2140d80a24",
    "link_img": "https://live.staticflickr.com/65535/51547878430_9b8b27d21c_o.jpg",
    "id_image": "ANIME_PIC_c2f3c7c3b357e16d99e5eb2140d80a24",
    "count_view": 0
  },
  {
    "link_thumb": "https://live.staticflickr.com/65535/51547878735_e3b7ccd68e_n.jpg",
    "id_album": "-316663319",
    "description": "ANIME_PIC_c2f426e5a59bc476295a858577d0b932,[Girl],[isGirlAnime],[isCuteAnime]",
    "title": "ANIME_PIC_c2f426e5a59bc476295a858577d0b932",
    "link_img": "https://live.staticflickr.com/65535/51547878735_62be7a7551_o.jpg",
    "id_image": "ANIME_PIC_c2f426e5a59bc476295a858577d0b932",
    "count_view": 0
  },
  {
    "link_thumb": "https://live.staticflickr.com/65535/51546155442_5ea58d2681_n.jpg",
    "id_album": "-316663319",
    "description": "ANIME_PIC_c2f8c2f28ec49596485a4251447c8df6,[Girl],[isGirlAnime],[isCuteAnime],[isGirlEarsNekoAnime],[isGirlsLoliAnime]",
    "title": "ANIME_PIC_c2f8c2f28ec49596485a4251447c8df6",
    "link_img": "https://live.staticflickr.com/65535/51546155442_747db918cd_o.jpg",
    "id_image": "ANIME_PIC_c2f8c2f28ec49596485a4251447c8df6",
    "count_view": 0
  },
  {
    "link_thumb": "https://live.staticflickr.com/65535/51547680724_13798fdcd7_n.jpg",
    "id_album": "-316663319",
    "description": "ANIME_PIC_c2fa46ec03e9a7b69b1112c07beaf514,[Girl],[isGirlAnime],[isCuteAnime],[isGirlsLoliAnime]",
    "title": "ANIME_PIC_c2fa46ec03e9a7b69b1112c07beaf514",
    "link_img": "https://live.staticflickr.com/65535/51547680724_7bab721f87_o.jpg",
    "id_image": "ANIME_PIC_c2fa46ec03e9a7b69b1112c07beaf514",
    "count_view": 0
  },
  {
    "link_thumb": "https://live.staticflickr.com/65535/51547879630_c0584dae74_n.jpg",
    "id_album": "-316663319",
    "description": "ANIME_PIC_c2fac0949261d2b7c39176479e07a520,[Girl],[isGirlAnime],[isSadAnimeGirl],[isSadAnime]",
    "title": "ANIME_PIC_c2fac0949261d2b7c39176479e07a520",
    "link_img": "https://live.staticflickr.com/65535/51547879630_41c53c5614_o.jpg",
    "id_image": "ANIME_PIC_c2fac0949261d2b7c39176479e07a520",
    "count_view": 0
  },
  {
    "link_thumb": "https://live.staticflickr.com/65535/51547880125_5200993331_n.jpg",
    "id_album": "-316663319",
    "description": "ANIME_PIC_c2fb1f9f89fbf89ffe97c634978837fa,[Girl],[isGirlAnime],[isCuteAnime]",
    "title": "ANIME_PIC_c2fb1f9f89fbf89ffe97c634978837fa",
    "link_img": "https://live.staticflickr.com/65535/51547880125_30ff4cb735_o.jpg",
    "id_image": "ANIME_PIC_c2fb1f9f89fbf89ffe97c634978837fa",
    "count_view": 0
  },
  {
    "link_thumb": "https://live.staticflickr.com/65535/51547199943_84d1ee68f1_n.jpg",
    "id_album": "-316663319",
    "description": "ANIME_PIC_c3011409429c20a286b7b77c5f105672,[Girl],[isGirlAnime],[isCuteAnime],[isBlackAnime],[isGirlsHatsHoodieAnime],[isSadAnimeGirl],[isSadAnime]",
    "title": "ANIME_PIC_c3011409429c20a286b7b77c5f105672",
    "link_img": "https://live.staticflickr.com/65535/51547199943_402e6c685b_o.jpg",
    "id_image": "ANIME_PIC_c3011409429c20a286b7b77c5f105672",
    "count_view": 0
  },
  {
    "link_thumb": "https://live.staticflickr.com/65535/51547682529_42bae5edf5_n.jpg",
    "id_album": "-316663319",
    "description": "ANIME_PIC_c301e8297e7da741864617804decfda8,[Girl],[isGirlAnime],[isCuteAnime]",
    "title": "ANIME_PIC_c301e8297e7da741864617804decfda8",
    "link_img": "https://live.staticflickr.com/65535/51547682529_96b21bd48b_o.jpg",
    "id_image": "ANIME_PIC_c301e8297e7da741864617804decfda8",
    "count_view": 0
  },
  {
    "link_thumb": "https://live.staticflickr.com/65535/51547200923_47040aec9b_n.jpg",
    "id_album": "-316663319",
    "description": "ANIME_PIC_c3045102750ee3ba4c144c670fa5f77f,[Girl],[isGirlAnime],[isCuteAnime],[isGirlFaceMasksAnime],[isGirlsLoliAnime]",
    "title": "ANIME_PIC_c3045102750ee3ba4c144c670fa5f77f",
    "link_img": "https://live.staticflickr.com/65535/51547200923_2aff174bb2_o.jpg",
    "id_image": "ANIME_PIC_c3045102750ee3ba4c144c670fa5f77f",
    "count_view": 0
  },
  {
    "link_thumb": "https://live.staticflickr.com/65535/51547201453_550e9c0d63_n.jpg",
    "id_album": "-316663319",
    "description": "ANIME_PIC_c305e7e49ec4bd55c6d84967c618cc8a,[Girl],[isGirlAnime],[isCuteAnime],[isGirlsLoliAnime]",
    "title": "ANIME_PIC_c305e7e49ec4bd55c6d84967c618cc8a",
    "link_img": "https://live.staticflickr.com/65535/51547201453_5c39a5bed9_o.png",
    "id_image": "ANIME_PIC_c305e7e49ec4bd55c6d84967c618cc8a",
    "count_view": 0
  },
  {
    "link_thumb": "https://live.staticflickr.com/65535/51547684219_f02b265331_n.jpg",
    "id_album": "-316663319",
    "description": "ANIME_PIC_c307cfe73300f8aff054a187f25d69e8,[Girl],[isGirlAnime],[isCuteAnime],[isGirlEarsNekoAnime],[isGirlsLoliAnime],[isGirlsSharpCanineToothAnime]",
    "title": "ANIME_PIC_c307cfe73300f8aff054a187f25d69e8",
    "link_img": "https://live.staticflickr.com/65535/51547684219_b7a3d0ca5f_o.jpg",
    "id_image": "ANIME_PIC_c307cfe73300f8aff054a187f25d69e8",
    "count_view": 0
  },
  {
    "link_thumb": "https://live.staticflickr.com/65535/51546159792_6dfac991be_n.jpg",
    "id_album": "-316663319",
    "description": "ANIME_PIC_c30810b96e3822fe0bb6eff85188b903,[Girl],[isGirlAnime],[isCuteAnime]",
    "title": "ANIME_PIC_c30810b96e3822fe0bb6eff85188b903",
    "link_img": "https://live.staticflickr.com/65535/51546159792_cb379f5618_o.jpg",
    "id_image": "ANIME_PIC_c30810b96e3822fe0bb6eff85188b903",
    "count_view": 0
  },
  {
    "link_thumb": "https://live.staticflickr.com/65535/51547684844_37ea52c71c_n.jpg",
    "id_album": "-316663319",
    "description": "ANIME_PIC_c3101a5b90c5eb0ac45e432f5165bfb2,[Girl],[isGirlAnime],[isCuteAnime],[isGirlsHatsHoodieAnime],[isGirlsLoliAnime]",
    "title": "ANIME_PIC_c3101a5b90c5eb0ac45e432f5165bfb2",
    "link_img": "https://live.staticflickr.com/65535/51547684844_15618cd64d_o.jpg",
    "id_image": "ANIME_PIC_c3101a5b90c5eb0ac45e432f5165bfb2",
    "count_view": 0
  },
  {
    "link_thumb": "https://live.staticflickr.com/65535/51546962286_db9e1fa586_n.jpg",
    "id_album": "-316663319",
    "description": "ANIME_PIC_c310ffa716c32516ef8ec358725ddcfb,[Girl],[isGirlAnime],[isCuteAnime],[isGirlsLoliAnime]",
    "title": "ANIME_PIC_c310ffa716c32516ef8ec358725ddcfb",
    "link_img": "https://live.staticflickr.com/65535/51546962286_002e1f4463_o.png",
    "id_image": "ANIME_PIC_c310ffa716c32516ef8ec358725ddcfb",
    "count_view": 0
  },
  {
    "link_thumb": "https://live.staticflickr.com/65535/51546161277_c58cb797d3_n.jpg",
    "id_album": "-316663319",
    "description": "ANIME_PIC_c314047f597ac5bb5627bc1b5539eb67,[Girl],[isGirlAnime],[isCuteAnime],[isGirlsHatsHoodieAnime]",
    "title": "ANIME_PIC_c314047f597ac5bb5627bc1b5539eb67",
    "link_img": "https://live.staticflickr.com/65535/51546161277_7f6e89ca17_o.jpg",
    "id_image": "ANIME_PIC_c314047f597ac5bb5627bc1b5539eb67",
    "count_view": 0
  },
  {
    "link_thumb": "https://live.staticflickr.com/65535/51547204113_be235a9cd7_n.jpg",
    "id_album": "-316663319",
    "description": "ANIME_PIC_c314b11e09e248099a160d6ed3080742,[Girl],[isGirlAnime],[isCuteAnime],[isGirlEarsNekoAnime],[isGirlsLoliAnime]",
    "title": "ANIME_PIC_c314b11e09e248099a160d6ed3080742",
    "link_img": "https://live.staticflickr.com/65535/51547204113_7a1e630cbd_o.jpg",
    "id_image": "ANIME_PIC_c314b11e09e248099a160d6ed3080742",
    "count_view": 0
  },
  {
    "link_thumb": "https://live.staticflickr.com/65535/51547885175_5776dcc362_n.jpg",
    "id_album": "-316663319",
    "description": "ANIME_PIC_c3153053a3ea3e9eadf7fc2f6845266c,[Girl],[isGirlAnime],[isSadAnimeGirl],[isSadAnime]",
    "title": "ANIME_PIC_c3153053a3ea3e9eadf7fc2f6845266c",
    "link_img": "https://live.staticflickr.com/65535/51547885175_c1cd054cab_o.jpg",
    "id_image": "ANIME_PIC_c3153053a3ea3e9eadf7fc2f6845266c",
    "count_view": 0
  },
  {
    "link_thumb": "https://live.staticflickr.com/65535/51546162137_634a665626_n.jpg",
    "id_album": "-316663319",
    "description": "ANIME_PIC_c31546d21f1daacc7c13ab5be72c7edf,[Girl],[isGirlAnime],[isCuteAnime],[isGirlsHatsHoodieAnime],[isGirlsLoliAnime]",
    "title": "ANIME_PIC_c31546d21f1daacc7c13ab5be72c7edf",
    "link_img": "https://live.staticflickr.com/65535/51546162137_659948251c_o.jpg",
    "id_image": "ANIME_PIC_c31546d21f1daacc7c13ab5be72c7edf",
    "count_view": 0
  },
  {
    "link_thumb": "https://live.staticflickr.com/65535/51547687254_838a8b9350_n.jpg",
    "id_album": "-316663319",
    "description": "ANIME_PIC_c3160f1b91e0e6a0bf9e28853fa06374,[Girl],[isGirlAnime],[isCuteAnime],[isGirlsHatsHoodieAnime],[isGirlsLoliAnime]",
    "title": "ANIME_PIC_c3160f1b91e0e6a0bf9e28853fa06374",
    "link_img": "https://live.staticflickr.com/65535/51547687254_a4bae8ba4c_o.jpg",
    "id_image": "ANIME_PIC_c3160f1b91e0e6a0bf9e28853fa06374",
    "count_view": 0
  },
  {
    "link_thumb": "https://live.staticflickr.com/65535/51546162737_833b1908ff_n.jpg",
    "id_album": "-316663319",
    "description": "ANIME_PIC_c316c31443b09eff7d701d218e3a3ca6,[Girl],[isGirlAnime],[isCuteAnime],[isGirlEarsNekoAnime],[isGirlsHatsHoodieAnime],[isGirlsLoliAnime],[isSadAnimeGirl],[isSadAnime]",
    "title": "ANIME_PIC_c316c31443b09eff7d701d218e3a3ca6",
    "link_img": "https://live.staticflickr.com/65535/51546162737_bc62fa1cdf_o.jpg",
    "id_image": "ANIME_PIC_c316c31443b09eff7d701d218e3a3ca6",
    "count_view": 0
  },
  {
    "link_thumb": "https://live.staticflickr.com/65535/51546163137_7eb8697e0f_n.jpg",
    "id_album": "-316663319",
    "description": "ANIME_PIC_c317393fccd735f09179ee92da387893,[Girl],[isGirlAnime],[isCuteAnime],[isSadAnimeGirl],[isSadAnime]",
    "title": "ANIME_PIC_c317393fccd735f09179ee92da387893",
    "link_img": "https://live.staticflickr.com/65535/51546163137_20f78ba1c2_o.jpg",
    "id_image": "ANIME_PIC_c317393fccd735f09179ee92da387893",
    "count_view": 0
  },
  {
    "link_thumb": "https://live.staticflickr.com/65535/51546163437_259a8b9677_n.jpg",
    "id_album": "-316663319",
    "description": "ANIME_PIC_c3178a8381c1be5131817b9b9985a79c,[Girl],[isGirlAnime],[isCuteAnime]",
    "title": "ANIME_PIC_c3178a8381c1be5131817b9b9985a79c",
    "link_img": "https://live.staticflickr.com/65535/51546163437_9cc502f62e_o.jpg",
    "id_image": "ANIME_PIC_c3178a8381c1be5131817b9b9985a79c",
    "count_view": 0
  },
  {
    "link_thumb": "https://live.staticflickr.com/65535/51546965381_82fc6d6df7_n.jpg",
    "id_album": "-316663319",
    "description": "ANIME_PIC_c31a60db245e52f7b83094800b5f59fd,[Girl],[isGirlAnime],[isCuteAnime],[isGirlsLoliAnime],[isSadAnimeGirl],[isSadAnime]",
    "title": "ANIME_PIC_c31a60db245e52f7b83094800b5f59fd",
    "link_img": "https://live.staticflickr.com/65535/51546965381_71a76ffc48_o.jpg",
    "id_image": "ANIME_PIC_c31a60db245e52f7b83094800b5f59fd",
    "count_view": 0
  },
  {
    "link_thumb": "https://live.staticflickr.com/65535/51547206383_7c5b6edc7a_n.jpg",
    "id_album": "-316663319",
    "description": "ANIME_PIC_c31a6a10aa62f8cdcb034aa7181cb05c,[Girl],[isGirlAnime],[isCuteAnime],[isGirlsLoliAnime],[isSadAnimeGirl],[isSadAnime]",
    "title": "ANIME_PIC_c31a6a10aa62f8cdcb034aa7181cb05c",
    "link_img": "https://live.staticflickr.com/65535/51547206383_44184cecfc_o.png",
    "id_image": "ANIME_PIC_c31a6a10aa62f8cdcb034aa7181cb05c",
    "count_view": 0
  },
  {
    "link_thumb": "https://live.staticflickr.com/65535/51547206863_9ed8d1f283_n.jpg",
    "id_album": "-316663319",
    "description": "ANIME_PIC_c31a6fa79d70806aad5a18f1c666f71b,[Girl],[isGirlAnime],[isCuteAnime],[isGirlsLoliAnime]",
    "title": "ANIME_PIC_c31a6fa79d70806aad5a18f1c666f71b",
    "link_img": "https://live.staticflickr.com/65535/51547206863_f90596e3c1_o.jpg",
    "id_image": "ANIME_PIC_c31a6fa79d70806aad5a18f1c666f71b",
    "count_view": 0
  },
  {
    "link_thumb": "https://live.staticflickr.com/65535/51547689834_f492a9ac82_n.jpg",
    "id_album": "-316663319",
    "description": "ANIME_PIC_c31ad18ce994ade76176801b0c558f21,[Girl],[isGirlAnime],[isCuteAnime],[isGirlsLoliAnime]",
    "title": "ANIME_PIC_c31ad18ce994ade76176801b0c558f21",
    "link_img": "https://live.staticflickr.com/65535/51547689834_ed4551d46e_o.png",
    "id_image": "ANIME_PIC_c31ad18ce994ade76176801b0c558f21",
    "count_view": 0
  },
  {
    "link_thumb": "https://live.staticflickr.com/65535/51547690419_7855453d0c_n.jpg",
    "id_album": "-316663319",
    "description": "ANIME_PIC_c31ca5c576946c180b98e7b5427c5b4a,[Girl],[isGirlAnime],[isCuteAnime],[isGirlsLoliAnime]",
    "title": "ANIME_PIC_c31ca5c576946c180b98e7b5427c5b4a",
    "link_img": "https://live.staticflickr.com/65535/51547690419_59a7e94027_o.png",
    "id_image": "ANIME_PIC_c31ca5c576946c180b98e7b5427c5b4a",
    "count_view": 0
  },
  {
    "link_thumb": "https://live.staticflickr.com/65535/51547889400_fabbca8d83_n.jpg",
    "id_album": "-316663319",
    "description": "ANIME_PIC_c3201361c1a42b60f49be1bda785f127,[Girl],[isGirlAnime],[isCuteAnime],[isGirlsHatsHoodieAnime],[isGirlsLoliAnime]",
    "title": "ANIME_PIC_c3201361c1a42b60f49be1bda785f127",
    "link_img": "https://live.staticflickr.com/65535/51547889400_17f69986fd_o.jpg",
    "id_image": "ANIME_PIC_c3201361c1a42b60f49be1bda785f127",
    "count_view": 0
  },
  {
    "link_thumb": "https://live.staticflickr.com/65535/51547691399_a29a4f0205_n.jpg",
    "id_album": "-316663319",
    "description": "ANIME_PIC_c3202b520ea593e59f3cf7d8948c375e,[Girl],[isGirlAnime],[isSadAnimeGirl],[isSadAnime]",
    "title": "ANIME_PIC_c3202b520ea593e59f3cf7d8948c375e",
    "link_img": "https://live.staticflickr.com/65535/51547691399_fdca6630ba_o.jpg",
    "id_image": "ANIME_PIC_c3202b520ea593e59f3cf7d8948c375e",
    "count_view": 0
  },
  {
    "link_thumb": "https://live.staticflickr.com/65535/51547890130_893611dcf2_n.jpg",
    "id_album": "-316663319",
    "description": "ANIME_PIC_c320d884668eb40f7382c314d915c21a,[Girl],[isGirlAnime],[isCuteAnime],[isGirlsLoliAnime]",
    "title": "ANIME_PIC_c320d884668eb40f7382c314d915c21a",
    "link_img": "https://live.staticflickr.com/65535/51547890130_d9aa53cf4e_o.jpg",
    "id_image": "ANIME_PIC_c320d884668eb40f7382c314d915c21a",
    "count_view": 0
  },
  {
    "link_thumb": "https://live.staticflickr.com/65535/51546167112_ebe52798e3_n.jpg",
    "id_album": "-316663319",
    "description": "ANIME_PIC_c325158f319083a13c45d67df658fc8e,[Girl],[isGirlAnime],[isCuteAnime]",
    "title": "ANIME_PIC_c325158f319083a13c45d67df658fc8e",
    "link_img": "https://live.staticflickr.com/65535/51546167112_dbf140329d_o.png",
    "id_image": "ANIME_PIC_c325158f319083a13c45d67df658fc8e",
    "count_view": 0
  },
  {
    "link_thumb": "https://live.staticflickr.com/65535/51547891055_830d91a768_n.jpg",
    "id_album": "-316663319",
    "description": "ANIME_PIC_c329cbb738f8867a222788db748c25a2,[Girl],[isGirlAnime],[isCuteAnime]",
    "title": "ANIME_PIC_c329cbb738f8867a222788db748c25a2",
    "link_img": "https://live.staticflickr.com/65535/51547891055_1db14b69fa_o.png",
    "id_image": "ANIME_PIC_c329cbb738f8867a222788db748c25a2",
    "count_view": 0
  },
  {
    "link_thumb": "https://live.staticflickr.com/65535/51547891530_12b8d84763_n.jpg",
    "id_album": "-316663319",
    "description": "ANIME_PIC_c32a7b5a36a69916d3d726176027b331,[Girl],[isGirlAnime],[isCuteAnime],[isGirlFaceMasksAnime]",
    "title": "ANIME_PIC_c32a7b5a36a69916d3d726176027b331",
    "link_img": "https://live.staticflickr.com/65535/51547891530_556a3c3813_o.jpg",
    "id_image": "ANIME_PIC_c32a7b5a36a69916d3d726176027b331",
    "count_view": 0
  },
  {
    "link_thumb": "https://live.staticflickr.com/65535/51547693649_23b50871f6_n.jpg",
    "id_album": "-316663319",
    "description": "ANIME_PIC_c32b258aea45c77241e2779d953e8ffb,[Girl],[isGirlAnime],[isCuteAnime],[isGirlsLoliAnime],[isSadAnimeGirl],[isSadAnime]",
    "title": "ANIME_PIC_c32b258aea45c77241e2779d953e8ffb",
    "link_img": "https://live.staticflickr.com/65535/51547693649_da7d1b5270_o.png",
    "id_image": "ANIME_PIC_c32b258aea45c77241e2779d953e8ffb",
    "count_view": 0
  },
  {
    "link_thumb": "https://live.staticflickr.com/65535/51546169117_d27b52f289_n.jpg",
    "id_album": "-316663319",
    "description": "ANIME_PIC_c32b49bd385c3bdf42266dacdd1ceb46,[Girl],[isGirlAnime],[isCuteAnime],[isSadAnimeGirl],[isSadAnime]",
    "title": "ANIME_PIC_c32b49bd385c3bdf42266dacdd1ceb46",
    "link_img": "https://live.staticflickr.com/65535/51546169117_4369828751_o.jpg",
    "id_image": "ANIME_PIC_c32b49bd385c3bdf42266dacdd1ceb46",
    "count_view": 0
  },
  {
    "link_thumb": "https://live.staticflickr.com/65535/51547892535_48fcdc24da_n.jpg",
    "id_album": "-316663319",
    "description": "ANIME_PIC_c32e488f7405b14f96b3cea893bb9495,[Girl],[isGirlAnime],[isCuteAnime],[isGirlsHatsHoodieAnime],[isGirlsLoliAnime]",
    "title": "ANIME_PIC_c32e488f7405b14f96b3cea893bb9495",
    "link_img": "https://live.staticflickr.com/65535/51547892535_1c0ce9eb3c_o.jpg",
    "id_image": "ANIME_PIC_c32e488f7405b14f96b3cea893bb9495",
    "count_view": 0
  },
  {
    "link_thumb": "https://live.staticflickr.com/65535/51547212008_fc1f3cceb7_n.jpg",
    "id_album": "-316663319",
    "description": "ANIME_PIC_c32ef4441e2d63bb5c11d97fdede3f56,[Girl],[isGirlAnime],[isCuteAnime],[isGirlsLoliAnime],[isSadAnimeGirl],[isSadAnime]",
    "title": "ANIME_PIC_c32ef4441e2d63bb5c11d97fdede3f56",
    "link_img": "https://live.staticflickr.com/65535/51547212008_e9b8607864_o.jpg",
    "id_image": "ANIME_PIC_c32ef4441e2d63bb5c11d97fdede3f56",
    "count_view": 0
  },
  {
    "link_thumb": "https://live.staticflickr.com/65535/51547212368_fb75a3bd1a_n.jpg",
    "id_album": "-316663319",
    "description": "ANIME_PIC_c330b59bb776b73ca5a12ccb65cdd2a5,[Girl],[isGirlAnime],[isCuteAnime],[isGirlsLoliAnime]",
    "title": "ANIME_PIC_c330b59bb776b73ca5a12ccb65cdd2a5",
    "link_img": "https://live.staticflickr.com/65535/51547212368_64b9e38bdc_o.jpg",
    "id_image": "ANIME_PIC_c330b59bb776b73ca5a12ccb65cdd2a5",
    "count_view": 0
  },
  {
    "link_thumb": "https://live.staticflickr.com/65535/51547893525_63c654a74e_n.jpg",
    "id_album": "-316663319",
    "description": "ANIME_PIC_c3344d27438f4f1ceaf292ab99b94428,[Girl],[isGirlAnime],[isCuteAnime],[isGirlsLoliAnime]",
    "title": "ANIME_PIC_c3344d27438f4f1ceaf292ab99b94428",
    "link_img": "https://live.staticflickr.com/65535/51547893525_3f1d82aa92_o.jpg",
    "id_image": "ANIME_PIC_c3344d27438f4f1ceaf292ab99b94428",
    "count_view": 0
  },
  {
    "link_thumb": "https://live.staticflickr.com/65535/51547212993_afc0434f04_n.jpg",
    "id_album": "-316663319",
    "description": "ANIME_PIC_c33f0595c60c049f7f62fa3907885b3c,[Girl],[isGirlAnime],[isCuteAnime],[isGirlsLoliAnime]",
    "title": "ANIME_PIC_c33f0595c60c049f7f62fa3907885b3c",
    "link_img": "https://live.staticflickr.com/65535/51547212993_babd09c63a_o.jpg",
    "id_image": "ANIME_PIC_c33f0595c60c049f7f62fa3907885b3c",
    "count_view": 0
  },
  {
    "link_thumb": "https://live.staticflickr.com/65535/51547894220_63cb46891e_n.jpg",
    "id_album": "-316663319",
    "description": "ANIME_PIC_c3412bdf91c9598e82fc220c3a5958db,[Girl],[isGirlAnime],[isCuteAnime],[isGirlsHatsHoodieAnime],[isGirlsLoliAnime]",
    "title": "ANIME_PIC_c3412bdf91c9598e82fc220c3a5958db",
    "link_img": "https://live.staticflickr.com/65535/51547894220_0e5d31ee03_o.jpg",
    "id_image": "ANIME_PIC_c3412bdf91c9598e82fc220c3a5958db",
    "count_view": 0
  },
  {
    "link_thumb": "https://live.staticflickr.com/65535/51547696169_77ccdf6c2b_n.jpg",
    "id_album": "-316663319",
    "description": "ANIME_PIC_c3451d8e21511cecf8cbade6eacb4845,[Girl],[isGirlAnime],[isCuteAnime],[isGirlsLoliAnime]",
    "title": "ANIME_PIC_c3451d8e21511cecf8cbade6eacb4845",
    "link_img": "https://live.staticflickr.com/65535/51547696169_d6c33b72a9_o.jpg",
    "id_image": "ANIME_PIC_c3451d8e21511cecf8cbade6eacb4845",
    "count_view": 0
  },
  {
    "link_thumb": "https://live.staticflickr.com/65535/51547213953_26f18e5364_n.jpg",
    "id_album": "-316663319",
    "description": "ANIME_PIC_c3452f786f04a740dd71a43981f0668b,[Girl],[isGirlAnime],[isCuteAnime],[isGirlsHatsHoodieAnime],[isGirlsLoliAnime]",
    "title": "ANIME_PIC_c3452f786f04a740dd71a43981f0668b",
    "link_img": "https://live.staticflickr.com/65535/51547213953_a931fd741e_o.jpg",
    "id_image": "ANIME_PIC_c3452f786f04a740dd71a43981f0668b",
    "count_view": 0
  },
  {
    "link_thumb": "https://live.staticflickr.com/65535/51547696854_3c84916de1_n.jpg",
    "id_album": "-316663319",
    "description": "ANIME_PIC_c3483ef1a8c312e1fa14049c4c83edc0,[Girl],[isBoyAnime],[isCoupleAnime],[isGirlAnime],[isCuteAnime]",
    "title": "ANIME_PIC_c3483ef1a8c312e1fa14049c4c83edc0",
    "link_img": "https://live.staticflickr.com/65535/51547696854_a51b9cba86_o.jpg",
    "id_image": "ANIME_PIC_c3483ef1a8c312e1fa14049c4c83edc0",
    "count_view": 0
  },
  {
    "link_thumb": "https://live.staticflickr.com/65535/51547214473_469d99a4a4_n.jpg",
    "id_album": "-316663319",
    "description": "ANIME_PIC_c349212a0ac8b5ae3e3c0e1434be5763,[Girl],[isGirlAnime],[isCuteAnime]",
    "title": "ANIME_PIC_c349212a0ac8b5ae3e3c0e1434be5763",
    "link_img": "https://live.staticflickr.com/65535/51547214473_e4ca1b205d_o.png",
    "id_image": "ANIME_PIC_c349212a0ac8b5ae3e3c0e1434be5763",
    "count_view": 0
  },
  {
    "link_thumb": "https://live.staticflickr.com/65535/51547697464_13c0ca1a71_n.jpg",
    "id_album": "-316663319",
    "description": "ANIME_PIC_c34a2289016485c3ed3b9dea474061a9,[Girl],[isGirlAnime],[isCuteAnime],[isSadAnimeGirl],[isSadAnime]",
    "title": "ANIME_PIC_c34a2289016485c3ed3b9dea474061a9",
    "link_img": "https://live.staticflickr.com/65535/51547697464_8de4ab8c93_o.jpg",
    "id_image": "ANIME_PIC_c34a2289016485c3ed3b9dea474061a9",
    "count_view": 0
  },
  {
    "link_thumb": "https://live.staticflickr.com/65535/51547215228_b05e5d1600_n.jpg",
    "id_album": "-316663319",
    "description": "ANIME_PIC_c34f991720a99ea3c45c847b59507103,[Girl],[isGirlAnime],[isCuteAnime]",
    "title": "ANIME_PIC_c34f991720a99ea3c45c847b59507103",
    "link_img": "https://live.staticflickr.com/65535/51547215228_50a832fbb9_o.jpg",
    "id_image": "ANIME_PIC_c34f991720a99ea3c45c847b59507103",
    "count_view": 0
  },
  {
    "link_thumb": "https://live.staticflickr.com/65535/51546173317_7c256ebc74_n.jpg",
    "id_album": "-316663319",
    "description": "ANIME_PIC_c350ddc9d60a21b07fd7377acd1a065b,[Girl],[isGirlAnime],[isSadAnimeGirl],[isSadAnime],[isSceneryArts]",
    "title": "ANIME_PIC_c350ddc9d60a21b07fd7377acd1a065b",
    "link_img": "https://live.staticflickr.com/65535/51546173317_5a9667c1dc_o.jpg",
    "id_image": "ANIME_PIC_c350ddc9d60a21b07fd7377acd1a065b",
    "count_view": 0
  },
  {
    "link_thumb": "https://live.staticflickr.com/65535/51546173632_e33d31860f_n.jpg",
    "id_album": "-316663319",
    "description": "ANIME_PIC_c3539423d1c64fd937c45e6f4d0e2756,[Girl],[isGirlAnime],[isCuteAnime]",
    "title": "ANIME_PIC_c3539423d1c64fd937c45e6f4d0e2756",
    "link_img": "https://live.staticflickr.com/65535/51546173632_c7e0de25be_o.png",
    "id_image": "ANIME_PIC_c3539423d1c64fd937c45e6f4d0e2756",
    "count_view": 0
  },
  {
    "link_thumb": "https://live.staticflickr.com/65535/51547897530_fcd7c9ea25_n.jpg",
    "id_album": "-316663319",
    "description": "ANIME_PIC_c354bf4e8663808d24dda98b31050cff,[Girl],[isGirlAnime],[isCuteAnime]",
    "title": "ANIME_PIC_c354bf4e8663808d24dda98b31050cff",
    "link_img": "https://live.staticflickr.com/65535/51547897530_1c0372f971_o.png",
    "id_image": "ANIME_PIC_c354bf4e8663808d24dda98b31050cff",
    "count_view": 0
  },
  {
    "link_thumb": "https://live.staticflickr.com/65535/51547217563_b841d98a3e_n.jpg",
    "id_album": "-316663319",
    "description": "ANIME_PIC_c3569fbb42a0b25297d78ca04c0652fc,[Girl],[isGirlAnime],[isCuteAnime],[isGirlsLoliAnime]",
    "title": "ANIME_PIC_c3569fbb42a0b25297d78ca04c0652fc",
    "link_img": "https://live.staticflickr.com/65535/51547217563_2c16f72e37_o.jpg",
    "id_image": "ANIME_PIC_c3569fbb42a0b25297d78ca04c0652fc",
    "count_view": 0
  },
  {
    "link_thumb": "https://live.staticflickr.com/65535/51547217808_5bafd745dc_n.jpg",
    "id_album": "-316663319",
    "description": "ANIME_PIC_c35fa676ec9e1a91e43e3422ed37a6cd,[Girl],[isGirlAnime],[isCuteAnime],[isGirlsLoliAnime]",
    "title": "ANIME_PIC_c35fa676ec9e1a91e43e3422ed37a6cd",
    "link_img": "https://live.staticflickr.com/65535/51547217808_876cffe82a_o.jpg",
    "id_image": "ANIME_PIC_c35fa676ec9e1a91e43e3422ed37a6cd",
    "count_view": 0
  },
  {
    "link_thumb": "https://live.staticflickr.com/65535/51546175947_4ff9dae16a_n.jpg",
    "id_album": "-316663319",
    "description": "ANIME_PIC_c361389b386c0b4d1716c69ddd8ee4a7,[Girl],[isGirlAnime],[isCuteAnime],[isGirlsHatsHoodieAnime],[isGirlsLoliAnime]",
    "title": "ANIME_PIC_c361389b386c0b4d1716c69ddd8ee4a7",
    "link_img": "https://live.staticflickr.com/65535/51546175947_4ea17b2409_o.jpg",
    "id_image": "ANIME_PIC_c361389b386c0b4d1716c69ddd8ee4a7",
    "count_view": 0
  },
  {
    "link_thumb": "https://live.staticflickr.com/65535/51547218603_de59d68538_n.jpg",
    "id_album": "-316663319",
    "description": "ANIME_PIC_c362b4a568ab95f5fd646b5465c90447,[Girl],[isGirlAnime],[isCuteAnime],[isGirlsLoliAnime]",
    "title": "ANIME_PIC_c362b4a568ab95f5fd646b5465c90447",
    "link_img": "https://live.staticflickr.com/65535/51547218603_cb80918a01_o.jpg",
    "id_image": "ANIME_PIC_c362b4a568ab95f5fd646b5465c90447",
    "count_view": 0
  },
  {
    "link_thumb": "https://live.staticflickr.com/65535/51546978101_f3819fdeb4_n.jpg",
    "id_album": "-316663319",
    "description": "ANIME_PIC_c3671cd6e808aea7b2c19563a3b4d3f3,[Girl],[isGirlAnime],[isCuteAnime]",
    "title": "ANIME_PIC_c3671cd6e808aea7b2c19563a3b4d3f3",
    "link_img": "https://live.staticflickr.com/65535/51546978101_e02dddb3e9_o.jpg",
    "id_image": "ANIME_PIC_c3671cd6e808aea7b2c19563a3b4d3f3",
    "count_view": 0
  },
  {
    "link_thumb": "https://live.staticflickr.com/65535/51547900160_da41023dda_n.jpg",
    "id_album": "-316663319",
    "description": "ANIME_PIC_c36d926fc4964357e5f4746b425ff5e5,[Girl],[isGirlAnime],[isCuteAnime],[isGirlsLoliAnime],[isSadAnimeGirl],[isSadAnime]",
    "title": "ANIME_PIC_c36d926fc4964357e5f4746b425ff5e5",
    "link_img": "https://live.staticflickr.com/65535/51547900160_e51cac82c9_o.png",
    "id_image": "ANIME_PIC_c36d926fc4964357e5f4746b425ff5e5",
    "count_view": 0
  },
  {
    "link_thumb": "https://live.staticflickr.com/65535/51546177202_59c54f43ce_n.jpg",
    "id_album": "-316663319",
    "description": "ANIME_PIC_c370fa4629406cb989fbd00806bdceaf,[Girl],[isGirlAnime],[isCuteAnime],[isGirlsLoliAnime]",
    "title": "ANIME_PIC_c370fa4629406cb989fbd00806bdceaf",
    "link_img": "https://live.staticflickr.com/65535/51546177202_313c1d4e79_o.jpg",
    "id_image": "ANIME_PIC_c370fa4629406cb989fbd00806bdceaf",
    "count_view": 0
  },
  {
    "link_thumb": "https://live.staticflickr.com/65535/51547219913_b2bde6724a_n.jpg",
    "id_album": "-316663319",
    "description": "ANIME_PIC_c377b648049dd407f61d8861a052201d,[Girl],[isGirlAnime],[isCuteAnime]",
    "title": "ANIME_PIC_c377b648049dd407f61d8861a052201d",
    "link_img": "https://live.staticflickr.com/65535/51547219913_266d22dea3_o.jpg",
    "id_image": "ANIME_PIC_c377b648049dd407f61d8861a052201d",
    "count_view": 0
  },
  {
    "link_thumb": "https://live.staticflickr.com/65535/51547901155_4d646f6126_n.jpg",
    "id_album": "-316663319",
    "description": "ANIME_PIC_c378ccf4954c54b31aff61df14204f91,[Girl],[isGirlAnime],[isCuteAnime],[isGirlsLoliAnime]",
    "title": "ANIME_PIC_c378ccf4954c54b31aff61df14204f91",
    "link_img": "https://live.staticflickr.com/65535/51547901155_d690d8a930_o.png",
    "id_image": "ANIME_PIC_c378ccf4954c54b31aff61df14204f91",
    "count_view": 0
  },
  {
    "link_thumb": "https://live.staticflickr.com/65535/51547220693_b7104edc7d_n.jpg",
    "id_album": "-316663319",
    "description": "ANIME_PIC_c3790a8536d61fe6879164496bc7f3aa,[Girl],[isGirlAnime],[isCuteAnime],[isGirlsLoliAnime]",
    "title": "ANIME_PIC_c3790a8536d61fe6879164496bc7f3aa",
    "link_img": "https://live.staticflickr.com/65535/51547220693_4e4796f4b2_o.jpg",
    "id_image": "ANIME_PIC_c3790a8536d61fe6879164496bc7f3aa",
    "count_view": 0
  },
  {
    "link_thumb": "https://live.staticflickr.com/65535/51547704904_5c15991943_n.jpg",
    "id_album": "-316663319",
    "description": "ANIME_PIC_c37a5cf48d17df1433bc972047ad9838,[Girl],[isGirlAnime],[isCuteAnime],[isGirlsSharpCanineToothAnime]",
    "title": "ANIME_PIC_c37a5cf48d17df1433bc972047ad9838",
    "link_img": "https://live.staticflickr.com/65535/51547704904_c1c8a76a5f_o.png",
    "id_image": "ANIME_PIC_c37a5cf48d17df1433bc972047ad9838",
    "count_view": 0
  },
  {
    "link_thumb": "https://live.staticflickr.com/65535/51547903965_485acd107f_n.jpg",
    "id_album": "-316663319",
    "description": "ANIME_PIC_c37ba1a71ef52044021d5e4c0fc0beb9,[Girl],[isGirlAnime],[isCuteAnime],[isSadAnimeGirl],[isSadAnime]",
    "title": "ANIME_PIC_c37ba1a71ef52044021d5e4c0fc0beb9",
    "link_img": "https://live.staticflickr.com/65535/51547903965_1fcdef2459_o.jpg",
    "id_image": "ANIME_PIC_c37ba1a71ef52044021d5e4c0fc0beb9",
    "count_view": 0
  }
]