[
  {
    "total_img": 176,
    "number_page": 1,
    "title": "Neon Genesis Evangelion",
    "tag": "The Rebuild Of Evangelion, Toji Suzuhara, Rei Ayanami, Misato Katsuragi, Black Hair, Kensuke Aida, Mecha, Shinji Ikari, Monochrome, Long Hair, Rain, Anime, Neon Evangelion, Eva Nigoki, White Hair, Bike, Coat, Engelion, Jacket, Purple Hair, Neon Genesis Evangelion, Violinist, Violin, Maya Ibuki, Gantz, Nge, Tank, Sci Fi, Red Eyes, Miltary, Leliel Neon Genesis Evangelion, Cat, Pen Pen, Asuka Langley Sohryu, Butterfly, NERV Evangelion, Lilith Evangelion, Hikari Horaki, Blonde, Evangelion Unit01, Ritsuko Akagi, Evangelion Unit00, Evangelion Unit02, Wings, Kaworu Nagisa, Chinese Dress, Sachiel Neon Genesis Evengelion, Short Hair, Gendo Ikari, Warrior, CGI, Ryoji Kaji, Mari Makinami Illustrious, Ramiel Neon Genesis Evangelion, Kohzou Fuyutsuki, Hoodie, Sunrise, Fight, Robot",
    "description": "Neon Genesis Evangelion",
    "link_thumb": "https://live.staticflickr.com/65535/48072526346_7cd83f84c5_n.jpg",
    "id_album": "-565430723",
    "total_view": 176
  },
  {
    "total_img": 3,
    "number_page": 1,
    "title": "Tank",
    "tag": "Tank,",
    "description": "Tank",
    "link_thumb": "https://live.staticflickr.com/65535/48082672207_ce17927def_n.jpg",
    "id_album": "408326464",
    "total_view": 3
  }
]