[
  {
    "link_thumb": "https://live.staticflickr.com/65535/48070741647_675808421f_n.jpg",
    "id_album": "-75509709",
    "description": "MiraiNikki_850144",
    "title": "MiraiNikki_850144",
    "link_img": "https://live.staticflickr.com/65535/48070741647_881ae6a696_o.jpg",
    "id_image": "MiraiNikki_850144",
    "count_view": 0
  },
  {
    "link_thumb": "https://live.staticflickr.com/65535/48070742397_8dd11dc79b_n.jpg",
    "id_album": "-75509709",
    "description": "MiraiNikki_850147",
    "title": "MiraiNikki_850147",
    "link_img": "https://live.staticflickr.com/65535/48070742397_7b0a5d08b2_o.jpg",
    "id_image": "MiraiNikki_850147",
    "count_view": 0
  }
]