[
  {
    "total_img": 251,
    "number_page": 2,
    "title": "Vocaloid 1",
    "tag": "Heart, Water, Sky, Green Hair, IA Vocaloid, Moon, Wink, Crying, Kamui Gakupo, Black, Blood, YANHE Vocaloid, Glitter, Goggles, Shirt, Sword, Ribbon, White Hair, Computer, Shorts, Umbrella, Windmill, Horns, Braid, Luka Megurine, Child, Cup, Earrings, CUL Vocaloid, Glove, Purple Eyes, Stardust Vocaloid, Scarf, GUMI Vocaloid, Mask, Chibi, Reflection, Black Dress, Smile, Aqua Eyes, Skirt, Blush, Belt, Pantyhose, Animal, Pink Flower, Bell, Yuzuki Yukari, Lips, Mayu Vocaloid, Luo Tianyi, Black  White, White Dress, Train Station, Wings, Japanese Clothes, Yuezheng Longya, Star, Song Illustration, Snowboarding, Yuri, Feather, Fish, Face, Food, Guitar, Original Anime, Blue, Brown Hair, Vocaloid 1, Headband, Pink Hair, Sakura Miku, Tie, Meiko Vocaloid, Blue Eyes, Grey Eyes, Hourglass, Hat, Len Kagamine, Animal Ears, Halloween, Rin Kagamine, Sakura Blossom, Green Eyes, Telescope, Night, Stars, Digital Art, Pumpkin, Underwater, Hatsune Miku, Tattoo, Summer, Coca Cola, Snowfall, Gear, Long Hair, Thigh Highs, Bubble, Rain, Beach, Anime, Rana Vocaloid, Meltdown Vocaloid, Light, Kimono, Mo Qingxian, Tree, Headdress, Camera, Yuezheng Ling, Tako Luka, Woman, SeeU Vocaloid, Purple Hair, Vocaloid, Pigeon, Aqua Hair, Red Eyes, Kaito Vocaloid, Pink, Water Drop, Dark, Love, Cat, Glasses, Poster, Fantasy, Ponytail, Sunflower, Mirror, Lily Vocaloid, Zhiyu Moke, Microphone, Cherry Blossom, Butterfly, Bird, Maki Tsurumaki, Socks, Twintails, Blonde, Field, Barefoot, Plant, Globe, bow Clothing, VY1 Vocaloid, Short Hair, Hug, Waffle, Xin Hua, Flower, Dress, Fruit, Brown Eyes, Magic, Kaai Yuki, Pastry, Apron, Pink Eyes, School Uniform, Gothic, Sadness, Feet, Yuki Miku, Sunset, Blue Hair, Love is War Vocaloid, Hagane Miku, Instrument, Falling, Blossom, Petal, Sweets, Yukata, Tears",
    "description": "Vocaloid 1",
    "link_thumb": "https://live.staticflickr.com/65535/48064574238_4a82a74077_n.jpg",
    "id_album": "-1889166921",
    "total_view": 251
  },
  {
    "total_img": 51,
    "number_page": 1,
    "title": "Animal",
    "tag": "Animal,",
    "description": "Animal",
    "link_thumb": "https://live.staticflickr.com/65535/48065531248_c0592b297b_n.jpg",
    "id_album": "-1913845949",
    "total_view": 51
  },
  {
    "total_img": 959,
    "number_page": 5,
    "title": "Blue Eyes",
    "tag": "Blue Eyes,",
    "description": "Blue Eyes",
    "link_thumb": "https://live.staticflickr.com/65535/48609891276_d6beb9cf73_n.jpg",
    "id_album": "737375568",
    "total_view": 959
  },
  {
    "total_img": 690,
    "number_page": 4,
    "title": "Blush",
    "tag": "Blush,",
    "description": "Blush",
    "link_thumb": "https://live.staticflickr.com/65535/48066945096_efda4835b6_n.jpg",
    "id_album": "1964454893",
    "total_view": 690
  },
  {
    "total_img": 122,
    "number_page": 1,
    "title": "Braid",
    "tag": "Braid,",
    "description": "Braid",
    "link_thumb": "https://live.staticflickr.com/65535/48066345617_97d1390213_n.jpg",
    "id_album": "-774067395",
    "total_view": 122
  },
  {
    "total_img": 119,
    "number_page": 1,
    "title": "Cat",
    "tag": "Cat,",
    "description": "Cat",
    "link_thumb": "https://live.staticflickr.com/65535/48066912262_ef499c1796_n.jpg",
    "id_album": "-1741487325",
    "total_view": 119
  },
  {
    "total_img": 63,
    "number_page": 1,
    "title": "IA Vocaloid",
    "tag": "IA Vocaloid,",
    "description": "IA Vocaloid",
    "link_thumb": "https://live.staticflickr.com/65535/48065872837_457efcc5b5_n.jpg",
    "id_album": "183135484",
    "total_view": 63
  },
  {
    "total_img": 1729,
    "number_page": 9,
    "title": "Long Hair",
    "tag": "Long Hair,",
    "description": "Long Hair",
    "link_thumb": "https://live.staticflickr.com/65535/48066953706_2771a62522_n.jpg",
    "id_album": "186170098",
    "total_view": 1729
  },
  {
    "total_img": 354,
    "number_page": 2,
    "title": "Skirt",
    "tag": "Skirt,",
    "description": "Skirt",
    "link_thumb": "https://live.staticflickr.com/65535/48066953706_2771a62522_n.jpg",
    "id_album": "-1959065500",
    "total_view": 354
  },
  {
    "total_img": 122,
    "number_page": 1,
    "title": "Umbrella",
    "tag": "Umbrella,",
    "description": "Umbrella",
    "link_thumb": "https://live.staticflickr.com/65535/48066220508_b40e056b2c_n.jpg",
    "id_album": "-977679104",
    "total_view": 122
  },
  {
    "total_img": 248,
    "number_page": 2,
    "title": "Vocaloid",
    "tag": "Vocaloid,",
    "description": "Vocaloid",
    "link_thumb": "https://live.staticflickr.com/65535/48065829538_ed568242cf_n.jpg",
    "id_album": "-1182266326",
    "total_view": 248
  },
  {
    "total_img": 512,
    "number_page": 3,
    "title": "White Hair",
    "tag": "White Hair,",
    "description": "White Hair",
    "link_thumb": "https://live.staticflickr.com/65535/48066258522_1a2a958ca1_n.jpg",
    "id_album": "-843201771",
    "total_view": 512
  }
]