[
  {
    "total_img": 812,
    "number_page": 5,
    "title": "Girls Mobile",
    "tag": "Girls Mobile",
    "description": "Girls Mobile",
    "link_thumb": "https://live.staticflickr.com/65535/47990994882_d1a9f52cbc_n.jpg",
    "id_album": "309919211",
    "total_view": 812
  }
]