[
  {
    "link_thumb": "https://live.staticflickr.com/65535/48070803181_8fbf0aa32b_n.jpg",
    "id_album": "1078475287",
    "description": "Monobeno_244148,[isGirlAnime],[isSadAnime],[isSadAnimeGirl],[isCuteAnime],[isGirlsLoliAnime],[Monobeno]",
    "title": "Monobeno_244148",
    "link_img": "https://live.staticflickr.com/65535/48070803181_66b9d5aa5d_o.jpg",
    "id_image": "Monobeno_244148",
    "count_view": 0
  },
  {
    "link_thumb": "https://live.staticflickr.com/65535/48070910107_83fbb17333_n.jpg",
    "id_album": "1078475287",
    "description": "Monobeno_700338,[isGirlAnime],[isSadAnime],[isSadAnimeGirl],[isCuteAnime],[isGirlsLoliAnime],[Monobeno]",
    "title": "Monobeno_700338",
    "link_img": "https://live.staticflickr.com/65535/48070910107_44b2fa03c8_o.jpg",
    "id_image": "Monobeno_700338",
    "count_view": 0
  },
  {
    "link_thumb": "https://live.staticflickr.com/65535/48070852283_d711a5a690_n.jpg",
    "id_album": "1078475287",
    "description": "Monobeno_844872,[isGirlAnime],[isSadAnime],[isSadAnimeGirl],[isCuteAnime],[isGirlsLoliAnime],[Monobeno]",
    "title": "Monobeno_844872",
    "link_img": "https://live.staticflickr.com/65535/48070852283_cfbe7371d0_o.jpg",
    "id_image": "Monobeno_844872",
    "count_view": 0
  },
  {
    "link_thumb": "https://live.staticflickr.com/65535/48070804156_0072a76d72_n.jpg",
    "id_album": "1078475287",
    "description": "Monobeno_844878,[isGirlAnime],[isSadAnime],[isSadAnimeGirl],[isCuteAnime],[isGirlsLoliAnime],[isKimonoAnime],[Monobeno]",
    "title": "Monobeno_844878",
    "link_img": "https://live.staticflickr.com/65535/48070804156_cd33ae976e_o.jpg",
    "id_image": "Monobeno_844878",
    "count_view": 0
  },
  {
    "link_thumb": "https://live.staticflickr.com/65535/48070911407_0eb10c967b_n.jpg",
    "id_album": "1078475287",
    "description": "Monobeno_847309,[isGirlAnime],[isSadAnime],[isSadAnimeGirl],[isCuteAnime],[isGirlsLoliAnime],[Monobeno]",
    "title": "Monobeno_847309",
    "link_img": "https://live.staticflickr.com/65535/48070911407_79e4542b36_o.jpg",
    "id_image": "Monobeno_847309",
    "count_view": 0
  },
  {
    "link_thumb": "https://live.staticflickr.com/65535/48070911727_191a128516_n.jpg",
    "id_album": "1078475287",
    "description": "Monobeno_847313,[isGirlAnime],[isSadAnime],[isSadAnimeGirl],[isCuteAnime],[isGirlsLoliAnime],[isKimonoAnime],[Monobeno]",
    "title": "Monobeno_847313",
    "link_img": "https://live.staticflickr.com/65535/48070911727_2ba918f2ed_o.jpg",
    "id_image": "Monobeno_847313",
    "count_view": 0
  },
  {
    "link_thumb": "https://live.staticflickr.com/65535/48070912552_a0d46ecc2a_n.jpg",
    "id_album": "1078475287",
    "description": "Monobeno_853633,[isGirlAnime],[isSadAnime],[isSadAnimeGirl],[isCuteAnime],[isGirlsLoliAnime],[Monobeno]",
    "title": "Monobeno_853633",
    "link_img": "https://live.staticflickr.com/65535/48070912552_012714b8d4_o.jpg",
    "id_image": "Monobeno_853633",
    "count_view": 0
  },
  {
    "link_thumb": "https://live.staticflickr.com/65535/48070912762_269cf6eb90_n.jpg",
    "id_album": "1078475287",
    "description": "Monobeno_853634,[isGirlAnime],[isBoyAnime],[isSadAnime],[isSadAnimeGirl],[isSadAnimeBoy],[isCoupleAnime],[isCuteAnime],[isGirlsLoliAnime],[Monobeno]",
    "title": "Monobeno_853634",
    "link_img": "https://live.staticflickr.com/65535/48070912762_8342e4cc90_o.jpg",
    "id_image": "Monobeno_853634",
    "count_view": 0
  },
  {
    "link_thumb": "https://live.staticflickr.com/65535/48070806266_e075362c3d_n.jpg",
    "id_album": "1078475287",
    "description": "Monobeno_853635,[isGirlAnime],[isSadAnime],[isSadAnimeGirl],[isCuteAnime],[isGirlsLoliAnime],[Monobeno]",
    "title": "Monobeno_853635",
    "link_img": "https://live.staticflickr.com/65535/48070806266_94211b28a1_o.jpg",
    "id_image": "Monobeno_853635",
    "count_view": 0
  },
  {
    "link_thumb": "https://live.staticflickr.com/65535/48070806676_96f8fcd93e_n.jpg",
    "id_album": "1078475287",
    "description": "Monobeno_853637,[isGirlAnime],[isSadAnime],[isSadAnimeGirl],[isCuteAnime],[isGirlFaceMasksAnime],[isGirlsLoliAnime],[isKimonoAnime],[Monobeno]",
    "title": "Monobeno_853637",
    "link_img": "https://live.staticflickr.com/65535/48070806676_b986db8027_o.jpg",
    "id_image": "Monobeno_853637",
    "count_view": 0
  },
  {
    "link_thumb": "https://live.staticflickr.com/65535/48070855353_e5629df264_n.jpg",
    "id_album": "1078475287",
    "description": "Monobeno_961374,[isGirlAnime],[isSadAnime],[isSadAnimeGirl],[isCuteAnime],[isGirlsLoliAnime],[Monobeno]",
    "title": "Monobeno_961374",
    "link_img": "https://live.staticflickr.com/65535/48070855353_87bc72ab0d_o.jpg",
    "id_image": "Monobeno_961374",
    "count_view": 0
  },
  {
    "link_thumb": "https://live.staticflickr.com/65535/48070855503_516bd281a9_n.jpg",
    "id_album": "1078475287",
    "description": "Monobeno_961375,[isGirlAnime],[isSadAnime],[isSadAnimeGirl],[isCuteAnime],[isGirlsLoliAnime],[Monobeno]",
    "title": "Monobeno_961375",
    "link_img": "https://live.staticflickr.com/65535/48070855503_2429843cf8_o.jpg",
    "id_image": "Monobeno_961375",
    "count_view": 0
  },
  {
    "link_thumb": "https://live.staticflickr.com/65535/48070913997_0a67c1f9df_n.jpg",
    "id_album": "1078475287",
    "description": "Monobeno_961376,[isGirlAnime],[isBoyAnime],[isSadAnime],[isSadAnimeGirl],[isSadAnimeBoy],[isCoupleAnime],[isCuteAnime],[isGirlsLoliAnime],[Monobeno]",
    "title": "Monobeno_961376",
    "link_img": "https://live.staticflickr.com/65535/48070913997_73eda16759_o.jpg",
    "id_image": "Monobeno_961376",
    "count_view": 0
  },
  {
    "link_thumb": "https://live.staticflickr.com/65535/48070914592_2f621d6e5c_n.jpg",
    "id_album": "1078475287",
    "description": "Monobeno_961379,[isGirlAnime],[isSadAnime],[isSadAnimeGirl],[isCuteAnime],[isGirlsLoliAnime],[isKimonoAnime],[Monobeno]",
    "title": "Monobeno_961379",
    "link_img": "https://live.staticflickr.com/65535/48070914592_2aa03562c9_o.jpg",
    "id_image": "Monobeno_961379",
    "count_view": 0
  },
  {
    "link_thumb": "https://live.staticflickr.com/65535/48070808321_2c95f24a0d_n.jpg",
    "id_album": "1078475287",
    "description": "Monobeno_961380,[isGirlAnime],[isSadAnime],[isSadAnimeGirl],[isCuteAnime],[isGirlsLoliAnime],[isKimonoAnime],[Monobeno]",
    "title": "Monobeno_961380",
    "link_img": "https://live.staticflickr.com/65535/48070808321_7351d5d2f2_o.jpg",
    "id_image": "Monobeno_961380",
    "count_view": 0
  },
  {
    "link_thumb": "https://live.staticflickr.com/65535/48070857038_6723444111_n.jpg",
    "id_album": "1078475287",
    "description": "Monobeno_961383,[isGirlAnime],[isSadAnime],[isSadAnimeGirl],[isCuteAnime],[isGirlsLoliAnime],[isKimonoAnime],[Monobeno]",
    "title": "Monobeno_961383",
    "link_img": "https://live.staticflickr.com/65535/48070857038_e7ce5c1a31_o.jpg",
    "id_image": "Monobeno_961383",
    "count_view": 0
  }
]