[
  {
    "total_img": 23,
    "number_page": 1,
    "title": "Citrus",
    "tag": "Building, Green Eyes, Ume Aihara, Night, Wink, Twilight, Blonde, Long Hair, Twintails, Bouquet, Citrus Anime, Sunbeam, Anime, Tokyo, bow Clothing, Tree, Yuri, River, Street, Leaf, Lamp, Face, Earrings, Nature, Mei Aihara, Purple Eyes, Flower, Purple Hair, Cute, Matsuri Mizusawa, Architecture, House, School Uniform, Pink Hair, Apartment, Arcade, Citrus, Tie, Blue Eyes, Blush, Hoodie, Brick, Bookshelf, Sad, Yuzu Aihara",
    "description": "Citrus",
    "link_thumb": "https://live.staticflickr.com/65535/40945482283_7ae05a6d87_n.jpg",
    "id_album": "1583923054",
    "total_view": 23
  },
  {
    "total_img": 771,
    "number_page": 4,
    "title": "Blonde",
    "tag": "Blonde,",
    "description": "Blonde",
    "link_thumb": "https://live.staticflickr.com/65535/48066912028_16d8f475b6_n.jpg",
    "id_album": "-768622073",
    "total_view": 771
  },
  {
    "total_img": 690,
    "number_page": 4,
    "title": "Blush",
    "tag": "Blush,",
    "description": "Blush",
    "link_thumb": "https://live.staticflickr.com/65535/48066945096_efda4835b6_n.jpg",
    "id_album": "1964454893",
    "total_view": 690
  },
  {
    "total_img": 362,
    "number_page": 2,
    "title": "bow Clothing",
    "tag": "bow Clothing,",
    "description": "bow Clothing",
    "link_thumb": "https://live.staticflickr.com/65535/48067011482_dd3e26f237_n.jpg",
    "id_album": "-1136363500",
    "total_view": 362
  },
  {
    "total_img": 18,
    "number_page": 1,
    "title": "Citrus Anime",
    "tag": "Citrus Anime,",
    "description": "Citrus Anime",
    "link_thumb": "https://live.staticflickr.com/65535/47122739784_ed4855381b_n.jpg",
    "id_album": "424431348",
    "total_view": 18
  },
  {
    "total_img": 36,
    "number_page": 1,
    "title": "Leaf",
    "tag": "Leaf,",
    "description": "Leaf",
    "link_thumb": "https://live.staticflickr.com/65535/48066865002_2f12560e78_n.jpg",
    "id_album": "49409801",
    "total_view": 36
  },
  {
    "total_img": 1729,
    "number_page": 9,
    "title": "Long Hair",
    "tag": "Long Hair,",
    "description": "Long Hair",
    "link_thumb": "https://live.staticflickr.com/65535/48066953706_2771a62522_n.jpg",
    "id_album": "186170098",
    "total_view": 1729
  },
  {
    "total_img": 7,
    "number_page": 1,
    "title": "Mei Aihara",
    "tag": "Mei Aihara,",
    "description": "Mei Aihara",
    "link_thumb": "https://live.staticflickr.com/65535/47122743364_f283aa8152_n.jpg",
    "id_album": "-848548840",
    "total_view": 7
  },
  {
    "total_img": 224,
    "number_page": 2,
    "title": "Purple Hair",
    "tag": "Purple Hair,",
    "description": "Purple Hair",
    "link_thumb": "https://live.staticflickr.com/65535/48609891276_d6beb9cf73_n.jpg",
    "id_album": "-84980027",
    "total_view": 224
  },
  {
    "total_img": 436,
    "number_page": 3,
    "title": "School Uniform",
    "tag": "School Uniform,",
    "description": "School Uniform",
    "link_thumb": "https://live.staticflickr.com/65535/48066912028_16d8f475b6_n.jpg",
    "id_album": "873278772",
    "total_view": 436
  },
  {
    "total_img": 34,
    "number_page": 1,
    "title": "Sunbeam",
    "tag": "Sunbeam,",
    "description": "Sunbeam",
    "link_thumb": "https://live.staticflickr.com/65535/48065934602_f9befc5ac7_n.jpg",
    "id_album": "1319814729",
    "total_view": 34
  },
  {
    "total_img": 90,
    "number_page": 1,
    "title": "Tie",
    "tag": "Tie,",
    "description": "Tie",
    "link_thumb": "https://live.staticflickr.com/65535/48066318788_bcdb0c8622_n.jpg",
    "id_album": "1700381053",
    "total_view": 90
  },
  {
    "total_img": 132,
    "number_page": 1,
    "title": "Tree",
    "tag": "Tree,",
    "description": "Tree",
    "link_thumb": "https://live.staticflickr.com/65535/48064450476_96d2bfa810_n.jpg",
    "id_album": "419938685",
    "total_view": 132
  },
  {
    "total_img": 316,
    "number_page": 2,
    "title": "Twintails",
    "tag": "Twintails,",
    "description": "Twintails",
    "link_thumb": "https://live.staticflickr.com/65535/48066258522_1a2a958ca1_n.jpg",
    "id_album": "-916794598",
    "total_view": 316
  },
  {
    "total_img": 89,
    "number_page": 1,
    "title": "Wink",
    "tag": "Wink,",
    "description": "Wink",
    "link_thumb": "https://live.staticflickr.com/65535/48609891276_d6beb9cf73_n.jpg",
    "id_album": "408850749",
    "total_view": 89
  },
  {
    "total_img": 6,
    "number_page": 1,
    "title": "Yuzu Aihara",
    "tag": "Yuzu Aihara,",
    "description": "Yuzu Aihara",
    "link_thumb": "https://live.staticflickr.com/65535/47122743364_f283aa8152_n.jpg",
    "id_album": "-1098681648",
    "total_view": 6
  }
]