[
  {
    "total_img": 28,
    "number_page": 1,
    "title": "Littlewitch Romanesque",
    "tag": "Littlewitch Romanesque",
    "description": "Littlewitch Romanesque",
    "link_thumb": "https://live.staticflickr.com/65535/48048584258_06e4ccc847_n.jpg",
    "id_album": "1796443848",
    "total_view": 28
  }
]