[
  {
    "total_img": 38,
    "number_page": 1,
    "title": "Magi The Labyrinth Of Magic",
    "tag": "Chain, Magi The Labyrinth Of Magic, Kouha Ren, Marga Magi, Sphintus Carmen, Lance, Black  White, White Dress, Weapon, Judar Magi, Long Hair, Anime, Hakuryuu Ren, Sword, Alibaba Saluja, Short Hair, Aladdin Magi, Yunan Magi, Flame, Hakuei Ren, Sinbad Magi, Morgiana Magi, Brown Hair, Magi the labyrinth of magic, Magic, Woman Warrior, Uraltugo Noi Nueph, Yellow Eyes, Red Hair, Red Eyes, Scheherazade Magi, Titus Alexius, Blue Eyes",
    "description": "Magi The Labyrinth Of Magic",
    "link_thumb": "https://live.staticflickr.com/65535/48070420892_9024f1dfe4_n.jpg",
    "id_album": "-1750377185",
    "total_view": 38
  },
  {
    "total_img": 2,
    "number_page": 1,
    "title": "Titus Alexius",
    "tag": "Titus Alexius,",
    "description": "Titus Alexius",
    "link_thumb": "https://live.staticflickr.com/65535/48070322586_dd6dde40f3_n.jpg",
    "id_album": "1114811032",
    "total_view": 2
  }
]