[
  {
    "total_img": 993,
    "number_page": 5,
    "title": "Girls Dark",
    "tag": "Girls Dark,",
    "description": "Girls Dark",
    "link_thumb": "https://live.staticflickr.com/65535/49878716433_f82f39db9d_n.jpg",
    "id_album": "442854827",
    "total_view": 993
  },
  {
    "total_img": 3863,
    "number_page": 20,
    "title": "Girls Ears Neko",
    "tag": "Girls Ears Neko,",
    "description": "Girls Ears Neko",
    "link_thumb": "https://live.staticflickr.com/65535/51542199025_2343ce2f5b_n.jpg",
    "id_album": "-2118541861",
    "total_view": 3863
  }
]