[
  {
    "total_img": 52,
    "number_page": 1,
    "title": "Sailor Moon",
    "tag": "Green Eyes, Artemis Sailor Moon, Luna Sailor Moon, Night, Moon, Colorful, Stars, Staff, Wand, Ami Mizuno, Rei Hino, Long Hair, Brunette, Bubble, Anime, Umbrella, Woman, Sailor Venus, Usagi Tsukino, Glove, Purple Hair, Haruka Tenou, Sailor Saturn, Smile, Red Eyes, Skirt, Sailor Pluto, Blush, Fantasy, Ponytail, Sailor Moon, Rose, Sailor Iron Mouse, White Dress, Blonde, Twintails, Makoto Kino, Wings, bow Clothing, Stairs, Short Hair, Chibiusa Tsukino, Minako Aino, Flower, Dress, Brown Hair, School Uniform, Sailor Mercury, Chibi Usa, Blue Eyes, White, Blue Hair, Purple, Sailor Uranus, Sailor Jupiter, Hotaru Tomoe, Mamoru Chiba",
    "description": "Sailor Moon",
    "link_thumb": "https://live.staticflickr.com/65535/48054694011_1f79ed702f_n.jpg",
    "id_album": "-640474280",
    "total_view": 52
  }
]