[
  {
    "link_thumb": "https://live.staticflickr.com/65535/48059395131_6674ed38b7_n.jpg",
    "id_album": "-409086413",
    "description": "TheIdolmasterCinderellaGirlsStarlightStage_826306",
    "title": "TheIdolmasterCinderellaGirlsStarlightStage_826306",
    "link_img": "https://live.staticflickr.com/65535/48059395131_c023de4b90_o.jpg",
    "id_image": "TheIdolmasterCinderellaGirlsStarlightStage_826306",
    "count_view": 0
  },
  {
    "link_thumb": "https://live.staticflickr.com/65535/48059625651_d27db99323_n.jpg",
    "id_album": "-409086413",
    "description": "TheiDOLMSTERCinderellaGirls_717261",
    "title": "TheiDOLMSTERCinderellaGirls_717261",
    "link_img": "https://live.staticflickr.com/65535/48059625651_e250757ff2_o.jpg",
    "id_image": "TheiDOLMSTERCinderellaGirls_717261",
    "count_view": 0
  },
  {
    "link_thumb": "https://live.staticflickr.com/65535/48059725062_545ec91360_n.jpg",
    "id_album": "-409086413",
    "description": "TheiDOLMSTERCinderellaGirls_717262",
    "title": "TheiDOLMSTERCinderellaGirls_717262",
    "link_img": "https://live.staticflickr.com/65535/48059725062_ae877d35d8_o.jpg",
    "id_image": "TheiDOLMSTERCinderellaGirls_717262",
    "count_view": 0
  },
  {
    "link_thumb": "https://live.staticflickr.com/65535/48059708398_4d00316208_n.jpg",
    "id_album": "-409086413",
    "description": "TheiDOLMSTERCinderellaGirls_840450",
    "title": "TheiDOLMSTERCinderellaGirls_840450",
    "link_img": "https://live.staticflickr.com/65535/48059708398_cf6c0838c7_o.jpg",
    "id_image": "TheiDOLMSTERCinderellaGirls_840450",
    "count_view": 0
  },
  {
    "link_thumb": "https://live.staticflickr.com/65535/48059719853_729e3aa8a8_n.jpg",
    "id_album": "-409086413",
    "description": "TheiDOLMSTERCinderellaGirls_852272",
    "title": "TheiDOLMSTERCinderellaGirls_852272",
    "link_img": "https://live.staticflickr.com/65535/48059719853_756ff6a515_o.jpg",
    "id_image": "TheiDOLMSTERCinderellaGirls_852272",
    "count_view": 0
  },
  {
    "link_thumb": "https://live.staticflickr.com/65535/48059687596_28b827cb89_n.jpg",
    "id_album": "-409086413",
    "description": "TheiDOLMSTERCinderellaGirls_900409",
    "title": "TheiDOLMSTERCinderellaGirls_900409",
    "link_img": "https://live.staticflickr.com/65535/48059687596_07b8bd8690_o.jpg",
    "id_image": "TheiDOLMSTERCinderellaGirls_900409",
    "count_view": 0
  }
]