[
  {
    "total_img": 6163,
    "number_page": 31,
    "title": "Girls Hats Hoodie",
    "tag": "Girls Hats Hoodie,",
    "description": "Girls Hats Hoodie",
    "link_thumb": "https://live.staticflickr.com/65535/49998137463_3c222b8f53_n.jpg",
    "id_album": "1409782213",
    "total_view": 6163
  },
  {
    "total_img": 15136,
    "number_page": 76,
    "title": "Girls Loli",
    "tag": "Girls Loli,",
    "description": "Girls Loli",
    "link_thumb": "https://live.staticflickr.com/65535/51542199025_2343ce2f5b_n.jpg",
    "id_album": "-1584065887",
    "total_view": 15136
  },
  {
    "total_img": 296,
    "number_page": 2,
    "title": "Girls Water Rain",
    "tag": "Girls Water Rain,",
    "description": "Girls Water Rain",
    "link_thumb": "https://live.staticflickr.com/65535/50152183536_82f938c093_n.jpg",
    "id_album": "621451164",
    "total_view": 296
  },
  {
    "total_img": 589,
    "number_page": 3,
    "title": "Girls Witch",
    "tag": "Girls Witch,",
    "description": "Girls Witch",
    "link_thumb": "https://live.staticflickr.com/65535/50056258208_c6c9e88c56_n.jpg",
    "id_album": "-1322695765",
    "total_view": 589
  }
]