[
  {
    "total_img": 771,
    "number_page": 4,
    "title": "Original 4",
    "tag": "Water, Creature, Black Hair, Staff, Swamp, Clock, Weapon, Swing, Umbrella, Bikini, Street, Space, Glove, Smile, Giraffe, Rize Kamishiro, Skirt, Squirrel, Miko Outfit, Building, Waterfall, Cake, Satellite, Oni, White Dress, Dragon, Tiger, Japanese Clothes, Star, Tail, Stairs, Fish, Yuri, Food, Military, Bed, Original Anime, Motorcycle, Watermelon, Brown Hair, Couch, Pink Hair, Pretty, Blue Eyes, Hoodie, Kitsune, Snowman, Hat, Animal Ears, Ice Cream, Futuristic, Green Eyes, Astronaut, Tulip, Stars, Pumpkin, Underwater, Long Hair, Thigh Highs, Beach, Winter, Kimono, Turtle, Cute, Purple Hair, Glasses, Puddle, Bridge, Crystal, Santa Hat, Bird, Gas Mask, Santa Claus, Christmas Tree, Blonde, School, Plant, Polar Bear, Mountain, Room, Katana, Maple Leaf, Scenery, Pink Eyes, 5 Nenme no Houkago, School Uniform, Gothic, Bicycle, Sunset, Apple, Wind Turbine, Grey Hair, Robot, Sky, Hatta Chie, Colorful, Moon, Lighthouse, Schoolgirl, Sword, Ribbon, Book, White Hair, Sepia, Braid, Dog, Child, Trumpet, Hood, Gun, Scarf, Log, Mask, Centaur, House, Reflection, Red Hair, Aqua Eyes, Card, Panda, Sci Fi, Shop, Blush, Yellow, Pantyhose, Animal, Man, Train, Chair, Glass, Rose, Original 4, Soldier, Wings, Sunbeam, Monster, Leaf, Independence Day, Witch, Guitar, Warrior, Railroad, Road, Headband, Gift, Temple, Sunlight, Steampunk, Halloween, Night, Snow, Mecha, Grass, Drink, Cityscape, Rain, Anime, Horse, Tree, Coat, Bow, Yellow Eyes, Boy, Red Eyes, Piano, Christmas Lights, Shrine, Car, Love, Dark, Cat, Fantasy, Fall, Library, Ponytail, M4A1 Girls Frontline, Bench, Orange Eyes, Cherry Blossom, Butterfly, Socks, Earth, Barefoot, bow Clothing, Bedroom, Short Hair, Flower, Dress, Cat Girl, Frog, Brown Eyes, Bag, Maid, Post Apocalyptic, Cloud, Forest, Maze, Yukata, Alone, Kagune Tokyo Ghoul",
    "description": "Original 4",
    "link_thumb": "https://live.staticflickr.com/65535/48076655842_9d87356b77_n.jpg",
    "id_album": "1165051358",
    "total_view": 771
  },
  {
    "total_img": 56,
    "number_page": 1,
    "title": "5 Nenme no Houkago",
    "tag": "5 Nenme no Houkago,",
    "description": "5 Nenme no Houkago",
    "link_thumb": "https://live.staticflickr.com/65535/48066101438_5c617698fe_n.jpg",
    "id_album": "178872335",
    "total_view": 56
  }
]