[
  {
    "total_img": 366,
    "number_page": 2,
    "title": "Dragon Ball Z",
    "tag": "Ball, Gogeta Dragon Ball, Super Saiyan 3, Super Saiyan 2, Super Saiyan 4, Doughnut, Legendary Super Saiyan, Black Hair, Paikuhan Dragon Ball, Satan Dragon Ball, Beerus Dragon Ball, Zarbon Dragon Ball, Guldo Dragon Ball, Dabura Dragon Ball, Majin Buu, Ginyu Dragon Ball, Master Roshi Dragon Ball, Porunga Dragon Ball, Earrings, Turles Dragon Ball, Chibi, Skirt, Kamehameha, Monaka Dragon Ball Super, Trunks Dragon Ball, Krillin Dragon Ball, Yakon Dragon Ball, Blush, Belt, Yellow, Pantyhose, King Cold, Nappa Dragon Ball, Omega Shenron Dragon Ball, Burter Dragon Ball, Lightsaber, Yajirobe Dragon Ball, Artwork, Super Saiyan Rage, Super Saiyan, Black  White, Spice Dragon Ball, Bulma Dragon Ball, Dragon, Vaporwave, Goten Dragon Ball, Goku, Mustard Dragon Ball, Recoome Dragon Ball, Dragon Ball Z, Food, Artistic, King Vegeta Dragon Ball, Broly Dragon Ball, Vegito Dragon Ball, Bardock Dragon Ball, Blue Eyes, Boots, Vinegar Dragon Ball, Garlic Jr Dragon Ball, Chaozu Dragon Ball, Cell Dragon Ball, Shenron Dragon Ball, Janemba Dragon Ball, Dr Gero Dragon Ball, Anime, Slug Dragon Ball, Android 13 Dragon Ball, Frieza Dragon Ball, Vegetto Dragon Ball, Android 16 Dragon Ball, Kaio Dragon Ball, Dr Koching Dragon Ball, Jeice Dragon Ball, Dodoria Dragon Ball, Android 17 Dragon Ball, ChiChi Dragon Ball, Android 19 Dragon Ball, Tenshinhan Dragon Ball, Gohan Dragon Ball, Android 18 Dragon Ball, Cooler Dragon Ball, Salt Dragon Ball, Oolong Dragon Ball, Saike Demon Dragon Ball, Hirudegarn Dragon Ball, Blonde, School, Shu Dragon Ball, Videl Dragon Ball, Pui Pui, Short Hair, Guinyu Dragon Ball, Vegeta Dragon Ball, Super Saiyan God, Mai Dragon Ball, Saiyan, Dbz Saiyan Anime, Piccolo Dragon Ball, Tapion Dragon Ball, Gotenks Dragon Ball, Dr Myu Dragon Ball, Pilaf Dragon Ball, Raditz Dragon Ball, Babidi Dragon Ball",
    "description": "Dragon Ball Z",
    "link_thumb": "https://live.staticflickr.com/65535/47970229407_5cd787f0f9_n.jpg",
    "id_album": "-150123003",
    "total_view": 366
  },
  {
    "total_img": 10,
    "number_page": 1,
    "title": "Bardock Dragon Ball",
    "tag": "Bardock Dragon Ball,",
    "description": "Bardock Dragon Ball",
    "link_thumb": "https://live.staticflickr.com/65535/47969491241_d326decc65_n.jpg",
    "id_album": "-1756388716",
    "total_view": 10
  },
  {
    "total_img": 404,
    "number_page": 3,
    "title": "Goku",
    "tag": "Goku,",
    "description": "Goku",
    "link_thumb": "https://live.staticflickr.com/65535/47969501196_ef5d38c9f5_n.jpg",
    "id_album": "1958753116",
    "total_view": 404
  }
]