[
  {
    "link_thumb": "https://live.staticflickr.com/65535/47992698008_4042791b86_n.jpg",
    "id_album": "1215415276",
    "description": "GourmetGirlGraffiti_681370",
    "title": "GourmetGirlGraffiti_681370",
    "link_img": "https://live.staticflickr.com/65535/47992698008_57df59fb8b_o.jpg",
    "id_image": "GourmetGirlGraffiti_681370",
    "count_view": 0
  },
  {
    "link_thumb": "https://live.staticflickr.com/65535/48078036851_59a6a4d5ca_n.jpg",
    "id_album": "1215415276",
    "description": "Original_846469",
    "title": "Original_846469",
    "link_img": "https://live.staticflickr.com/65535/48078036851_bc50b7b07f_o.jpg",
    "id_image": "Original_846469",
    "count_view": 0
  },
  {
    "link_thumb": "https://live.staticflickr.com/65535/48092253238_b095ebd056_n.jpg",
    "id_album": "1215415276",
    "description": "Original_907806",
    "title": "Original_907806",
    "link_img": "https://live.staticflickr.com/65535/48092253238_e87d711bdd_o.jpg",
    "id_image": "Original_907806",
    "count_view": 0
  },
  {
    "link_thumb": "https://live.staticflickr.com/65535/48092271363_3159f14533_n.jpg",
    "id_album": "1215415276",
    "description": "Original_908058",
    "title": "Original_908058",
    "link_img": "https://live.staticflickr.com/65535/48092271363_122c57be74_o.jpg",
    "id_image": "Original_908058",
    "count_view": 0
  }
]