[
  {
    "total_img": 247,
    "number_page": 2,
    "title": "Code Geass",
    "tag": "Green Hair, Snow, Cecile Croomy, Schneizel El Britannia, Mecha, Minimalist, Suzaku Kururugi, Tattoo, Akito Hyuuga, Lipstick, Kaname Ohgi, Long Hair, Rivalz Cardemonde, Code Geass, Anime, Anya Alstreim, Jeremiah Gottwald, Woman, Villetta Nu, Ichijiku Hinata, Nagisa Chiba, Shirley Fenette, Mask, Zhou Xianglin, Gino Weinberg, Yaoi, Kaguya Sumeragi, Yellow Eyes, Boy, Sayoko Shinozaki, Shinichiro Tamaki, Shin Hyuga Shaing, Mutsuki Minase, Sad, Fantasy, Nunnally Lamperouge, Cornelia Li Britannia, Clovis la Britannia, Nina Einstein, Orange Eyes, Akito Hyuga, Euphemia Li Britannia, Charles Zi Britannia, Leila Malcal, Shogo Asahina, Lancelot Code Geass, Geass, Diethard Ried, Marianne Vi Britannia, Yuri, Guren Code Geass, Face, Li Xingke, Flower, Gau Hai Code Geass, Mary Code Geass, Julius Kingsley, Carline Le Brittania, Kyoshiro Tohdoh, Rolo Lamperouge, Relojoaria Omega, CC Code Geass, Jiang Lihua, Milly Ashford, VV Code Geass, Code Geass Akito the Exiled, Gilbert GP Guilford, Arthur Code Geass, Kallen Kozuki, Lelouch Lamperouge, Lloyd Asplund",
    "description": "Code Geass",
    "link_thumb": "https://live.staticflickr.com/65535/47952859932_dcdb7bb8a3_n.jpg",
    "id_album": "1106685088",
    "total_view": 247
  },
  {
    "total_img": 84,
    "number_page": 1,
    "title": "CC Code Geass",
    "tag": "CC Code Geass,",
    "description": "CC Code Geass",
    "link_thumb": "https://live.staticflickr.com/65535/48066089808_1b477a00b6_n.jpg",
    "id_album": "-1337668916",
    "total_view": 84
  },
  {
    "total_img": 6,
    "number_page": 1,
    "title": "Jiang Lihua",
    "tag": "Jiang Lihua,",
    "description": "Jiang Lihua",
    "link_thumb": "https://live.staticflickr.com/65535/47954441518_ea56d0a2c4_n.jpg",
    "id_album": "1828490341",
    "total_view": 6
  },
  {
    "total_img": 113,
    "number_page": 1,
    "title": "Lelouch Lamperouge",
    "tag": "Lelouch Lamperouge,",
    "description": "Lelouch Lamperouge",
    "link_thumb": "https://live.staticflickr.com/65535/47960675253_a4e64c6b70_n.jpg",
    "id_album": "268652991",
    "total_view": 113
  },
  {
    "total_img": 12,
    "number_page": 1,
    "title": "Rolo Lamperouge",
    "tag": "Rolo Lamperouge,",
    "description": "Rolo Lamperouge",
    "link_thumb": "https://live.staticflickr.com/65535/47955698416_98e5652885_n.jpg",
    "id_album": "701702671",
    "total_view": 12
  },
  {
    "total_img": 56,
    "number_page": 1,
    "title": "Suzaku Kururugi",
    "tag": "Suzaku Kururugi,",
    "description": "Suzaku Kururugi",
    "link_thumb": "https://live.staticflickr.com/65535/47955698416_98e5652885_n.jpg",
    "id_album": "-608858993",
    "total_view": 56
  }
]