[
  {
    "link_thumb": "https://live.staticflickr.com/65535/47973044236_2998b9e9b1_n.jpg",
    "id_album": "432140051",
    "description": "EverlastingSummer_917561",
    "title": "EverlastingSummer_917561",
    "link_img": "https://live.staticflickr.com/65535/47973044236_f6461843e3_o.jpg",
    "id_image": "EverlastingSummer_917561",
    "count_view": 0
  },
  {
    "link_thumb": "https://live.staticflickr.com/65535/47972982402_50d1e43c37_n.jpg",
    "id_album": "432140051",
    "description": "EverlastingSummer_917562",
    "title": "EverlastingSummer_917562",
    "link_img": "https://live.staticflickr.com/65535/47972982402_ba91bfc341_o.jpg",
    "id_image": "EverlastingSummer_917562",
    "count_view": 0
  },
  {
    "link_thumb": "https://live.staticflickr.com/65535/47992853121_8b6eee6a6c_n.jpg",
    "id_album": "432140051",
    "description": "GrisaiaSeries_171455",
    "title": "GrisaiaSeries_171455",
    "link_img": "https://live.staticflickr.com/65535/47992853121_67032fe041_o.jpg",
    "id_image": "GrisaiaSeries_171455",
    "count_view": 0
  },
  {
    "link_thumb": "https://live.staticflickr.com/65535/48075419248_61dbe0512b_n.jpg",
    "id_album": "432140051",
    "description": "Original_602575",
    "title": "Original_602575",
    "link_img": "https://live.staticflickr.com/65535/48075419248_dfe4747102_o.jpg",
    "id_image": "Original_602575",
    "count_view": 0
  },
  {
    "link_thumb": "https://live.staticflickr.com/65535/48075382136_a3f76e2a71_n.jpg",
    "id_album": "432140051",
    "description": "Original_605351",
    "title": "Original_605351",
    "link_img": "https://live.staticflickr.com/65535/48075382136_72e939c259_o.jpg",
    "id_image": "Original_605351",
    "count_view": 0
  },
  {
    "link_thumb": "https://live.staticflickr.com/65535/48075392316_b167bf5f35_n.jpg",
    "id_album": "432140051",
    "description": "Original_612534",
    "title": "Original_612534",
    "link_img": "https://live.staticflickr.com/65535/48075392316_b6af461378_o.jpg",
    "id_image": "Original_612534",
    "count_view": 0
  },
  {
    "link_thumb": "https://live.staticflickr.com/65535/48075432563_b1415b37f1_n.jpg",
    "id_album": "432140051",
    "description": "Original_612537",
    "title": "Original_612537",
    "link_img": "https://live.staticflickr.com/65535/48075432563_8d2669a1fd_o.jpg",
    "id_image": "Original_612537",
    "count_view": 0
  },
  {
    "link_thumb": "https://live.staticflickr.com/65535/48075436973_1d41c35d3e_n.jpg",
    "id_album": "432140051",
    "description": "Original_612589",
    "title": "Original_612589",
    "link_img": "https://live.staticflickr.com/65535/48075436973_2a574f3792_o.jpg",
    "id_image": "Original_612589",
    "count_view": 0
  },
  {
    "link_thumb": "https://live.staticflickr.com/65535/48075942063_d504ef77c4_n.jpg",
    "id_album": "432140051",
    "description": "Original_733402",
    "title": "Original_733402",
    "link_img": "https://live.staticflickr.com/65535/48075942063_f8472d18b9_o.jpg",
    "id_image": "Original_733402",
    "count_view": 0
  },
  {
    "link_thumb": "https://live.staticflickr.com/65535/48076782562_407aaaf865_n.jpg",
    "id_album": "432140051",
    "description": "Original_766160",
    "title": "Original_766160",
    "link_img": "https://live.staticflickr.com/65535/48076782562_9e7c24bb30_o.jpg",
    "id_image": "Original_766160",
    "count_view": 0
  },
  {
    "link_thumb": "https://live.staticflickr.com/65535/48079892713_5e6ca90f9e_n.jpg",
    "id_album": "432140051",
    "description": "Original_869422",
    "title": "Original_869422",
    "link_img": "https://live.staticflickr.com/65535/48079892713_3ec8fc581c_o.jpg",
    "id_image": "Original_869422",
    "count_view": 0
  },
  {
    "link_thumb": "https://live.staticflickr.com/65535/48082565297_6e18b63992_n.jpg",
    "id_album": "432140051",
    "description": "Original_875162",
    "title": "Original_875162",
    "link_img": "https://live.staticflickr.com/65535/48082565297_e3267d6a5a_o.jpg",
    "id_image": "Original_875162",
    "count_view": 0
  },
  {
    "link_thumb": "https://live.staticflickr.com/65535/48093131503_788cf4e8e0_n.jpg",
    "id_album": "432140051",
    "description": "Original_953830",
    "title": "Original_953830",
    "link_img": "https://live.staticflickr.com/65535/48093131503_c7710076e6_o.jpg",
    "id_image": "Original_953830",
    "count_view": 0
  },
  {
    "link_thumb": "https://live.staticflickr.com/65535/48094985212_07e175cee7_n.jpg",
    "id_album": "432140051",
    "description": "Original_958333",
    "title": "Original_958333",
    "link_img": "https://live.staticflickr.com/65535/48094985212_fcef35490a_o.jpg",
    "id_image": "Original_958333",
    "count_view": 0
  },
  {
    "link_thumb": "https://live.staticflickr.com/65535/48065807198_2467bbfdc1_n.jpg",
    "id_album": "432140051",
    "description": "Vocaloid_954559",
    "title": "Vocaloid_954559",
    "link_img": "https://live.staticflickr.com/65535/48065807198_25849b9a8b_o.jpg",
    "id_image": "Vocaloid_954559",
    "count_view": 0
  }
]