[
  {
    "total_img": 73,
    "number_page": 1,
    "title": "Nekopara",
    "tag": "Pink Dress, Nekopara, Fishnet, Moon, Maple Nekopara, High Heels, Drink, Cinnamon Nekopara, Long Hair, Thigh Highs, Chocola Nekopara, Rain, Anime, White Hair, Shorts, Heterochromia, Collar, Minazuki Shigure, Glove, Cute, Chibi, Black Dress, Smile, Yellow Eyes, Boy, Azuki Nekopara, Skirt, Belt, Blush, Pantyhose, Dark, Cat, Shigure Minaduki, Bell, Ponytail, Microphone, Purple Dress, Cross, Glass, Sitting, Socks, White Dress, Twintails, Blonde, Vanilla Nekopara, Tail, bow Clothing, Yuri, Face, Food, Eating, Original Anime, Dress, Cat Girl, Brown Hair, Coconut Nekopara, Maid, Pink Hair, Gothic, Blue Eyes, Brown Dress, Lying Down, Animal Ears, Kiss",
    "description": "Nekopara",
    "link_thumb": "https://live.staticflickr.com/65535/48072526133_5754150acc_n.jpg",
    "id_album": "779706495",
    "total_view": 73
  },
  {
    "total_img": 13,
    "number_page": 1,
    "title": "Cinnamon Nekopara",
    "tag": "Cinnamon Nekopara,",
    "description": "Cinnamon Nekopara",
    "link_thumb": "https://live.staticflickr.com/65535/48072631637_2db04a10b5_n.jpg",
    "id_album": "-1784541582",
    "total_view": 13
  },
  {
    "total_img": 16,
    "number_page": 1,
    "title": "Maple Nekopara",
    "tag": "Maple Nekopara,",
    "description": "Maple Nekopara",
    "link_thumb": "https://live.staticflickr.com/65535/48072631637_2db04a10b5_n.jpg",
    "id_album": "-1000514477",
    "total_view": 16
  }
]