[
  {
    "link_thumb": "https://live.staticflickr.com/65535/48048502852_02bcd47dfa_n.jpg",
    "id_album": "1083940369",
    "description": "KuzunoHonkai_752737",
    "title": "KuzunoHonkai_752737",
    "link_img": "https://live.staticflickr.com/65535/48048502852_4720598aa4_o.jpg",
    "id_image": "KuzunoHonkai_752737",
    "count_view": 0
  },
  {
    "link_thumb": "https://live.staticflickr.com/65535/48048466803_96e425b734_n.jpg",
    "id_album": "1083940369",
    "description": "KuzunoHonkai_776105",
    "title": "KuzunoHonkai_776105",
    "link_img": "https://live.staticflickr.com/65535/48048466803_afdbf9cb52_o.jpg",
    "id_image": "KuzunoHonkai_776105",
    "count_view": 0
  },
  {
    "link_thumb": "https://live.staticflickr.com/65535/48048467008_aaeb708824_n.jpg",
    "id_album": "1083940369",
    "description": "KuzunoHonkai_776106",
    "title": "KuzunoHonkai_776106",
    "link_img": "https://live.staticflickr.com/65535/48048467008_d86ed4516e_o.jpg",
    "id_image": "KuzunoHonkai_776106",
    "count_view": 0
  },
  {
    "link_thumb": "https://live.staticflickr.com/65535/48048424921_6013866ec3_n.jpg",
    "id_album": "1083940369",
    "description": "KuzunoHonkai_776138",
    "title": "KuzunoHonkai_776138",
    "link_img": "https://live.staticflickr.com/65535/48048424921_df7fe95868_o.jpg",
    "id_image": "KuzunoHonkai_776138",
    "count_view": 0
  },
  {
    "link_thumb": "https://live.staticflickr.com/65535/48048504582_02aed543d4_n.jpg",
    "id_album": "1083940369",
    "description": "KuzunoHonkai_776139",
    "title": "KuzunoHonkai_776139",
    "link_img": "https://live.staticflickr.com/65535/48048504582_e7f1cc9ec3_o.jpg",
    "id_image": "KuzunoHonkai_776139",
    "count_view": 0
  },
  {
    "link_thumb": "https://live.staticflickr.com/65535/48048505922_8316d8b74b_n.jpg",
    "id_album": "1083940369",
    "description": "KuzunoHonkai_790829",
    "title": "KuzunoHonkai_790829",
    "link_img": "https://live.staticflickr.com/65535/48048505922_2e8e5c233e_o.jpg",
    "id_image": "KuzunoHonkai_790829",
    "count_view": 0
  },
  {
    "link_thumb": "https://live.staticflickr.com/65535/48048469148_ba3b15bb48_n.jpg",
    "id_album": "1083940369",
    "description": "KuzunoHonkai_790830",
    "title": "KuzunoHonkai_790830",
    "link_img": "https://live.staticflickr.com/65535/48048469148_15c23b1984_o.jpg",
    "id_image": "KuzunoHonkai_790830",
    "count_view": 0
  },
  {
    "link_thumb": "https://live.staticflickr.com/65535/48048506397_00fa3b0b5f_n.jpg",
    "id_album": "1083940369",
    "description": "KuzunoHonkai_790832",
    "title": "KuzunoHonkai_790832",
    "link_img": "https://live.staticflickr.com/65535/48048506397_ea29ef3802_o.jpg",
    "id_image": "KuzunoHonkai_790832",
    "count_view": 0
  },
  {
    "link_thumb": "https://live.staticflickr.com/65535/48048470013_febf62c8b1_n.jpg",
    "id_album": "1083940369",
    "description": "KuzunoHonkai_792228",
    "title": "KuzunoHonkai_792228",
    "link_img": "https://live.staticflickr.com/65535/48048470013_5159c28a7d_o.jpg",
    "id_image": "KuzunoHonkai_792228",
    "count_view": 0
  },
  {
    "link_thumb": "https://live.staticflickr.com/65535/48048507137_59bf5a56e5_n.jpg",
    "id_album": "1083940369",
    "description": "KuzunoHonkai_792229",
    "title": "KuzunoHonkai_792229",
    "link_img": "https://live.staticflickr.com/65535/48048507137_1f0eb5f171_o.jpg",
    "id_image": "KuzunoHonkai_792229",
    "count_view": 0
  },
  {
    "link_thumb": "https://live.staticflickr.com/65535/48048510272_d189d5398c_n.jpg",
    "id_album": "1083940369",
    "description": "KuzunoHonkai_796554",
    "title": "KuzunoHonkai_796554",
    "link_img": "https://live.staticflickr.com/65535/48048510272_f2e5be78e6_o.jpg",
    "id_image": "KuzunoHonkai_796554",
    "count_view": 0
  },
  {
    "link_thumb": "https://live.staticflickr.com/65535/48048430946_93c80706ca_n.jpg",
    "id_album": "1083940369",
    "description": "KuzunoHonkai_797119",
    "title": "KuzunoHonkai_797119",
    "link_img": "https://live.staticflickr.com/65535/48048430946_6d9b679e07_o.jpg",
    "id_image": "KuzunoHonkai_797119",
    "count_view": 0
  },
  {
    "link_thumb": "https://live.staticflickr.com/65535/48048474338_5714d6686d_n.jpg",
    "id_album": "1083940369",
    "description": "KuzunoHonkai_799369",
    "title": "KuzunoHonkai_799369",
    "link_img": "https://live.staticflickr.com/65535/48048474338_31972fbbbf_o.jpg",
    "id_image": "KuzunoHonkai_799369",
    "count_view": 0
  },
  {
    "link_thumb": "https://live.staticflickr.com/65535/48048432416_5283197a82_n.jpg",
    "id_album": "1083940369",
    "description": "KuzunoHonkai_799852",
    "title": "KuzunoHonkai_799852",
    "link_img": "https://live.staticflickr.com/65535/48048432416_ec7983d0d9_o.jpg",
    "id_image": "KuzunoHonkai_799852",
    "count_view": 0
  },
  {
    "link_thumb": "https://live.staticflickr.com/65535/48048475228_34a2750e6a_n.jpg",
    "id_album": "1083940369",
    "description": "KuzunoHonkai_800052",
    "title": "KuzunoHonkai_800052",
    "link_img": "https://live.staticflickr.com/65535/48048475228_ee99860f68_o.jpg",
    "id_image": "KuzunoHonkai_800052",
    "count_view": 0
  },
  {
    "link_thumb": "https://live.staticflickr.com/65535/48048513412_081a42859a_n.jpg",
    "id_album": "1083940369",
    "description": "KuzunoHonkai_801691",
    "title": "KuzunoHonkai_801691",
    "link_img": "https://live.staticflickr.com/65535/48048513412_95dcd57ec0_o.jpg",
    "id_image": "KuzunoHonkai_801691",
    "count_view": 0
  },
  {
    "link_thumb": "https://live.staticflickr.com/65535/48048434216_9a97cb472f_n.jpg",
    "id_album": "1083940369",
    "description": "KuzunoHonkai_803945",
    "title": "KuzunoHonkai_803945",
    "link_img": "https://live.staticflickr.com/65535/48048434216_96e7351f1e_o.jpg",
    "id_image": "KuzunoHonkai_803945",
    "count_view": 0
  },
  {
    "link_thumb": "https://live.staticflickr.com/65535/48048434421_004e9cd97b_n.jpg",
    "id_album": "1083940369",
    "description": "KuzunoHonkai_803948",
    "title": "KuzunoHonkai_803948",
    "link_img": "https://live.staticflickr.com/65535/48048434421_136a956eae_o.jpg",
    "id_image": "KuzunoHonkai_803948",
    "count_view": 0
  },
  {
    "link_thumb": "https://live.staticflickr.com/65535/48048477493_4f54e05d5a_n.jpg",
    "id_album": "1083940369",
    "description": "KuzunoHonkai_807722",
    "title": "KuzunoHonkai_807722",
    "link_img": "https://live.staticflickr.com/65535/48048477493_62990040c1_o.jpg",
    "id_image": "KuzunoHonkai_807722",
    "count_view": 0
  },
  {
    "link_thumb": "https://live.staticflickr.com/65535/48048436181_9944e5e50b_n.jpg",
    "id_album": "1083940369",
    "description": "KuzunoHonkai_815471",
    "title": "KuzunoHonkai_815471",
    "link_img": "https://live.staticflickr.com/65535/48048436181_644aefbac8_o.jpg",
    "id_image": "KuzunoHonkai_815471",
    "count_view": 0
  },
  {
    "link_thumb": "https://live.staticflickr.com/65535/48048437511_33c35e8d3d_n.jpg",
    "id_album": "1083940369",
    "description": "KuzunoHonkai_827249",
    "title": "KuzunoHonkai_827249",
    "link_img": "https://live.staticflickr.com/65535/48048437511_662061722e_o.jpg",
    "id_image": "KuzunoHonkai_827249",
    "count_view": 0
  },
  {
    "link_thumb": "https://live.staticflickr.com/65535/48048517612_03879c9ba4_n.jpg",
    "id_album": "1083940369",
    "description": "KuzunoHonkai_955248",
    "title": "KuzunoHonkai_955248",
    "link_img": "https://live.staticflickr.com/65535/48048517612_ca6eca312d_o.jpg",
    "id_image": "KuzunoHonkai_955248",
    "count_view": 0
  }
]