[
  {
    "total_img": 14,
    "number_page": 1,
    "title": "ChaoSChild",
    "tag": "Ice Cream, Takeshi Shinjou, Senri Minamisawa, Serika Onoe, Hinae Arimura, Shinji Itou, Uki Yamazoe, Hana Kazuki, ChaoSChild, Takuru Miyashiro, Stairs, Mio Kunosato, Kurusu Nono",
    "description": "ChaoSChild",
    "link_thumb": "https://live.staticflickr.com/65535/46995729795_7a04e05624_n.jpg",
    "id_album": "922090814",
    "total_view": 14
  },
  {
    "total_img": 2,
    "number_page": 1,
    "title": "Hinae Arimura",
    "tag": "Hinae Arimura,",
    "description": "Hinae Arimura",
    "link_thumb": "https://live.staticflickr.com/65535/47859727322_cdc8486a67_n.jpg",
    "id_album": "1989623815",
    "total_view": 2
  },
  {
    "total_img": 19,
    "number_page": 1,
    "title": "Ice Cream",
    "tag": "Ice Cream,",
    "description": "Ice Cream",
    "link_thumb": "https://live.staticflickr.com/65535/48064521416_f18a8b326a_n.jpg",
    "id_album": "1161457322",
    "total_view": 19
  }
]