[
  {
    "total_img": 28,
    "number_page": 1,
    "title": "LaidBack Camp",
    "tag": "Aoi Inuyama, Green Eyes, Chair, Mount Fuji, LaidBack Camp, Wink, Sitting, Long Hair, Blonde, Ena Saitou, Nadeshiko Kagamihara, Thigh Highs, Chiaki Oogaki, Anime, Mountain, Shorts, Chikuwa LaidBack Camp, Cup, Food, Eating, Purple Eyes, Jacket, Purple Hair, Scarf, Brown Eyes, Brown Hair, Bag, Pink Hair, Smile, Rin Shima, Skirt, Tent, Blue Eyes, Blue Hair, Blush, Sleeping, Pantyhose, Boots, Fire, Glasses, Hat, Sunrise",
    "description": "LaidBack Camp",
    "link_thumb": "https://live.staticflickr.com/65535/48048449406_836991177b_n.jpg",
    "id_album": "1736927122",
    "total_view": 28
  },
  {
    "total_img": 12,
    "number_page": 1,
    "title": "Aoi Inuyama",
    "tag": "Aoi Inuyama,",
    "description": "Aoi Inuyama",
    "link_thumb": "https://live.staticflickr.com/65535/48609531148_1c29d72778_n.jpg",
    "id_album": "-316360497",
    "total_view": 12
  },
  {
    "total_img": 13,
    "number_page": 1,
    "title": "Chiaki Oogaki",
    "tag": "Chiaki Oogaki,",
    "description": "Chiaki Oogaki",
    "link_thumb": "https://live.staticflickr.com/65535/48609531148_1c29d72778_n.jpg",
    "id_album": "-1962425916",
    "total_view": 13
  },
  {
    "total_img": 9,
    "number_page": 1,
    "title": "Ena Saitou",
    "tag": "Ena Saitou,",
    "description": "Ena Saitou",
    "link_thumb": "https://live.staticflickr.com/65535/48609891276_d6beb9cf73_n.jpg",
    "id_album": "-1072328416",
    "total_view": 9
  },
  {
    "total_img": 63,
    "number_page": 1,
    "title": "Nadeshiko Kagamihara",
    "tag": "Nadeshiko Kagamihara,",
    "description": "Nadeshiko Kagamihara",
    "link_thumb": "https://live.staticflickr.com/65535/48609531148_1c29d72778_n.jpg",
    "id_album": "-795300841",
    "total_view": 63
  },
  {
    "total_img": 57,
    "number_page": 1,
    "title": "Rin Shima",
    "tag": "Rin Shima,",
    "description": "Rin Shima",
    "link_thumb": "https://live.staticflickr.com/65535/48609891976_6a51cf427f_n.jpg",
    "id_album": "1758695250",
    "total_view": 57
  }
]