[
  {
    "total_img": 11,
    "number_page": 1,
    "title": "Kanon",
    "tag": "Ayu Tsukimiya, Junk Robot, Shiori Misaka, Girl from the Illusionary World, Akiko Minase, Long Hair, Piroshiki Kanon, Blue Eyes, Sayuri Kurata, Winter, Mishio Amano, Nayuki Minase, Yuuichi Aizawa, Kanon, Kaori Misaka, Makoto Sawatari, Mai Kawasumi, Kitten",
    "description": "Kanon",
    "link_thumb": "https://live.staticflickr.com/65535/48047195782_b8683c2a34_n.jpg",
    "id_album": "-1550234023",
    "total_view": 11
  },
  {
    "total_img": 3,
    "number_page": 1,
    "title": "Makoto Sawatari",
    "tag": "Makoto Sawatari,",
    "description": "Makoto Sawatari",
    "link_thumb": "https://live.staticflickr.com/65535/48047116181_5656a3985b_n.jpg",
    "id_album": "1793880195",
    "total_view": 3
  }
]