[
  {
    "link_thumb": "https://live.staticflickr.com/65535/48059145281_dce08807d7_n.jpg",
    "id_album": "2142889945",
    "description": "TalesofZestiriatheX_716858",
    "title": "TalesofZestiriatheX_716858",
    "link_img": "https://live.staticflickr.com/65535/48059145281_3baa18d635_o.jpg",
    "id_image": "TalesofZestiriatheX_716858",
    "count_view": 0
  },
  {
    "link_thumb": "https://live.staticflickr.com/65535/48059146091_337023a9b0_n.jpg",
    "id_album": "2142889945",
    "description": "TalesofZestiriatheX_718271",
    "title": "TalesofZestiriatheX_718271",
    "link_img": "https://live.staticflickr.com/65535/48059146091_68b4e15ae3_o.jpg",
    "id_image": "TalesofZestiriatheX_718271",
    "count_view": 0
  }
]