[
  {
    "link_thumb": "https://live.staticflickr.com/65535/48048559507_dbc6a10e07_n.jpg",
    "id_album": "371130200",
    "description": "LittleBusters_114455,[isGirlAnime],[isSadAnime],[isSadAnimeGirl],[isCuteAnime],[isGirlsLoliAnime],[Little Busters],[LittleBusters]",
    "title": "LittleBusters_114455",
    "link_img": "https://live.staticflickr.com/65535/48048559507_114d715c0e_o.jpg",
    "id_image": "LittleBusters_114455",
    "count_view": 0
  },
  {
    "link_thumb": "https://live.staticflickr.com/65535/48048559862_538f8d79e0_n.jpg",
    "id_album": "371130200",
    "description": "LittleBusters_137443,[isGirlAnime],[isSadAnime],[isSadAnimeGirl],[isCuteAnime],[isGirlsLoliAnime],[Little Busters],[LittleBusters]",
    "title": "LittleBusters_137443",
    "link_img": "https://live.staticflickr.com/65535/48048559862_586d389ab6_o.jpg",
    "id_image": "LittleBusters_137443",
    "count_view": 0
  },
  {
    "link_thumb": "https://live.staticflickr.com/65535/48048560182_58d085ec2f_n.jpg",
    "id_album": "371130200",
    "description": "LittleBusters_137446,[isGirlAnime],[isSadAnime],[isSadAnimeGirl],[isCuteAnime],[isGirlsHatsHoodieAnime],[isGirlsLoliAnime],[Little Busters],[LittleBusters]",
    "title": "LittleBusters_137446",
    "link_img": "https://live.staticflickr.com/65535/48048560182_cff1d43c48_o.jpg",
    "id_image": "LittleBusters_137446",
    "count_view": 0
  },
  {
    "link_thumb": "https://live.staticflickr.com/65535/48048524443_a2acc25a81_n.jpg",
    "id_album": "371130200",
    "description": "LittleBusters_164808,[isGirlAnime],[isSadAnime],[isSadAnimeGirl],[isCuteAnime],[isGirlsLoliAnime],[isBlackAnime],[Little Busters],[LittleBusters]",
    "title": "LittleBusters_164808",
    "link_img": "https://live.staticflickr.com/65535/48048524443_4c8519b02d_o.jpg",
    "id_image": "LittleBusters_164808",
    "count_view": 0
  },
  {
    "link_thumb": "https://live.staticflickr.com/65535/48048481531_e1e0a6c956_n.jpg",
    "id_album": "371130200",
    "description": "LittleBusters_173445,[isGirlAnime],[isSadAnime],[isSadAnimeGirl],[isCuteAnime],[isGirlsHatsHoodieAnime],[isGirlsLoliAnime],[isGirlsSharpCanineToothAnime],[Little Busters],[LittleBusters]",
    "title": "LittleBusters_173445",
    "link_img": "https://live.staticflickr.com/65535/48048481531_af7a078598_o.jpg",
    "id_image": "LittleBusters_173445",
    "count_view": 0
  },
  {
    "link_thumb": "https://live.staticflickr.com/65535/48048524783_0cd1b7fb8c_n.jpg",
    "id_album": "371130200",
    "description": "LittleBusters_213121,[isGirlAnime],[isSadAnime],[isSadAnimeGirl],[isCuteAnime],[isGirlsLoliAnime],[Little Busters],[LittleBusters]",
    "title": "LittleBusters_213121",
    "link_img": "https://live.staticflickr.com/65535/48048524783_30909201d9_o.jpg",
    "id_image": "LittleBusters_213121",
    "count_view": 0
  },
  {
    "link_thumb": "https://live.staticflickr.com/65535/48048524958_5d6abe7331_n.jpg",
    "id_album": "371130200",
    "description": "LittleBusters_213306,[isGirlAnime],[isSadAnime],[isSadAnimeGirl],[isCuteAnime],[isGirlsLoliAnime],[Little Busters],[LittleBusters]",
    "title": "LittleBusters_213306",
    "link_img": "https://live.staticflickr.com/65535/48048524958_859ea28738_o.jpg",
    "id_image": "LittleBusters_213306",
    "count_view": 0
  },
  {
    "link_thumb": "https://live.staticflickr.com/65535/48048525173_37530d05a2_n.jpg",
    "id_album": "371130200",
    "description": "LittleBusters_220840,[isGirlAnime],[isSadAnime],[isSadAnimeGirl],[isCuteAnime],[isGirlsLoliAnime],[Little Busters],[LittleBusters]",
    "title": "LittleBusters_220840",
    "link_img": "https://live.staticflickr.com/65535/48048525173_e053bfd7e1_o.jpg",
    "id_image": "LittleBusters_220840",
    "count_view": 0
  },
  {
    "link_thumb": "https://live.staticflickr.com/65535/48048526188_660a1119f5_n.jpg",
    "id_album": "371130200",
    "description": "LittleBusters_335654,[isGirlAnime],[isSadAnime],[isSadAnimeGirl],[isCuteAnime],[isGirlsLoliAnime],[Little Busters],[LittleBusters]",
    "title": "LittleBusters_335654",
    "link_img": "https://live.staticflickr.com/65535/48048526188_2de511287d_o.jpg",
    "id_image": "LittleBusters_335654",
    "count_view": 0
  },
  {
    "link_thumb": "https://live.staticflickr.com/65535/48048483126_9e6abf5a58_n.jpg",
    "id_album": "371130200",
    "description": "LittleBusters_515295,[isGirlAnime],[isSadAnime],[isSadAnimeGirl],[isCuteAnime],[isGirlsHatsHoodieAnime],[isGirlsLoliAnime],[Little Busters],[LittleBusters]",
    "title": "LittleBusters_515295",
    "link_img": "https://live.staticflickr.com/65535/48048483126_8f7cdc24f5_o.jpg",
    "id_image": "LittleBusters_515295",
    "count_view": 0
  },
  {
    "link_thumb": "https://live.staticflickr.com/65535/48048483271_e66a1a0b4e_n.jpg",
    "id_album": "371130200",
    "description": "LittleBusters_555558,[isGirlAnime],[isSadAnimeGirl],[isSceneryArts],[isCuteAnime],[isGirlsLoliAnime],[isBlackAnime],[Little Busters],[LittleBusters]",
    "title": "LittleBusters_555558",
    "link_img": "https://live.staticflickr.com/65535/48048483271_23d8cf1fe5_o.jpg",
    "id_image": "LittleBusters_555558",
    "count_view": 0
  },
  {
    "link_thumb": "https://live.staticflickr.com/65535/48048483676_9bff8469a1_n.jpg",
    "id_album": "371130200",
    "description": "LittleBusters_603355,[isGirlAnime],[isSadAnime],[isSadAnimeGirl],[isCuteAnime],[isGirlsHatsHoodieAnime],[isGirlsLoliAnime],[Little Busters],[LittleBusters]",
    "title": "LittleBusters_603355",
    "link_img": "https://live.staticflickr.com/65535/48048483676_50220c094e_o.jpg",
    "id_image": "LittleBusters_603355",
    "count_view": 0
  },
  {
    "link_thumb": "https://live.staticflickr.com/65535/48048484186_23a1c0025e_n.jpg",
    "id_album": "371130200",
    "description": "LittleBusters_603359,[isGirlAnime],[isSadAnime],[isSadAnimeGirl],[isCuteAnime],[isGirlsLoliAnime],[Little Busters],[LittleBusters]",
    "title": "LittleBusters_603359",
    "link_img": "https://live.staticflickr.com/65535/48048484186_6238b443d4_o.jpg",
    "id_image": "LittleBusters_603359",
    "count_view": 0
  },
  {
    "link_thumb": "https://live.staticflickr.com/65535/48048527653_e36bf7b62a_n.jpg",
    "id_album": "371130200",
    "description": "LittleBusters_603362,[isGirlAnime],[isSadAnime],[isSadAnimeGirl],[isCuteAnime],[isGirlsLoliAnime],[Little Busters],[LittleBusters]",
    "title": "LittleBusters_603362",
    "link_img": "https://live.staticflickr.com/65535/48048527653_1b66af1961_o.jpg",
    "id_image": "LittleBusters_603362",
    "count_view": 0
  },
  {
    "link_thumb": "https://live.staticflickr.com/65535/48048484836_dd3076affb_n.jpg",
    "id_album": "371130200",
    "description": "LittleBusters_603364,[isGirlAnime],[isSadAnime],[isSadAnimeGirl],[isCuteAnime],[isGirlsHatsHoodieAnime],[isGirlsLoliAnime],[Little Busters],[LittleBusters]",
    "title": "LittleBusters_603364",
    "link_img": "https://live.staticflickr.com/65535/48048484836_1afff07c4e_o.jpg",
    "id_image": "LittleBusters_603364",
    "count_view": 0
  },
  {
    "link_thumb": "https://live.staticflickr.com/65535/48048485311_ef3aa3cbfa_n.jpg",
    "id_album": "371130200",
    "description": "LittleBusters_603366,[isGirlAnime],[isSadAnime],[isSadAnimeGirl],[isCuteAnime],[isGirlsHatsHoodieAnime],[isGirlsLoliAnime],[Little Busters],[LittleBusters]",
    "title": "LittleBusters_603366",
    "link_img": "https://live.staticflickr.com/65535/48048485311_f0430b71db_o.jpg",
    "id_image": "LittleBusters_603366",
    "count_view": 0
  },
  {
    "link_thumb": "https://live.staticflickr.com/65535/48048485711_a3f39d6108_n.jpg",
    "id_album": "371130200",
    "description": "LittleBusters_603368,[isGirlAnime],[isSadAnime],[isSadAnimeGirl],[isCuteAnime],[isGirlsHatsHoodieAnime],[isGirlsLoliAnime],[Little Busters],[LittleBusters]",
    "title": "LittleBusters_603368",
    "link_img": "https://live.staticflickr.com/65535/48048485711_29352f2fe3_o.jpg",
    "id_image": "LittleBusters_603368",
    "count_view": 0
  },
  {
    "link_thumb": "https://live.staticflickr.com/65535/48048566162_a4750451a0_n.jpg",
    "id_album": "371130200",
    "description": "LittleBusters_603370,[isGirlAnime],[isSadAnime],[isSadAnimeGirl],[isCuteAnime],[isGirlsLoliAnime],[Little Busters],[LittleBusters]",
    "title": "LittleBusters_603370",
    "link_img": "https://live.staticflickr.com/65535/48048566162_f1509c4ddb_o.jpg",
    "id_image": "LittleBusters_603370",
    "count_view": 0
  },
  {
    "link_thumb": "https://live.staticflickr.com/65535/48048566322_452571043a_n.jpg",
    "id_album": "371130200",
    "description": "LittleBusters_603373,[isGirlAnime],[isSadAnime],[isSadAnimeGirl],[isCuteAnime],[isGirlsLoliAnime],[Little Busters],[LittleBusters]",
    "title": "LittleBusters_603373",
    "link_img": "https://live.staticflickr.com/65535/48048566322_448362a9de_o.jpg",
    "id_image": "LittleBusters_603373",
    "count_view": 0
  },
  {
    "link_thumb": "https://live.staticflickr.com/65535/48048529798_c96e73cf7f_n.jpg",
    "id_album": "371130200",
    "description": "LittleBusters_603376,[isGirlAnime],[isSadAnime],[isSadAnimeGirl],[isCuteAnime],[isGirlsHatsHoodieAnime],[isGirlsLoliAnime],[Little Busters],[LittleBusters]",
    "title": "LittleBusters_603376",
    "link_img": "https://live.staticflickr.com/65535/48048529798_9dc0c7f3fb_o.jpg",
    "id_image": "LittleBusters_603376",
    "count_view": 0
  },
  {
    "link_thumb": "https://live.staticflickr.com/65535/48048567207_49263519f5_n.jpg",
    "id_album": "371130200",
    "description": "LittleBusters_603378,[isGirlAnime],[isBoyAnime],[isCoupleAnime],[Little Busters],[LittleBusters]",
    "title": "LittleBusters_603378",
    "link_img": "https://live.staticflickr.com/65535/48048567207_aa6ded7468_o.jpg",
    "id_image": "LittleBusters_603378",
    "count_view": 0
  },
  {
    "link_thumb": "https://live.staticflickr.com/65535/48048530243_28eba724d3_n.jpg",
    "id_album": "371130200",
    "description": "LittleBusters_603379,[isGirlAnime],[isSadAnime],[isSadAnimeGirl],[isCuteAnime],[isGirlsLoliAnime],[Little Busters],[LittleBusters]",
    "title": "LittleBusters_603379",
    "link_img": "https://live.staticflickr.com/65535/48048530243_3b3c396f80_o.jpg",
    "id_image": "LittleBusters_603379",
    "count_view": 0
  },
  {
    "link_thumb": "https://live.staticflickr.com/65535/48048567587_43da91f517_n.jpg",
    "id_album": "371130200",
    "description": "LittleBusters_603380,[isGirlAnime],[isSadAnime],[isSadAnimeGirl],[isCuteAnime],[isGirlsLoliAnime],[Little Busters],[LittleBusters]",
    "title": "LittleBusters_603380",
    "link_img": "https://live.staticflickr.com/65535/48048567587_222fcfd59d_o.jpg",
    "id_image": "LittleBusters_603380",
    "count_view": 0
  },
  {
    "link_thumb": "https://live.staticflickr.com/65535/48048567817_1090444e80_n.jpg",
    "id_album": "371130200",
    "description": "LittleBusters_603381,[isGirlAnime],[isSadAnime],[isSadAnimeGirl],[isCuteAnime],[isGirlsHatsHoodieAnime],[isGirlsLoliAnime],[isGirlsSharpCanineToothAnime],[Little Busters],[LittleBusters]",
    "title": "LittleBusters_603381",
    "link_img": "https://live.staticflickr.com/65535/48048567817_c2908ae9a9_o.jpg",
    "id_image": "LittleBusters_603381",
    "count_view": 0
  },
  {
    "link_thumb": "https://live.staticflickr.com/65535/48048531678_69df8ece20_n.jpg",
    "id_album": "371130200",
    "description": "LittleBusters_603388,[isGirlAnime],[Little Busters],[LittleBusters]",
    "title": "LittleBusters_603388",
    "link_img": "https://live.staticflickr.com/65535/48048531678_2ac4cbf70f_o.jpg",
    "id_image": "LittleBusters_603388",
    "count_view": 0
  },
  {
    "link_thumb": "https://live.staticflickr.com/65535/48048569192_debe3bac9e_n.jpg",
    "id_album": "371130200",
    "description": "LittleBusters_603390,[isGirlAnime],[isBoyAnime],[Little Busters],[LittleBusters]",
    "title": "LittleBusters_603390",
    "link_img": "https://live.staticflickr.com/65535/48048569192_83d24bc956_o.jpg",
    "id_image": "LittleBusters_603390",
    "count_view": 0
  },
  {
    "link_thumb": "https://live.staticflickr.com/65535/48048532698_a50bc3fd05_n.jpg",
    "id_album": "371130200",
    "description": "LittleBusters_603394,[isGirlAnime],[isSadAnime],[isSadAnimeGirl],[isCuteAnime],[isGirlsHatsHoodieAnime],[isGirlsLoliAnime],[Little Busters],[LittleBusters]",
    "title": "LittleBusters_603394",
    "link_img": "https://live.staticflickr.com/65535/48048532698_13681c8393_o.jpg",
    "id_image": "LittleBusters_603394",
    "count_view": 0
  },
  {
    "link_thumb": "https://live.staticflickr.com/65535/48048570252_b6243d3bce_n.jpg",
    "id_album": "371130200",
    "description": "LittleBusters_603396,[isGirlAnime],[isSadAnime],[isSadAnimeGirl],[isCuteAnime],[isGirlsLoliAnime],[Little Busters],[LittleBusters]",
    "title": "LittleBusters_603396",
    "link_img": "https://live.staticflickr.com/65535/48048570252_862f24d3f5_o.jpg",
    "id_image": "LittleBusters_603396",
    "count_view": 0
  },
  {
    "link_thumb": "https://live.staticflickr.com/65535/48048533713_1dbd7beccb_n.jpg",
    "id_album": "371130200",
    "description": "LittleBusters_603399,[isGirlAnime],[isSadAnime],[isSadAnimeGirl],[isCuteAnime],[isGirlsLoliAnime],[Little Busters],[LittleBusters]",
    "title": "LittleBusters_603399",
    "link_img": "https://live.staticflickr.com/65535/48048533713_e33416761f_o.jpg",
    "id_image": "LittleBusters_603399",
    "count_view": 0
  },
  {
    "link_thumb": "https://live.staticflickr.com/65535/48048570962_d6da41be51_n.jpg",
    "id_album": "371130200",
    "description": "LittleBusters_603400,[isGirlAnime],[isSadAnime],[isSadAnimeGirl],[isCuteAnime],[isGirlsLoliAnime],[Little Busters],[LittleBusters]",
    "title": "LittleBusters_603400",
    "link_img": "https://live.staticflickr.com/65535/48048570962_4f674b36c3_o.jpg",
    "id_image": "LittleBusters_603400",
    "count_view": 0
  },
  {
    "link_thumb": "https://live.staticflickr.com/65535/48048491441_49e0b624c4_n.jpg",
    "id_album": "371130200",
    "description": "LittleBusters_714096,[isGirlAnime],[isSadAnime],[isSadAnimeGirl],[isCuteAnime],[Little Busters],[LittleBusters]",
    "title": "LittleBusters_714096",
    "link_img": "https://live.staticflickr.com/65535/48048491441_56e100a8e0_o.jpg",
    "id_image": "LittleBusters_714096",
    "count_view": 0
  },
  {
    "link_thumb": "https://live.staticflickr.com/65535/48048534623_c7a59971c9_n.jpg",
    "id_album": "371130200",
    "description": "LittleBusters_714097,[isGirlAnime],[isSadAnime],[isSadAnimeGirl],[isCuteAnime],[Little Busters],[LittleBusters]",
    "title": "LittleBusters_714097",
    "link_img": "https://live.staticflickr.com/65535/48048534623_9fc43d0388_o.jpg",
    "id_image": "LittleBusters_714097",
    "count_view": 0
  },
  {
    "link_thumb": "https://live.staticflickr.com/65535/48048535128_28b8a1aee2_n.jpg",
    "id_album": "371130200",
    "description": "LittleBusters_714099,[isGirlAnime],[isSadAnime],[isSadAnimeGirl],[isCuteAnime],[isGirlsLoliAnime],[Little Busters],[LittleBusters]",
    "title": "LittleBusters_714099",
    "link_img": "https://live.staticflickr.com/65535/48048535128_193cd7e2c6_o.jpg",
    "id_image": "LittleBusters_714099",
    "count_view": 0
  },
  {
    "link_thumb": "https://live.staticflickr.com/65535/48048535318_568ea696a4_n.jpg",
    "id_album": "371130200",
    "description": "LittleBusters_730466,[isGirlAnime],[isSadAnime],[isSadAnimeGirl],[isCuteAnime],[isGirlsHatsHoodieAnime],[isGirlsLoliAnime],[Little Busters],[LittleBusters]",
    "title": "LittleBusters_730466",
    "link_img": "https://live.staticflickr.com/65535/48048535318_a441e467f9_o.jpg",
    "id_image": "LittleBusters_730466",
    "count_view": 0
  },
  {
    "link_thumb": "https://live.staticflickr.com/65535/48048493276_52fe66248d_n.jpg",
    "id_album": "371130200",
    "description": "LittleBusters_754873,[isGirlAnime],[isSadAnime],[isSadAnimeGirl],[isCuteAnime],[isGirlsLoliAnime],[isKimonoAnime],[Little Busters],[LittleBusters]",
    "title": "LittleBusters_754873",
    "link_img": "https://live.staticflickr.com/65535/48048493276_02784bccae_o.jpg",
    "id_image": "LittleBusters_754873",
    "count_view": 0
  },
  {
    "link_thumb": "https://live.staticflickr.com/65535/48048536803_f99c7a5c8d_n.jpg",
    "id_album": "371130200",
    "description": "LittleBusters_754876,[isGirlAnime],[isSadAnime],[isSadAnimeGirl],[isCuteAnime],[isGirlsLoliAnime],[Little Busters],[LittleBusters]",
    "title": "LittleBusters_754876",
    "link_img": "https://live.staticflickr.com/65535/48048536803_3c244e9c45_o.jpg",
    "id_image": "LittleBusters_754876",
    "count_view": 0
  },
  {
    "link_thumb": "https://live.staticflickr.com/65535/48048497976_020502a240_n.jpg",
    "id_album": "371130200",
    "description": "LittleBusters_754896,[isGirlAnime],[isSadAnime],[isSadAnimeGirl],[isCuteAnime],[isGirlsLoliAnime],[Little Busters],[LittleBusters]",
    "title": "LittleBusters_754896",
    "link_img": "https://live.staticflickr.com/65535/48048497976_0b13d50910_o.jpg",
    "id_image": "LittleBusters_754896",
    "count_view": 0
  },
  {
    "link_thumb": "https://live.staticflickr.com/65535/48048540993_c9ce2727fc_n.jpg",
    "id_album": "371130200",
    "description": "LittleBusters_754897,[isGirlAnime],[isSadAnime],[isSadAnimeGirl],[isCuteAnime],[isGirlsLoliAnime],[Little Busters],[LittleBusters]",
    "title": "LittleBusters_754897",
    "link_img": "https://live.staticflickr.com/65535/48048540993_c04293bfa1_o.jpg",
    "id_image": "LittleBusters_754897",
    "count_view": 0
  },
  {
    "link_thumb": "https://live.staticflickr.com/65535/48048578517_414ab2dee8_n.jpg",
    "id_album": "371130200",
    "description": "LittleBusters_754898,[isGirlAnime],[isSadAnime],[isSadAnimeGirl],[isCuteAnime],[isGirlsLoliAnime],[Little Busters],[LittleBusters]",
    "title": "LittleBusters_754898",
    "link_img": "https://live.staticflickr.com/65535/48048578517_69c46ce22c_o.jpg",
    "id_image": "LittleBusters_754898",
    "count_view": 0
  },
  {
    "link_thumb": "https://live.staticflickr.com/65535/48048578717_2eeb31647f_n.jpg",
    "id_album": "371130200",
    "description": "LittleBusters_754899,[isBoyAnime],[isSadAnime],[isSadAnimeBoy],[Little Busters],[LittleBusters]",
    "title": "LittleBusters_754899",
    "link_img": "https://live.staticflickr.com/65535/48048578717_496e5d62d7_o.jpg",
    "id_image": "LittleBusters_754899",
    "count_view": 0
  },
  {
    "link_thumb": "https://live.staticflickr.com/65535/48048498686_dbcb3a3c8a_n.jpg",
    "id_album": "371130200",
    "description": "LittleBusters_754900,[isGirlAnime],[isSadAnime],[isSadAnimeGirl],[isCuteAnime],[isGirlsLoliAnime],[Little Busters],[LittleBusters]",
    "title": "LittleBusters_754900",
    "link_img": "https://live.staticflickr.com/65535/48048498686_33d7c76695_o.jpg",
    "id_image": "LittleBusters_754900",
    "count_view": 0
  },
  {
    "link_thumb": "https://live.staticflickr.com/65535/48048499346_9100ff61be_n.jpg",
    "id_album": "371130200",
    "description": "LittleBusters_754903,[isGirlAnime],[isSadAnime],[isSadAnimeGirl],[isCuteAnime],[isGirlsLoliAnime],[Little Busters],[LittleBusters]",
    "title": "LittleBusters_754903",
    "link_img": "https://live.staticflickr.com/65535/48048499346_fe255d570d_o.jpg",
    "id_image": "LittleBusters_754903",
    "count_view": 0
  },
  {
    "link_thumb": "https://live.staticflickr.com/65535/48048579677_b004a6da85_n.jpg",
    "id_album": "371130200",
    "description": "LittleBusters_754904,[isGirlAnime],[isSadAnime],[isSadAnimeGirl],[isCuteAnime],[isGirlsLoliAnime],[Little Busters],[LittleBusters]",
    "title": "LittleBusters_754904",
    "link_img": "https://live.staticflickr.com/65535/48048579677_97afdc571c_o.jpg",
    "id_image": "LittleBusters_754904",
    "count_view": 0
  },
  {
    "link_thumb": "https://live.staticflickr.com/65535/48048542808_b977a4dab7_n.jpg",
    "id_album": "371130200",
    "description": "LittleBusters_760084,[isGirlAnime],[isSadAnime],[isSadAnimeGirl],[isCuteAnime],[isGirlsLoliAnime],[Little Busters],[LittleBusters]",
    "title": "LittleBusters_760084",
    "link_img": "https://live.staticflickr.com/65535/48048542808_14d566f832_o.jpg",
    "id_image": "LittleBusters_760084",
    "count_view": 0
  },
  {
    "link_thumb": "https://live.staticflickr.com/65535/48048500216_838bbe2ea3_n.jpg",
    "id_album": "371130200",
    "description": "LittleBusters_761483,[isGirlAnime],[isBoyAnime],[isSadAnime],[isCoupleAnime],[Little Busters],[LittleBusters]",
    "title": "LittleBusters_761483",
    "link_img": "https://live.staticflickr.com/65535/48048500216_0c45242e72_o.jpg",
    "id_image": "LittleBusters_761483",
    "count_view": 0
  },
  {
    "link_thumb": "https://live.staticflickr.com/65535/48048581082_3084f660d1_n.jpg",
    "id_album": "371130200",
    "description": "LittleBusters_846851,[isGirlAnime],[isSadAnime],[isSadAnimeGirl],[isCuteAnime],[isGirlsLoliAnime],[Little Busters],[LittleBusters]",
    "title": "LittleBusters_846851",
    "link_img": "https://live.staticflickr.com/65535/48048581082_910433f592_o.jpg",
    "id_image": "LittleBusters_846851",
    "count_view": 0
  },
  {
    "link_thumb": "https://live.staticflickr.com/65535/48048544113_8e28090534_n.jpg",
    "id_album": "371130200",
    "description": "LittleBusters_851486,[isGirlAnime],[isSadAnime],[isSadAnimeGirl],[isKimonoAnime],[Little Busters],[LittleBusters]",
    "title": "LittleBusters_851486",
    "link_img": "https://live.staticflickr.com/65535/48048544113_91ced4db7b_o.jpg",
    "id_image": "LittleBusters_851486",
    "count_view": 0
  },
  {
    "link_thumb": "https://live.staticflickr.com/65535/48048544383_223a8c04fa_n.jpg",
    "id_album": "371130200",
    "description": "LittleBusters_851668,[isGirlAnime],[isSadAnime],[isSadAnimeGirl],[Little Busters],[LittleBusters]",
    "title": "LittleBusters_851668",
    "link_img": "https://live.staticflickr.com/65535/48048544383_5ee75526ab_o.jpg",
    "id_image": "LittleBusters_851668",
    "count_view": 0
  },
  {
    "link_thumb": "https://live.staticflickr.com/65535/48048502926_d35e60607c_n.jpg",
    "id_album": "371130200",
    "description": "LittleBusters_851774,[isGirlAnime],[isSadAnime],[isSadAnimeGirl],[isCuteAnime],[isGirlsLoliAnime],[isKimonoAnime],[Little Busters],[LittleBusters]",
    "title": "LittleBusters_851774",
    "link_img": "https://live.staticflickr.com/65535/48048502926_feafc81c6c_o.jpg",
    "id_image": "LittleBusters_851774",
    "count_view": 0
  },
  {
    "link_thumb": "https://live.staticflickr.com/65535/48048583202_a442b37f51_n.jpg",
    "id_album": "371130200",
    "description": "LittleBusters_851775,[isGirlAnime],[isSadAnime],[isSadAnimeGirl],[isCuteAnime],[isGirlsLoliAnime],[Little Busters],[LittleBusters]",
    "title": "LittleBusters_851775",
    "link_img": "https://live.staticflickr.com/65535/48048583202_6c1dccc9d4_o.jpg",
    "id_image": "LittleBusters_851775",
    "count_view": 0
  },
  {
    "link_thumb": "https://live.staticflickr.com/65535/48048503556_02c373e037_n.jpg",
    "id_album": "371130200",
    "description": "LittleBusters_851781,[isGirlAnime],[isSadAnime],[isSadAnimeGirl],[isCuteAnime],[isGirlsLoliAnime],[Little Busters],[LittleBusters]",
    "title": "LittleBusters_851781",
    "link_img": "https://live.staticflickr.com/65535/48048503556_33fc341ae8_o.jpg",
    "id_image": "LittleBusters_851781",
    "count_view": 0
  },
  {
    "link_thumb": "https://live.staticflickr.com/65535/48048584952_0ea7a1f396_n.jpg",
    "id_album": "371130200",
    "description": "LittleBusters_851791,[isGirlAnime],[isSadAnime],[isSadAnimeGirl],[isCuteAnime],[isGirlsLoliAnime],[Little Busters],[LittleBusters]",
    "title": "LittleBusters_851791",
    "link_img": "https://live.staticflickr.com/65535/48048584952_b139868210_o.jpg",
    "id_image": "LittleBusters_851791",
    "count_view": 0
  },
  {
    "link_thumb": "https://live.staticflickr.com/65535/48048585767_c96a946ee2_n.jpg",
    "id_album": "371130200",
    "description": "LittleBusters_851795,[isGirlAnime],[isSadAnime],[isSadAnimeGirl],[isCuteAnime],[isGirlsHatsHoodieAnime],[isGirlsLoliAnime],[Little Busters],[LittleBusters]",
    "title": "LittleBusters_851795",
    "link_img": "https://live.staticflickr.com/65535/48048585767_9a5010838b_o.jpg",
    "id_image": "LittleBusters_851795",
    "count_view": 0
  },
  {
    "link_thumb": "https://live.staticflickr.com/65535/48048589287_40996637a8_n.jpg",
    "id_album": "371130200",
    "description": "LittleBusters_903350,[isGirlAnime],[isSadAnime],[isSadAnimeGirl],[isCuteAnime],[isGirlsLoliAnime],[Little Busters],[LittleBusters]",
    "title": "LittleBusters_903350",
    "link_img": "https://live.staticflickr.com/65535/48048589287_90ded4a084_o.jpg",
    "id_image": "LittleBusters_903350",
    "count_view": 0
  },
  {
    "link_thumb": "https://live.staticflickr.com/65535/48048553428_e257a2020f_n.jpg",
    "id_album": "371130200",
    "description": "LittleBusters_925971,[isGirlAnime],[isSadAnime],[isSadAnimeGirl],[isCuteAnime],[isGirlsLoliAnime],[Little Busters],[LittleBusters]",
    "title": "LittleBusters_925971",
    "link_img": "https://live.staticflickr.com/65535/48048553428_6f434a184f_o.jpg",
    "id_image": "LittleBusters_925971",
    "count_view": 0
  }
]