[
  {
    "total_img": 52,
    "number_page": 1,
    "title": "Danganronpa",
    "tag": "Celestia Rudenberk, Green Hair, Green Eyes, Black Hair, Mukuro Ikusaba, Sakura Ogami, Long Hair, Twintails, Blonde, School, Anime, Mondo Owada, Kaede Akamatsu, Hifumi Yamada, Sonia Nevermind, Short Hair, Kyoko Kirigiri, Yasuhiro Hagakure, Byakuya Togami, Leon Kuwata, Danganronpa, Video Game, Purple Eyes, Purple Hair, Makoto Naegi, Aoi Asahina, Hajime Hinata, Junko Enoshima, Alter Ego Danganronpa, Brown Hair, Pink Eyes, School Uniform, Pink Hair, Monokuma Danganronpa, Smile, Toko Fukawa, Boy, Sayaka Maizono, Celestia Ludenberg, Red Eyes, Tie, Blue Eyes, Crown, Genocide Jack, Komaru Naegi, Monophanie Danganronpa, Sad, Kiyotaka Ishimaru",
    "description": "Danganronpa",
    "link_thumb": "https://live.staticflickr.com/65535/47961235936_f3f4ce837d_n.jpg",
    "id_album": "1503572306",
    "total_view": 52
  },
  {
    "total_img": 16,
    "number_page": 1,
    "title": "Makoto Naegi",
    "tag": "Makoto Naegi,",
    "description": "Makoto Naegi",
    "link_thumb": "https://live.staticflickr.com/65535/47961290491_e830ce0d94_n.jpg",
    "id_album": "2051910504",
    "total_view": 16
  }
]