[
  {
    "link_thumb": "https://live.staticflickr.com/65535/47837747672_0169d35091_n.jpg",
    "id_album": "-1193819610",
    "description": "5CentimetersPerSecond_807361",
    "title": "5CentimetersPerSecond_807361",
    "link_img": "https://live.staticflickr.com/65535/47837747672_e17edb5c8e_o.jpg",
    "id_image": "5CentimetersPerSecond_807361",
    "count_view": 0
  },
  {
    "link_thumb": "https://live.staticflickr.com/65535/46973604825_a6e9a9c70e_n.jpg",
    "id_album": "-1193819610",
    "description": "5CentimetersPerSecond_82043",
    "title": "5CentimetersPerSecond_82043",
    "link_img": "https://live.staticflickr.com/65535/46973604825_b0ba58c94b_o.jpg",
    "id_image": "5CentimetersPerSecond_82043",
    "count_view": 0
  },
  {
    "link_thumb": "https://live.staticflickr.com/65535/40923495933_2161eaea1d_n.jpg",
    "id_album": "-1193819610",
    "description": "AccelWorld_281835",
    "title": "AccelWorld_281835",
    "link_img": "https://live.staticflickr.com/65535/40923495933_330fd6576d_o.jpg",
    "id_image": "AccelWorld_281835",
    "count_view": 0
  },
  {
    "link_thumb": "https://live.staticflickr.com/65535/47839369442_6485cc83a1_n.jpg",
    "id_album": "-1193819610",
    "description": "AldnoahZero_658799",
    "title": "AldnoahZero_658799",
    "link_img": "https://live.staticflickr.com/65535/47839369442_abefdb522d_o.jpg",
    "id_image": "AldnoahZero_658799",
    "count_view": 0
  },
  {
    "link_thumb": "https://live.staticflickr.com/65535/47891857551_61a8a73e37_n.jpg",
    "id_album": "-1193819610",
    "description": "Angel_670932",
    "title": "Angel_670932",
    "link_img": "https://live.staticflickr.com/65535/47891857551_cfc5d22b81_o.jpg",
    "id_image": "Angel_670932",
    "count_view": 0
  },
  {
    "link_thumb": "https://live.staticflickr.com/65535/40925547313_86d362ae23_n.jpg",
    "id_album": "-1193819610",
    "description": "Angel_897464",
    "title": "Angel_897464",
    "link_img": "https://live.staticflickr.com/65535/40925547313_1ce6354b59_o.jpg",
    "id_image": "Angel_897464",
    "count_view": 0
  },
  {
    "link_thumb": "https://live.staticflickr.com/65535/47892641241_5578812c96_n.jpg",
    "id_album": "-1193819610",
    "description": "Anohana_298728",
    "title": "Anohana_298728",
    "link_img": "https://live.staticflickr.com/65535/47892641241_0e14f1c7d0_o.jpg",
    "id_image": "Anohana_298728",
    "count_view": 0
  },
  {
    "link_thumb": "https://live.staticflickr.com/65535/47841570342_ed7481f474_n.jpg",
    "id_album": "-1193819610",
    "description": "Aria_869291",
    "title": "Aria_869291",
    "link_img": "https://live.staticflickr.com/65535/47841570342_5a8b2e42cc_o.jpg",
    "id_image": "Aria_869291",
    "count_view": 0
  },
  {
    "link_thumb": "https://live.staticflickr.com/65535/40927482103_74d3914602_n.jpg",
    "id_album": "-1193819610",
    "description": "AttackOnTitan_418724",
    "title": "AttackOnTitan_418724",
    "link_img": "https://live.staticflickr.com/65535/40927482103_688962e788_o.jpg",
    "id_image": "AttackOnTitan_418724",
    "count_view": 0
  },
  {
    "link_thumb": "https://live.staticflickr.com/65535/47122764844_02fc1020fb_n.jpg",
    "id_album": "-1193819610",
    "description": "City_852050",
    "title": "City_852050",
    "link_img": "https://live.staticflickr.com/65535/47122764844_5e2bb68b3f_o.jpg",
    "id_image": "City_852050",
    "count_view": 0
  },
  {
    "link_thumb": "https://live.staticflickr.com/65535/40945528863_ff411489c5_n.jpg",
    "id_album": "-1193819610",
    "description": "City_889473",
    "title": "City_889473",
    "link_img": "https://live.staticflickr.com/65535/40945528863_8d9e49a5e4_o.jpg",
    "id_image": "City_889473",
    "count_view": 0
  },
  {
    "link_thumb": "https://live.staticflickr.com/65535/47962670136_231f4e3bda_n.jpg",
    "id_album": "-1193819610",
    "description": "DarlingintheFranXX_901309",
    "title": "DarlingintheFranXX_901309",
    "link_img": "https://live.staticflickr.com/65535/47962670136_d21095acc5_o.jpg",
    "id_image": "DarlingintheFranXX_901309",
    "count_view": 0
  },
  {
    "link_thumb": "https://live.staticflickr.com/65535/47962623442_fe6a264f94_n.jpg",
    "id_album": "-1193819610",
    "description": "DarlingintheFranXX_901310",
    "title": "DarlingintheFranXX_901310",
    "link_img": "https://live.staticflickr.com/65535/47962623442_dffefc0f6e_o.jpg",
    "id_image": "DarlingintheFranXX_901310",
    "count_view": 0
  },
  {
    "link_thumb": "https://live.staticflickr.com/65535/47972255636_07928038c1_n.jpg",
    "id_album": "-1193819610",
    "description": "Ef_593218",
    "title": "Ef_593218",
    "link_img": "https://live.staticflickr.com/65535/47972255636_112ec221af_o.jpg",
    "id_image": "Ef_593218",
    "count_view": 0
  },
  {
    "link_thumb": "https://live.staticflickr.com/65535/49919187442_bd88bcb8de_n.jpg",
    "id_album": "-1193819610",
    "description": "FairyTail_748279",
    "title": "FairyTail_748279",
    "link_img": "https://live.staticflickr.com/65535/49919187442_f88ba35bab_o.jpg",
    "id_image": "FairyTail_748279",
    "count_view": 0
  },
  {
    "link_thumb": "https://live.staticflickr.com/65535/47975853358_a91bb0d8be_n.jpg",
    "id_album": "-1193819610",
    "description": "FateGrandOrder_551179",
    "title": "FateGrandOrder_551179",
    "link_img": "https://live.staticflickr.com/65535/47975853358_60fc623cf3_o.jpg",
    "id_image": "FateGrandOrder_551179",
    "count_view": 0
  },
  {
    "link_thumb": "https://live.staticflickr.com/65535/47983891637_1d21e372b2_n.jpg",
    "id_album": "-1193819610",
    "description": "Garden_215492",
    "title": "Garden_215492",
    "link_img": "https://live.staticflickr.com/65535/47983891637_6f1f682a62_o.jpg",
    "id_image": "Garden_215492",
    "count_view": 0
  },
  {
    "link_thumb": "https://live.staticflickr.com/65535/47983960956_a05eeaec1d_n.jpg",
    "id_album": "-1193819610",
    "description": "GATE_610776",
    "title": "GATE_610776",
    "link_img": "https://live.staticflickr.com/65535/47983960956_a7b6fa6d52_o.jpg",
    "id_image": "GATE_610776",
    "count_view": 0
  },
  {
    "link_thumb": "https://live.staticflickr.com/65535/47983915053_478c233784_n.jpg",
    "id_album": "-1193819610",
    "description": "GATE_677418",
    "title": "GATE_677418",
    "link_img": "https://live.staticflickr.com/65535/47983915053_ce5ea90ec1_o.jpg",
    "id_image": "GATE_677418",
    "count_view": 0
  },
  {
    "link_thumb": "https://live.staticflickr.com/65535/47992725088_659fe9a593_n.jpg",
    "id_album": "-1193819610",
    "description": "GranblueFantasy_877952",
    "title": "GranblueFantasy_877952",
    "link_img": "https://live.staticflickr.com/65535/47992725088_5849f7e5b1_o.jpg",
    "id_image": "GranblueFantasy_877952",
    "count_view": 0
  },
  {
    "link_thumb": "https://live.staticflickr.com/65535/47992853121_8b6eee6a6c_n.jpg",
    "id_album": "-1193819610",
    "description": "GrisaiaSeries_171455",
    "title": "GrisaiaSeries_171455",
    "link_img": "https://live.staticflickr.com/65535/47992853121_67032fe041_o.jpg",
    "id_image": "GrisaiaSeries_171455",
    "count_view": 0
  },
  {
    "link_thumb": "https://live.staticflickr.com/65535/47993361841_97b5b60742_n.jpg",
    "id_album": "-1193819610",
    "description": "Haikyu_692505",
    "title": "Haikyu_692505",
    "link_img": "https://live.staticflickr.com/65535/47993361841_844d623111_o.jpg",
    "id_image": "Haikyu_692505",
    "count_view": 0
  },
  {
    "link_thumb": "https://live.staticflickr.com/65535/48048462201_409f7cdbcf_n.jpg",
    "id_album": "-1193819610",
    "description": "Landscape_672344",
    "title": "Landscape_672344",
    "link_img": "https://live.staticflickr.com/65535/48048462201_34c5fa9893_o.jpg",
    "id_image": "Landscape_672344",
    "count_view": 0
  },
  {
    "link_thumb": "https://live.staticflickr.com/65535/48048463521_fd4ab011f1_n.jpg",
    "id_album": "-1193819610",
    "description": "Landscape_854067",
    "title": "Landscape_854067",
    "link_img": "https://live.staticflickr.com/65535/48048463521_bf6efcb42f_o.jpg",
    "id_image": "Landscape_854067",
    "count_view": 0
  },
  {
    "link_thumb": "https://live.staticflickr.com/65535/48048507733_997256bc25_n.jpg",
    "id_album": "-1193819610",
    "description": "Landscape_924861",
    "title": "Landscape_924861",
    "link_img": "https://live.staticflickr.com/65535/48048507733_21f0fe717a_o.jpg",
    "id_image": "Landscape_924861",
    "count_view": 0
  },
  {
    "link_thumb": "https://live.staticflickr.com/65535/48073250886_f59353a11e_n.jpg",
    "id_album": "-1193819610",
    "description": "NoGameNoLife_818376",
    "title": "NoGameNoLife_818376",
    "link_img": "https://live.staticflickr.com/65535/48073250886_bc583e9e89_o.jpg",
    "id_image": "NoGameNoLife_818376",
    "count_view": 0
  },
  {
    "link_thumb": "https://live.staticflickr.com/65535/48073948583_6f70137c7a_n.jpg",
    "id_album": "-1193819610",
    "description": "OnePiece_84631",
    "title": "OnePiece_84631",
    "link_img": "https://live.staticflickr.com/65535/48073948583_dfe17276d6_o.jpg",
    "id_image": "OnePiece_84631",
    "count_view": 0
  },
  {
    "link_thumb": "https://live.staticflickr.com/65535/48074748213_a37965454d_n.jpg",
    "id_album": "-1193819610",
    "description": "Original_185496",
    "title": "Original_185496",
    "link_img": "https://live.staticflickr.com/65535/48074748213_4e046a72ec_o.jpg",
    "id_image": "Original_185496",
    "count_view": 0
  },
  {
    "link_thumb": "https://live.staticflickr.com/65535/48074842446_b8f0d630f9_n.jpg",
    "id_album": "-1193819610",
    "description": "Original_235982",
    "title": "Original_235982",
    "link_img": "https://live.staticflickr.com/65535/48074842446_de6f879110_o.jpg",
    "id_image": "Original_235982",
    "count_view": 0
  },
  {
    "link_thumb": "https://live.staticflickr.com/65535/48075157153_ddeec073b7_n.jpg",
    "id_album": "-1193819610",
    "description": "Original_333580",
    "title": "Original_333580",
    "link_img": "https://live.staticflickr.com/65535/48075157153_d02a45760a_o.jpg",
    "id_image": "Original_333580",
    "count_view": 0
  },
  {
    "link_thumb": "https://live.staticflickr.com/65535/48075275187_c4449c8893_n.jpg",
    "id_album": "-1193819610",
    "description": "Original_423896",
    "title": "Original_423896",
    "link_img": "https://live.staticflickr.com/65535/48075275187_94c2ed2e29_o.jpg",
    "id_image": "Original_423896",
    "count_view": 0
  },
  {
    "link_thumb": "https://live.staticflickr.com/65535/48075221858_d55d11092a_n.jpg",
    "id_album": "-1193819610",
    "description": "Original_452136",
    "title": "Original_452136",
    "link_img": "https://live.staticflickr.com/65535/48075221858_2a9095b3c5_o.jpg",
    "id_image": "Original_452136",
    "count_view": 0
  },
  {
    "link_thumb": "https://live.staticflickr.com/65535/48075207391_96a3a45a29_n.jpg",
    "id_album": "-1193819610",
    "description": "Original_530753",
    "title": "Original_530753",
    "link_img": "https://live.staticflickr.com/65535/48075207391_319d713685_o.jpg",
    "id_image": "Original_530753",
    "count_view": 0
  },
  {
    "link_thumb": "https://live.staticflickr.com/65535/48075258518_eef7a12f37_n.jpg",
    "id_album": "-1193819610",
    "description": "Original_551497",
    "title": "Original_551497",
    "link_img": "https://live.staticflickr.com/65535/48075258518_3bd6404172_o.jpg",
    "id_image": "Original_551497",
    "count_view": 0
  },
  {
    "link_thumb": "https://live.staticflickr.com/65535/48075390022_c842eb625b_n.jpg",
    "id_album": "-1193819610",
    "description": "Original_559191",
    "title": "Original_559191",
    "link_img": "https://live.staticflickr.com/65535/48075390022_b0762538df_o.jpg",
    "id_image": "Original_559191",
    "count_view": 0
  },
  {
    "link_thumb": "https://live.staticflickr.com/65535/48075338813_fd96597b3f_n.jpg",
    "id_album": "-1193819610",
    "description": "Original_571921",
    "title": "Original_571921",
    "link_img": "https://live.staticflickr.com/65535/48075338813_c0a4998d7f_o.jpg",
    "id_image": "Original_571921",
    "count_view": 0
  },
  {
    "link_thumb": "https://live.staticflickr.com/65535/48075471327_761dcc1c50_n.jpg",
    "id_album": "-1193819610",
    "description": "Original_595171",
    "title": "Original_595171",
    "link_img": "https://live.staticflickr.com/65535/48075471327_69dd145b9e_o.jpg",
    "id_image": "Original_595171",
    "count_view": 0
  },
  {
    "link_thumb": "https://live.staticflickr.com/65535/48075471602_c3b2aed570_n.jpg",
    "id_album": "-1193819610",
    "description": "Original_595172",
    "title": "Original_595172",
    "link_img": "https://live.staticflickr.com/65535/48075471602_ee67340c3a_o.jpg",
    "id_image": "Original_595172",
    "count_view": 0
  },
  {
    "link_thumb": "https://live.staticflickr.com/65535/48075366171_bf7b685ed2_n.jpg",
    "id_album": "-1193819610",
    "description": "Original_595243",
    "title": "Original_595243",
    "link_img": "https://live.staticflickr.com/65535/48075366171_4ea946b157_o.jpg",
    "id_image": "Original_595243",
    "count_view": 0
  },
  {
    "link_thumb": "https://live.staticflickr.com/65535/48075407298_6bfe641f52_n.jpg",
    "id_album": "-1193819610",
    "description": "Original_595858",
    "title": "Original_595858",
    "link_img": "https://live.staticflickr.com/65535/48075407298_9c96f2b771_o.jpg",
    "id_image": "Original_595858",
    "count_view": 0
  },
  {
    "link_thumb": "https://live.staticflickr.com/65535/48075368276_e7a528504f_n.jpg",
    "id_album": "-1193819610",
    "description": "Original_595860",
    "title": "Original_595860",
    "link_img": "https://live.staticflickr.com/65535/48075368276_584fa01ba3_o.jpg",
    "id_image": "Original_595860",
    "count_view": 0
  },
  {
    "link_thumb": "https://live.staticflickr.com/65535/48075474447_1956ea9904_n.jpg",
    "id_album": "-1193819610",
    "description": "Original_595861",
    "title": "Original_595861",
    "link_img": "https://live.staticflickr.com/65535/48075474447_17cb771b47_o.jpg",
    "id_image": "Original_595861",
    "count_view": 0
  },
  {
    "link_thumb": "https://live.staticflickr.com/65535/48075368996_4c47ef2b11_n.jpg",
    "id_album": "-1193819610",
    "description": "Original_595862",
    "title": "Original_595862",
    "link_img": "https://live.staticflickr.com/65535/48075368996_45fa8407ec_o.jpg",
    "id_image": "Original_595862",
    "count_view": 0
  },
  {
    "link_thumb": "https://live.staticflickr.com/65535/48075369331_22f948affc_n.jpg",
    "id_album": "-1193819610",
    "description": "Original_595863",
    "title": "Original_595863",
    "link_img": "https://live.staticflickr.com/65535/48075369331_05f6dfc2e9_o.jpg",
    "id_image": "Original_595863",
    "count_view": 0
  },
  {
    "link_thumb": "https://live.staticflickr.com/65535/48075408938_f15014cdec_n.jpg",
    "id_album": "-1193819610",
    "description": "Original_596630",
    "title": "Original_596630",
    "link_img": "https://live.staticflickr.com/65535/48075408938_d1c97f7392_o.jpg",
    "id_image": "Original_596630",
    "count_view": 0
  },
  {
    "link_thumb": "https://live.staticflickr.com/65535/48075476117_7cb9b79ba7_n.jpg",
    "id_album": "-1193819610",
    "description": "Original_597638",
    "title": "Original_597638",
    "link_img": "https://live.staticflickr.com/65535/48075476117_77a83c7247_o.jpg",
    "id_image": "Original_597638",
    "count_view": 0
  },
  {
    "link_thumb": "https://live.staticflickr.com/65535/48075477792_742717be6d_n.jpg",
    "id_album": "-1193819610",
    "description": "Original_598249",
    "title": "Original_598249",
    "link_img": "https://live.staticflickr.com/65535/48075477792_841a6c21f6_o.jpg",
    "id_image": "Original_598249",
    "count_view": 0
  },
  {
    "link_thumb": "https://live.staticflickr.com/65535/48075478427_aa5b061fce_n.jpg",
    "id_album": "-1193819610",
    "description": "Original_599378",
    "title": "Original_599378",
    "link_img": "https://live.staticflickr.com/65535/48075478427_59ab83a850_o.jpg",
    "id_image": "Original_599378",
    "count_view": 0
  },
  {
    "link_thumb": "https://live.staticflickr.com/65535/48075382136_a3f76e2a71_n.jpg",
    "id_album": "-1193819610",
    "description": "Original_605351",
    "title": "Original_605351",
    "link_img": "https://live.staticflickr.com/65535/48075382136_72e939c259_o.jpg",
    "id_image": "Original_605351",
    "count_view": 0
  },
  {
    "link_thumb": "https://live.staticflickr.com/65535/48075488002_a2ff1acf9e_n.jpg",
    "id_album": "-1193819610",
    "description": "Original_605352",
    "title": "Original_605352",
    "link_img": "https://live.staticflickr.com/65535/48075488002_903b66ed98_o.jpg",
    "id_image": "Original_605352",
    "count_view": 0
  },
  {
    "link_thumb": "https://live.staticflickr.com/65535/48075382956_9b7f7a1615_n.jpg",
    "id_album": "-1193819610",
    "description": "Original_605355",
    "title": "Original_605355",
    "link_img": "https://live.staticflickr.com/65535/48075382956_c759ab7cf1_o.jpg",
    "id_image": "Original_605355",
    "count_view": 0
  },
  {
    "link_thumb": "https://live.staticflickr.com/65535/48075423618_e4e017f980_n.jpg",
    "id_album": "-1193819610",
    "description": "Original_606209",
    "title": "Original_606209",
    "link_img": "https://live.staticflickr.com/65535/48075423618_42c5a3c216_o.jpg",
    "id_image": "Original_606209",
    "count_view": 0
  },
  {
    "link_thumb": "https://live.staticflickr.com/65535/48075424828_e9a83d0125_n.jpg",
    "id_album": "-1193819610",
    "description": "Original_606670",
    "title": "Original_606670",
    "link_img": "https://live.staticflickr.com/65535/48075424828_f5d6b590f1_o.jpg",
    "id_image": "Original_606670",
    "count_view": 0
  },
  {
    "link_thumb": "https://live.staticflickr.com/65535/48075391116_41920a1d43_n.jpg",
    "id_album": "-1193819610",
    "description": "Original_612527",
    "title": "Original_612527",
    "link_img": "https://live.staticflickr.com/65535/48075391116_35016edc3e_o.jpg",
    "id_image": "Original_612527",
    "count_view": 0
  },
  {
    "link_thumb": "https://live.staticflickr.com/65535/48075497577_5cd34f4828_n.jpg",
    "id_album": "-1193819610",
    "description": "Original_612529",
    "title": "Original_612529",
    "link_img": "https://live.staticflickr.com/65535/48075497577_a45296eda8_o.jpg",
    "id_image": "Original_612529",
    "count_view": 0
  },
  {
    "link_thumb": "https://live.staticflickr.com/65535/48075497867_f6f1c105c4_n.jpg",
    "id_album": "-1193819610",
    "description": "Original_612530",
    "title": "Original_612530",
    "link_img": "https://live.staticflickr.com/65535/48075497867_c5e4a8d7fc_o.jpg",
    "id_image": "Original_612530",
    "count_view": 0
  },
  {
    "link_thumb": "https://live.staticflickr.com/65535/48075392316_b167bf5f35_n.jpg",
    "id_album": "-1193819610",
    "description": "Original_612534",
    "title": "Original_612534",
    "link_img": "https://live.staticflickr.com/65535/48075392316_b6af461378_o.jpg",
    "id_image": "Original_612534",
    "count_view": 0
  },
  {
    "link_thumb": "https://live.staticflickr.com/65535/48075432563_b1415b37f1_n.jpg",
    "id_album": "-1193819610",
    "description": "Original_612537",
    "title": "Original_612537",
    "link_img": "https://live.staticflickr.com/65535/48075432563_8d2669a1fd_o.jpg",
    "id_image": "Original_612537",
    "count_view": 0
  },
  {
    "link_thumb": "https://live.staticflickr.com/65535/48075395271_35179f2141_n.jpg",
    "id_album": "-1193819610",
    "description": "Original_612543",
    "title": "Original_612543",
    "link_img": "https://live.staticflickr.com/65535/48075395271_9f6e2364fd_o.jpg",
    "id_image": "Original_612543",
    "count_view": 0
  },
  {
    "link_thumb": "https://live.staticflickr.com/65535/48075435248_1f20fa47c9_n.jpg",
    "id_album": "-1193819610",
    "description": "Original_612548",
    "title": "Original_612548",
    "link_img": "https://live.staticflickr.com/65535/48075435248_d1b3827633_o.jpg",
    "id_image": "Original_612548",
    "count_view": 0
  },
  {
    "link_thumb": "https://live.staticflickr.com/65535/48075396931_36c4d3b736_n.jpg",
    "id_album": "-1193819610",
    "description": "Original_612573",
    "title": "Original_612573",
    "link_img": "https://live.staticflickr.com/65535/48075396931_ec3c170abb_o.jpg",
    "id_image": "Original_612573",
    "count_view": 0
  },
  {
    "link_thumb": "https://live.staticflickr.com/65535/48075503997_b5f9074797_n.jpg",
    "id_album": "-1193819610",
    "description": "Original_612586",
    "title": "Original_612586",
    "link_img": "https://live.staticflickr.com/65535/48075503997_8385b07715_o.jpg",
    "id_image": "Original_612586",
    "count_view": 0
  },
  {
    "link_thumb": "https://live.staticflickr.com/65535/48075436973_1d41c35d3e_n.jpg",
    "id_album": "-1193819610",
    "description": "Original_612589",
    "title": "Original_612589",
    "link_img": "https://live.staticflickr.com/65535/48075436973_2a574f3792_o.jpg",
    "id_image": "Original_612589",
    "count_view": 0
  },
  {
    "link_thumb": "https://live.staticflickr.com/65535/48075486601_3b00f3ee5a_n.jpg",
    "id_album": "-1193819610",
    "description": "Original_677959",
    "title": "Original_677959",
    "link_img": "https://live.staticflickr.com/65535/48075486601_51159485b7_o.jpg",
    "id_image": "Original_677959",
    "count_view": 0
  },
  {
    "link_thumb": "https://live.staticflickr.com/65535/48075529503_9fbe9368c9_n.jpg",
    "id_album": "-1193819610",
    "description": "Original_678861",
    "title": "Original_678861",
    "link_img": "https://live.staticflickr.com/65535/48075529503_3ac8f24489_o.jpg",
    "id_image": "Original_678861",
    "count_view": 0
  },
  {
    "link_thumb": "https://live.staticflickr.com/65535/48075597907_e89507b420_n.jpg",
    "id_album": "-1193819610",
    "description": "Original_679010",
    "title": "Original_679010",
    "link_img": "https://live.staticflickr.com/65535/48075597907_070922944e_o.jpg",
    "id_image": "Original_679010",
    "count_view": 0
  },
  {
    "link_thumb": "https://live.staticflickr.com/65535/48075513006_52c1e8571a_n.jpg",
    "id_album": "-1193819610",
    "description": "Original_682378",
    "title": "Original_682378",
    "link_img": "https://live.staticflickr.com/65535/48075513006_6eeb3ec7e6_o.jpg",
    "id_image": "Original_682378",
    "count_view": 0
  },
  {
    "link_thumb": "https://live.staticflickr.com/65535/48075573153_8584776d48_n.jpg",
    "id_album": "-1193819610",
    "description": "Original_684744",
    "title": "Original_684744",
    "link_img": "https://live.staticflickr.com/65535/48075573153_be0b68eca5_o.jpg",
    "id_image": "Original_684744",
    "count_view": 0
  },
  {
    "link_thumb": "https://live.staticflickr.com/65535/48075535176_a48b3591f5_n.jpg",
    "id_album": "-1193819610",
    "description": "Original_685117",
    "title": "Original_685117",
    "link_img": "https://live.staticflickr.com/65535/48075535176_43f9a6e645_o.jpg",
    "id_image": "Original_685117",
    "count_view": 0
  },
  {
    "link_thumb": "https://live.staticflickr.com/65535/48075645622_46a3467c4e_n.jpg",
    "id_album": "-1193819610",
    "description": "Original_686665",
    "title": "Original_686665",
    "link_img": "https://live.staticflickr.com/65535/48075645622_30ee3f6b0c_o.jpg",
    "id_image": "Original_686665",
    "count_view": 0
  },
  {
    "link_thumb": "https://live.staticflickr.com/65535/48075668377_6ff6961e8e_n.jpg",
    "id_album": "-1193819610",
    "description": "Original_690897",
    "title": "Original_690897",
    "link_img": "https://live.staticflickr.com/65535/48075668377_d3f5ddbc28_o.jpg",
    "id_image": "Original_690897",
    "count_view": 0
  },
  {
    "link_thumb": "https://live.staticflickr.com/65535/48075680122_d649526113_n.jpg",
    "id_album": "-1193819610",
    "description": "Original_691961",
    "title": "Original_691961",
    "link_img": "https://live.staticflickr.com/65535/48075680122_d1ca05aa48_o.jpg",
    "id_image": "Original_691961",
    "count_view": 0
  },
  {
    "link_thumb": "https://live.staticflickr.com/65535/48075704722_534edd4e98_n.jpg",
    "id_album": "-1193819610",
    "description": "Original_693494",
    "title": "Original_693494",
    "link_img": "https://live.staticflickr.com/65535/48075704722_241361eb04_o.jpg",
    "id_image": "Original_693494",
    "count_view": 0
  },
  {
    "link_thumb": "https://live.staticflickr.com/65535/48075730002_e6e378abf7_n.jpg",
    "id_album": "-1193819610",
    "description": "Original_696861",
    "title": "Original_696861",
    "link_img": "https://live.staticflickr.com/65535/48075730002_15997bf296_o.jpg",
    "id_image": "Original_696861",
    "count_view": 0
  },
  {
    "link_thumb": "https://live.staticflickr.com/65535/48075673183_00754306c6_n.jpg",
    "id_album": "-1193819610",
    "description": "Original_698038",
    "title": "Original_698038",
    "link_img": "https://live.staticflickr.com/65535/48075673183_1c3d14e861_o.jpg",
    "id_image": "Original_698038",
    "count_view": 0
  },
  {
    "link_thumb": "https://live.staticflickr.com/65535/48075676263_73664caab8_n.jpg",
    "id_album": "-1193819610",
    "description": "Original_698142",
    "title": "Original_698142",
    "link_img": "https://live.staticflickr.com/65535/48075676263_efec5ab39d_o.jpg",
    "id_image": "Original_698142",
    "count_view": 0
  },
  {
    "link_thumb": "https://live.staticflickr.com/65535/48075646506_1f22934271_n.jpg",
    "id_album": "-1193819610",
    "description": "Original_699951",
    "title": "Original_699951",
    "link_img": "https://live.staticflickr.com/65535/48075646506_a3a76f89aa_o.jpg",
    "id_image": "Original_699951",
    "count_view": 0
  },
  {
    "link_thumb": "https://live.staticflickr.com/65535/48075659886_600ed202a7_n.jpg",
    "id_album": "-1193819610",
    "description": "Original_702420",
    "title": "Original_702420",
    "link_img": "https://live.staticflickr.com/65535/48075659886_608302e6cc_o.jpg",
    "id_image": "Original_702420",
    "count_view": 0
  },
  {
    "link_thumb": "https://live.staticflickr.com/65535/48075660101_cc3ee0f3f2_n.jpg",
    "id_album": "-1193819610",
    "description": "Original_702421",
    "title": "Original_702421",
    "link_img": "https://live.staticflickr.com/65535/48075660101_0d998ab0fd_o.jpg",
    "id_image": "Original_702421",
    "count_view": 0
  },
  {
    "link_thumb": "https://live.staticflickr.com/65535/48075660681_969aa37a33_n.jpg",
    "id_album": "-1193819610",
    "description": "Original_702497",
    "title": "Original_702497",
    "link_img": "https://live.staticflickr.com/65535/48075660681_1970b6f11a_o.jpg",
    "id_image": "Original_702497",
    "count_view": 0
  },
  {
    "link_thumb": "https://live.staticflickr.com/65535/48075661851_1319bfa9a1_n.jpg",
    "id_album": "-1193819610",
    "description": "Original_702502",
    "title": "Original_702502",
    "link_img": "https://live.staticflickr.com/65535/48075661851_7749c8d622_o.jpg",
    "id_image": "Original_702502",
    "count_view": 0
  },
  {
    "link_thumb": "https://live.staticflickr.com/65535/48075823837_804fe7969a_n.jpg",
    "id_album": "-1193819610",
    "description": "Original_710992",
    "title": "Original_710992",
    "link_img": "https://live.staticflickr.com/65535/48075823837_ff8b68bc0c_o.jpg",
    "id_image": "Original_710992",
    "count_view": 0
  },
  {
    "link_thumb": "https://live.staticflickr.com/65535/48075722411_7562a51497_n.jpg",
    "id_album": "-1193819610",
    "description": "Original_711533",
    "title": "Original_711533",
    "link_img": "https://live.staticflickr.com/65535/48075722411_b9ebf6db8e_o.jpg",
    "id_image": "Original_711533",
    "count_view": 0
  },
  {
    "link_thumb": "https://live.staticflickr.com/65535/48075765183_52dc48b304_n.jpg",
    "id_album": "-1193819610",
    "description": "Original_712030",
    "title": "Original_712030",
    "link_img": "https://live.staticflickr.com/65535/48075765183_4fc68353b7_o.jpg",
    "id_image": "Original_712030",
    "count_view": 0
  },
  {
    "link_thumb": "https://live.staticflickr.com/65535/48075730251_17b1dcfe61_n.jpg",
    "id_album": "-1193819610",
    "description": "Original_712283",
    "title": "Original_712283",
    "link_img": "https://live.staticflickr.com/65535/48075730251_b7d01c1fe0_o.jpg",
    "id_image": "Original_712283",
    "count_view": 0
  },
  {
    "link_thumb": "https://live.staticflickr.com/65535/48075819023_b13ab3df8a_n.jpg",
    "id_album": "-1193819610",
    "description": "Original_715400",
    "title": "Original_715400",
    "link_img": "https://live.staticflickr.com/65535/48075819023_617a76f296_o.jpg",
    "id_image": "Original_715400",
    "count_view": 0
  },
  {
    "link_thumb": "https://live.staticflickr.com/65535/48075891237_da5fb7382d_n.jpg",
    "id_album": "-1193819610",
    "description": "Original_715843",
    "title": "Original_715843",
    "link_img": "https://live.staticflickr.com/65535/48075891237_f42e04831a_o.jpg",
    "id_image": "Original_715843",
    "count_view": 0
  },
  {
    "link_thumb": "https://live.staticflickr.com/65535/48075915192_6c525998b4_n.jpg",
    "id_album": "-1193819610",
    "description": "Original_718959",
    "title": "Original_718959",
    "link_img": "https://live.staticflickr.com/65535/48075915192_8e69eff7ae_o.jpg",
    "id_image": "Original_718959",
    "count_view": 0
  },
  {
    "link_thumb": "https://live.staticflickr.com/65535/48075930422_8af138912a_n.jpg",
    "id_album": "-1193819610",
    "description": "Original_720888",
    "title": "Original_720888",
    "link_img": "https://live.staticflickr.com/65535/48075930422_a882bd2545_o.jpg",
    "id_image": "Original_720888",
    "count_view": 0
  },
  {
    "link_thumb": "https://live.staticflickr.com/65535/48075949862_3280e1d051_n.jpg",
    "id_album": "-1193819610",
    "description": "Original_724356",
    "title": "Original_724356",
    "link_img": "https://live.staticflickr.com/65535/48075949862_8c2dfc2538_o.jpg",
    "id_image": "Original_724356",
    "count_view": 0
  },
  {
    "link_thumb": "https://live.staticflickr.com/65535/48075891251_6812b7f0d3_n.jpg",
    "id_album": "-1193819610",
    "description": "Original_728706",
    "title": "Original_728706",
    "link_img": "https://live.staticflickr.com/65535/48075891251_e4bb49e259_o.jpg",
    "id_image": "Original_728706",
    "count_view": 0
  },
  {
    "link_thumb": "https://live.staticflickr.com/65535/48076051786_e5bf5acd1c_n.jpg",
    "id_album": "-1193819610",
    "description": "Original_741391",
    "title": "Original_741391",
    "link_img": "https://live.staticflickr.com/65535/48076051786_3d657e15ce_o.jpg",
    "id_image": "Original_741391",
    "count_view": 0
  },
  {
    "link_thumb": "https://live.staticflickr.com/65535/48076744102_98b52fb44d_n.jpg",
    "id_album": "-1193819610",
    "description": "Original_766053",
    "title": "Original_766053",
    "link_img": "https://live.staticflickr.com/65535/48076744102_7c9c435958_o.jpg",
    "id_image": "Original_766053",
    "count_view": 0
  },
  {
    "link_thumb": "https://live.staticflickr.com/65535/48077028587_34098c59da_n.jpg",
    "id_album": "-1193819610",
    "description": "Original_767456",
    "title": "Original_767456",
    "link_img": "https://live.staticflickr.com/65535/48077028587_79f7fa33c7_o.jpg",
    "id_image": "Original_767456",
    "count_view": 0
  },
  {
    "link_thumb": "https://live.staticflickr.com/65535/48077146963_71752d2a5f_n.jpg",
    "id_album": "-1193819610",
    "description": "Original_778937",
    "title": "Original_778937",
    "link_img": "https://live.staticflickr.com/65535/48077146963_e312520532_o.jpg",
    "id_image": "Original_778937",
    "count_view": 0
  },
  {
    "link_thumb": "https://live.staticflickr.com/65535/48077216616_0db2786188_n.jpg",
    "id_album": "-1193819610",
    "description": "Original_783290",
    "title": "Original_783290",
    "link_img": "https://live.staticflickr.com/65535/48077216616_15e10a5f33_o.jpg",
    "id_image": "Original_783290",
    "count_view": 0
  },
  {
    "link_thumb": "https://live.staticflickr.com/65535/48077330528_a9e9f73376_n.jpg",
    "id_album": "-1193819610",
    "description": "Original_787007",
    "title": "Original_787007",
    "link_img": "https://live.staticflickr.com/65535/48077330528_265f1b5b93_o.jpg",
    "id_image": "Original_787007",
    "count_view": 0
  },
  {
    "link_thumb": "https://live.staticflickr.com/65535/48077429797_4cf5373d00_n.jpg",
    "id_album": "-1193819610",
    "description": "Original_788584",
    "title": "Original_788584",
    "link_img": "https://live.staticflickr.com/65535/48077429797_1c0de889bd_o.jpg",
    "id_image": "Original_788584",
    "count_view": 0
  },
  {
    "link_thumb": "https://live.staticflickr.com/65535/48077496162_49e12d70b2_n.jpg",
    "id_album": "-1193819610",
    "description": "Original_792171",
    "title": "Original_792171",
    "link_img": "https://live.staticflickr.com/65535/48077496162_4defd9a687_o.jpg",
    "id_image": "Original_792171",
    "count_view": 0
  },
  {
    "link_thumb": "https://live.staticflickr.com/65535/48077403041_f972ab9490_n.jpg",
    "id_album": "-1193819610",
    "description": "Original_792732",
    "title": "Original_792732",
    "link_img": "https://live.staticflickr.com/65535/48077403041_c5a76af32a_o.jpg",
    "id_image": "Original_792732",
    "count_view": 0
  },
  {
    "link_thumb": "https://live.staticflickr.com/65535/48077405581_1e104c3de7_n.jpg",
    "id_album": "-1193819610",
    "description": "Original_792975",
    "title": "Original_792975",
    "link_img": "https://live.staticflickr.com/65535/48077405581_0856204ffd_o.jpg",
    "id_image": "Original_792975",
    "count_view": 0
  },
  {
    "link_thumb": "https://live.staticflickr.com/65535/48077405926_e07d5450e1_n.jpg",
    "id_album": "-1193819610",
    "description": "Original_792976",
    "title": "Original_792976",
    "link_img": "https://live.staticflickr.com/65535/48077405926_e7fabfabd6_o.jpg",
    "id_image": "Original_792976",
    "count_view": 0
  },
  {
    "link_thumb": "https://live.staticflickr.com/65535/48077406896_ce1f45f54a_n.jpg",
    "id_album": "-1193819610",
    "description": "Original_792981",
    "title": "Original_792981",
    "link_img": "https://live.staticflickr.com/65535/48077406896_1ace6f55e4_o.jpg",
    "id_image": "Original_792981",
    "count_view": 0
  },
  {
    "link_thumb": "https://live.staticflickr.com/65535/48077509727_10d693649f_n.jpg",
    "id_album": "-1193819610",
    "description": "Original_792983",
    "title": "Original_792983",
    "link_img": "https://live.staticflickr.com/65535/48077509727_0fe4a20c9d_o.jpg",
    "id_image": "Original_792983",
    "count_view": 0
  },
  {
    "link_thumb": "https://live.staticflickr.com/65535/48077558437_e40b8ced7c_n.jpg",
    "id_album": "-1193819610",
    "description": "Original_798454",
    "title": "Original_798454",
    "link_img": "https://live.staticflickr.com/65535/48077558437_67a6af79ba_o.jpg",
    "id_image": "Original_798454",
    "count_view": 0
  },
  {
    "link_thumb": "https://live.staticflickr.com/65535/48077689168_f75c50ece1_n.jpg",
    "id_album": "-1193819610",
    "description": "Original_817507",
    "title": "Original_817507",
    "link_img": "https://live.staticflickr.com/65535/48077689168_bdbaeff37e_o.jpg",
    "id_image": "Original_817507",
    "count_view": 0
  },
  {
    "link_thumb": "https://live.staticflickr.com/65535/48077748838_c72495c763_n.jpg",
    "id_album": "-1193819610",
    "description": "Original_825213",
    "title": "Original_825213",
    "link_img": "https://live.staticflickr.com/65535/48077748838_8b23752dcf_o.jpg",
    "id_image": "Original_825213",
    "count_view": 0
  },
  {
    "link_thumb": "https://live.staticflickr.com/65535/48077721631_ea5d2b85ed_n.jpg",
    "id_album": "-1193819610",
    "description": "Original_826397",
    "title": "Original_826397",
    "link_img": "https://live.staticflickr.com/65535/48077721631_96867cafed_o.jpg",
    "id_image": "Original_826397",
    "count_view": 0
  },
  {
    "link_thumb": "https://live.staticflickr.com/65535/48077786733_b3d230160a_n.jpg",
    "id_album": "-1193819610",
    "description": "Original_831872",
    "title": "Original_831872",
    "link_img": "https://live.staticflickr.com/65535/48077786733_46750fb491_o.jpg",
    "id_image": "Original_831872",
    "count_view": 0
  },
  {
    "link_thumb": "https://live.staticflickr.com/65535/48077790893_8c4b890ddd_n.jpg",
    "id_album": "-1193819610",
    "description": "Original_833680",
    "title": "Original_833680",
    "link_img": "https://live.staticflickr.com/65535/48077790893_e9d8e91741_o.jpg",
    "id_image": "Original_833680",
    "count_view": 0
  },
  {
    "link_thumb": "https://live.staticflickr.com/65535/48077786966_dfa8c39008_n.jpg",
    "id_album": "-1193819610",
    "description": "Original_836972",
    "title": "Original_836972",
    "link_img": "https://live.staticflickr.com/65535/48077786966_387eda0fed_o.jpg",
    "id_image": "Original_836972",
    "count_view": 0
  },
  {
    "link_thumb": "https://live.staticflickr.com/65535/48078108207_9f1d5e51a3_n.jpg",
    "id_album": "-1193819610",
    "description": "Original_845689",
    "title": "Original_845689",
    "link_img": "https://live.staticflickr.com/65535/48078108207_fb7bc26e59_o.jpg",
    "id_image": "Original_845689",
    "count_view": 0
  },
  {
    "link_thumb": "https://live.staticflickr.com/65535/48078154042_608b53e9d0_n.jpg",
    "id_album": "-1193819610",
    "description": "Original_846622",
    "title": "Original_846622",
    "link_img": "https://live.staticflickr.com/65535/48078154042_597fa9e2e2_o.jpg",
    "id_image": "Original_846622",
    "count_view": 0
  },
  {
    "link_thumb": "https://live.staticflickr.com/65535/48078163412_1fd9159326_n.jpg",
    "id_album": "-1193819610",
    "description": "Original_846896",
    "title": "Original_846896",
    "link_img": "https://live.staticflickr.com/65535/48078163412_87f496e663_o.jpg",
    "id_image": "Original_846896",
    "count_view": 0
  },
  {
    "link_thumb": "https://live.staticflickr.com/65535/48078300808_d85afe0572_n.jpg",
    "id_album": "-1193819610",
    "description": "Original_851943",
    "title": "Original_851943",
    "link_img": "https://live.staticflickr.com/65535/48078300808_2df0b142a0_o.jpg",
    "id_image": "Original_851943",
    "count_view": 0
  },
  {
    "link_thumb": "https://live.staticflickr.com/65535/48078303428_760ebef472_n.jpg",
    "id_album": "-1193819610",
    "description": "Original_851947",
    "title": "Original_851947",
    "link_img": "https://live.staticflickr.com/65535/48078303428_d6799daeac_o.jpg",
    "id_image": "Original_851947",
    "count_view": 0
  },
  {
    "link_thumb": "https://live.staticflickr.com/65535/48078317478_0de56012f9_n.jpg",
    "id_album": "-1193819610",
    "description": "Original_852040",
    "title": "Original_852040",
    "link_img": "https://live.staticflickr.com/65535/48078317478_bbde740b44_o.jpg",
    "id_image": "Original_852040",
    "count_view": 0
  },
  {
    "link_thumb": "https://live.staticflickr.com/65535/48078285771_2b1d839e30_n.jpg",
    "id_album": "-1193819610",
    "description": "Original_852043",
    "title": "Original_852043",
    "link_img": "https://live.staticflickr.com/65535/48078285771_c46b2a7fe2_o.jpg",
    "id_image": "Original_852043",
    "count_view": 0
  },
  {
    "link_thumb": "https://live.staticflickr.com/65535/48078402527_17fd1ea552_n.jpg",
    "id_album": "-1193819610",
    "description": "Original_852229",
    "title": "Original_852229",
    "link_img": "https://live.staticflickr.com/65535/48078402527_1d61afef4f_o.jpg",
    "id_image": "Original_852229",
    "count_view": 0
  },
  {
    "link_thumb": "https://live.staticflickr.com/65535/48078328851_3c42978384_n.jpg",
    "id_album": "-1193819610",
    "description": "Original_852566",
    "title": "Original_852566",
    "link_img": "https://live.staticflickr.com/65535/48078328851_7cb11d3cc1_o.jpg",
    "id_image": "Original_852566",
    "count_view": 0
  },
  {
    "link_thumb": "https://live.staticflickr.com/65535/48078364778_68bb43be54_n.jpg",
    "id_album": "-1193819610",
    "description": "Original_852671",
    "title": "Original_852671",
    "link_img": "https://live.staticflickr.com/65535/48078364778_6fe1a0de13_o.jpg",
    "id_image": "Original_852671",
    "count_view": 0
  },
  {
    "link_thumb": "https://live.staticflickr.com/65535/48078331926_d371458f85_n.jpg",
    "id_album": "-1193819610",
    "description": "Original_852672",
    "title": "Original_852672",
    "link_img": "https://live.staticflickr.com/65535/48078331926_d3bb373aac_o.jpg",
    "id_image": "Original_852672",
    "count_view": 0
  },
  {
    "link_thumb": "https://live.staticflickr.com/65535/48078434732_7a40039509_n.jpg",
    "id_album": "-1193819610",
    "description": "Original_852686",
    "title": "Original_852686",
    "link_img": "https://live.staticflickr.com/65535/48078434732_edd5a6b288_o.jpg",
    "id_image": "Original_852686",
    "count_view": 0
  },
  {
    "link_thumb": "https://live.staticflickr.com/65535/48078369763_4132b3b866_n.jpg",
    "id_album": "-1193819610",
    "description": "Original_852897",
    "title": "Original_852897",
    "link_img": "https://live.staticflickr.com/65535/48078369763_f4ecd2cb47_o.jpg",
    "id_image": "Original_852897",
    "count_view": 0
  },
  {
    "link_thumb": "https://live.staticflickr.com/65535/48078344356_5e30e44c46_n.jpg",
    "id_album": "-1193819610",
    "description": "Original_853216",
    "title": "Original_853216",
    "link_img": "https://live.staticflickr.com/65535/48078344356_6b1f66c504_o.jpg",
    "id_image": "Original_853216",
    "count_view": 0
  },
  {
    "link_thumb": "https://live.staticflickr.com/65535/48078384123_48188148af_n.jpg",
    "id_album": "-1193819610",
    "description": "Original_853620",
    "title": "Original_853620",
    "link_img": "https://live.staticflickr.com/65535/48078384123_b97e3bb5d7_o.jpg",
    "id_image": "Original_853620",
    "count_view": 0
  },
  {
    "link_thumb": "https://live.staticflickr.com/65535/48078384493_36fa46e50f_n.jpg",
    "id_album": "-1193819610",
    "description": "Original_853627",
    "title": "Original_853627",
    "link_img": "https://live.staticflickr.com/65535/48078384493_7225d6837c_o.jpg",
    "id_image": "Original_853627",
    "count_view": 0
  },
  {
    "link_thumb": "https://live.staticflickr.com/65535/48078452057_e2ee445e16_n.jpg",
    "id_album": "-1193819610",
    "description": "Original_853629",
    "title": "Original_853629",
    "link_img": "https://live.staticflickr.com/65535/48078452057_46bbbb57f8_o.jpg",
    "id_image": "Original_853629",
    "count_view": 0
  },
  {
    "link_thumb": "https://live.staticflickr.com/65535/48078385483_cbfce66f60_n.jpg",
    "id_album": "-1193819610",
    "description": "Original_853631",
    "title": "Original_853631",
    "link_img": "https://live.staticflickr.com/65535/48078385483_5c9109d976_o.jpg",
    "id_image": "Original_853631",
    "count_view": 0
  },
  {
    "link_thumb": "https://live.staticflickr.com/65535/48078387578_8154183788_n.jpg",
    "id_album": "-1193819610",
    "description": "Original_853774",
    "title": "Original_853774",
    "link_img": "https://live.staticflickr.com/65535/48078387578_70ca34b3c9_o.jpg",
    "id_image": "Original_853774",
    "count_view": 0
  },
  {
    "link_thumb": "https://live.staticflickr.com/65535/48078387783_d76c7df66d_n.jpg",
    "id_album": "-1193819610",
    "description": "Original_853775",
    "title": "Original_853775",
    "link_img": "https://live.staticflickr.com/65535/48078387783_8661918540_o.jpg",
    "id_image": "Original_853775",
    "count_view": 0
  },
  {
    "link_thumb": "https://live.staticflickr.com/65535/48078401433_756309b8fa_n.jpg",
    "id_album": "-1193819610",
    "description": "Original_854016",
    "title": "Original_854016",
    "link_img": "https://live.staticflickr.com/65535/48078401433_ed6b85c85c_o.jpg",
    "id_image": "Original_854016",
    "count_view": 0
  },
  {
    "link_thumb": "https://live.staticflickr.com/65535/48078375306_40d43c4380_n.jpg",
    "id_album": "-1193819610",
    "description": "Original_854070",
    "title": "Original_854070",
    "link_img": "https://live.staticflickr.com/65535/48078375306_2fd66d5afb_o.jpg",
    "id_image": "Original_854070",
    "count_view": 0
  },
  {
    "link_thumb": "https://live.staticflickr.com/65535/48078400991_ace1a62970_n.jpg",
    "id_album": "-1193819610",
    "description": "Original_855530",
    "title": "Original_855530",
    "link_img": "https://live.staticflickr.com/65535/48078400991_52aaf2488d_o.jpg",
    "id_image": "Original_855530",
    "count_view": 0
  },
  {
    "link_thumb": "https://live.staticflickr.com/65535/48078445663_69dbbcdf27_n.jpg",
    "id_album": "-1193819610",
    "description": "Original_856413",
    "title": "Original_856413",
    "link_img": "https://live.staticflickr.com/65535/48078445663_cb76fa7e1f_o.jpg",
    "id_image": "Original_856413",
    "count_view": 0
  },
  {
    "link_thumb": "https://live.staticflickr.com/65535/48079261527_43deb700eb_n.jpg",
    "id_album": "-1193819610",
    "description": "Original_857950",
    "title": "Original_857950",
    "link_img": "https://live.staticflickr.com/65535/48079261527_bb388e3bd6_o.jpg",
    "id_image": "Original_857950",
    "count_view": 0
  },
  {
    "link_thumb": "https://live.staticflickr.com/65535/48079266717_fb7f20aacb_n.jpg",
    "id_album": "-1193819610",
    "description": "Original_858117",
    "title": "Original_858117",
    "link_img": "https://live.staticflickr.com/65535/48079266717_edec80f835_o.jpg",
    "id_image": "Original_858117",
    "count_view": 0
  },
  {
    "link_thumb": "https://live.staticflickr.com/65535/48079270102_b594389e27_n.jpg",
    "id_album": "-1193819610",
    "description": "Original_858182",
    "title": "Original_858182",
    "link_img": "https://live.staticflickr.com/65535/48079270102_48d59d412b_o.jpg",
    "id_image": "Original_858182",
    "count_view": 0
  },
  {
    "link_thumb": "https://live.staticflickr.com/65535/48079172181_20a2727f0d_n.jpg",
    "id_album": "-1193819610",
    "description": "Original_858291",
    "title": "Original_858291",
    "link_img": "https://live.staticflickr.com/65535/48079172181_a8e7fe2b91_o.jpg",
    "id_image": "Original_858291",
    "count_view": 0
  },
  {
    "link_thumb": "https://live.staticflickr.com/65535/48079280852_b82fe77857_n.jpg",
    "id_album": "-1193819610",
    "description": "Original_858525",
    "title": "Original_858525",
    "link_img": "https://live.staticflickr.com/65535/48079280852_a24e441e36_o.jpg",
    "id_image": "Original_858525",
    "count_view": 0
  },
  {
    "link_thumb": "https://live.staticflickr.com/65535/48079227118_602c721e75_n.jpg",
    "id_album": "-1193819610",
    "description": "Original_859667",
    "title": "Original_859667",
    "link_img": "https://live.staticflickr.com/65535/48079227118_a7487bd132_o.jpg",
    "id_image": "Original_859667",
    "count_view": 0
  },
  {
    "link_thumb": "https://live.staticflickr.com/65535/48079299607_71039f3dd8_n.jpg",
    "id_album": "-1193819610",
    "description": "Original_859801",
    "title": "Original_859801",
    "link_img": "https://live.staticflickr.com/65535/48079299607_6c96e672db_o.jpg",
    "id_image": "Original_859801",
    "count_view": 0
  },
  {
    "link_thumb": "https://live.staticflickr.com/65535/48079317012_d1c96b9e75_n.jpg",
    "id_album": "-1193819610",
    "description": "Original_861441",
    "title": "Original_861441",
    "link_img": "https://live.staticflickr.com/65535/48079317012_9d0f62efcd_o.jpg",
    "id_image": "Original_861441",
    "count_view": 0
  },
  {
    "link_thumb": "https://live.staticflickr.com/65535/48079222506_3a7ea904ba_n.jpg",
    "id_album": "-1193819610",
    "description": "Original_862894",
    "title": "Original_862894",
    "link_img": "https://live.staticflickr.com/65535/48079222506_43c568a58c_o.jpg",
    "id_image": "Original_862894",
    "count_view": 0
  },
  {
    "link_thumb": "https://live.staticflickr.com/65535/48079257833_8b5d64ba8d_n.jpg",
    "id_album": "-1193819610",
    "description": "Original_862984",
    "title": "Original_862984",
    "link_img": "https://live.staticflickr.com/65535/48079257833_5998bcb0f6_o.jpg",
    "id_image": "Original_862984",
    "count_view": 0
  },
  {
    "link_thumb": "https://live.staticflickr.com/65535/48079279228_d14ca09d3f_n.jpg",
    "id_album": "-1193819610",
    "description": "Original_863931",
    "title": "Original_863931",
    "link_img": "https://live.staticflickr.com/65535/48079279228_d9a84a60f4_o.jpg",
    "id_image": "Original_863931",
    "count_view": 0
  },
  {
    "link_thumb": "https://live.staticflickr.com/65535/48079270741_963710f30e_n.jpg",
    "id_album": "-1193819610",
    "description": "Original_864443",
    "title": "Original_864443",
    "link_img": "https://live.staticflickr.com/65535/48079270741_10a3c84bde_o.jpg",
    "id_image": "Original_864443",
    "count_view": 0
  },
  {
    "link_thumb": "https://live.staticflickr.com/65535/48079376252_cc67189d25_n.jpg",
    "id_album": "-1193819610",
    "description": "Original_864452",
    "title": "Original_864452",
    "link_img": "https://live.staticflickr.com/65535/48079376252_e0701a8e80_o.jpg",
    "id_image": "Original_864452",
    "count_view": 0
  },
  {
    "link_thumb": "https://live.staticflickr.com/65535/48079307338_9132b1ed2c_n.jpg",
    "id_album": "-1193819610",
    "description": "Original_864527",
    "title": "Original_864527",
    "link_img": "https://live.staticflickr.com/65535/48079307338_880372b2d1_o.jpg",
    "id_image": "Original_864527",
    "count_view": 0
  },
  {
    "link_thumb": "https://live.staticflickr.com/65535/48079430157_e8852cea25_n.jpg",
    "id_album": "-1193819610",
    "description": "Original_866713",
    "title": "Original_866713",
    "link_img": "https://live.staticflickr.com/65535/48079430157_a4ab741c64_o.jpg",
    "id_image": "Original_866713",
    "count_view": 0
  },
  {
    "link_thumb": "https://live.staticflickr.com/65535/48079942107_260c6b2a26_n.jpg",
    "id_album": "-1193819610",
    "description": "Original_868427",
    "title": "Original_868427",
    "link_img": "https://live.staticflickr.com/65535/48079942107_c958b495ed_o.jpg",
    "id_image": "Original_868427",
    "count_view": 0
  },
  {
    "link_thumb": "https://live.staticflickr.com/65535/48079959027_c0889ff03b_n.jpg",
    "id_album": "-1193819610",
    "description": "Original_868883",
    "title": "Original_868883",
    "link_img": "https://live.staticflickr.com/65535/48079959027_4350ca5405_o.jpg",
    "id_image": "Original_868883",
    "count_view": 0
  },
  {
    "link_thumb": "https://live.staticflickr.com/65535/48079890073_9945327a9b_n.jpg",
    "id_album": "-1193819610",
    "description": "Original_869282",
    "title": "Original_869282",
    "link_img": "https://live.staticflickr.com/65535/48079890073_a57d195027_o.jpg",
    "id_image": "Original_869282",
    "count_view": 0
  },
  {
    "link_thumb": "https://live.staticflickr.com/65535/48079863626_392c2d97e5_n.jpg",
    "id_album": "-1193819610",
    "description": "Original_869296",
    "title": "Original_869296",
    "link_img": "https://live.staticflickr.com/65535/48079863626_6eae689bcd_o.jpg",
    "id_image": "Original_869296",
    "count_view": 0
  },
  {
    "link_thumb": "https://live.staticflickr.com/65535/48079901126_8273b78df0_n.jpg",
    "id_album": "-1193819610",
    "description": "Original_870266",
    "title": "Original_870266",
    "link_img": "https://live.staticflickr.com/65535/48079901126_8ee5640d23_o.jpg",
    "id_image": "Original_870266",
    "count_view": 0
  },
  {
    "link_thumb": "https://live.staticflickr.com/65535/48080004797_48ce1b9ed9_n.jpg",
    "id_album": "-1193819610",
    "description": "Original_870325",
    "title": "Original_870325",
    "link_img": "https://live.staticflickr.com/65535/48080004797_561a1fc9db_o.jpg",
    "id_image": "Original_870325",
    "count_view": 0
  },
  {
    "link_thumb": "https://live.staticflickr.com/65535/48079934868_dc30e6b70d_n.jpg",
    "id_album": "-1193819610",
    "description": "Original_870484",
    "title": "Original_870484",
    "link_img": "https://live.staticflickr.com/65535/48079934868_f3c1007b01_o.jpg",
    "id_image": "Original_870484",
    "count_view": 0
  },
  {
    "link_thumb": "https://live.staticflickr.com/65535/48079911706_8d8a7152b5_n.jpg",
    "id_album": "-1193819610",
    "description": "Original_870671",
    "title": "Original_870671",
    "link_img": "https://live.staticflickr.com/65535/48079911706_bcd35d827a_o.jpg",
    "id_image": "Original_870671",
    "count_view": 0
  },
  {
    "link_thumb": "https://live.staticflickr.com/65535/48080011667_8209138de6_n.jpg",
    "id_album": "-1193819610",
    "description": "Original_870687",
    "title": "Original_870687",
    "link_img": "https://live.staticflickr.com/65535/48080011667_a1f8be33a8_o.jpg",
    "id_image": "Original_870687",
    "count_view": 0
  },
  {
    "link_thumb": "https://live.staticflickr.com/65535/48079931321_9342446419_n.jpg",
    "id_album": "-1193819610",
    "description": "Original_871339",
    "title": "Original_871339",
    "link_img": "https://live.staticflickr.com/65535/48079931321_fc2334862d_o.jpg",
    "id_image": "Original_871339",
    "count_view": 0
  },
  {
    "link_thumb": "https://live.staticflickr.com/65535/48079966511_ea3c352d49_n.jpg",
    "id_album": "-1193819610",
    "description": "Original_872032",
    "title": "Original_872032",
    "link_img": "https://live.staticflickr.com/65535/48079966511_ff31d995b3_o.jpg",
    "id_image": "Original_872032",
    "count_view": 0
  },
  {
    "link_thumb": "https://live.staticflickr.com/65535/48080663458_bd927154d6_n.jpg",
    "id_album": "-1193819610",
    "description": "Original_872754",
    "title": "Original_872754",
    "link_img": "https://live.staticflickr.com/65535/48080663458_5c8bd6874a_o.jpg",
    "id_image": "Original_872754",
    "count_view": 0
  },
  {
    "link_thumb": "https://live.staticflickr.com/65535/48091958513_9186a04f11_n.jpg",
    "id_album": "-1193819610",
    "description": "Original_873162",
    "title": "Original_873162",
    "link_img": "https://live.staticflickr.com/65535/48091958513_e87c860f76_o.jpg",
    "id_image": "Original_873162",
    "count_view": 0
  },
  {
    "link_thumb": "https://live.staticflickr.com/65535/48091966818_f18da360b9_n.jpg",
    "id_album": "-1193819610",
    "description": "Original_873556",
    "title": "Original_873556",
    "link_img": "https://live.staticflickr.com/65535/48091966818_cdfd587f0a_o.jpg",
    "id_image": "Original_873556",
    "count_view": 0
  },
  {
    "link_thumb": "https://live.staticflickr.com/65535/48082558007_b42ce50a41_n.jpg",
    "id_album": "-1193819610",
    "description": "Original_874834",
    "title": "Original_874834",
    "link_img": "https://live.staticflickr.com/65535/48082558007_02336a7eca_o.jpg",
    "id_image": "Original_874834",
    "count_view": 0
  },
  {
    "link_thumb": "https://live.staticflickr.com/65535/48082565297_6e18b63992_n.jpg",
    "id_album": "-1193819610",
    "description": "Original_875162",
    "title": "Original_875162",
    "link_img": "https://live.staticflickr.com/65535/48082565297_e3267d6a5a_o.jpg",
    "id_image": "Original_875162",
    "count_view": 0
  },
  {
    "link_thumb": "https://live.staticflickr.com/65535/48082566792_85a9ef2938_n.jpg",
    "id_album": "-1193819610",
    "description": "Original_875285",
    "title": "Original_875285",
    "link_img": "https://live.staticflickr.com/65535/48082566792_3f9b66849f_o.jpg",
    "id_image": "Original_875285",
    "count_view": 0
  },
  {
    "link_thumb": "https://live.staticflickr.com/65535/48082581177_651b76182f_n.jpg",
    "id_album": "-1193819610",
    "description": "Original_875679",
    "title": "Original_875679",
    "link_img": "https://live.staticflickr.com/65535/48082581177_d1bf504033_o.jpg",
    "id_image": "Original_875679",
    "count_view": 0
  },
  {
    "link_thumb": "https://live.staticflickr.com/65535/48082585628_ea6426085e_n.jpg",
    "id_album": "-1193819610",
    "description": "Original_878972",
    "title": "Original_878972",
    "link_img": "https://live.staticflickr.com/65535/48082585628_b61573779e_o.jpg",
    "id_image": "Original_878972",
    "count_view": 0
  },
  {
    "link_thumb": "https://live.staticflickr.com/65535/48082651562_2f4709ae08_n.jpg",
    "id_album": "-1193819610",
    "description": "Original_878976",
    "title": "Original_878976",
    "link_img": "https://live.staticflickr.com/65535/48082651562_7903a76e00_o.jpg",
    "id_image": "Original_878976",
    "count_view": 0
  },
  {
    "link_thumb": "https://live.staticflickr.com/65535/48082622631_ce39931273_n.jpg",
    "id_album": "-1193819610",
    "description": "Original_884227",
    "title": "Original_884227",
    "link_img": "https://live.staticflickr.com/65535/48082622631_51717e0976_o.jpg",
    "id_image": "Original_884227",
    "count_view": 0
  },
  {
    "link_thumb": "https://live.staticflickr.com/65535/48091942301_cd3042f0c8_n.jpg",
    "id_album": "-1193819610",
    "description": "Original_888519",
    "title": "Original_888519",
    "link_img": "https://live.staticflickr.com/65535/48091942301_8b184af8cf_o.jpg",
    "id_image": "Original_888519",
    "count_view": 0
  },
  {
    "link_thumb": "https://live.staticflickr.com/65535/48092000523_05a8cddd43_n.jpg",
    "id_album": "-1193819610",
    "description": "Original_892770",
    "title": "Original_892770",
    "link_img": "https://live.staticflickr.com/65535/48092000523_32a0940730_o.jpg",
    "id_image": "Original_892770",
    "count_view": 0
  },
  {
    "link_thumb": "https://live.staticflickr.com/65535/48092072967_3a0474b4e7_n.jpg",
    "id_album": "-1193819610",
    "description": "Original_894101",
    "title": "Original_894101",
    "link_img": "https://live.staticflickr.com/65535/48092072967_2673d64552_o.jpg",
    "id_image": "Original_894101",
    "count_view": 0
  },
  {
    "link_thumb": "https://live.staticflickr.com/65535/48091998271_4f73261124_n.jpg",
    "id_album": "-1193819610",
    "description": "Original_895416",
    "title": "Original_895416",
    "link_img": "https://live.staticflickr.com/65535/48091998271_edaa4a303d_o.jpg",
    "id_image": "Original_895416",
    "count_view": 0
  },
  {
    "link_thumb": "https://live.staticflickr.com/65535/48092040598_ff102a67cb_n.jpg",
    "id_album": "-1193819610",
    "description": "Original_895961",
    "title": "Original_895961",
    "link_img": "https://live.staticflickr.com/65535/48092040598_e5daacc0ce_o.jpg",
    "id_image": "Original_895961",
    "count_view": 0
  },
  {
    "link_thumb": "https://live.staticflickr.com/65535/48092067146_142dbc8fa2_n.jpg",
    "id_album": "-1193819610",
    "description": "Original_899994",
    "title": "Original_899994",
    "link_img": "https://live.staticflickr.com/65535/48092067146_eb364c0602_o.jpg",
    "id_image": "Original_899994",
    "count_view": 0
  },
  {
    "link_thumb": "https://live.staticflickr.com/65535/48092073701_94d1ebbb8d_n.jpg",
    "id_album": "-1193819610",
    "description": "Original_900606",
    "title": "Original_900606",
    "link_img": "https://live.staticflickr.com/65535/48092073701_6df5514993_o.jpg",
    "id_image": "Original_900606",
    "count_view": 0
  },
  {
    "link_thumb": "https://live.staticflickr.com/65535/48092116643_94d90d49e1_n.jpg",
    "id_album": "-1193819610",
    "description": "Original_901046",
    "title": "Original_901046",
    "link_img": "https://live.staticflickr.com/65535/48092116643_4187e6274d_o.jpg",
    "id_image": "Original_901046",
    "count_view": 0
  },
  {
    "link_thumb": "https://live.staticflickr.com/65535/48092207917_c5d5788b40_n.jpg",
    "id_album": "-1193819610",
    "description": "Original_903010",
    "title": "Original_903010",
    "link_img": "https://live.staticflickr.com/65535/48092207917_0cb48a37bc_o.jpg",
    "id_image": "Original_903010",
    "count_view": 0
  },
  {
    "link_thumb": "https://live.staticflickr.com/65535/48092242882_e07d182db2_n.jpg",
    "id_album": "-1193819610",
    "description": "Original_904559",
    "title": "Original_904559",
    "link_img": "https://live.staticflickr.com/65535/48092242882_21ff99a9b6_o.jpg",
    "id_image": "Original_904559",
    "count_view": 0
  },
  {
    "link_thumb": "https://live.staticflickr.com/65535/48092278046_7415299e3b_n.jpg",
    "id_album": "-1193819610",
    "description": "Original_910176",
    "title": "Original_910176",
    "link_img": "https://live.staticflickr.com/65535/48092278046_092dd0ef00_o.jpg",
    "id_image": "Original_910176",
    "count_view": 0
  },
  {
    "link_thumb": "https://live.staticflickr.com/65535/48092376287_94cc128862_n.jpg",
    "id_album": "-1193819610",
    "description": "Original_910186",
    "title": "Original_910186",
    "link_img": "https://live.staticflickr.com/65535/48092376287_0bab2e8846_o.jpg",
    "id_image": "Original_910186",
    "count_view": 0
  },
  {
    "link_thumb": "https://live.staticflickr.com/65535/48092376937_d107d89273_n.jpg",
    "id_album": "-1193819610",
    "description": "Original_910189",
    "title": "Original_910189",
    "link_img": "https://live.staticflickr.com/65535/48092376937_2d7b1376c5_o.jpg",
    "id_image": "Original_910189",
    "count_view": 0
  },
  {
    "link_thumb": "https://live.staticflickr.com/65535/48092295116_9af9b50041_n.jpg",
    "id_album": "-1193819610",
    "description": "Original_911154",
    "title": "Original_911154",
    "link_img": "https://live.staticflickr.com/65535/48092295116_64c4931f1e_o.jpg",
    "id_image": "Original_911154",
    "count_view": 0
  },
  {
    "link_thumb": "https://live.staticflickr.com/65535/48092360733_9a16a02e8b_n.jpg",
    "id_album": "-1193819610",
    "description": "Original_912221",
    "title": "Original_912221",
    "link_img": "https://live.staticflickr.com/65535/48092360733_e7fb629a9e_o.jpg",
    "id_image": "Original_912221",
    "count_view": 0
  },
  {
    "link_thumb": "https://live.staticflickr.com/65535/48092539763_1ac90dc18e_n.jpg",
    "id_album": "-1193819610",
    "description": "Original_918364",
    "title": "Original_918364",
    "link_img": "https://live.staticflickr.com/65535/48092539763_8da22caed6_o.jpg",
    "id_image": "Original_918364",
    "count_view": 0
  },
  {
    "link_thumb": "https://live.staticflickr.com/65535/48092547471_0b7057b90b_n.jpg",
    "id_album": "-1193819610",
    "description": "Original_920647",
    "title": "Original_920647",
    "link_img": "https://live.staticflickr.com/65535/48092547471_847056ede0_o.jpg",
    "id_image": "Original_920647",
    "count_view": 0
  },
  {
    "link_thumb": "https://live.staticflickr.com/65535/48092622288_867db699db_n.jpg",
    "id_album": "-1193819610",
    "description": "Original_922215",
    "title": "Original_922215",
    "link_img": "https://live.staticflickr.com/65535/48092622288_527afc492e_o.jpg",
    "id_image": "Original_922215",
    "count_view": 0
  },
  {
    "link_thumb": "https://live.staticflickr.com/65535/48092724572_6358ff310f_n.jpg",
    "id_album": "-1193819610",
    "description": "Original_925112",
    "title": "Original_925112",
    "link_img": "https://live.staticflickr.com/65535/48092724572_b902f56b8d_o.jpg",
    "id_image": "Original_925112",
    "count_view": 0
  },
  {
    "link_thumb": "https://live.staticflickr.com/65535/48092739206_b8e9814500_n.jpg",
    "id_album": "-1193819610",
    "description": "Original_933602",
    "title": "Original_933602",
    "link_img": "https://live.staticflickr.com/65535/48092739206_a3166479df_o.jpg",
    "id_image": "Original_933602",
    "count_view": 0
  },
  {
    "link_thumb": "https://live.staticflickr.com/65535/48092925841_0626e88c46_n.jpg",
    "id_album": "-1193819610",
    "description": "Original_944027",
    "title": "Original_944027",
    "link_img": "https://live.staticflickr.com/65535/48092925841_5348a91722_o.jpg",
    "id_image": "Original_944027",
    "count_view": 0
  },
  {
    "link_thumb": "https://live.staticflickr.com/65535/48093025182_29c8187519_n.jpg",
    "id_album": "-1193819610",
    "description": "Original_944030",
    "title": "Original_944030",
    "link_img": "https://live.staticflickr.com/65535/48093025182_f1c2da71f6_o.jpg",
    "id_image": "Original_944030",
    "count_view": 0
  },
  {
    "link_thumb": "https://live.staticflickr.com/65535/48092926636_4734bb57d9_n.jpg",
    "id_album": "-1193819610",
    "description": "Original_944033",
    "title": "Original_944033",
    "link_img": "https://live.staticflickr.com/65535/48092926636_006ce542d8_o.jpg",
    "id_image": "Original_944033",
    "count_view": 0
  },
  {
    "link_thumb": "https://live.staticflickr.com/65535/48092936711_52f96a6b69_n.jpg",
    "id_album": "-1193819610",
    "description": "Original_944944",
    "title": "Original_944944",
    "link_img": "https://live.staticflickr.com/65535/48092936711_9008816c74_o.jpg",
    "id_image": "Original_944944",
    "count_view": 0
  },
  {
    "link_thumb": "https://live.staticflickr.com/65535/48092937671_9ed67bdbc8_n.jpg",
    "id_album": "-1193819610",
    "description": "Original_944953",
    "title": "Original_944953",
    "link_img": "https://live.staticflickr.com/65535/48092937671_e5b71940ff_o.jpg",
    "id_image": "Original_944953",
    "count_view": 0
  },
  {
    "link_thumb": "https://live.staticflickr.com/65535/48093170327_248a2a997f_n.jpg",
    "id_album": "-1193819610",
    "description": "Original_952453",
    "title": "Original_952453",
    "link_img": "https://live.staticflickr.com/65535/48093170327_46ecdaf629_o.jpg",
    "id_image": "Original_952453",
    "count_view": 0
  },
  {
    "link_thumb": "https://live.staticflickr.com/65535/48094883411_b619c39420_n.jpg",
    "id_album": "-1193819610",
    "description": "Original_958361",
    "title": "Original_958361",
    "link_img": "https://live.staticflickr.com/65535/48094883411_405d3266b0_o.jpg",
    "id_image": "Original_958361",
    "count_view": 0
  },
  {
    "link_thumb": "https://live.staticflickr.com/65535/48094936603_e47a148c27_n.jpg",
    "id_album": "-1193819610",
    "description": "Original_959232",
    "title": "Original_959232",
    "link_img": "https://live.staticflickr.com/65535/48094936603_ecaa351909_o.jpg",
    "id_image": "Original_959232",
    "count_view": 0
  },
  {
    "link_thumb": "https://live.staticflickr.com/65535/48094998807_189d3b7481_n.jpg",
    "id_album": "-1193819610",
    "description": "Original_960158",
    "title": "Original_960158",
    "link_img": "https://live.staticflickr.com/65535/48094998807_24a0ecf34f_o.jpg",
    "id_image": "Original_960158",
    "count_view": 0
  }
]