[
  {
    "total_img": 50,
    "number_page": 1,
    "title": "Headphones",
    "tag": "Ice Cream, Green Eyes, Snow, DJ, Wink, Black Hair, Mecha, Tattoo, Balloon, Weapon, Long Hair, Thigh Highs, Anime, Ribbon, Light, White Hair, Book, Kimono, Computer, Rave, Braid, Rifle, Noel Andante, Gun, Glove, Purple Eyes, Cute, Emo, Smile, Red Eyes, Headphones, Blush, Pantyhose, Cat, Glasses, Ponytail, Microphone, Cherry Blossom, Butterfly, Cross, Bird, Twintails, Blonde, Dark Side Of The Moon, Wings, bow Clothing, Yuri, Short Hair, Tablet, Hug, Guitar, Necklace, Original Anime, Flower, Brown Eyes, Brown Hair, Bag, 5 Nenme no Houkago, Pink Hair, Ruin, Blue Eyes, Fan, Blue Hair, Mouse, Grey Eyes, Smartphone, Petal",
    "description": "Headphones",
    "link_thumb": "https://live.staticflickr.com/65535/47995444881_67e8e1cb17_n.jpg",
    "id_album": "1502128262",
    "total_view": 50
  },
  {
    "total_img": 771,
    "number_page": 4,
    "title": "Blonde",
    "tag": "Blonde,",
    "description": "Blonde",
    "link_thumb": "https://live.staticflickr.com/65535/48066912028_16d8f475b6_n.jpg",
    "id_album": "-768622073",
    "total_view": 771
  },
  {
    "total_img": 900,
    "number_page": 5,
    "title": "Short Hair",
    "tag": "Short Hair,",
    "description": "Short Hair",
    "link_thumb": "https://live.staticflickr.com/65535/48066522393_1c85dd9992_n.jpg",
    "id_album": "1749242000",
    "total_view": 900
  },
  {
    "total_img": 89,
    "number_page": 1,
    "title": "Wink",
    "tag": "Wink,",
    "description": "Wink",
    "link_thumb": "https://live.staticflickr.com/65535/48609891276_d6beb9cf73_n.jpg",
    "id_album": "408850749",
    "total_view": 89
  }
]