[
  {
    "total_img": 2,
    "number_page": 1,
    "title": "White Album",
    "tag": "White Album, Misaki Sawakura",
    "description": "White Album",
    "link_thumb": "https://live.staticflickr.com/65535/48065950826_cf3f266461_n.jpg",
    "id_album": "-167296664",
    "total_view": 2
  }
]