[
  {
    "link_thumb": "https://live.staticflickr.com/65535/47840472082_0d7837788c_n.jpg",
    "id_album": "-1326058986",
    "description": "AngelBeats_786199,[isGirlAnime],[Angel Beats],[AngelBeats]",
    "title": "AngelBeats_786199",
    "link_img": "https://live.staticflickr.com/65535/47840472082_71132c1021_o.jpg",
    "id_image": "AngelBeats_786199",
    "count_view": 0
  },
  {
    "link_thumb": "https://live.staticflickr.com/65535/46976380065_7b9fa6e89f_n.jpg",
    "id_album": "-1326058986",
    "description": "AngelBeats_794588,[isGirlAnime],[isSadAnime],[isSadAnimeGirl],[Angel Beats],[AngelBeats]",
    "title": "AngelBeats_794588",
    "link_img": "https://live.staticflickr.com/65535/46976380065_39b8dea772_o.jpg",
    "id_image": "AngelBeats_794588",
    "count_view": 0
  },
  {
    "link_thumb": "https://live.staticflickr.com/65535/47840474612_536f6f0d96_n.jpg",
    "id_album": "-1326058986",
    "description": "AngelBeats_797128,[isGirlAnime],[isSadAnime],[isSadAnimeGirl],[Angel Beats],[AngelBeats]",
    "title": "AngelBeats_797128",
    "link_img": "https://live.staticflickr.com/65535/47840474612_8f9a40b67b_o.jpg",
    "id_image": "AngelBeats_797128",
    "count_view": 0
  },
  {
    "link_thumb": "https://live.staticflickr.com/65535/47103172494_75f247e965_n.jpg",
    "id_album": "-1326058986",
    "description": "AngelBeats_806267,[isGirlAnime],[isSadAnime],[isSadAnimeGirl],[Angel Beats],[AngelBeats]",
    "title": "AngelBeats_806267",
    "link_img": "https://live.staticflickr.com/65535/47103172494_b03850dea6_o.jpg",
    "id_image": "AngelBeats_806267",
    "count_view": 0
  },
  {
    "link_thumb": "https://live.staticflickr.com/65535/46976381545_f75fa3da3a_n.jpg",
    "id_album": "-1326058986",
    "description": "AngelBeats_809398,[isGirlAnime],[isSadAnime],[isSadAnimeGirl],[Angel Beats],[AngelBeats]",
    "title": "AngelBeats_809398",
    "link_img": "https://live.staticflickr.com/65535/46976381545_30b7e708a3_o.jpg",
    "id_image": "AngelBeats_809398",
    "count_view": 0
  },
  {
    "link_thumb": "https://live.staticflickr.com/65535/47103174284_d4fc425463_n.jpg",
    "id_album": "-1326058986",
    "description": "AngelBeats_815582,[isGirlAnime],[Angel Beats],[AngelBeats]",
    "title": "AngelBeats_815582",
    "link_img": "https://live.staticflickr.com/65535/47103174284_1eb39beee7_o.jpg",
    "id_image": "AngelBeats_815582",
    "count_view": 0
  },
  {
    "link_thumb": "https://live.staticflickr.com/65535/40926089123_cf7093b9c3_n.jpg",
    "id_album": "-1326058986",
    "description": "AngelBeats_815769,[isGirlAnime],[isSadAnime],[isSadAnimeGirl],[isCuteAnime],[isGirlsLoliAnime],[Angel Beats],[AngelBeats]",
    "title": "AngelBeats_815769",
    "link_img": "https://live.staticflickr.com/65535/40926089123_15b8d279aa_o.jpg",
    "id_image": "AngelBeats_815769",
    "count_view": 0
  },
  {
    "link_thumb": "https://live.staticflickr.com/65535/40926090993_e0a2c8dce4_n.jpg",
    "id_album": "-1326058986",
    "description": "AngelBeats_841823,[isGirlAnime],[isSadAnime],[isSadAnimeGirl],[Angel Beats],[AngelBeats]",
    "title": "AngelBeats_841823",
    "link_img": "https://live.staticflickr.com/65535/40926090993_b12f0fd154_o.jpg",
    "id_image": "AngelBeats_841823",
    "count_view": 0
  },
  {
    "link_thumb": "https://live.staticflickr.com/65535/46976384425_0cf001170c_n.jpg",
    "id_album": "-1326058986",
    "description": "AngelBeats_841884,[isGirlAnime],[isSadAnime],[isSadAnimeGirl],[isGirlsHatsHoodieAnime],[Angel Beats],[AngelBeats]",
    "title": "AngelBeats_841884",
    "link_img": "https://live.staticflickr.com/65535/46976384425_16a58d6955_o.jpg",
    "id_image": "AngelBeats_841884",
    "count_view": 0
  },
  {
    "link_thumb": "https://live.staticflickr.com/65535/47892410721_f4e91a54a2_n.jpg",
    "id_album": "-1326058986",
    "description": "AngelBeats_841897,[isGirlAnime],[isSadAnime],[isSadAnimeGirl],[isGirlsLoliAnime],[Angel Beats],[AngelBeats]",
    "title": "AngelBeats_841897",
    "link_img": "https://live.staticflickr.com/65535/47892410721_2d1566bf74_o.jpg",
    "id_image": "AngelBeats_841897",
    "count_view": 0
  },
  {
    "link_thumb": "https://live.staticflickr.com/65535/47892411511_535967dc05_n.jpg",
    "id_album": "-1326058986",
    "description": "AngelBeats_841958,[isGirlAnime],[isCuteAnime],[isGirlsLoliAnime],[Angel Beats],[AngelBeats]",
    "title": "AngelBeats_841958",
    "link_img": "https://live.staticflickr.com/65535/47892411511_cc89033574_o.jpg",
    "id_image": "AngelBeats_841958",
    "count_view": 0
  },
  {
    "link_thumb": "https://live.staticflickr.com/65535/47892412321_70787c0950_n.jpg",
    "id_album": "-1326058986",
    "description": "AngelBeats_841959,[isGirlAnime],[isCuteAnime],[isGirlsLoliAnime],[Angel Beats],[AngelBeats]",
    "title": "AngelBeats_841959",
    "link_img": "https://live.staticflickr.com/65535/47892412321_b9fbb335a9_o.jpg",
    "id_image": "AngelBeats_841959",
    "count_view": 0
  },
  {
    "link_thumb": "https://live.staticflickr.com/65535/47840484022_a7c0561b4d_n.jpg",
    "id_album": "-1326058986",
    "description": "AngelBeats_841961,[isGirlAnime],[isGirlsLoliAnime],[Angel Beats],[AngelBeats]",
    "title": "AngelBeats_841961",
    "link_img": "https://live.staticflickr.com/65535/47840484022_62ea1cb3df_o.jpg",
    "id_image": "AngelBeats_841961",
    "count_view": 0
  },
  {
    "link_thumb": "https://live.staticflickr.com/65535/47103183784_6a8a14612d_n.jpg",
    "id_album": "-1326058986",
    "description": "AngelBeats_841964,[isGirlAnime],[isGirlsHatsHoodieAnime],[isGirlsLoliAnime],[isKimonoAnime],[Angel Beats],[AngelBeats]",
    "title": "AngelBeats_841964",
    "link_img": "https://live.staticflickr.com/65535/47103183784_a0fa9c8286_o.jpg",
    "id_image": "AngelBeats_841964",
    "count_view": 0
  },
  {
    "link_thumb": "https://live.staticflickr.com/65535/40926095293_93f930d1b6_n.jpg",
    "id_album": "-1326058986",
    "description": "AngelBeats_841965,[isGirlAnime],[isCuteAnime],[Angel Beats],[AngelBeats]",
    "title": "AngelBeats_841965",
    "link_img": "https://live.staticflickr.com/65535/40926095293_b0d92d1a6c_o.jpg",
    "id_image": "AngelBeats_841965",
    "count_view": 0
  },
  {
    "link_thumb": "https://live.staticflickr.com/65535/47103185904_4a6a47cc96_n.jpg",
    "id_album": "-1326058986",
    "description": "AngelBeats_841966,[isGirlAnime],[isCuteAnime],[isGirlsLoliAnime],[Angel Beats],[AngelBeats]",
    "title": "AngelBeats_841966",
    "link_img": "https://live.staticflickr.com/65535/47103185904_090ce9485d_o.jpg",
    "id_image": "AngelBeats_841966",
    "count_view": 0
  },
  {
    "link_thumb": "https://live.staticflickr.com/65535/47103187114_4ba617cd8d_n.jpg",
    "id_album": "-1326058986",
    "description": "AngelBeats_841967,[isGirlAnime],[isSadAnime],[isSadAnimeGirl],[isGirlsLoliAnime],[Angel Beats],[AngelBeats]",
    "title": "AngelBeats_841967",
    "link_img": "https://live.staticflickr.com/65535/47103187114_e6f51015ce_o.jpg",
    "id_image": "AngelBeats_841967",
    "count_view": 0
  },
  {
    "link_thumb": "https://live.staticflickr.com/65535/47892417071_db6da84129_n.jpg",
    "id_album": "-1326058986",
    "description": "AngelBeats_841968,[isGirlAnime],[isGirlsHatsHoodieAnime],[isGirlsHornsAnime],[Angel Beats],[AngelBeats]",
    "title": "AngelBeats_841968",
    "link_img": "https://live.staticflickr.com/65535/47892417071_258f75fddc_o.jpg",
    "id_image": "AngelBeats_841968",
    "count_view": 0
  },
  {
    "link_thumb": "https://live.staticflickr.com/65535/47103189204_fb66f82239_n.jpg",
    "id_album": "-1326058986",
    "description": "AngelBeats_841969,[isGirlAnime],[isGirlsHatsHoodieAnime],[isGirlsLoliAnime],[Angel Beats],[AngelBeats]",
    "title": "AngelBeats_841969",
    "link_img": "https://live.staticflickr.com/65535/47103189204_8c9a609207_o.jpg",
    "id_image": "AngelBeats_841969",
    "count_view": 0
  },
  {
    "link_thumb": "https://live.staticflickr.com/65535/47892418631_56d23c0805_n.jpg",
    "id_album": "-1326058986",
    "description": "AngelBeats_841970,[isGirlAnime],[isCuteAnime],[isGirlsHornsAnime],[isGirlsLoliAnime],[Angel Beats],[AngelBeats]",
    "title": "AngelBeats_841970",
    "link_img": "https://live.staticflickr.com/65535/47892418631_1e870f058a_o.jpg",
    "id_image": "AngelBeats_841970",
    "count_view": 0
  },
  {
    "link_thumb": "https://live.staticflickr.com/65535/40926099913_48ca67925a_n.jpg",
    "id_album": "-1326058986",
    "description": "AngelBeats_841971,[isGirlAnime],[isSadAnime],[isSadAnimeGirl],[isKimonoAnime],[Angel Beats],[AngelBeats]",
    "title": "AngelBeats_841971",
    "link_img": "https://live.staticflickr.com/65535/40926099913_42fe2d8b53_o.jpg",
    "id_image": "AngelBeats_841971",
    "count_view": 0
  },
  {
    "link_thumb": "https://live.staticflickr.com/65535/46976390425_c408f51599_n.jpg",
    "id_album": "-1326058986",
    "description": "AngelBeats_841972,[isGirlAnime],[isSadAnime],[isSadAnimeGirl],[isCuteAnime],[isKimonoAnime],[Angel Beats],[AngelBeats]",
    "title": "AngelBeats_841972",
    "link_img": "https://live.staticflickr.com/65535/46976390425_eef3033c61_o.jpg",
    "id_image": "AngelBeats_841972",
    "count_view": 0
  },
  {
    "link_thumb": "https://live.staticflickr.com/65535/47892420701_7667b27818_n.jpg",
    "id_album": "-1326058986",
    "description": "AngelBeats_842016,[isGirlAnime],[isCuteAnime],[Angel Beats],[AngelBeats]",
    "title": "AngelBeats_842016",
    "link_img": "https://live.staticflickr.com/65535/47892420701_fabd32d5ed_o.jpg",
    "id_image": "AngelBeats_842016",
    "count_view": 0
  },
  {
    "link_thumb": "https://live.staticflickr.com/65535/47892421531_19dd385664_n.jpg",
    "id_album": "-1326058986",
    "description": "AngelBeats_842017,[isGirlAnime],[isCuteAnime],[isGirlsLoliAnime],[Angel Beats],[AngelBeats]",
    "title": "AngelBeats_842017",
    "link_img": "https://live.staticflickr.com/65535/47892421531_1e11119946_o.jpg",
    "id_image": "AngelBeats_842017",
    "count_view": 0
  },
  {
    "link_thumb": "https://live.staticflickr.com/65535/47892422751_ed18fd5123_n.jpg",
    "id_album": "-1326058986",
    "description": "AngelBeats_842022,[isGirlAnime],[Angel Beats],[AngelBeats]",
    "title": "AngelBeats_842022",
    "link_img": "https://live.staticflickr.com/65535/47892422751_18631a2079_o.jpg",
    "id_image": "AngelBeats_842022",
    "count_view": 0
  },
  {
    "link_thumb": "https://live.staticflickr.com/65535/47892423601_68f01baacd_n.jpg",
    "id_album": "-1326058986",
    "description": "AngelBeats_842023,[isGirlAnime],[isGirlsHatsHoodieAnime],[isGirlsLoliAnime],[Angel Beats],[AngelBeats]",
    "title": "AngelBeats_842023",
    "link_img": "https://live.staticflickr.com/65535/47892423601_b2078233c5_o.jpg",
    "id_image": "AngelBeats_842023",
    "count_view": 0
  },
  {
    "link_thumb": "https://live.staticflickr.com/65535/47840492292_75f05e0151_n.jpg",
    "id_album": "-1326058986",
    "description": "AngelBeats_842026,[isGirlAnime],[isCuteAnime],[isGirlsHatsHoodieAnime],[isGirlsLoliAnime],[Angel Beats],[AngelBeats]",
    "title": "AngelBeats_842026",
    "link_img": "https://live.staticflickr.com/65535/47840492292_2f013e3389_o.jpg",
    "id_image": "AngelBeats_842026",
    "count_view": 0
  },
  {
    "link_thumb": "https://live.staticflickr.com/65535/47892426411_8e6f5fedd8_n.jpg",
    "id_album": "-1326058986",
    "description": "AngelBeats_842027,[isGirlAnime],[isGirlsHatsHoodieAnime],[isGirlsLoliAnime],[Angel Beats],[AngelBeats]",
    "title": "AngelBeats_842027",
    "link_img": "https://live.staticflickr.com/65535/47892426411_b044b41c56_o.jpg",
    "id_image": "AngelBeats_842027",
    "count_view": 0
  },
  {
    "link_thumb": "https://live.staticflickr.com/65535/47103197034_fef432be46_n.jpg",
    "id_album": "-1326058986",
    "description": "AngelBeats_842028,[isGirlAnime],[isSadAnime],[isSadAnimeGirl],[isKimonoAnime],[Angel Beats],[AngelBeats]",
    "title": "AngelBeats_842028",
    "link_img": "https://live.staticflickr.com/65535/47103197034_ceba82d719_o.jpg",
    "id_image": "AngelBeats_842028",
    "count_view": 0
  },
  {
    "link_thumb": "https://live.staticflickr.com/65535/47840494132_f2d8abee40_n.jpg",
    "id_album": "-1326058986",
    "description": "AngelBeats_842029,[isGirlAnime],[isCuteAnime],[isGirlsLoliAnime],[Angel Beats],[AngelBeats]",
    "title": "AngelBeats_842029",
    "link_img": "https://live.staticflickr.com/65535/47840494132_892d9166f8_o.jpg",
    "id_image": "AngelBeats_842029",
    "count_view": 0
  },
  {
    "link_thumb": "https://live.staticflickr.com/65535/46976395315_72452dff96_n.jpg",
    "id_album": "-1326058986",
    "description": "AngelBeats_842030,[isGirlAnime],[Angel Beats],[AngelBeats]",
    "title": "AngelBeats_842030",
    "link_img": "https://live.staticflickr.com/65535/46976395315_fec3b667b8_o.jpg",
    "id_image": "AngelBeats_842030",
    "count_view": 0
  },
  {
    "link_thumb": "https://live.staticflickr.com/65535/47840494832_a83c1e8428_n.jpg",
    "id_album": "-1326058986",
    "description": "AngelBeats_842031,[isGirlAnime],[isGirlsHatsHoodieAnime],[isGirlsLoliAnime],[Angel Beats],[AngelBeats]",
    "title": "AngelBeats_842031",
    "link_img": "https://live.staticflickr.com/65535/47840494832_4a95d99676_o.jpg",
    "id_image": "AngelBeats_842031",
    "count_view": 0
  },
  {
    "link_thumb": "https://live.staticflickr.com/65535/47103200814_cc5eccd1f1_n.jpg",
    "id_album": "-1326058986",
    "description": "AngelBeats_842032,[isGirlAnime],[isCuteAnime],[isGirlsHatsHoodieAnime],[isGirlsLoliAnime],[Angel Beats],[AngelBeats]",
    "title": "AngelBeats_842032",
    "link_img": "https://live.staticflickr.com/65535/47103200814_103f98689c_o.jpg",
    "id_image": "AngelBeats_842032",
    "count_view": 0
  },
  {
    "link_thumb": "https://live.staticflickr.com/65535/47103201644_20eb590b14_n.jpg",
    "id_album": "-1326058986",
    "description": "AngelBeats_842033,[isGirlAnime],[Angel Beats],[AngelBeats]",
    "title": "AngelBeats_842033",
    "link_img": "https://live.staticflickr.com/65535/47103201644_d93dbe01ba_o.jpg",
    "id_image": "AngelBeats_842033",
    "count_view": 0
  },
  {
    "link_thumb": "https://live.staticflickr.com/65535/47103203524_8978787d00_n.jpg",
    "id_album": "-1326058986",
    "description": "AngelBeats_842036,[isGirlAnime],[isSadAnime],[isSadAnimeGirl],[Angel Beats],[AngelBeats]",
    "title": "AngelBeats_842036",
    "link_img": "https://live.staticflickr.com/65535/47103203524_de3336ab75_o.jpg",
    "id_image": "AngelBeats_842036",
    "count_view": 0
  },
  {
    "link_thumb": "https://live.staticflickr.com/65535/47892432281_c902cf270b_n.jpg",
    "id_album": "-1326058986",
    "description": "AngelBeats_842037,[isGirlAnime],[isSadAnime],[isSadAnimeGirl],[Angel Beats],[AngelBeats]",
    "title": "AngelBeats_842037",
    "link_img": "https://live.staticflickr.com/65535/47892432281_88ffbbdfd1_o.jpg",
    "id_image": "AngelBeats_842037",
    "count_view": 0
  },
  {
    "link_thumb": "https://live.staticflickr.com/65535/47103205324_e34e4eddf3_n.jpg",
    "id_album": "-1326058986",
    "description": "AngelBeats_842038,[isGirlAnime],[isCuteAnime],[isGirlsLoliAnime],[Angel Beats],[AngelBeats]",
    "title": "AngelBeats_842038",
    "link_img": "https://live.staticflickr.com/65535/47103205324_2c4c373c77_o.jpg",
    "id_image": "AngelBeats_842038",
    "count_view": 0
  },
  {
    "link_thumb": "https://live.staticflickr.com/65535/47892433621_99aa660568_n.jpg",
    "id_album": "-1326058986",
    "description": "AngelBeats_842039,[isGirlAnime],[isKimonoAnime],[Angel Beats],[AngelBeats]",
    "title": "AngelBeats_842039",
    "link_img": "https://live.staticflickr.com/65535/47892433621_567c008bd5_o.jpg",
    "id_image": "AngelBeats_842039",
    "count_view": 0
  },
  {
    "link_thumb": "https://live.staticflickr.com/65535/47103207004_a37140ec15_n.jpg",
    "id_album": "-1326058986",
    "description": "AngelBeats_842040,[isGirlAnime],[isCuteAnime],[isGirlsHatsHoodieAnime],[isGirlsLoliAnime],[Angel Beats],[AngelBeats]",
    "title": "AngelBeats_842040",
    "link_img": "https://live.staticflickr.com/65535/47103207004_c6474c1dac_o.jpg",
    "id_image": "AngelBeats_842040",
    "count_view": 0
  },
  {
    "link_thumb": "https://live.staticflickr.com/65535/46976400845_382b490fa6_n.jpg",
    "id_album": "-1326058986",
    "description": "AngelBeats_842041,[isGirlAnime],[isGirlsHatsHoodieAnime],[Angel Beats],[AngelBeats]",
    "title": "AngelBeats_842041",
    "link_img": "https://live.staticflickr.com/65535/46976400845_3d51169a14_o.jpg",
    "id_image": "AngelBeats_842041",
    "count_view": 0
  },
  {
    "link_thumb": "https://live.staticflickr.com/65535/40926119113_1377b31c89_n.jpg",
    "id_album": "-1326058986",
    "description": "AngelBeats_842042,[isGirlAnime],[isSadAnime],[isSadAnimeGirl],[Angel Beats],[AngelBeats]",
    "title": "AngelBeats_842042",
    "link_img": "https://live.staticflickr.com/65535/40926119113_8c3d2c6c38_o.jpg",
    "id_image": "AngelBeats_842042",
    "count_view": 0
  },
  {
    "link_thumb": "https://live.staticflickr.com/65535/47103209224_37a5bd2518_n.jpg",
    "id_album": "-1326058986",
    "description": "AngelBeats_842043,[isGirlAnime],[isCuteAnime],[Angel Beats],[AngelBeats]",
    "title": "AngelBeats_842043",
    "link_img": "https://live.staticflickr.com/65535/47103209224_28b99c9a53_o.jpg",
    "id_image": "AngelBeats_842043",
    "count_view": 0
  },
  {
    "link_thumb": "https://live.staticflickr.com/65535/46976402875_4ef24ebbdf_n.jpg",
    "id_album": "-1326058986",
    "description": "AngelBeats_842044,[isGirlAnime],[isCuteAnime],[isGirlsHatsHoodieAnime],[Angel Beats],[AngelBeats]",
    "title": "AngelBeats_842044",
    "link_img": "https://live.staticflickr.com/65535/46976402875_754f948e00_o.jpg",
    "id_image": "AngelBeats_842044",
    "count_view": 0
  },
  {
    "link_thumb": "https://live.staticflickr.com/65535/46976403415_1b64f1e1dc_n.jpg",
    "id_album": "-1326058986",
    "description": "AngelBeats_842045,[isGirlAnime],[isCuteAnime],[isKimonoAnime],[Angel Beats],[AngelBeats]",
    "title": "AngelBeats_842045",
    "link_img": "https://live.staticflickr.com/65535/46976403415_5013193e03_o.jpg",
    "id_image": "AngelBeats_842045",
    "count_view": 0
  },
  {
    "link_thumb": "https://live.staticflickr.com/65535/46976403885_c1da6c1523_n.jpg",
    "id_album": "-1326058986",
    "description": "AngelBeats_842046,[isGirlAnime],[Angel Beats],[AngelBeats]",
    "title": "AngelBeats_842046",
    "link_img": "https://live.staticflickr.com/65535/46976403885_148cc1764e_o.jpg",
    "id_image": "AngelBeats_842046",
    "count_view": 0
  },
  {
    "link_thumb": "https://live.staticflickr.com/65535/47840502412_e0e7fca27a_n.jpg",
    "id_album": "-1326058986",
    "description": "AngelBeats_842047,[isGirlAnime],[isCuteAnime],[Angel Beats],[AngelBeats]",
    "title": "AngelBeats_842047",
    "link_img": "https://live.staticflickr.com/65535/47840502412_f191b82fe0_o.jpg",
    "id_image": "AngelBeats_842047",
    "count_view": 0
  },
  {
    "link_thumb": "https://live.staticflickr.com/65535/47103212174_178413ece6_n.jpg",
    "id_album": "-1326058986",
    "description": "AngelBeats_842048,[isGirlAnime],[isGirlsHatsHoodieAnime],[Angel Beats],[AngelBeats]",
    "title": "AngelBeats_842048",
    "link_img": "https://live.staticflickr.com/65535/47103212174_f40372391a_o.jpg",
    "id_image": "AngelBeats_842048",
    "count_view": 0
  },
  {
    "link_thumb": "https://live.staticflickr.com/65535/47103212774_0952fb82eb_n.jpg",
    "id_album": "-1326058986",
    "description": "AngelBeats_842049,[isGirlAnime],[isCuteAnime],[isGirlEarsNekoAnime],[isGirlsLoliAnime],[Angel Beats],[AngelBeats]",
    "title": "AngelBeats_842049",
    "link_img": "https://live.staticflickr.com/65535/47103212774_931a8dd15b_o.jpg",
    "id_image": "AngelBeats_842049",
    "count_view": 0
  },
  {
    "link_thumb": "https://live.staticflickr.com/65535/47892440861_96ca91cd5d_n.jpg",
    "id_album": "-1326058986",
    "description": "AngelBeats_842051,[isGirlAnime],[isSadAnime],[isSadAnimeGirl],[Angel Beats],[AngelBeats]",
    "title": "AngelBeats_842051",
    "link_img": "https://live.staticflickr.com/65535/47892440861_4b9020da8b_o.jpg",
    "id_image": "AngelBeats_842051",
    "count_view": 0
  },
  {
    "link_thumb": "https://live.staticflickr.com/65535/47892441511_8feae68d18_n.jpg",
    "id_album": "-1326058986",
    "description": "AngelBeats_842052,[isGirlAnime],[isCuteAnime],[isGirlsLoliAnime],[Angel Beats],[AngelBeats]",
    "title": "AngelBeats_842052",
    "link_img": "https://live.staticflickr.com/65535/47892441511_a851769277_o.jpg",
    "id_image": "AngelBeats_842052",
    "count_view": 0
  },
  {
    "link_thumb": "https://live.staticflickr.com/65535/47103216954_46002b361a_n.jpg",
    "id_album": "-1326058986",
    "description": "AngelBeats_842055,[isGirlAnime],[Angel Beats],[AngelBeats]",
    "title": "AngelBeats_842055",
    "link_img": "https://live.staticflickr.com/65535/47103216954_cf16c10e02_o.jpg",
    "id_image": "AngelBeats_842055",
    "count_view": 0
  },
  {
    "link_thumb": "https://live.staticflickr.com/65535/47840509262_1ecd62dab4_n.jpg",
    "id_album": "-1326058986",
    "description": "AngelBeats_844601,[isGirlAnime],[isSadAnime],[isSadAnimeGirl],[Angel Beats],[AngelBeats]",
    "title": "AngelBeats_844601",
    "link_img": "https://live.staticflickr.com/65535/47840509262_b95cb1eb16_o.jpg",
    "id_image": "AngelBeats_844601",
    "count_view": 0
  },
  {
    "link_thumb": "https://live.staticflickr.com/65535/40926137083_7bdc820a2f_n.jpg",
    "id_album": "-1326058986",
    "description": "AngelBeats_848051,[isGirlAnime],[isSadAnime],[isSadAnimeGirl],[isGirlsHatsHoodieAnime],[Angel Beats],[AngelBeats]",
    "title": "AngelBeats_848051",
    "link_img": "https://live.staticflickr.com/65535/40926137083_c88a977090_o.jpg",
    "id_image": "AngelBeats_848051",
    "count_view": 0
  },
  {
    "link_thumb": "https://live.staticflickr.com/65535/46976420295_dac76f05f7_n.jpg",
    "id_album": "-1326058986",
    "description": "AngelBeats_848057,[isGirlAnime],[isSadAnime],[isSadAnimeGirl],[Angel Beats],[AngelBeats]",
    "title": "AngelBeats_848057",
    "link_img": "https://live.staticflickr.com/65535/46976420295_e848b2ce0d_o.jpg",
    "id_image": "AngelBeats_848057",
    "count_view": 0
  },
  {
    "link_thumb": "https://live.staticflickr.com/65535/47840515082_9b0deba52b_n.jpg",
    "id_album": "-1326058986",
    "description": "AngelBeats_848931,[isGirlAnime],[isGirlsLoliAnime],[Angel Beats],[AngelBeats]",
    "title": "AngelBeats_848931",
    "link_img": "https://live.staticflickr.com/65535/47840515082_91603be60f_o.jpg",
    "id_image": "AngelBeats_848931",
    "count_view": 0
  },
  {
    "link_thumb": "https://live.staticflickr.com/65535/40926138833_cb657a1f84_n.jpg",
    "id_album": "-1326058986",
    "description": "AngelBeats_848936,[isGirlAnime],[isSadAnime],[isSadAnimeGirl],[Angel Beats],[AngelBeats]",
    "title": "AngelBeats_848936",
    "link_img": "https://live.staticflickr.com/65535/40926138833_ae1deca6bf_o.jpg",
    "id_image": "AngelBeats_848936",
    "count_view": 0
  },
  {
    "link_thumb": "https://live.staticflickr.com/65535/47103223874_407e4cbd99_n.jpg",
    "id_album": "-1326058986",
    "description": "AngelBeats_84938,[isGirlAnime],[isSadAnime],[isSadAnimeGirl],[Angel Beats],[AngelBeats]",
    "title": "AngelBeats_84938",
    "link_img": "https://live.staticflickr.com/65535/47103223874_8ea8a29a71_o.jpg",
    "id_image": "AngelBeats_84938",
    "count_view": 0
  },
  {
    "link_thumb": "https://live.staticflickr.com/65535/47103233644_d42bbe6b37_n.jpg",
    "id_album": "-1326058986",
    "description": "AngelBeats_886842,[isGirlAnime],[Angel Beats],[AngelBeats]",
    "title": "AngelBeats_886842",
    "link_img": "https://live.staticflickr.com/65535/47103233644_825e4ed25d_o.jpg",
    "id_image": "AngelBeats_886842",
    "count_view": 0
  },
  {
    "link_thumb": "https://live.staticflickr.com/65535/47892463201_2c08f6e2d2_n.jpg",
    "id_album": "-1326058986",
    "description": "AngelBeats_886844,[isGirlAnime],[isGirlsLoliAnime],[Angel Beats],[AngelBeats]",
    "title": "AngelBeats_886844",
    "link_img": "https://live.staticflickr.com/65535/47892463201_001b0fb524_o.jpg",
    "id_image": "AngelBeats_886844",
    "count_view": 0
  },
  {
    "link_thumb": "https://live.staticflickr.com/65535/47840521562_7381e58ca3_n.jpg",
    "id_album": "-1326058986",
    "description": "AngelBeats_886845,[isGirlAnime],[isCuteAnime],[isGirlsLoliAnime],[Angel Beats],[AngelBeats]",
    "title": "AngelBeats_886845",
    "link_img": "https://live.staticflickr.com/65535/47840521562_7ec88917e5_o.jpg",
    "id_image": "AngelBeats_886845",
    "count_view": 0
  },
  {
    "link_thumb": "https://live.staticflickr.com/65535/47840522092_03aa7c55e9_n.jpg",
    "id_album": "-1326058986",
    "description": "AngelBeats_886846,[isGirlAnime],[isCuteAnime],[isGirlsLoliAnime],[Angel Beats],[AngelBeats]",
    "title": "AngelBeats_886846",
    "link_img": "https://live.staticflickr.com/65535/47840522092_f9b8b6a513_o.jpg",
    "id_image": "AngelBeats_886846",
    "count_view": 0
  },
  {
    "link_thumb": "https://live.staticflickr.com/65535/46976435765_16398dff50_n.jpg",
    "id_album": "-1326058986",
    "description": "AngelBeats_886847,[isGirlAnime],[isSadAnime],[isSadAnimeGirl],[isGirlsLoliAnime],[Angel Beats],[AngelBeats]",
    "title": "AngelBeats_886847",
    "link_img": "https://live.staticflickr.com/65535/46976435765_453688e9e9_o.jpg",
    "id_image": "AngelBeats_886847",
    "count_view": 0
  },
  {
    "link_thumb": "https://live.staticflickr.com/65535/46976436485_5f7cddf0da_n.jpg",
    "id_album": "-1326058986",
    "description": "AngelBeats_886848,[isGirlAnime],[isCuteAnime],[isGirlsLoliAnime],[isGirlsSharpCanineToothAnime],[Angel Beats],[AngelBeats]",
    "title": "AngelBeats_886848",
    "link_img": "https://live.staticflickr.com/65535/46976436485_752e5ff40e_o.jpg",
    "id_image": "AngelBeats_886848",
    "count_view": 0
  },
  {
    "link_thumb": "https://live.staticflickr.com/65535/46976437345_4464c2ba0a_n.jpg",
    "id_album": "-1326058986",
    "description": "AngelBeats_886849,[isGirlAnime],[isCuteAnime],[isGirlsHatsHoodieAnime],[isGirlsSharpCanineToothAnime],[Angel Beats],[AngelBeats]",
    "title": "AngelBeats_886849",
    "link_img": "https://live.staticflickr.com/65535/46976437345_1f0e738370_o.jpg",
    "id_image": "AngelBeats_886849",
    "count_view": 0
  },
  {
    "link_thumb": "https://live.staticflickr.com/65535/47892471901_f49bc47a46_n.jpg",
    "id_album": "-1326058986",
    "description": "AngelBeats_886850,[isGirlAnime],[isSadAnime],[isSadAnimeGirl],[isGirlsLoliAnime],[Angel Beats],[AngelBeats]",
    "title": "AngelBeats_886850",
    "link_img": "https://live.staticflickr.com/65535/47892471901_bf15182684_o.jpg",
    "id_image": "AngelBeats_886850",
    "count_view": 0
  },
  {
    "link_thumb": "https://live.staticflickr.com/65535/47892475361_455f761a2e_n.jpg",
    "id_album": "-1326058986",
    "description": "AngelBeats_950126,[isGirlAnime],[isCuteAnime],[isGirlsLoliAnime],[Angel Beats],[AngelBeats]",
    "title": "AngelBeats_950126",
    "link_img": "https://live.staticflickr.com/65535/47892475361_1299f0a79e_o.jpg",
    "id_image": "AngelBeats_950126",
    "count_view": 0
  },
  {
    "link_thumb": "https://live.staticflickr.com/65535/47103237804_59dd7bf291_n.jpg",
    "id_album": "-1326058986",
    "description": "AngelBeats_962677,[isGirlAnime],[isSadAnime],[isSadAnimeGirl],[isGirlsLoliAnime],[Angel Beats],[AngelBeats]",
    "title": "AngelBeats_962677",
    "link_img": "https://live.staticflickr.com/65535/47103237804_2f4c717a35_o.jpg",
    "id_image": "AngelBeats_962677",
    "count_view": 0
  }
]