[
  {
    "total_img": 13,
    "number_page": 1,
    "title": "Anima Yell",
    "tag": "Anime, Arima Hizume, Hatoya Kohane, Tatejima Kotetsu, Sawatari Uki, Ushiku Kana, Anima Yell",
    "description": "Anima Yell",
    "link_thumb": "https://live.staticflickr.com/65535/47840630322_9ff63437c4_n.jpg",
    "id_album": "519566327",
    "total_view": 13
  }
]