[
  {
    "total_img": 63,
    "number_page": 1,
    "title": "ReCreators",
    "tag": "Mamika Kouki, Alicetaria February, Setsuna Shimazaki, Hikayu Hoshikawa, Yuya Mirokuji, Altair ReCreators, Rui Kanoya, Selesia Yupitiria, Magane Chikujoin, Meteora Osterreich, Blitz Talker, ReCreators, Mamika Kirameki, Gunpuku no Himegimi",
    "description": "ReCreators",
    "link_thumb": "https://live.staticflickr.com/65535/48052972583_35862ca7ca_n.jpg",
    "id_album": "1014962415",
    "total_view": 63
  },
  {
    "total_img": 2,
    "number_page": 1,
    "title": "Selesia Yupitiria",
    "tag": "Selesia Yupitiria,",
    "description": "Selesia Yupitiria",
    "link_thumb": "https://live.staticflickr.com/65535/48053057597_53ac0ae1a3_n.jpg",
    "id_album": "246985725",
    "total_view": 2
  }
]