[
  {
    "link_thumb": "https://live.staticflickr.com/65535/40931765143_8d82ec3f55_n.jpg",
    "id_album": "1643264634",
    "description": "BlackRockShooter_108034",
    "title": "BlackRockShooter_108034",
    "link_img": "https://live.staticflickr.com/65535/40931765143_0e9b4f0401_o.jpg",
    "id_image": "BlackRockShooter_108034",
    "count_view": 0
  },
  {
    "link_thumb": "https://live.staticflickr.com/65535/47899315451_47060bcf8e_n.jpg",
    "id_album": "1643264634",
    "description": "BlackRockShooter_296079",
    "title": "BlackRockShooter_296079",
    "link_img": "https://live.staticflickr.com/65535/47899315451_b7dc5a4a8d_o.jpg",
    "id_image": "BlackRockShooter_296079",
    "count_view": 0
  },
  {
    "link_thumb": "https://live.staticflickr.com/65535/40932991563_d126261720_n.jpg",
    "id_album": "1643264634",
    "description": "BlackRockShooter_297490",
    "title": "BlackRockShooter_297490",
    "link_img": "https://live.staticflickr.com/65535/40932991563_4024b287b2_o.jpg",
    "id_image": "BlackRockShooter_297490",
    "count_view": 0
  },
  {
    "link_thumb": "https://live.staticflickr.com/65535/40933090923_0a46cb2fab_n.jpg",
    "id_album": "1643264634",
    "description": "BlackRockShooter_297863",
    "title": "BlackRockShooter_297863",
    "link_img": "https://live.staticflickr.com/65535/40933090923_2864ccd84c_o.jpg",
    "id_image": "BlackRockShooter_297863",
    "count_view": 0
  },
  {
    "link_thumb": "https://live.staticflickr.com/65535/47847826352_03b805f027_n.jpg",
    "id_album": "1643264634",
    "description": "BlackRockShooter_315392",
    "title": "BlackRockShooter_315392",
    "link_img": "https://live.staticflickr.com/65535/47847826352_62bcc509a8_o.jpg",
    "id_image": "BlackRockShooter_315392",
    "count_view": 0
  },
  {
    "link_thumb": "https://live.staticflickr.com/65535/47900161031_cc14d58a56_n.jpg",
    "id_album": "1643264634",
    "description": "BlackRockShooter_771494",
    "title": "BlackRockShooter_771494",
    "link_img": "https://live.staticflickr.com/65535/47900161031_f705ff3d9e_o.jpg",
    "id_image": "BlackRockShooter_771494",
    "count_view": 0
  },
  {
    "link_thumb": "https://live.staticflickr.com/65535/47900260821_1fc8ab58b5_n.jpg",
    "id_album": "1643264634",
    "description": "BlackRockShooter_843203",
    "title": "BlackRockShooter_843203",
    "link_img": "https://live.staticflickr.com/65535/47900260821_61d1293324_o.jpg",
    "id_image": "BlackRockShooter_843203",
    "count_view": 0
  }
]