[
  {
    "total_img": 94,
    "number_page": 1,
    "title": "Tales of Zestiria the X",
    "tag": "Sorey Zestiria, Alisha Diphda, Dezel Zestiria, Lailah Zestiria, Edna Zestiria, Tales of Zestiria the X, Mikleo Zestiria, Rose Zestiria, Zaveid Zestiria",
    "description": "Tales of Zestiria the X",
    "link_thumb": "https://live.staticflickr.com/65535/48059242647_fb6465375d_n.jpg",
    "id_album": "-2113357856",
    "total_view": 94
  }
]