[
  {
    "total_img": 18,
    "number_page": 1,
    "title": "Shukufuku no Campanella",
    "tag": "Shukufuku no Campanella, Avril Shukufuku no Campanella, Agnes Boulange, Carina Verritti, Pink Hair, Minette Shukufuku no Campanella, Chelsea Arcot, Food, Red Eyes",
    "description": "Shukufuku no Campanella",
    "link_thumb": "https://live.staticflickr.com/65535/48055704767_cb4b4aac6a_n.jpg",
    "id_album": "426028296",
    "total_view": 18
  }
]