[
  {
    "total_img": 13,
    "number_page": 1,
    "title": "Katawa Shoujo",
    "tag": "Katawa Shoujo, Anime, Game, Rin Katawa Shoujo, Emi Ibarazaki, Lilly Satou, Shiina Mikado, Shizune Hakamichi, Hanako Ikezawa, Rin Tezuka, Sunflower, Manga",
    "description": "Katawa Shoujo",
    "link_thumb": "https://live.staticflickr.com/65535/48047824162_0596ea79cf_n.jpg",
    "id_album": "174234379",
    "total_view": 13
  },
  {
    "total_img": 4,
    "number_page": 1,
    "title": "Hanako Ikezawa",
    "tag": "Hanako Ikezawa,",
    "description": "Hanako Ikezawa",
    "link_thumb": "https://live.staticflickr.com/65535/48047793343_5b2e6d6b31_n.jpg",
    "id_album": "218857116",
    "total_view": 4
  }
]