[
  {
    "link_thumb": "https://live.staticflickr.com/65535/47999483178_d30b633544_n.jpg",
    "id_album": "1979340022",
    "description": "HousekinoKuni_907338",
    "title": "HousekinoKuni_907338",
    "link_img": "https://live.staticflickr.com/65535/47999483178_24ca1ebcef_o.jpg",
    "id_image": "HousekinoKuni_907338",
    "count_view": 0
  },
  {
    "link_thumb": "https://live.staticflickr.com/65535/47999481197_b377c03baa_n.jpg",
    "id_album": "1979340022",
    "description": "HousekinoKuni_907339",
    "title": "HousekinoKuni_907339",
    "link_img": "https://live.staticflickr.com/65535/47999481197_7a8696ce9a_o.jpg",
    "id_image": "HousekinoKuni_907339",
    "count_view": 0
  },
  {
    "link_thumb": "https://live.staticflickr.com/65535/47999485167_d373073a69_n.jpg",
    "id_album": "1979340022",
    "description": "HousekinoKuni_907358",
    "title": "HousekinoKuni_907358",
    "link_img": "https://live.staticflickr.com/65535/47999485167_848d6dd447_o.jpg",
    "id_image": "HousekinoKuni_907358",
    "count_view": 0
  },
  {
    "link_thumb": "https://live.staticflickr.com/65535/47999533091_2d99e2559e_n.jpg",
    "id_album": "1979340022",
    "description": "HousekinoKuni_907416",
    "title": "HousekinoKuni_907416",
    "link_img": "https://live.staticflickr.com/65535/47999533091_5e0ebc970d_o.jpg",
    "id_image": "HousekinoKuni_907416",
    "count_view": 0
  },
  {
    "link_thumb": "https://live.staticflickr.com/65535/47999498173_8ee784dbc9_n.jpg",
    "id_album": "1979340022",
    "description": "HousekinoKuni_907441",
    "title": "HousekinoKuni_907441",
    "link_img": "https://live.staticflickr.com/65535/47999498173_d9b93ac623_o.jpg",
    "id_image": "HousekinoKuni_907441",
    "count_view": 0
  },
  {
    "link_thumb": "https://live.staticflickr.com/65535/47999500368_51c9bcf879_n.jpg",
    "id_album": "1979340022",
    "description": "HousekinoKuni_907453",
    "title": "HousekinoKuni_907453",
    "link_img": "https://live.staticflickr.com/65535/47999500368_f7fbc69d98_o.jpg",
    "id_image": "HousekinoKuni_907453",
    "count_view": 0
  },
  {
    "link_thumb": "https://live.staticflickr.com/65535/47999501457_eedcf40e91_n.jpg",
    "id_album": "1979340022",
    "description": "HousekinoKuni_907466",
    "title": "HousekinoKuni_907466",
    "link_img": "https://live.staticflickr.com/65535/47999501457_7604f30a4f_o.jpg",
    "id_image": "HousekinoKuni_907466",
    "count_view": 0
  },
  {
    "link_thumb": "https://live.staticflickr.com/65535/47999502567_bc83687645_n.jpg",
    "id_album": "1979340022",
    "description": "HousekinoKuni_907488",
    "title": "HousekinoKuni_907488",
    "link_img": "https://live.staticflickr.com/65535/47999502567_5e18ff4fcd_o.jpg",
    "id_image": "HousekinoKuni_907488",
    "count_view": 0
  },
  {
    "link_thumb": "https://live.staticflickr.com/65535/47999554406_9b544d9095_n.jpg",
    "id_album": "1979340022",
    "description": "HousekinoKuni_909297",
    "title": "HousekinoKuni_909297",
    "link_img": "https://live.staticflickr.com/65535/47999554406_a096d82f4a_o.jpg",
    "id_image": "HousekinoKuni_909297",
    "count_view": 0
  },
  {
    "link_thumb": "https://live.staticflickr.com/65535/47999519247_31c8a6b36e_n.jpg",
    "id_album": "1979340022",
    "description": "HousekinoKuni_909579",
    "title": "HousekinoKuni_909579",
    "link_img": "https://live.staticflickr.com/65535/47999519247_d90a54e54a_o.jpg",
    "id_image": "HousekinoKuni_909579",
    "count_view": 0
  },
  {
    "link_thumb": "https://live.staticflickr.com/65535/47999563746_9655abd664_n.jpg",
    "id_album": "1979340022",
    "description": "HousekinoKuni_913844",
    "title": "HousekinoKuni_913844",
    "link_img": "https://live.staticflickr.com/65535/47999563746_708b8f38d5_o.jpg",
    "id_image": "HousekinoKuni_913844",
    "count_view": 0
  },
  {
    "link_thumb": "https://live.staticflickr.com/65535/47999534808_0d5e07b615_n.jpg",
    "id_album": "1979340022",
    "description": "HousekinoKuni_919055",
    "title": "HousekinoKuni_919055",
    "link_img": "https://live.staticflickr.com/65535/47999534808_e439b5b9d2_o.jpg",
    "id_image": "HousekinoKuni_919055",
    "count_view": 0
  },
  {
    "link_thumb": "https://live.staticflickr.com/65535/47999534602_83cf9ba27f_n.jpg",
    "id_album": "1979340022",
    "description": "HousekinoKuni_919400",
    "title": "HousekinoKuni_919400",
    "link_img": "https://live.staticflickr.com/65535/47999534602_d24219c2d0_o.jpg",
    "id_image": "HousekinoKuni_919400",
    "count_view": 0
  },
  {
    "link_thumb": "https://live.staticflickr.com/65535/47999537193_7e81f12ef8_n.jpg",
    "id_album": "1979340022",
    "description": "HousekinoKuni_919407",
    "title": "HousekinoKuni_919407",
    "link_img": "https://live.staticflickr.com/65535/47999537193_385089ae99_o.jpg",
    "id_image": "HousekinoKuni_919407",
    "count_view": 0
  },
  {
    "link_thumb": "https://live.staticflickr.com/65535/47999537672_962a8ea629_n.jpg",
    "id_album": "1979340022",
    "description": "HousekinoKuni_919426",
    "title": "HousekinoKuni_919426",
    "link_img": "https://live.staticflickr.com/65535/47999537672_82e0a784cb_o.jpg",
    "id_image": "HousekinoKuni_919426",
    "count_view": 0
  },
  {
    "link_thumb": "https://live.staticflickr.com/65535/47999538927_a491867594_n.jpg",
    "id_album": "1979340022",
    "description": "HousekinoKuni_919471",
    "title": "HousekinoKuni_919471",
    "link_img": "https://live.staticflickr.com/65535/47999538927_9afa745935_o.jpg",
    "id_image": "HousekinoKuni_919471",
    "count_view": 0
  },
  {
    "link_thumb": "https://live.staticflickr.com/65535/47999544527_052b9afb02_n.jpg",
    "id_album": "1979340022",
    "description": "HousekinoKuni_919502",
    "title": "HousekinoKuni_919502",
    "link_img": "https://live.staticflickr.com/65535/47999544527_24b6d2ace6_o.jpg",
    "id_image": "HousekinoKuni_919502",
    "count_view": 0
  },
  {
    "link_thumb": "https://live.staticflickr.com/65535/47999546838_bb98976a2b_n.jpg",
    "id_album": "1979340022",
    "description": "HousekinoKuni_919582",
    "title": "HousekinoKuni_919582",
    "link_img": "https://live.staticflickr.com/65535/47999546838_af6da50c22_o.jpg",
    "id_image": "HousekinoKuni_919582",
    "count_view": 0
  },
  {
    "link_thumb": "https://live.staticflickr.com/65535/47999603651_162c2d4bb2_n.jpg",
    "id_album": "1979340022",
    "description": "HousekinoKuni_924726",
    "title": "HousekinoKuni_924726",
    "link_img": "https://live.staticflickr.com/65535/47999603651_01a9902fb4_o.jpg",
    "id_image": "HousekinoKuni_924726",
    "count_view": 0
  },
  {
    "link_thumb": "https://live.staticflickr.com/65535/47999607746_d12d3860b9_n.jpg",
    "id_album": "1979340022",
    "description": "HousekinoKuni_926653",
    "title": "HousekinoKuni_926653",
    "link_img": "https://live.staticflickr.com/65535/47999607746_81f098fe83_o.jpg",
    "id_image": "HousekinoKuni_926653",
    "count_view": 0
  },
  {
    "link_thumb": "https://live.staticflickr.com/65535/47999610031_f5c56efc2e_n.jpg",
    "id_album": "1979340022",
    "description": "HousekinoKuni_931411",
    "title": "HousekinoKuni_931411",
    "link_img": "https://live.staticflickr.com/65535/47999610031_032a19e3d2_o.jpg",
    "id_image": "HousekinoKuni_931411",
    "count_view": 0
  },
  {
    "link_thumb": "https://live.staticflickr.com/65535/47999617296_8036bcc618_n.jpg",
    "id_album": "1979340022",
    "description": "HousekinoKuni_952729",
    "title": "HousekinoKuni_952729",
    "link_img": "https://live.staticflickr.com/65535/47999617296_837edc280b_o.jpg",
    "id_image": "HousekinoKuni_952729",
    "count_view": 0
  }
]