[
  {
    "link_thumb": "https://live.staticflickr.com/65535/47101763354_04c5c54dd0_n.jpg",
    "id_album": "601521951",
    "description": "AkamegaKill_592276",
    "title": "AkamegaKill_592276",
    "link_img": "https://live.staticflickr.com/65535/47101763354_d717fa8d43_o.jpg",
    "id_image": "AkamegaKill_592276",
    "count_view": 0
  },
  {
    "link_thumb": "https://live.staticflickr.com/65535/40924857963_37a0d4d8c5_n.jpg",
    "id_album": "601521951",
    "description": "AkaneironiSomaruSaka_911162",
    "title": "AkaneironiSomaruSaka_911162",
    "link_img": "https://live.staticflickr.com/65535/40924857963_479679e061_o.jpg",
    "id_image": "AkaneironiSomaruSaka_911162",
    "count_view": 0
  },
  {
    "link_thumb": "https://live.staticflickr.com/65535/47104158454_b7c24a042c_n.jpg",
    "id_album": "601521951",
    "description": "Aria_530430",
    "title": "Aria_530430",
    "link_img": "https://live.staticflickr.com/65535/47104158454_6a4e887810_o.jpg",
    "id_image": "Aria_530430",
    "count_view": 0
  },
  {
    "link_thumb": "https://live.staticflickr.com/65535/40941741383_5101fd6956_n.jpg",
    "id_album": "601521951",
    "description": "Bleach_670680",
    "title": "Bleach_670680",
    "link_img": "https://live.staticflickr.com/65535/40941741383_0b0d93d1d6_o.jpg",
    "id_image": "Bleach_670680",
    "count_view": 0
  },
  {
    "link_thumb": "https://live.staticflickr.com/65535/47954405576_b9c3fc1450_n.jpg",
    "id_album": "601521951",
    "description": "CodeGeass_634676",
    "title": "CodeGeass_634676",
    "link_img": "https://live.staticflickr.com/65535/47954405576_9c47f1fd80_o.jpg",
    "id_image": "CodeGeass_634676",
    "count_view": 0
  },
  {
    "link_thumb": "https://live.staticflickr.com/65535/47955202961_c0ae39319f_n.jpg",
    "id_album": "601521951",
    "description": "CodeGeass_830995",
    "title": "CodeGeass_830995",
    "link_img": "https://live.staticflickr.com/65535/47955202961_fd839b3467_o.jpg",
    "id_image": "CodeGeass_830995",
    "count_view": 0
  },
  {
    "link_thumb": "https://live.staticflickr.com/65535/47955325453_34c2f2a360_n.jpg",
    "id_album": "601521951",
    "description": "CodeGeass_938781",
    "title": "CodeGeass_938781",
    "link_img": "https://live.staticflickr.com/65535/47955325453_0b00d0ed41_o.jpg",
    "id_image": "CodeGeass_938781",
    "count_view": 0
  },
  {
    "link_thumb": "https://live.staticflickr.com/65535/47955752036_6d66f974b3_n.jpg",
    "id_album": "601521951",
    "description": "Crossover_713516",
    "title": "Crossover_713516",
    "link_img": "https://live.staticflickr.com/65535/47955752036_e0dea0feaf_o.jpg",
    "id_image": "Crossover_713516",
    "count_view": 0
  },
  {
    "link_thumb": "https://live.staticflickr.com/65535/47955737068_2d405fc5c4_n.jpg",
    "id_album": "601521951",
    "description": "Crossover_715527",
    "title": "Crossover_715527",
    "link_img": "https://live.staticflickr.com/65535/47955737068_494832fb3c_o.jpg",
    "id_image": "Crossover_715527",
    "count_view": 0
  },
  {
    "link_thumb": "https://live.staticflickr.com/65535/47960462173_ea35c02339_n.jpg",
    "id_album": "601521951",
    "description": "Crossover_740460",
    "title": "Crossover_740460",
    "link_img": "https://live.staticflickr.com/65535/47960462173_f99e01b094_o.jpg",
    "id_image": "Crossover_740460",
    "count_view": 0
  },
  {
    "link_thumb": "https://live.staticflickr.com/65535/47967236241_ab840d7245_n.jpg",
    "id_album": "601521951",
    "description": "DeathParade_676633",
    "title": "DeathParade_676633",
    "link_img": "https://live.staticflickr.com/65535/47967236241_112c9b84b6_o.jpg",
    "id_image": "DeathParade_676633",
    "count_view": 0
  },
  {
    "link_thumb": "https://live.staticflickr.com/65535/47967238011_24a4bf2b25_n.jpg",
    "id_album": "601521951",
    "description": "DeathParade_713767",
    "title": "DeathParade_713767",
    "link_img": "https://live.staticflickr.com/65535/47967238011_895d1dba7e_o.jpg",
    "id_image": "DeathParade_713767",
    "count_view": 0
  },
  {
    "link_thumb": "https://live.staticflickr.com/65535/47977194192_f9ee40099f_n.jpg",
    "id_album": "601521951",
    "description": "FateGrandOrder_944963",
    "title": "FateGrandOrder_944963",
    "link_img": "https://live.staticflickr.com/65535/47977194192_3e131f03cd_o.jpg",
    "id_image": "FateGrandOrder_944963",
    "count_view": 0
  },
  {
    "link_thumb": "https://live.staticflickr.com/65535/47977248497_b26570267e_n.jpg",
    "id_album": "601521951",
    "description": "FateGrandOrder_968410",
    "title": "FateGrandOrder_968410",
    "link_img": "https://live.staticflickr.com/65535/47977248497_5a4fe787cc_o.jpg",
    "id_image": "FateGrandOrder_968410",
    "count_view": 0
  },
  {
    "link_thumb": "https://live.staticflickr.com/65535/47993315237_74178406a5_n.jpg",
    "id_album": "601521951",
    "description": "Haikyu_679685",
    "title": "Haikyu_679685",
    "link_img": "https://live.staticflickr.com/65535/47993315237_eaa8df0251_o.jpg",
    "id_image": "Haikyu_679685",
    "count_view": 0
  },
  {
    "link_thumb": "https://live.staticflickr.com/65535/48069570153_b3a4611eec_n.jpg",
    "id_album": "601521951",
    "description": "HoshizoraeKakaruHashi_697147",
    "title": "HoshizoraeKakaruHashi_697147",
    "link_img": "https://live.staticflickr.com/65535/48069570153_a538260835_o.jpg",
    "id_image": "HoshizoraeKakaruHashi_697147",
    "count_view": 0
  },
  {
    "link_thumb": "https://live.staticflickr.com/65535/48047480017_8922eb02bb_n.jpg",
    "id_album": "601521951",
    "description": "KantaiCollection_792972",
    "title": "KantaiCollection_792972",
    "link_img": "https://live.staticflickr.com/65535/48047480017_bc4817c463_o.jpg",
    "id_image": "KantaiCollection_792972",
    "count_view": 0
  },
  {
    "link_thumb": "https://live.staticflickr.com/65535/48047983902_90299eb35f_n.jpg",
    "id_album": "601521951",
    "description": "KillLaKill_978944",
    "title": "KillLaKill_978944",
    "link_img": "https://live.staticflickr.com/65535/48047983902_403f638a58_o.jpg",
    "id_image": "KillLaKill_978944",
    "count_view": 0
  },
  {
    "link_thumb": "https://live.staticflickr.com/65535/48071433287_4dd588efa0_n.jpg",
    "id_album": "601521951",
    "description": "MyHeroAcademia_815297",
    "title": "MyHeroAcademia_815297",
    "link_img": "https://live.staticflickr.com/65535/48071433287_4465354377_o.jpg",
    "id_image": "MyHeroAcademia_815297",
    "count_view": 0
  },
  {
    "link_thumb": "https://live.staticflickr.com/65535/48071392533_143ea6dcdc_n.jpg",
    "id_album": "601521951",
    "description": "MyHeroAcademia_820024",
    "title": "MyHeroAcademia_820024",
    "link_img": "https://live.staticflickr.com/65535/48071392533_be0e878fb0_o.jpg",
    "id_image": "MyHeroAcademia_820024",
    "count_view": 0
  },
  {
    "link_thumb": "https://live.staticflickr.com/65535/48071428678_960b4e5c43_n.jpg",
    "id_album": "601521951",
    "description": "MyHeroAcademia_856532",
    "title": "MyHeroAcademia_856532",
    "link_img": "https://live.staticflickr.com/65535/48071428678_69a1331a30_o.jpg",
    "id_image": "MyHeroAcademia_856532",
    "count_view": 0
  },
  {
    "link_thumb": "https://live.staticflickr.com/65535/48071466366_2c3734dc9c_n.jpg",
    "id_album": "601521951",
    "description": "MyHeroAcademia_937830",
    "title": "MyHeroAcademia_937830",
    "link_img": "https://live.staticflickr.com/65535/48071466366_a5db07df3b_o.jpg",
    "id_image": "MyHeroAcademia_937830",
    "count_view": 0
  },
  {
    "link_thumb": "https://live.staticflickr.com/65535/48073655966_541b558125_n.jpg",
    "id_album": "601521951",
    "description": "OnePiece_319163",
    "title": "OnePiece_319163",
    "link_img": "https://live.staticflickr.com/65535/48073655966_47946cf68c_o.jpg",
    "id_image": "OnePiece_319163",
    "count_view": 0
  },
  {
    "link_thumb": "https://live.staticflickr.com/65535/48073755346_3a8ef3fc97_n.jpg",
    "id_album": "601521951",
    "description": "OnePiece_672623",
    "title": "OnePiece_672623",
    "link_img": "https://live.staticflickr.com/65535/48073755346_c568ea8420_o.jpg",
    "id_image": "OnePiece_672623",
    "count_view": 0
  },
  {
    "link_thumb": "https://live.staticflickr.com/65535/48074031198_1212cb4bd3_n.jpg",
    "id_album": "601521951",
    "description": "OnePiece_932968",
    "title": "OnePiece_932968",
    "link_img": "https://live.staticflickr.com/65535/48074031198_49953084fb_o.jpg",
    "id_image": "OnePiece_932968",
    "count_view": 0
  },
  {
    "link_thumb": "https://live.staticflickr.com/65535/48074229653_1bafc3c3b1_n.jpg",
    "id_album": "601521951",
    "description": "OnePunchMan_656724",
    "title": "OnePunchMan_656724",
    "link_img": "https://live.staticflickr.com/65535/48074229653_8a06b57a1f_o.jpg",
    "id_image": "OnePunchMan_656724",
    "count_view": 0
  },
  {
    "link_thumb": "https://live.staticflickr.com/65535/48074319512_4d053ff0dd_n.jpg",
    "id_album": "601521951",
    "description": "OnePunchMan_667876",
    "title": "OnePunchMan_667876",
    "link_img": "https://live.staticflickr.com/65535/48074319512_aa1779747d_o.jpg",
    "id_image": "OnePunchMan_667876",
    "count_view": 0
  },
  {
    "link_thumb": "https://live.staticflickr.com/65535/48074255526_a57817d834_n.jpg",
    "id_album": "601521951",
    "description": "OnePunchMan_682569",
    "title": "OnePunchMan_682569",
    "link_img": "https://live.staticflickr.com/65535/48074255526_e96df2d1a5_o.jpg",
    "id_image": "OnePunchMan_682569",
    "count_view": 0
  },
  {
    "link_thumb": "https://live.staticflickr.com/65535/48075471358_26ce7b8971_n.jpg",
    "id_album": "601521951",
    "description": "Original_665098",
    "title": "Original_665098",
    "link_img": "https://live.staticflickr.com/65535/48075471358_1513cd4927_o.jpg",
    "id_image": "Original_665098",
    "count_view": 0
  },
  {
    "link_thumb": "https://live.staticflickr.com/65535/48075454731_30814455ae_n.jpg",
    "id_album": "601521951",
    "description": "Original_673342",
    "title": "Original_673342",
    "link_img": "https://live.staticflickr.com/65535/48075454731_eeb8015790_o.jpg",
    "id_image": "Original_673342",
    "count_view": 0
  },
  {
    "link_thumb": "https://live.staticflickr.com/65535/48075455801_2f30d8abbd_n.jpg",
    "id_album": "601521951",
    "description": "Original_673457",
    "title": "Original_673457",
    "link_img": "https://live.staticflickr.com/65535/48075455801_9e71d3f962_o.jpg",
    "id_image": "Original_673457",
    "count_view": 0
  },
  {
    "link_thumb": "https://live.staticflickr.com/65535/48075612246_ef9dc2600f_n.jpg",
    "id_album": "601521951",
    "description": "Original_695330",
    "title": "Original_695330",
    "link_img": "https://live.staticflickr.com/65535/48075612246_427f4fa8a8_o.jpg",
    "id_image": "Original_695330",
    "count_view": 0
  },
  {
    "link_thumb": "https://live.staticflickr.com/65535/48075872137_4f7470b031_n.jpg",
    "id_album": "601521951",
    "description": "Original_714485",
    "title": "Original_714485",
    "link_img": "https://live.staticflickr.com/65535/48075872137_c8aa7e3968_o.jpg",
    "id_image": "Original_714485",
    "count_view": 0
  },
  {
    "link_thumb": "https://live.staticflickr.com/65535/48075944747_961cca9538_n.jpg",
    "id_album": "601521951",
    "description": "Original_723315",
    "title": "Original_723315",
    "link_img": "https://live.staticflickr.com/65535/48075944747_0d8ea24d51_o.jpg",
    "id_image": "Original_723315",
    "count_view": 0
  },
  {
    "link_thumb": "https://live.staticflickr.com/65535/48077993821_edce34f31e_n.jpg",
    "id_album": "601521951",
    "description": "Original_845549",
    "title": "Original_845549",
    "link_img": "https://live.staticflickr.com/65535/48077993821_15ecb52f0b_o.jpg",
    "id_image": "Original_845549",
    "count_view": 0
  },
  {
    "link_thumb": "https://live.staticflickr.com/65535/48078091803_f50d676baf_n.jpg",
    "id_album": "601521951",
    "description": "Original_846760",
    "title": "Original_846760",
    "link_img": "https://live.staticflickr.com/65535/48078091803_6ac09b9aef_o.jpg",
    "id_image": "Original_846760",
    "count_view": 0
  },
  {
    "link_thumb": "https://live.staticflickr.com/65535/48078064156_4f7b054e0e_n.jpg",
    "id_album": "601521951",
    "description": "Original_846846",
    "title": "Original_846846",
    "link_img": "https://live.staticflickr.com/65535/48078064156_9d1a61fa38_o.jpg",
    "id_image": "Original_846846",
    "count_view": 0
  },
  {
    "link_thumb": "https://live.staticflickr.com/65535/48078164362_6931c40c0c_n.jpg",
    "id_album": "601521951",
    "description": "Original_846967",
    "title": "Original_846967",
    "link_img": "https://live.staticflickr.com/65535/48078164362_d7995ab862_o.jpg",
    "id_image": "Original_846967",
    "count_view": 0
  },
  {
    "link_thumb": "https://live.staticflickr.com/65535/48078148553_b51bb4007f_n.jpg",
    "id_album": "601521951",
    "description": "Original_847756",
    "title": "Original_847756",
    "link_img": "https://live.staticflickr.com/65535/48078148553_333f8d0f69_o.jpg",
    "id_image": "Original_847756",
    "count_view": 0
  },
  {
    "link_thumb": "https://live.staticflickr.com/65535/48078258242_842616c70c_n.jpg",
    "id_album": "601521951",
    "description": "Original_848460",
    "title": "Original_848460",
    "link_img": "https://live.staticflickr.com/65535/48078258242_9b25e65753_o.jpg",
    "id_image": "Original_848460",
    "count_view": 0
  },
  {
    "link_thumb": "https://live.staticflickr.com/65535/48078191753_2c1253180a_n.jpg",
    "id_album": "601521951",
    "description": "Original_848462",
    "title": "Original_848462",
    "link_img": "https://live.staticflickr.com/65535/48078191753_80d3cd313b_o.jpg",
    "id_image": "Original_848462",
    "count_view": 0
  },
  {
    "link_thumb": "https://live.staticflickr.com/65535/48078267643_f492ba7960_n.jpg",
    "id_album": "601521951",
    "description": "Original_850718",
    "title": "Original_850718",
    "link_img": "https://live.staticflickr.com/65535/48078267643_faaee92750_o.jpg",
    "id_image": "Original_850718",
    "count_view": 0
  },
  {
    "link_thumb": "https://live.staticflickr.com/65535/48078277586_2267a02829_n.jpg",
    "id_album": "601521951",
    "description": "Original_852005",
    "title": "Original_852005",
    "link_img": "https://live.staticflickr.com/65535/48078277586_7fb094a695_o.jpg",
    "id_image": "Original_852005",
    "count_view": 0
  },
  {
    "link_thumb": "https://live.staticflickr.com/65535/48078321996_b213779954_n.jpg",
    "id_album": "601521951",
    "description": "Original_852432",
    "title": "Original_852432",
    "link_img": "https://live.staticflickr.com/65535/48078321996_f9b70cafab_o.jpg",
    "id_image": "Original_852432",
    "count_view": 0
  },
  {
    "link_thumb": "https://live.staticflickr.com/65535/48078431293_a36d4b9565_n.jpg",
    "id_album": "601521951",
    "description": "Original_855521",
    "title": "Original_855521",
    "link_img": "https://live.staticflickr.com/65535/48078431293_c54e1066a5_o.jpg",
    "id_image": "Original_855521",
    "count_view": 0
  },
  {
    "link_thumb": "https://live.staticflickr.com/65535/48078401431_42d4fccd67_n.jpg",
    "id_album": "601521951",
    "description": "Original_855532",
    "title": "Original_855532",
    "link_img": "https://live.staticflickr.com/65535/48078401431_3b061eb036_o.jpg",
    "id_image": "Original_855532",
    "count_view": 0
  },
  {
    "link_thumb": "https://live.staticflickr.com/65535/48078522177_7f413bd52d_n.jpg",
    "id_album": "601521951",
    "description": "Original_857059",
    "title": "Original_857059",
    "link_img": "https://live.staticflickr.com/65535/48078522177_3bb0011bef_o.jpg",
    "id_image": "Original_857059",
    "count_view": 0
  },
  {
    "link_thumb": "https://live.staticflickr.com/65535/48078523297_6b54a1dd75_n.jpg",
    "id_album": "601521951",
    "description": "Original_857062",
    "title": "Original_857062",
    "link_img": "https://live.staticflickr.com/65535/48078523297_8f1aca85dc_o.jpg",
    "id_image": "Original_857062",
    "count_view": 0
  },
  {
    "link_thumb": "https://live.staticflickr.com/65535/48079315318_a05c543580_n.jpg",
    "id_album": "601521951",
    "description": "Original_864808",
    "title": "Original_864808",
    "link_img": "https://live.staticflickr.com/65535/48079315318_d00eb99aa9_o.jpg",
    "id_image": "Original_864808",
    "count_view": 0
  },
  {
    "link_thumb": "https://live.staticflickr.com/65535/48079964837_90ed420706_n.jpg",
    "id_album": "601521951",
    "description": "Original_869428",
    "title": "Original_869428",
    "link_img": "https://live.staticflickr.com/65535/48079964837_72b43cdc2b_o.jpg",
    "id_image": "Original_869428",
    "count_view": 0
  },
  {
    "link_thumb": "https://live.staticflickr.com/65535/48080660373_8be18ba949_n.jpg",
    "id_album": "601521951",
    "description": "Original_872532",
    "title": "Original_872532",
    "link_img": "https://live.staticflickr.com/65535/48080660373_f130f14b97_o.jpg",
    "id_image": "Original_872532",
    "count_view": 0
  },
  {
    "link_thumb": "https://live.staticflickr.com/65535/48080663863_85daaf6b07_n.jpg",
    "id_album": "601521951",
    "description": "Original_872756",
    "title": "Original_872756",
    "link_img": "https://live.staticflickr.com/65535/48080663863_18c4fb231b_o.jpg",
    "id_image": "Original_872756",
    "count_view": 0
  },
  {
    "link_thumb": "https://live.staticflickr.com/65535/48092295116_9af9b50041_n.jpg",
    "id_album": "601521951",
    "description": "Original_911154",
    "title": "Original_911154",
    "link_img": "https://live.staticflickr.com/65535/48092295116_64c4931f1e_o.jpg",
    "id_image": "Original_911154",
    "count_view": 0
  },
  {
    "link_thumb": "https://live.staticflickr.com/65535/48092337496_2197124080_n.jpg",
    "id_album": "601521951",
    "description": "Original_912912",
    "title": "Original_912912",
    "link_img": "https://live.staticflickr.com/65535/48092337496_c04774b701_o.jpg",
    "id_image": "Original_912912",
    "count_view": 0
  },
  {
    "link_thumb": "https://live.staticflickr.com/65535/48092435116_28901c4f26_n.jpg",
    "id_album": "601521951",
    "description": "Original_915683",
    "title": "Original_915683",
    "link_img": "https://live.staticflickr.com/65535/48092435116_ca2f9027d5_o.jpg",
    "id_image": "Original_915683",
    "count_view": 0
  },
  {
    "link_thumb": "https://live.staticflickr.com/65535/48092476828_142e5d54c0_n.jpg",
    "id_album": "601521951",
    "description": "Original_915742",
    "title": "Original_915742",
    "link_img": "https://live.staticflickr.com/65535/48092476828_1d198e69a3_o.jpg",
    "id_image": "Original_915742",
    "count_view": 0
  },
  {
    "link_thumb": "https://live.staticflickr.com/65535/48092540192_a45563fc4a_n.jpg",
    "id_album": "601521951",
    "description": "Original_915977",
    "title": "Original_915977",
    "link_img": "https://live.staticflickr.com/65535/48092540192_6c78565bb7_o.jpg",
    "id_image": "Original_915977",
    "count_view": 0
  },
  {
    "link_thumb": "https://live.staticflickr.com/65535/48092663393_bffae069bd_n.jpg",
    "id_album": "601521951",
    "description": "Original_925103",
    "title": "Original_925103",
    "link_img": "https://live.staticflickr.com/65535/48092663393_02d48068af_o.jpg",
    "id_image": "Original_925103",
    "count_view": 0
  },
  {
    "link_thumb": "https://live.staticflickr.com/65535/48092832128_3779cfa2f2_n.jpg",
    "id_album": "601521951",
    "description": "Original_936035",
    "title": "Original_936035",
    "link_img": "https://live.staticflickr.com/65535/48092832128_762e8b459d_o.jpg",
    "id_image": "Original_936035",
    "count_view": 0
  },
  {
    "link_thumb": "https://live.staticflickr.com/65535/48093166501_06719248bb_n.jpg",
    "id_album": "601521951",
    "description": "Original_957905",
    "title": "Original_957905",
    "link_img": "https://live.staticflickr.com/65535/48093166501_07c4e05013_o.jpg",
    "id_image": "Original_957905",
    "count_view": 0
  },
  {
    "link_thumb": "https://live.staticflickr.com/65535/48094929333_601bda0f08_n.jpg",
    "id_album": "601521951",
    "description": "Original_958356",
    "title": "Original_958356",
    "link_img": "https://live.staticflickr.com/65535/48094929333_8dcf262b97_o.jpg",
    "id_image": "Original_958356",
    "count_view": 0
  },
  {
    "link_thumb": "https://live.staticflickr.com/65535/48094942411_990950b4e3_n.jpg",
    "id_album": "601521951",
    "description": "Original_968937",
    "title": "Original_968937",
    "link_img": "https://live.staticflickr.com/65535/48094942411_c49f95d643_o.jpg",
    "id_image": "Original_968937",
    "count_view": 0
  },
  {
    "link_thumb": "https://live.staticflickr.com/65535/48055805632_92ee500156_n.jpg",
    "id_album": "601521951",
    "description": "SoranoMukoudeSakimasuyouni_792663",
    "title": "SoranoMukoudeSakimasuyouni_792663",
    "link_img": "https://live.staticflickr.com/65535/48055805632_8bb8b88329_o.jpg",
    "id_image": "SoranoMukoudeSakimasuyouni_792663",
    "count_view": 0
  },
  {
    "link_thumb": "https://live.staticflickr.com/65535/48059812102_4a0917b8e0_n.jpg",
    "id_album": "601521951",
    "description": "TheiDOLMSTERCinderellaGirls_951476",
    "title": "TheiDOLMSTERCinderellaGirls_951476",
    "link_img": "https://live.staticflickr.com/65535/48059812102_c245745734_o.jpg",
    "id_image": "TheiDOLMSTERCinderellaGirls_951476",
    "count_view": 0
  },
  {
    "link_thumb": "https://live.staticflickr.com/65535/48060615002_208252c8e6_n.jpg",
    "id_album": "601521951",
    "description": "TokyoGhoulre_946907",
    "title": "TokyoGhoulre_946907",
    "link_img": "https://live.staticflickr.com/65535/48060615002_52087bf353_o.jpg",
    "id_image": "TokyoGhoulre_946907",
    "count_view": 0
  },
  {
    "link_thumb": "https://live.staticflickr.com/65535/48060466352_402ef8484c_n.jpg",
    "id_album": "601521951",
    "description": "TokyoGhoul_744631",
    "title": "TokyoGhoul_744631",
    "link_img": "https://live.staticflickr.com/65535/48060466352_2bb2d241fd_o.jpg",
    "id_image": "TokyoGhoul_744631",
    "count_view": 0
  },
  {
    "link_thumb": "https://live.staticflickr.com/65535/48061013478_8bd87d0814_n.jpg",
    "id_album": "601521951",
    "description": "Touhou_515681",
    "title": "Touhou_515681",
    "link_img": "https://live.staticflickr.com/65535/48061013478_4246f73e6c_o.jpg",
    "id_image": "Touhou_515681",
    "count_view": 0
  },
  {
    "link_thumb": "https://live.staticflickr.com/65535/48061206002_6bb3f95368_n.jpg",
    "id_album": "601521951",
    "description": "Touhou_673544",
    "title": "Touhou_673544",
    "link_img": "https://live.staticflickr.com/65535/48061206002_544a65f619_o.jpg",
    "id_image": "Touhou_673544",
    "count_view": 0
  },
  {
    "link_thumb": "https://live.staticflickr.com/65535/48061107381_6ab46557f1_n.jpg",
    "id_album": "601521951",
    "description": "Touhou_673957",
    "title": "Touhou_673957",
    "link_img": "https://live.staticflickr.com/65535/48061107381_ed3eb4cf21_o.jpg",
    "id_image": "Touhou_673957",
    "count_view": 0
  },
  {
    "link_thumb": "https://live.staticflickr.com/65535/48061112066_855dfabe36_n.jpg",
    "id_album": "601521951",
    "description": "Touhou_677322",
    "title": "Touhou_677322",
    "link_img": "https://live.staticflickr.com/65535/48061112066_3d70df35d3_o.jpg",
    "id_image": "Touhou_677322",
    "count_view": 0
  },
  {
    "link_thumb": "https://live.staticflickr.com/65535/48061112446_9a7ec3d32f_n.jpg",
    "id_album": "601521951",
    "description": "Touhou_677451",
    "title": "Touhou_677451",
    "link_img": "https://live.staticflickr.com/65535/48061112446_e3b8573e49_o.jpg",
    "id_image": "Touhou_677451",
    "count_view": 0
  },
  {
    "link_thumb": "https://live.staticflickr.com/65535/48061303578_529232d40c_n.jpg",
    "id_album": "601521951",
    "description": "Touhou_730135",
    "title": "Touhou_730135",
    "link_img": "https://live.staticflickr.com/65535/48061303578_e227e8c392_o.jpg",
    "id_image": "Touhou_730135",
    "count_view": 0
  },
  {
    "link_thumb": "https://live.staticflickr.com/65535/48062467047_4064347640_n.jpg",
    "id_album": "601521951",
    "description": "Touhou_810795",
    "title": "Touhou_810795",
    "link_img": "https://live.staticflickr.com/65535/48062467047_a50ea0aeac_o.jpg",
    "id_image": "Touhou_810795",
    "count_view": 0
  },
  {
    "link_thumb": "https://live.staticflickr.com/65535/48062382361_4a3cc0e33b_n.jpg",
    "id_album": "601521951",
    "description": "Touhou_817222",
    "title": "Touhou_817222",
    "link_img": "https://live.staticflickr.com/65535/48062382361_307070dfc8_o.jpg",
    "id_image": "Touhou_817222",
    "count_view": 0
  },
  {
    "link_thumb": "https://live.staticflickr.com/65535/48062698082_5208e65d83_n.jpg",
    "id_album": "601521951",
    "description": "Touhou_906271",
    "title": "Touhou_906271",
    "link_img": "https://live.staticflickr.com/65535/48062698082_90f7340c2a_o.jpg",
    "id_image": "Touhou_906271",
    "count_view": 0
  },
  {
    "link_thumb": "https://live.staticflickr.com/65535/48062821936_f498365359_n.jpg",
    "id_album": "601521951",
    "description": "Touhou_951390",
    "title": "Touhou_951390",
    "link_img": "https://live.staticflickr.com/65535/48062821936_04e7bdc2e8_o.jpg",
    "id_image": "Touhou_951390",
    "count_view": 0
  },
  {
    "link_thumb": "https://live.staticflickr.com/65535/48062823221_2e8b53d620_n.jpg",
    "id_album": "601521951",
    "description": "Touhou_951404",
    "title": "Touhou_951404",
    "link_img": "https://live.staticflickr.com/65535/48062823221_7a1409c585_o.jpg",
    "id_image": "Touhou_951404",
    "count_view": 0
  },
  {
    "link_thumb": "https://live.staticflickr.com/65535/48064197652_85605d5019_n.jpg",
    "id_album": "601521951",
    "description": "Vocaloid_112071",
    "title": "Vocaloid_112071",
    "link_img": "https://live.staticflickr.com/65535/48064197652_8d489cc9fc_o.jpg",
    "id_image": "Vocaloid_112071",
    "count_view": 0
  },
  {
    "link_thumb": "https://live.staticflickr.com/65535/48064255603_d989fc5946_n.jpg",
    "id_album": "601521951",
    "description": "Vocaloid_215563",
    "title": "Vocaloid_215563",
    "link_img": "https://live.staticflickr.com/65535/48064255603_208dba9c8b_o.jpg",
    "id_image": "Vocaloid_215563",
    "count_view": 0
  },
  {
    "link_thumb": "https://live.staticflickr.com/65535/48064496238_e64de7e99e_n.jpg",
    "id_album": "601521951",
    "description": "Vocaloid_578973",
    "title": "Vocaloid_578973",
    "link_img": "https://live.staticflickr.com/65535/48064496238_605d9a001c_o.jpg",
    "id_image": "Vocaloid_578973",
    "count_view": 0
  },
  {
    "link_thumb": "https://live.staticflickr.com/65535/48064507648_bdcaecf204_n.jpg",
    "id_album": "601521951",
    "description": "Vocaloid_592861",
    "title": "Vocaloid_592861",
    "link_img": "https://live.staticflickr.com/65535/48064507648_8f1af738ae_o.jpg",
    "id_image": "Vocaloid_592861",
    "count_view": 0
  },
  {
    "link_thumb": "https://live.staticflickr.com/65535/48064458151_b30661013b_n.jpg",
    "id_album": "601521951",
    "description": "Vocaloid_593482",
    "title": "Vocaloid_593482",
    "link_img": "https://live.staticflickr.com/65535/48064458151_fd135f7939_o.jpg",
    "id_image": "Vocaloid_593482",
    "count_view": 0
  },
  {
    "link_thumb": "https://live.staticflickr.com/65535/48064514618_82f7ffc93b_n.jpg",
    "id_album": "601521951",
    "description": "Vocaloid_596748",
    "title": "Vocaloid_596748",
    "link_img": "https://live.staticflickr.com/65535/48064514618_ba337e8848_o.jpg",
    "id_image": "Vocaloid_596748",
    "count_view": 0
  },
  {
    "link_thumb": "https://live.staticflickr.com/65535/48064574238_4a82a74077_n.jpg",
    "id_album": "601521951",
    "description": "Vocaloid_672494",
    "title": "Vocaloid_672494",
    "link_img": "https://live.staticflickr.com/65535/48064574238_a7a2764341_o.jpg",
    "id_image": "Vocaloid_672494",
    "count_view": 0
  },
  {
    "link_thumb": "https://live.staticflickr.com/65535/48064590013_9767480fce_n.jpg",
    "id_album": "601521951",
    "description": "Vocaloid_677463",
    "title": "Vocaloid_677463",
    "link_img": "https://live.staticflickr.com/65535/48064590013_4f240be1c9_o.jpg",
    "id_image": "Vocaloid_677463",
    "count_view": 0
  },
  {
    "link_thumb": "https://live.staticflickr.com/65535/48065531423_4817e5a1e2_n.jpg",
    "id_album": "601521951",
    "description": "Vocaloid_866641",
    "title": "Vocaloid_866641",
    "link_img": "https://live.staticflickr.com/65535/48065531423_c2b39cbe7f_o.jpg",
    "id_image": "Vocaloid_866641",
    "count_view": 0
  },
  {
    "link_thumb": "https://live.staticflickr.com/65535/48065575171_a5a24f0b27_n.jpg",
    "id_album": "601521951",
    "description": "Vocaloid_897450",
    "title": "Vocaloid_897450",
    "link_img": "https://live.staticflickr.com/65535/48065575171_ca998fc3f5_o.jpg",
    "id_image": "Vocaloid_897450",
    "count_view": 0
  },
  {
    "link_thumb": "https://live.staticflickr.com/65535/48065869807_941c312c3a_n.jpg",
    "id_album": "601521951",
    "description": "Vocaloid_958336",
    "title": "Vocaloid_958336",
    "link_img": "https://live.staticflickr.com/65535/48065869807_c023576475_o.jpg",
    "id_image": "Vocaloid_958336",
    "count_view": 0
  }
]