[
  {
    "total_img": 251,
    "number_page": 2,
    "title": "Vocaloid 1",
    "tag": "Heart, Water, Sky, Green Hair, IA Vocaloid, Moon, Wink, Crying, Kamui Gakupo, Black, Blood, YANHE Vocaloid, Glitter, Goggles, Shirt, Sword, Ribbon, White Hair, Computer, Shorts, Umbrella, Windmill, Horns, Braid, Luka Megurine, Child, Cup, Earrings, CUL Vocaloid, Glove, Purple Eyes, Stardust Vocaloid, Scarf, GUMI Vocaloid, Mask, Chibi, Reflection, Black Dress, Smile, Aqua Eyes, Skirt, Blush, Belt, Pantyhose, Animal, Pink Flower, Bell, Yuzuki Yukari, Lips, Mayu Vocaloid, Luo Tianyi, Black  White, White Dress, Train Station, Wings, Japanese Clothes, Yuezheng Longya, Star, Song Illustration, Snowboarding, Yuri, Feather, Fish, Face, Food, Guitar, Original Anime, Blue, Brown Hair, Vocaloid 1, Headband, Pink Hair, Sakura Miku, Tie, Meiko Vocaloid, Blue Eyes, Grey Eyes, Hourglass, Hat, Len Kagamine, Animal Ears, Halloween, Rin Kagamine, Sakura Blossom, Green Eyes, Telescope, Night, Stars, Digital Art, Pumpkin, Underwater, Hatsune Miku, Tattoo, Summer, Coca Cola, Snowfall, Gear, Long Hair, Thigh Highs, Bubble, Rain, Beach, Anime, Rana Vocaloid, Meltdown Vocaloid, Light, Kimono, Mo Qingxian, Tree, Headdress, Camera, Yuezheng Ling, Tako Luka, Woman, SeeU Vocaloid, Purple Hair, Vocaloid, Pigeon, Aqua Hair, Red Eyes, Kaito Vocaloid, Pink, Water Drop, Dark, Love, Cat, Glasses, Poster, Fantasy, Ponytail, Sunflower, Mirror, Lily Vocaloid, Zhiyu Moke, Microphone, Cherry Blossom, Butterfly, Bird, Maki Tsurumaki, Socks, Twintails, Blonde, Field, Barefoot, Plant, Globe, bow Clothing, VY1 Vocaloid, Short Hair, Hug, Waffle, Xin Hua, Flower, Dress, Fruit, Brown Eyes, Magic, Kaai Yuki, Pastry, Apron, Pink Eyes, School Uniform, Gothic, Sadness, Feet, Yuki Miku, Sunset, Blue Hair, Love is War Vocaloid, Hagane Miku, Instrument, Falling, Blossom, Petal, Sweets, Yukata, Tears",
    "description": "Vocaloid 1",
    "link_thumb": "https://live.staticflickr.com/65535/48064574238_4a82a74077_n.jpg",
    "id_album": "-1889166921",
    "total_view": 251
  },
  {
    "total_img": 1146,
    "number_page": 6,
    "title": "Hatsune Miku",
    "tag": "Hatsune Miku,",
    "description": "Hatsune Miku",
    "link_thumb": "https://live.staticflickr.com/65535/48065799561_6f46878c59_n.jpg",
    "id_album": "-2103441467",
    "total_view": 1146
  },
  {
    "total_img": 52,
    "number_page": 1,
    "title": "Kaito Vocaloid",
    "tag": "Kaito Vocaloid,",
    "description": "Kaito Vocaloid",
    "link_thumb": "https://live.staticflickr.com/65535/48065840178_8174a128e1_n.jpg",
    "id_album": "-1993431964",
    "total_view": 52
  },
  {
    "total_img": 111,
    "number_page": 1,
    "title": "Luka Megurine",
    "tag": "Luka Megurine,",
    "description": "Luka Megurine",
    "link_thumb": "https://live.staticflickr.com/65535/48065837168_ebd8e5478f_n.jpg",
    "id_album": "630461309",
    "total_view": 111
  }
]