[
  {
    "total_img": 59,
    "number_page": 1,
    "title": "Tokyo Ghoulre",
    "tag": "Green Hair, Moon, Black Hair, Yoshimura Tokyo Ghoul, Uta Tokyo Ghoul, Renji Yomo, Lipstick, Blood, Weapon, Hinami Fueguchi, Juuzou Suzuya, Yukuta, Sword, Hanbee Abara, White Hair, Book, Kuki Urie, Child, Koori Ui, Earrings, Purple Eyes, Glove, Scarf, Mask, Ichika Kaneki, Smile, Rize Kamishiro, Blush, Kakuja Tokyo Ghoul, Chain, Nishiki Nishio, Gishi Shirazu Kuki Urie, Party, Saiko Yonebayashi, Feather, Tokyo Ghoul A, Brown Hair, Tie, Blue Eyes, Shu Tsukiyama, Tokyo Ghoulre, Grey Eyes, Halloween, Kiss, Black Eyes, Pink Dress, Night, Kishou Arima, Eto Yoshimura, Minimalist, Uniform, Kanae von Rosewald, Tooru Mutsuki, Long Hair, Miyuki Mikage, Rain, Anime, Kimono, White Eyes, Heterochromia, Tatara Tokyo Ghoul, Coat, Purple Hair, Ken Kaneki, Teeth, Yellow Eyes, Boy, Red Eyes, Kurona Yasuhisa, Sad, Glasses, Eye Patch, Purple Dress, Sitting, Kaya Irimi, Shadow, Blonde, Keijin Nakarai, Armor, Koutarou Amon, Hideki Nishimura, Short Hair, Hug, TwoToned Hair, Akira Mado, Ginshi Shirazu, Eating, Touka Kirishima, Flower, Dress, Pink Eyes, Mizurou Tamaki, Enji Koma, Seidou Takizawa, Haise Sasaki, Sunset, White, Blue Hair, Grey Hair, Cloud, Take Hirako, Tears, Kagune Tokyo Ghoul, Kichimura Washuu",
    "description": "Tokyo Ghoulre",
    "link_thumb": "https://live.staticflickr.com/65535/48060489226_a8df80ecda_n.jpg",
    "id_album": "-1692752837",
    "total_view": 59
  },
  {
    "total_img": 1083,
    "number_page": 6,
    "title": "Anime",
    "tag": "Anime,",
    "description": "Anime",
    "link_thumb": "https://live.staticflickr.com/65535/48066953706_2771a62522_n.jpg",
    "id_album": "-1920923841",
    "total_view": 1083
  },
  {
    "total_img": 959,
    "number_page": 5,
    "title": "Blue Eyes",
    "tag": "Blue Eyes,",
    "description": "Blue Eyes",
    "link_thumb": "https://live.staticflickr.com/65535/48609891276_d6beb9cf73_n.jpg",
    "id_album": "737375568",
    "total_view": 959
  },
  {
    "total_img": 321,
    "number_page": 2,
    "title": "Blue Hair",
    "tag": "Blue Hair,",
    "description": "Blue Hair",
    "link_thumb": "https://live.staticflickr.com/65535/48066963397_8bc256f64f_n.jpg",
    "id_album": "-1193928153",
    "total_view": 321
  },
  {
    "total_img": 149,
    "number_page": 1,
    "title": "Scarf",
    "tag": "Scarf,",
    "description": "Scarf",
    "link_thumb": "https://live.staticflickr.com/65535/48609891276_d6beb9cf73_n.jpg",
    "id_album": "-1620136662",
    "total_view": 149
  },
  {
    "total_img": 87,
    "number_page": 1,
    "title": "Touka Kirishima",
    "tag": "Touka Kirishima,",
    "description": "Touka Kirishima",
    "link_thumb": "https://live.staticflickr.com/65535/48060578497_fb1d6f8088_n.jpg",
    "id_album": "945928533",
    "total_view": 87
  }
]