[
  {
    "total_img": 110,
    "number_page": 1,
    "title": "Anohana",
    "tag": "Sky, Purple Dress, Sitting, Minimalist, Socks, Crying, White Dress, Blonde, Long Hair, Twintails, Barefoot, Thigh Highs, Anime, Book, White Hair, bow Clothing, Anohana, Hug, Flower, Purple Hair, Dress, Jinta Yadomi, Tetsudou Hisakawa, Atsumu Matsuyuki, Naruko Anjou, Smile, Boy, Skirt, Tie, Blue Eyes, Blush, Chiriko Tsurumi, Belt, Cloud, Glasses, Lying Down, Meiko Honma, Bridge",
    "description": "Anohana",
    "link_thumb": "https://live.staticflickr.com/65535/40926310393_65cdc311d4_n.jpg",
    "id_album": "1720927736",
    "total_view": 110
  },
  {
    "total_img": 65,
    "number_page": 1,
    "title": "Meiko Honma",
    "tag": "Meiko Honma,",
    "description": "Meiko Honma",
    "link_thumb": "https://live.staticflickr.com/65535/47960686377_07a9d37b32_n.jpg",
    "id_album": "1549256810",
    "total_view": 65
  }
]