[
  {
    "link_thumb": "https://live.staticflickr.com/65535/48071253491_fcd017c894_n.jpg",
    "id_album": "-375536554",
    "description": "Music_923759",
    "title": "Music_923759",
    "link_img": "https://live.staticflickr.com/65535/48071253491_d48ba68282_o.jpg",
    "id_image": "Music_923759",
    "count_view": 0
  },
  {
    "link_thumb": "https://live.staticflickr.com/65535/48072843637_0d2395883e_n.jpg",
    "id_album": "-375536554",
    "description": "NeonGenesisEvangelion_956390",
    "title": "NeonGenesisEvangelion_956390",
    "link_img": "https://live.staticflickr.com/65535/48072843637_a2337f1971_o.jpg",
    "id_image": "NeonGenesisEvangelion_956390",
    "count_view": 0
  },
  {
    "link_thumb": "https://live.staticflickr.com/65535/48075571767_f6eafd4a7c_n.jpg",
    "id_album": "-375536554",
    "description": "Original_676576",
    "title": "Original_676576",
    "link_img": "https://live.staticflickr.com/65535/48075571767_971353b35b_o.jpg",
    "id_image": "Original_676576",
    "count_view": 0
  },
  {
    "link_thumb": "https://live.staticflickr.com/65535/48075588778_c479fe4b9a_n.jpg",
    "id_album": "-375536554",
    "description": "Original_688298",
    "title": "Original_688298",
    "link_img": "https://live.staticflickr.com/65535/48075588778_bc13a220d6_o.jpg",
    "id_image": "Original_688298",
    "count_view": 0
  },
  {
    "link_thumb": "https://live.staticflickr.com/65535/48075704982_5c0bf0d04e_n.jpg",
    "id_album": "-375536554",
    "description": "Original_693506",
    "title": "Original_693506",
    "link_img": "https://live.staticflickr.com/65535/48075704982_27a0f9d4da_o.jpg",
    "id_image": "Original_693506",
    "count_view": 0
  },
  {
    "link_thumb": "https://live.staticflickr.com/65535/48075683388_4e04e14fed_n.jpg",
    "id_album": "-375536554",
    "description": "Original_699651",
    "title": "Original_699651",
    "link_img": "https://live.staticflickr.com/65535/48075683388_e6e37857f2_o.jpg",
    "id_image": "Original_699651",
    "count_view": 0
  },
  {
    "link_thumb": "https://live.staticflickr.com/65535/48077644353_1ae5f65bf9_n.jpg",
    "id_album": "-375536554",
    "description": "Original_811884",
    "title": "Original_811884",
    "link_img": "https://live.staticflickr.com/65535/48077644353_bf0425c2e0_o.jpg",
    "id_image": "Original_811884",
    "count_view": 0
  },
  {
    "link_thumb": "https://live.staticflickr.com/65535/48082595238_3c8b5bc467_n.jpg",
    "id_album": "-375536554",
    "description": "Original_879926",
    "title": "Original_879926",
    "link_img": "https://live.staticflickr.com/65535/48082595238_69a7cf6e39_o.jpg",
    "id_image": "Original_879926",
    "count_view": 0
  },
  {
    "link_thumb": "https://live.staticflickr.com/65535/48092126171_49a74318be_n.jpg",
    "id_album": "-375536554",
    "description": "Original_903370",
    "title": "Original_903370",
    "link_img": "https://live.staticflickr.com/65535/48092126171_065fa19055_o.jpg",
    "id_image": "Original_903370",
    "count_view": 0
  },
  {
    "link_thumb": "https://live.staticflickr.com/65535/48094984972_2411dfc025_n.jpg",
    "id_album": "-375536554",
    "description": "Original_958330",
    "title": "Original_958330",
    "link_img": "https://live.staticflickr.com/65535/48094984972_a97e615f35_o.jpg",
    "id_image": "Original_958330",
    "count_view": 0
  },
  {
    "link_thumb": "https://live.staticflickr.com/65535/48052340297_3a587c8ce9_n.jpg",
    "id_album": "-375536554",
    "description": "PixivFantasiaFallenKings_559210",
    "title": "PixivFantasiaFallenKings_559210",
    "link_img": "https://live.staticflickr.com/65535/48052340297_9a891c08fc_o.jpg",
    "id_image": "PixivFantasiaFallenKings_559210",
    "count_view": 0
  },
  {
    "link_thumb": "https://live.staticflickr.com/65535/48065644586_7e787a7579_n.jpg",
    "id_album": "-375536554",
    "description": "Vocaloid_917915",
    "title": "Vocaloid_917915",
    "link_img": "https://live.staticflickr.com/65535/48065644586_c5e1d2a34a_o.jpg",
    "id_image": "Vocaloid_917915",
    "count_view": 0
  },
  {
    "link_thumb": "https://live.staticflickr.com/65535/48066956618_5e2c81ca0f_n.jpg",
    "id_album": "-375536554",
    "description": "YuukiYuunawaYuushadeAru_972045",
    "title": "YuukiYuunawaYuushadeAru_972045",
    "link_img": "https://live.staticflickr.com/65535/48066956618_7569c9995c_o.jpg",
    "id_image": "YuukiYuunawaYuushadeAru_972045",
    "count_view": 0
  }
]