[
  {
    "link_thumb": "https://live.staticflickr.com/65535/47122103194_4bf23f9228_n.jpg",
    "id_album": "-565920697",
    "description": "CardcaptorSakura_908613",
    "title": "CardcaptorSakura_908613",
    "link_img": "https://live.staticflickr.com/65535/47122103194_5019a834ca_o.jpg",
    "id_image": "CardcaptorSakura_908613",
    "count_view": 0
  },
  {
    "link_thumb": "https://live.staticflickr.com/65535/47984509981_042fc9234f_n.jpg",
    "id_album": "-565920697",
    "description": "Girl_920223",
    "title": "Girl_920223",
    "link_img": "https://live.staticflickr.com/65535/47984509981_3ebe26c139_o.jpg",
    "id_image": "Girl_920223",
    "count_view": 0
  },
  {
    "link_thumb": "https://live.staticflickr.com/65535/48075333162_fcee012609_n.jpg",
    "id_album": "-565920697",
    "description": "Original_555130",
    "title": "Original_555130",
    "link_img": "https://live.staticflickr.com/65535/48075333162_4fff162f9b_o.jpg",
    "id_image": "Original_555130",
    "count_view": 0
  },
  {
    "link_thumb": "https://live.staticflickr.com/65535/48076301608_86db76b388_n.jpg",
    "id_album": "-565920697",
    "description": "Original_752895",
    "title": "Original_752895",
    "link_img": "https://live.staticflickr.com/65535/48076301608_51a21b6ea9_o.jpg",
    "id_image": "Original_752895",
    "count_view": 0
  },
  {
    "link_thumb": "https://live.staticflickr.com/65535/48077465878_cc5d0ac860_n.jpg",
    "id_album": "-565920697",
    "description": "Original_796333",
    "title": "Original_796333",
    "link_img": "https://live.staticflickr.com/65535/48077465878_8ea8f33512_o.jpg",
    "id_image": "Original_796333",
    "count_view": 0
  },
  {
    "link_thumb": "https://live.staticflickr.com/65535/48082600411_ce6b048c32_n.jpg",
    "id_album": "-565920697",
    "description": "Original_882308",
    "title": "Original_882308",
    "link_img": "https://live.staticflickr.com/65535/48082600411_081c4a6478_o.jpg",
    "id_image": "Original_882308",
    "count_view": 0
  },
  {
    "link_thumb": "https://live.staticflickr.com/65535/48053144868_0c1e01edd3_n.jpg",
    "id_album": "-565920697",
    "description": "ReZEROStartingLifeinAnotherWorld_700733",
    "title": "ReZEROStartingLifeinAnotherWorld_700733",
    "link_img": "https://live.staticflickr.com/65535/48053144868_d0bc32261d_o.jpg",
    "id_image": "ReZEROStartingLifeinAnotherWorld_700733",
    "count_view": 0
  },
  {
    "link_thumb": "https://live.staticflickr.com/65535/48062462342_51817bb86d_n.jpg",
    "id_album": "-565920697",
    "description": "Touhou_807585",
    "title": "Touhou_807585",
    "link_img": "https://live.staticflickr.com/65535/48062462342_c8627f61f0_o.jpg",
    "id_image": "Touhou_807585",
    "count_view": 0
  },
  {
    "link_thumb": "https://live.staticflickr.com/65535/48064804033_2b06b99885_n.jpg",
    "id_album": "-565920697",
    "description": "Vocaloid_741988",
    "title": "Vocaloid_741988",
    "link_img": "https://live.staticflickr.com/65535/48064804033_71d0d9b470_o.jpg",
    "id_image": "Vocaloid_741988",
    "count_view": 0
  }
]