[
  {
    "link_thumb": "https://live.staticflickr.com/65535/48063322673_1b5e136e5a_n.jpg",
    "id_album": "-751568111",
    "description": "UtanoPrincesama_833145",
    "title": "UtanoPrincesama_833145",
    "link_img": "https://live.staticflickr.com/65535/48063322673_d2a307f1c5_o.jpg",
    "id_image": "UtanoPrincesama_833145",
    "count_view": 0
  },
  {
    "link_thumb": "https://live.staticflickr.com/65535/48063274461_b4b3f58295_n.jpg",
    "id_album": "-751568111",
    "description": "UtanoPrincesama_833148",
    "title": "UtanoPrincesama_833148",
    "link_img": "https://live.staticflickr.com/65535/48063274461_ae22c269fd_o.jpg",
    "id_image": "UtanoPrincesama_833148",
    "count_view": 0
  },
  {
    "link_thumb": "https://live.staticflickr.com/65535/48063323778_2772b78141_n.jpg",
    "id_album": "-751568111",
    "description": "UtanoPrincesama_833149",
    "title": "UtanoPrincesama_833149",
    "link_img": "https://live.staticflickr.com/65535/48063323778_ccaae09c64_o.jpg",
    "id_image": "UtanoPrincesama_833149",
    "count_view": 0
  },
  {
    "link_thumb": "https://live.staticflickr.com/65535/48063328743_c8bed50415_n.jpg",
    "id_album": "-751568111",
    "description": "UtanoPrincesama_833160",
    "title": "UtanoPrincesama_833160",
    "link_img": "https://live.staticflickr.com/65535/48063328743_f4fd99f84f_o.jpg",
    "id_image": "UtanoPrincesama_833160",
    "count_view": 0
  },
  {
    "link_thumb": "https://live.staticflickr.com/65535/48063388832_f9fca0f7df_n.jpg",
    "id_album": "-751568111",
    "description": "UtanoPrincesama_833187",
    "title": "UtanoPrincesama_833187",
    "link_img": "https://live.staticflickr.com/65535/48063388832_b18d5973f8_o.jpg",
    "id_image": "UtanoPrincesama_833187",
    "count_view": 0
  },
  {
    "link_thumb": "https://live.staticflickr.com/65535/48063290746_4963dc3f5d_n.jpg",
    "id_album": "-751568111",
    "description": "UtanoPrincesama_833188",
    "title": "UtanoPrincesama_833188",
    "link_img": "https://live.staticflickr.com/65535/48063290746_ea6b5acd6c_o.jpg",
    "id_image": "UtanoPrincesama_833188",
    "count_view": 0
  },
  {
    "link_thumb": "https://live.staticflickr.com/65535/48063291106_03f03472f8_n.jpg",
    "id_album": "-751568111",
    "description": "UtanoPrincesama_833189",
    "title": "UtanoPrincesama_833189",
    "link_img": "https://live.staticflickr.com/65535/48063291106_e59d1ae82c_o.jpg",
    "id_image": "UtanoPrincesama_833189",
    "count_view": 0
  },
  {
    "link_thumb": "https://live.staticflickr.com/65535/48063359078_bff9ab5ff7_n.jpg",
    "id_album": "-751568111",
    "description": "UtanoPrincesama_833224",
    "title": "UtanoPrincesama_833224",
    "link_img": "https://live.staticflickr.com/65535/48063359078_1d3a19029e_o.jpg",
    "id_image": "UtanoPrincesama_833224",
    "count_view": 0
  }
]