[
  {
    "link_thumb": "https://live.staticflickr.com/65535/51566234963_602110f169_n.jpg",
    "id_album": "1650283598",
    "description": "ANIME_PIC_dedff8c8e30d6ad6239acc0ee836e3f6,[GirlsSad],[isGirlAnime],[isCuteAnime],[isGirlsHatsHoodieAnime],[isGirlsLoliAnime],[isSadAnimeGirl],[isSadAnime]",
    "title": "ANIME_PIC_dedff8c8e30d6ad6239acc0ee836e3f6",
    "link_img": "https://live.staticflickr.com/65535/51566234963_3ea96858a2_o.jpg",
    "id_image": "ANIME_PIC_dedff8c8e30d6ad6239acc0ee836e3f6",
    "count_view": 0
  },
  {
    "link_thumb": "https://live.staticflickr.com/65535/51566924290_d73be81d85_n.jpg",
    "id_album": "1650283598",
    "description": "ANIME_PIC_deefee8f08f8cbccae8b3fe78c6fdb0e,[GirlsSad],[isGirlAnime],[isCuteAnime],[isGirlsHatsHoodieAnime],[isGirlsLoliAnime],[isSadAnimeGirl],[isSadAnime]",
    "title": "ANIME_PIC_deefee8f08f8cbccae8b3fe78c6fdb0e",
    "link_img": "https://live.staticflickr.com/65535/51566924290_50d0cb9a8d_o.jpg",
    "id_image": "ANIME_PIC_deefee8f08f8cbccae8b3fe78c6fdb0e",
    "count_view": 0
  },
  {
    "link_thumb": "https://live.staticflickr.com/65535/51566679539_4026aa2e28_n.jpg",
    "id_album": "1650283598",
    "description": "ANIME_PIC_defd2245a4304cc96045c58e2d2c1588,[GirlsSad],[isGirlAnime],[isCuteAnime],[isGirlEarsNekoAnime],[isSadAnimeGirl],[isSadAnime]",
    "title": "ANIME_PIC_defd2245a4304cc96045c58e2d2c1588",
    "link_img": "https://live.staticflickr.com/65535/51566679539_59fce19e47_o.jpg",
    "id_image": "ANIME_PIC_defd2245a4304cc96045c58e2d2c1588",
    "count_view": 0
  },
  {
    "link_thumb": "https://live.staticflickr.com/65535/51566924755_b647d56b24_n.jpg",
    "id_album": "1650283598",
    "description": "ANIME_PIC_defd4f199772040591071d9801c0dab5,[GirlsSad],[isGirlAnime],[isCuteAnime],[isGirlsHatsHoodieAnime],[isGirlsLoliAnime],[isSadAnimeGirl],[isSadAnime]",
    "title": "ANIME_PIC_defd4f199772040591071d9801c0dab5",
    "link_img": "https://live.staticflickr.com/65535/51566924755_89918afd7f_o.jpg",
    "id_image": "ANIME_PIC_defd4f199772040591071d9801c0dab5",
    "count_view": 0
  },
  {
    "link_thumb": "https://live.staticflickr.com/65535/51566925020_58dbf99445_n.jpg",
    "id_album": "1650283598",
    "description": "ANIME_PIC_df22426c30d3a598b75fc4d0a78777cf,[GirlsSad],[isGirlAnime],[isCuteAnime],[isSadAnimeGirl],[isSadAnime]",
    "title": "ANIME_PIC_df22426c30d3a598b75fc4d0a78777cf",
    "link_img": "https://live.staticflickr.com/65535/51566925020_4346e4265a_o.jpg",
    "id_image": "ANIME_PIC_df22426c30d3a598b75fc4d0a78777cf",
    "count_view": 0
  },
  {
    "link_thumb": "https://live.staticflickr.com/65535/51566236213_d8fc243803_n.jpg",
    "id_album": "1650283598",
    "description": "ANIME_PIC_df2604d5d7586c701008d5d3ee3a1d28,[GirlsSad],[isGirlAnime],[isCuteAnime],[isGirlsLoliAnime],[isSadAnimeGirl],[isSadAnime]",
    "title": "ANIME_PIC_df2604d5d7586c701008d5d3ee3a1d28",
    "link_img": "https://live.staticflickr.com/65535/51566236213_dc7fca618c_o.jpg",
    "id_image": "ANIME_PIC_df2604d5d7586c701008d5d3ee3a1d28",
    "count_view": 0
  },
  {
    "link_thumb": "https://live.staticflickr.com/65535/51566925565_173e5c0b22_n.jpg",
    "id_album": "1650283598",
    "description": "ANIME_PIC_df401f235d171fef7783c82eb379be40,[GirlsSad],[isGirlAnime],[isCuteAnime],[isSadAnimeGirl],[isSadAnime]",
    "title": "ANIME_PIC_df401f235d171fef7783c82eb379be40",
    "link_img": "https://live.staticflickr.com/65535/51566925565_4eb5d5a888_o.png",
    "id_image": "ANIME_PIC_df401f235d171fef7783c82eb379be40",
    "count_view": 0
  },
  {
    "link_thumb": "https://live.staticflickr.com/65535/51566681079_ce488c1087_n.jpg",
    "id_album": "1650283598",
    "description": "ANIME_PIC_df4d91022d59dbe7ae433a0d34f0429c,[GirlsSad],[isGirlAnime],[isCuteAnime],[isGirlsHatsHoodieAnime],[isGirlsLoliAnime],[isSadAnimeGirl],[isSadAnime]",
    "title": "ANIME_PIC_df4d91022d59dbe7ae433a0d34f0429c",
    "link_img": "https://live.staticflickr.com/65535/51566681079_a1fb217da8_o.jpg",
    "id_image": "ANIME_PIC_df4d91022d59dbe7ae433a0d34f0429c",
    "count_view": 0
  },
  {
    "link_thumb": "https://live.staticflickr.com/65535/51566926110_e04089e1c5_n.jpg",
    "id_album": "1650283598",
    "description": "ANIME_PIC_df590daab2290b08781fc456bda7c030,[GirlsSad],[isGirlAnime],[isCuteAnime],[isSadAnimeGirl],[isSadAnime]",
    "title": "ANIME_PIC_df590daab2290b08781fc456bda7c030",
    "link_img": "https://live.staticflickr.com/65535/51566926110_af0ac9c663_o.jpg",
    "id_image": "ANIME_PIC_df590daab2290b08781fc456bda7c030",
    "count_view": 0
  },
  {
    "link_thumb": "https://live.staticflickr.com/65535/51565199692_f4185884be_n.jpg",
    "id_album": "1650283598",
    "description": "ANIME_PIC_df5ae38427f13c73a8d169fe408919e6,[GirlsSad],[isGirlAnime],[isCuteAnime],[isGirlsHatsHoodieAnime],[isGirlsLoliAnime],[isSadAnimeGirl],[isSadAnime]",
    "title": "ANIME_PIC_df5ae38427f13c73a8d169fe408919e6",
    "link_img": "https://live.staticflickr.com/65535/51565199692_dcdf5a01f1_o.jpg",
    "id_image": "ANIME_PIC_df5ae38427f13c73a8d169fe408919e6",
    "count_view": 0
  },
  {
    "link_thumb": "https://live.staticflickr.com/65535/51566237508_9a02f6f8c9_n.jpg",
    "id_album": "1650283598",
    "description": "ANIME_PIC_df607562a9ee996e9c8aea898d5986bf,[GirlsSad],[isGirlAnime],[isCuteAnime],[isGirlsLoliAnime],[isSadAnimeGirl],[isSadAnime]",
    "title": "ANIME_PIC_df607562a9ee996e9c8aea898d5986bf",
    "link_img": "https://live.staticflickr.com/65535/51566237508_879a35741b_o.png",
    "id_image": "ANIME_PIC_df607562a9ee996e9c8aea898d5986bf",
    "count_view": 0
  },
  {
    "link_thumb": "https://live.staticflickr.com/65535/51566682259_97a9345ae7_n.jpg",
    "id_album": "1650283598",
    "description": "ANIME_PIC_df68c4ac6cb115a82eb056c33cf7c905,[GirlsSad],[isGirlAnime],[isCuteAnime],[isSadAnimeGirl],[isSadAnime]",
    "title": "ANIME_PIC_df68c4ac6cb115a82eb056c33cf7c905",
    "link_img": "https://live.staticflickr.com/65535/51566682259_3832cd94eb_o.jpg",
    "id_image": "ANIME_PIC_df68c4ac6cb115a82eb056c33cf7c905",
    "count_view": 0
  },
  {
    "link_thumb": "https://live.staticflickr.com/65535/51565200617_5378889d1f_n.jpg",
    "id_album": "1650283598",
    "description": "ANIME_PIC_df73cf2e27daacd6e21226e414c5c73c,[GirlsSad],[isGirlAnime],[isCuteAnime],[isSadAnimeGirl],[isSadAnime]",
    "title": "ANIME_PIC_df73cf2e27daacd6e21226e414c5c73c",
    "link_img": "https://live.staticflickr.com/65535/51565200617_50bfece0ab_o.png",
    "id_image": "ANIME_PIC_df73cf2e27daacd6e21226e414c5c73c",
    "count_view": 0
  },
  {
    "link_thumb": "https://live.staticflickr.com/65535/51566238828_35770e176a_n.jpg",
    "id_album": "1650283598",
    "description": "ANIME_PIC_df8bafae30502496d4c7ab172d09e6c7,[GirlsSad],[isGirlAnime],[isCuteAnime],[isGirlsLoliAnime],[isSadAnimeGirl],[isSadAnime]",
    "title": "ANIME_PIC_df8bafae30502496d4c7ab172d09e6c7",
    "link_img": "https://live.staticflickr.com/65535/51566238828_c55546f11e_o.png",
    "id_image": "ANIME_PIC_df8bafae30502496d4c7ab172d09e6c7",
    "count_view": 0
  },
  {
    "link_thumb": "https://live.staticflickr.com/65535/49799636752_099cda9438_n.jpg",
    "id_album": "1650283598",
    "description": "ANIME_PIC_df9a8087a70ce7f2f4108f7eca27057a,[isGirlAnime],[isSadAnime],[isSadAnimeGirl],[isCuteAnime],[Girls Sad],[GirlsSad]",
    "title": "ANIME_PIC_df9a8087a70ce7f2f4108f7eca27057a",
    "link_img": "https://live.staticflickr.com/65535/49799636752_0391219c11_o.jpg",
    "id_image": "ANIME_PIC_df9a8087a70ce7f2f4108f7eca27057a",
    "count_view": 0
  },
  {
    "link_thumb": "https://live.staticflickr.com/65535/51566683494_ce1a4a49e1_n.jpg",
    "id_album": "1650283598",
    "description": "ANIME_PIC_dfb1f88da4c06508c87e18a75aff5e45,[GirlsSad],[isGirlAnime],[isCuteAnime],[isSadAnimeGirl],[isSadAnime]",
    "title": "ANIME_PIC_dfb1f88da4c06508c87e18a75aff5e45",
    "link_img": "https://live.staticflickr.com/65535/51566683494_4d436f80d7_o.jpg",
    "id_image": "ANIME_PIC_dfb1f88da4c06508c87e18a75aff5e45",
    "count_view": 0
  },
  {
    "link_thumb": "https://live.staticflickr.com/65535/51565995261_ec714b2239_n.jpg",
    "id_album": "1650283598",
    "description": "ANIME_PIC_dfbf737482e67858b0dd92137c53f2fc,[GirlsSad],[isGirlAnime],[isBlackAnime],[isSadAnimeGirl],[isSadAnime]",
    "title": "ANIME_PIC_dfbf737482e67858b0dd92137c53f2fc",
    "link_img": "https://live.staticflickr.com/65535/51565995261_b327d92089_o.jpg",
    "id_image": "ANIME_PIC_dfbf737482e67858b0dd92137c53f2fc",
    "count_view": 0
  },
  {
    "link_thumb": "https://live.staticflickr.com/65535/51566239753_281e91eee3_n.jpg",
    "id_album": "1650283598",
    "description": "ANIME_PIC_dfc199448d2ece8ff445677f50085b9a,[GirlsSad],[isGirlAnime],[isCuteAnime],[isSadAnimeGirl],[isSadAnime]",
    "title": "ANIME_PIC_dfc199448d2ece8ff445677f50085b9a",
    "link_img": "https://live.staticflickr.com/65535/51566239753_7854eb5e9d_o.jpg",
    "id_image": "ANIME_PIC_dfc199448d2ece8ff445677f50085b9a",
    "count_view": 0
  },
  {
    "link_thumb": "https://live.staticflickr.com/65535/51568778149_ee6c481bdd_n.jpg",
    "id_album": "1650283598",
    "description": "ANIME_PIC_dfc5cde3fe1136f07432b2f60219e767,[GirlsSad],[isGirlAnime],[isCuteAnime],[isBlackAnime],[isSadAnimeGirl],[isSadAnime]",
    "title": "ANIME_PIC_dfc5cde3fe1136f07432b2f60219e767",
    "link_img": "https://live.staticflickr.com/65535/51568778149_df6f76fdbb_o.png",
    "id_image": "ANIME_PIC_dfc5cde3fe1136f07432b2f60219e767",
    "count_view": 0
  },
  {
    "link_thumb": "https://live.staticflickr.com/65535/51565995811_80292187ce_n.jpg",
    "id_album": "1650283598",
    "description": "ANIME_PIC_dfc6cbea4a2fd555d8372f9b73f7a3bd,[GirlsSad],[isGirlAnime],[isCuteAnime],[isSadAnimeGirl],[isSadAnime]",
    "title": "ANIME_PIC_dfc6cbea4a2fd555d8372f9b73f7a3bd",
    "link_img": "https://live.staticflickr.com/65535/51565995811_b731c40294_o.jpg",
    "id_image": "ANIME_PIC_dfc6cbea4a2fd555d8372f9b73f7a3bd",
    "count_view": 0
  },
  {
    "link_thumb": "https://live.staticflickr.com/65535/50153532043_5a27d4371a_n.jpg",
    "id_album": "1650283598",
    "description": "ANIME_PIC_dfd7216428ca177ddd1444d353fefc0f,[isGirlAnime],[isSadAnime],[isSadAnimeGirl],[isCuteAnime],[Girls Sad],[GirlsSad],[isGirlEarsNekoAnime],[isGirlsHatsHoodieAnime],[isGirlsLoliAnime]",
    "title": "ANIME_PIC_dfd7216428ca177ddd1444d353fefc0f",
    "link_img": "https://live.staticflickr.com/65535/50153532043_61abddc439_o.png",
    "id_image": "ANIME_PIC_dfd7216428ca177ddd1444d353fefc0f",
    "count_view": 0
  },
  {
    "link_thumb": "https://live.staticflickr.com/65535/51565996091_6a9786fe75_n.jpg",
    "id_album": "1650283598",
    "description": "ANIME_PIC_dff398518dcd8f9d50db517b75788d4f,[GirlsSad],[isGirlAnime],[isCuteAnime],[isGirlEarsNekoAnime],[isGirlsLoliAnime],[isSadAnimeGirl],[isSadAnime]",
    "title": "ANIME_PIC_dff398518dcd8f9d50db517b75788d4f",
    "link_img": "https://live.staticflickr.com/65535/51565996091_cff8238a85_o.png",
    "id_image": "ANIME_PIC_dff398518dcd8f9d50db517b75788d4f",
    "count_view": 0
  },
  {
    "link_thumb": "https://live.staticflickr.com/65535/50154274833_564e28e615_n.jpg",
    "id_album": "1650283598",
    "description": "ANIME_PIC_e005975030dd54940f15f8e375e6afb8,[isGirlAnime],[isSadAnime],[isSadAnimeGirl],[isCuteAnime],[Girls Sad],[GirlsSad],[isGirlsLoliAnime]",
    "title": "ANIME_PIC_e005975030dd54940f15f8e375e6afb8",
    "link_img": "https://live.staticflickr.com/65535/50154274833_06ec132e02_o.jpg",
    "id_image": "ANIME_PIC_e005975030dd54940f15f8e375e6afb8",
    "count_view": 0
  },
  {
    "link_thumb": "https://live.staticflickr.com/65535/51566685244_072d7bf311_n.jpg",
    "id_album": "1650283598",
    "description": "ANIME_PIC_e014f0bf1103fb475dba41e584a837ec,[GirlsSad],[isGirlAnime],[isCuteAnime],[isGirlsHornsAnime],[isGirlsLoliAnime],[isSadAnimeGirl],[isSadAnime]",
    "title": "ANIME_PIC_e014f0bf1103fb475dba41e584a837ec",
    "link_img": "https://live.staticflickr.com/65535/51566685244_30a825628d_o.png",
    "id_image": "ANIME_PIC_e014f0bf1103fb475dba41e584a837ec",
    "count_view": 0
  },
  {
    "link_thumb": "https://live.staticflickr.com/65535/51566931475_5a67c87006_n.jpg",
    "id_album": "1650283598",
    "description": "ANIME_PIC_e027d99cdfdd4d0dc04794a9109c2477,[GirlsSad],[isGirlAnime],[isCuteAnime],[isGirlsHatsHoodieAnime],[isGirlsLoliAnime],[isSadAnimeGirl],[isSadAnime]",
    "title": "ANIME_PIC_e027d99cdfdd4d0dc04794a9109c2477",
    "link_img": "https://live.staticflickr.com/65535/51566931475_214b3915a3_o.jpg",
    "id_image": "ANIME_PIC_e027d99cdfdd4d0dc04794a9109c2477",
    "count_view": 0
  },
  {
    "link_thumb": "https://live.staticflickr.com/65535/49879498511_bb2481d425_n.jpg",
    "id_album": "1650283598",
    "description": "ANIME_PIC_e038edc01a8a2b448414efc04030d1fb,[isGirlAnime],[isSadAnime],[isSadAnimeGirl],[isCuteAnime],[Girls Sad],[GirlsSad]",
    "title": "ANIME_PIC_e038edc01a8a2b448414efc04030d1fb",
    "link_img": "https://live.staticflickr.com/65535/49879498511_66f890b051_o.jpg",
    "id_image": "ANIME_PIC_e038edc01a8a2b448414efc04030d1fb",
    "count_view": 0
  },
  {
    "link_thumb": "https://live.staticflickr.com/65535/51566686764_6c1df89103_n.jpg",
    "id_album": "1650283598",
    "description": "ANIME_PIC_e04a688a1cec41559085b3442c84e791,[GirlsSad],[isGirlAnime],[isCuteAnime],[isSadAnimeGirl],[isSadAnime]",
    "title": "ANIME_PIC_e04a688a1cec41559085b3442c84e791",
    "link_img": "https://live.staticflickr.com/65535/51566686764_a3f4e86b60_o.jpg",
    "id_image": "ANIME_PIC_e04a688a1cec41559085b3442c84e791",
    "count_view": 0
  },
  {
    "link_thumb": "https://live.staticflickr.com/65535/51566931865_f41b132b6a_n.jpg",
    "id_album": "1650283598",
    "description": "ANIME_PIC_e0513db2407aa1d4e71f78405d822eb9,[GirlsSad],[isGirlAnime],[isCuteAnime],[isSadAnimeGirl],[isSadAnime]",
    "title": "ANIME_PIC_e0513db2407aa1d4e71f78405d822eb9",
    "link_img": "https://live.staticflickr.com/65535/51566931865_6001e59517_o.jpg",
    "id_image": "ANIME_PIC_e0513db2407aa1d4e71f78405d822eb9",
    "count_view": 0
  },
  {
    "link_thumb": "https://live.staticflickr.com/65535/51565998741_e34d8832a2_n.jpg",
    "id_album": "1650283598",
    "description": "ANIME_PIC_e051684a0d62d805d89c08b7425083eb,[GirlsSad],[isGirlAnime],[isSadAnimeGirl],[isSadAnime]",
    "title": "ANIME_PIC_e051684a0d62d805d89c08b7425083eb",
    "link_img": "https://live.staticflickr.com/65535/51565998741_cceac7785f_o.jpg",
    "id_image": "ANIME_PIC_e051684a0d62d805d89c08b7425083eb",
    "count_view": 0
  },
  {
    "link_thumb": "https://live.staticflickr.com/65535/51565998951_380a96f1dd_n.jpg",
    "id_album": "1650283598",
    "description": "ANIME_PIC_e05492c6630920f0b1da8f14ce7a9e1b,[GirlsSad],[isGirlAnime],[isCuteAnime],[isSadAnimeGirl],[isSadAnime]",
    "title": "ANIME_PIC_e05492c6630920f0b1da8f14ce7a9e1b",
    "link_img": "https://live.staticflickr.com/65535/51565998951_95bf1b494d_o.jpg",
    "id_image": "ANIME_PIC_e05492c6630920f0b1da8f14ce7a9e1b",
    "count_view": 0
  },
  {
    "link_thumb": "https://live.staticflickr.com/65535/51566932640_9f4bf4fca3_n.jpg",
    "id_album": "1650283598",
    "description": "ANIME_PIC_e064025050863751b3927732b88cad3e,[GirlsSad],[isGirlAnime],[isCuteAnime],[isGirlsHatsHoodieAnime],[isSadAnimeGirl],[isSadAnime]",
    "title": "ANIME_PIC_e064025050863751b3927732b88cad3e",
    "link_img": "https://live.staticflickr.com/65535/51566932640_f2b879f037_o.jpg",
    "id_image": "ANIME_PIC_e064025050863751b3927732b88cad3e",
    "count_view": 0
  },
  {
    "link_thumb": "https://live.staticflickr.com/65535/51565999351_535cd3b476_n.jpg",
    "id_album": "1650283598",
    "description": "ANIME_PIC_e067cc8e2421cff3042b6d3fd08db49e,[GirlsSad],[isGirlAnime],[isCuteAnime],[isGirlsHatsHoodieAnime],[isGirlsLoliAnime],[isSadAnimeGirl],[isSadAnime]",
    "title": "ANIME_PIC_e067cc8e2421cff3042b6d3fd08db49e",
    "link_img": "https://live.staticflickr.com/65535/51565999351_98bc3a89b9_o.png",
    "id_image": "ANIME_PIC_e067cc8e2421cff3042b6d3fd08db49e",
    "count_view": 0
  },
  {
    "link_thumb": "https://live.staticflickr.com/65535/51566243998_111566fa2a_n.jpg",
    "id_album": "1650283598",
    "description": "ANIME_PIC_e06c537cc3e547869954db8fa0e671ba,[GirlsSad],[isGirlAnime],[isCuteAnime],[isGirlsLoliAnime],[isSadAnimeGirl],[isSadAnime]",
    "title": "ANIME_PIC_e06c537cc3e547869954db8fa0e671ba",
    "link_img": "https://live.staticflickr.com/65535/51566243998_ae9274490a_o.jpg",
    "id_image": "ANIME_PIC_e06c537cc3e547869954db8fa0e671ba",
    "count_view": 0
  },
  {
    "link_thumb": "https://live.staticflickr.com/65535/51566688744_80f7de2176_n.jpg",
    "id_album": "1650283598",
    "description": "ANIME_PIC_e078079a7a6ed08ba1a50e9aa7cfe178,[GirlsSad],[isGirlAnime],[isCuteAnime],[isGirlsLoliAnime],[isSadAnimeGirl],[isSadAnime]",
    "title": "ANIME_PIC_e078079a7a6ed08ba1a50e9aa7cfe178",
    "link_img": "https://live.staticflickr.com/65535/51566688744_8d5e60b0fe_o.png",
    "id_image": "ANIME_PIC_e078079a7a6ed08ba1a50e9aa7cfe178",
    "count_view": 0
  },
  {
    "link_thumb": "https://live.staticflickr.com/65535/49799637012_dba2cf3c87_n.jpg",
    "id_album": "1650283598",
    "description": "ANIME_PIC_e096575504bc46a6dda90205c2fc9d8d,[isGirlAnime],[isSadAnime],[isSadAnimeGirl],[isCuteAnime],[Girls Sad],[GirlsSad]",
    "title": "ANIME_PIC_e096575504bc46a6dda90205c2fc9d8d",
    "link_img": "https://live.staticflickr.com/65535/49799637012_71629f0b65_o.jpg",
    "id_image": "ANIME_PIC_e096575504bc46a6dda90205c2fc9d8d",
    "count_view": 0
  },
  {
    "link_thumb": "https://live.staticflickr.com/65535/51566000556_9518fd9c0c_n.jpg",
    "id_album": "1650283598",
    "description": "ANIME_PIC_e0a34702e5962eb4175d1ff51fbe4e12,[GirlsSad],[isGirlAnime],[isCuteAnime],[isGirlsLoliAnime],[isSadAnimeGirl],[isSadAnime]",
    "title": "ANIME_PIC_e0a34702e5962eb4175d1ff51fbe4e12",
    "link_img": "https://live.staticflickr.com/65535/51566000556_6f2e9c655a_o.jpg",
    "id_image": "ANIME_PIC_e0a34702e5962eb4175d1ff51fbe4e12",
    "count_view": 0
  },
  {
    "link_thumb": "https://live.staticflickr.com/65535/51566934275_a2723e05ff_n.jpg",
    "id_album": "1650283598",
    "description": "ANIME_PIC_e0a3c15d1e729381eae222c48cc12d8b,[GirlsSad],[isGirlAnime],[isCuteAnime],[isGirlsLoliAnime],[isSadAnimeGirl],[isSadAnime]",
    "title": "ANIME_PIC_e0a3c15d1e729381eae222c48cc12d8b",
    "link_img": "https://live.staticflickr.com/65535/51566934275_7c0e08d777_o.png",
    "id_image": "ANIME_PIC_e0a3c15d1e729381eae222c48cc12d8b",
    "count_view": 0
  },
  {
    "link_thumb": "https://live.staticflickr.com/65535/51566690124_a017609cf3_n.jpg",
    "id_album": "1650283598",
    "description": "ANIME_PIC_e0afd44ed4bf8737e70aeb149fd8f2c8,[GirlsSad],[isGirlAnime],[isBlackAnime],[isGirlsHatsHoodieAnime],[isSadAnimeGirl],[isSadAnime]",
    "title": "ANIME_PIC_e0afd44ed4bf8737e70aeb149fd8f2c8",
    "link_img": "https://live.staticflickr.com/65535/51566690124_5a52de9198_o.jpg",
    "id_image": "ANIME_PIC_e0afd44ed4bf8737e70aeb149fd8f2c8",
    "count_view": 0
  },
  {
    "link_thumb": "https://live.staticflickr.com/65535/51566001686_4851bea82b_n.jpg",
    "id_album": "1650283598",
    "description": "ANIME_PIC_e0b23ab4c849f6f33ec03d3b5d4d5bb8,[GirlsSad],[isGirlAnime],[isCuteAnime],[isSadAnimeGirl],[isSadAnime]",
    "title": "ANIME_PIC_e0b23ab4c849f6f33ec03d3b5d4d5bb8",
    "link_img": "https://live.staticflickr.com/65535/51566001686_42f0f7eae2_o.jpg",
    "id_image": "ANIME_PIC_e0b23ab4c849f6f33ec03d3b5d4d5bb8",
    "count_view": 0
  },
  {
    "link_thumb": "https://live.staticflickr.com/65535/51566246258_61c54312bc_n.jpg",
    "id_album": "1650283598",
    "description": "ANIME_PIC_e0d92ecf73b84c52c2cb13ce19ac717a,[GirlsSad],[isGirlAnime],[isCuteAnime],[isGirlsLoliAnime],[isSadAnimeGirl],[isSadAnime]",
    "title": "ANIME_PIC_e0d92ecf73b84c52c2cb13ce19ac717a",
    "link_img": "https://live.staticflickr.com/65535/51566246258_19c9ff04cc_o.jpg",
    "id_image": "ANIME_PIC_e0d92ecf73b84c52c2cb13ce19ac717a",
    "count_view": 0
  },
  {
    "link_thumb": "https://live.staticflickr.com/65535/51565209052_60b0dc2c6e_n.jpg",
    "id_album": "1650283598",
    "description": "ANIME_PIC_e0e08839fae90663b79826d8d9ceff66,[GirlsSad],[isGirlAnime],[isCuteAnime],[isGirlsLoliAnime],[isSadAnimeGirl],[isSadAnime]",
    "title": "ANIME_PIC_e0e08839fae90663b79826d8d9ceff66",
    "link_img": "https://live.staticflickr.com/65535/51565209052_482f797e58_o.png",
    "id_image": "ANIME_PIC_e0e08839fae90663b79826d8d9ceff66",
    "count_view": 0
  },
  {
    "link_thumb": "https://live.staticflickr.com/65535/51566003126_5dcbd28f7e_n.jpg",
    "id_album": "1650283598",
    "description": "ANIME_PIC_e0e268d28e3db063ae11e72577665c27,[GirlsSad],[isGirlAnime],[isCuteAnime],[isGirlsLoliAnime],[isSadAnimeGirl],[isSadAnime]",
    "title": "ANIME_PIC_e0e268d28e3db063ae11e72577665c27",
    "link_img": "https://live.staticflickr.com/65535/51566003126_bb56b56032_o.jpg",
    "id_image": "ANIME_PIC_e0e268d28e3db063ae11e72577665c27",
    "count_view": 0
  },
  {
    "link_thumb": "https://live.staticflickr.com/65535/51566247798_b940d34fa0_n.jpg",
    "id_album": "1650283598",
    "description": "ANIME_PIC_e0f1fc0e9ead08d41b68538c3d8da5eb,[GirlsSad],[isGirlAnime],[isCuteAnime],[isSadAnimeGirl],[isSadAnime]",
    "title": "ANIME_PIC_e0f1fc0e9ead08d41b68538c3d8da5eb",
    "link_img": "https://live.staticflickr.com/65535/51566247798_7c77624071_o.jpg",
    "id_image": "ANIME_PIC_e0f1fc0e9ead08d41b68538c3d8da5eb",
    "count_view": 0
  },
  {
    "link_thumb": "https://live.staticflickr.com/65535/51566003736_23f4e3d82d_n.jpg",
    "id_album": "1650283598",
    "description": "ANIME_PIC_e1038de22f030642f1ca9f6281e93d67,[GirlsSad],[isGirlAnime],[isCuteAnime],[isGirlsLoliAnime],[isSadAnimeGirl],[isSadAnime]",
    "title": "ANIME_PIC_e1038de22f030642f1ca9f6281e93d67",
    "link_img": "https://live.staticflickr.com/65535/51566003736_bbfa7707bc_o.jpg",
    "id_image": "ANIME_PIC_e1038de22f030642f1ca9f6281e93d67",
    "count_view": 0
  },
  {
    "link_thumb": "https://live.staticflickr.com/65535/51565210962_292950bf5b_n.jpg",
    "id_album": "1650283598",
    "description": "ANIME_PIC_e1072754f67527bbaf03d96b74388e89,[GirlsSad],[isGirlAnime],[isCuteAnime],[isGirlsLoliAnime],[isSadAnimeGirl],[isGirlsSharpCanineToothAnime],[isSadAnime]",
    "title": "ANIME_PIC_e1072754f67527bbaf03d96b74388e89",
    "link_img": "https://live.staticflickr.com/65535/51565210962_086591fb37_o.jpg",
    "id_image": "ANIME_PIC_e1072754f67527bbaf03d96b74388e89",
    "count_view": 0
  },
  {
    "link_thumb": "https://live.staticflickr.com/65535/51566248798_71d81d0749_n.jpg",
    "id_album": "1650283598",
    "description": "ANIME_PIC_e11930893558b2c56fc45ee359ed2ed1,[GirlsSad],[isGirlAnime],[isCuteAnime],[isGirlsLoliAnime],[isSadAnimeGirl],[isSadAnime]",
    "title": "ANIME_PIC_e11930893558b2c56fc45ee359ed2ed1",
    "link_img": "https://live.staticflickr.com/65535/51566248798_7a23c6c22f_o.jpg",
    "id_image": "ANIME_PIC_e11930893558b2c56fc45ee359ed2ed1",
    "count_view": 0
  },
  {
    "link_thumb": "https://live.staticflickr.com/65535/51566693634_99744674fd_n.jpg",
    "id_album": "1650283598",
    "description": "ANIME_PIC_e125bcdd2bb621290b1dff526033de83,[GirlsSad],[isGirlAnime],[isCuteAnime],[isSadAnimeGirl],[isSadAnime]",
    "title": "ANIME_PIC_e125bcdd2bb621290b1dff526033de83",
    "link_img": "https://live.staticflickr.com/65535/51566693634_2dbff6be21_o.jpg",
    "id_image": "ANIME_PIC_e125bcdd2bb621290b1dff526033de83",
    "count_view": 0
  },
  {
    "link_thumb": "https://live.staticflickr.com/65535/51565212087_33597b83c6_n.jpg",
    "id_album": "1650283598",
    "description": "ANIME_PIC_e12c616a3551568f41700310528a29e6,[GirlsSad],[isGirlAnime],[isCuteAnime],[isGirlsHornsAnime],[isGirlsLoliAnime],[isSadAnimeGirl],[isSadAnime]",
    "title": "ANIME_PIC_e12c616a3551568f41700310528a29e6",
    "link_img": "https://live.staticflickr.com/65535/51565212087_287dce56ba_o.jpg",
    "id_image": "ANIME_PIC_e12c616a3551568f41700310528a29e6",
    "count_view": 0
  },
  {
    "link_thumb": "https://live.staticflickr.com/65535/51566694239_ca2eb3b53e_n.jpg",
    "id_album": "1650283598",
    "description": "ANIME_PIC_e12d5d97fa8b66170e9edab063c11eff,[GirlsSad],[isGirlAnime],[isCuteAnime],[isGirlsLoliAnime],[isSadAnimeGirl],[isSadAnime]",
    "title": "ANIME_PIC_e12d5d97fa8b66170e9edab063c11eff",
    "link_img": "https://live.staticflickr.com/65535/51566694239_72901f9333_o.png",
    "id_image": "ANIME_PIC_e12d5d97fa8b66170e9edab063c11eff",
    "count_view": 0
  },
  {
    "link_thumb": "https://live.staticflickr.com/65535/51566250393_f2b9950b46_n.jpg",
    "id_album": "1650283598",
    "description": "ANIME_PIC_e13518c0a6b7ff2de795c70ce9b28bc6,[GirlsSad],[isGirlAnime],[isCuteAnime],[isSadAnimeGirl],[isSadAnime]",
    "title": "ANIME_PIC_e13518c0a6b7ff2de795c70ce9b28bc6",
    "link_img": "https://live.staticflickr.com/65535/51566250393_c87af01bee_o.jpg",
    "id_image": "ANIME_PIC_e13518c0a6b7ff2de795c70ce9b28bc6",
    "count_view": 0
  },
  {
    "link_thumb": "https://live.staticflickr.com/65535/49893622186_d2c9119c43_n.jpg",
    "id_album": "1650283598",
    "description": "ANIME_PIC_e1398dac1dbed94e66d88eca2e3d49ac,[isGirlAnime],[isSadAnime],[isSadAnimeGirl],[isCuteAnime],[Girls Sad],[GirlsSad]",
    "title": "ANIME_PIC_e1398dac1dbed94e66d88eca2e3d49ac",
    "link_img": "https://live.staticflickr.com/65535/49893622186_c2284c4eba_o.png",
    "id_image": "ANIME_PIC_e1398dac1dbed94e66d88eca2e3d49ac",
    "count_view": 0
  },
  {
    "link_thumb": "https://live.staticflickr.com/65535/51566939585_6d179275f3_n.jpg",
    "id_album": "1650283598",
    "description": "ANIME_PIC_e13a00573c9ce671a81b27ffce1f8884,[GirlsSad],[isGirlAnime],[isCuteAnime],[isGirlsHatsHoodieAnime],[isGirlsLoliAnime],[isSadAnimeGirl],[isSadAnime]",
    "title": "ANIME_PIC_e13a00573c9ce671a81b27ffce1f8884",
    "link_img": "https://live.staticflickr.com/65535/51566939585_564d5e51d6_o.jpg",
    "id_image": "ANIME_PIC_e13a00573c9ce671a81b27ffce1f8884",
    "count_view": 0
  },
  {
    "link_thumb": "https://live.staticflickr.com/65535/51565213432_ac4ffdb232_n.jpg",
    "id_album": "1650283598",
    "description": "ANIME_PIC_e13a22e8cf2a60bfb8faf43e0a83d468,[GirlsSad],[isGirlAnime],[isCuteAnime],[isSadAnimeGirl],[isSadAnime]",
    "title": "ANIME_PIC_e13a22e8cf2a60bfb8faf43e0a83d468",
    "link_img": "https://live.staticflickr.com/65535/51565213432_356dbfb4c8_o.jpg",
    "id_image": "ANIME_PIC_e13a22e8cf2a60bfb8faf43e0a83d468",
    "count_view": 0
  },
  {
    "link_thumb": "https://live.staticflickr.com/65535/51565213722_3b3324d4b7_n.jpg",
    "id_album": "1650283598",
    "description": "ANIME_PIC_e1418db3daeac6f5cad91d0dd7f91bec,[GirlsSad],[isGirlAnime],[isGirlsHatsHoodieAnime],[isSadAnimeGirl],[isSadAnime]",
    "title": "ANIME_PIC_e1418db3daeac6f5cad91d0dd7f91bec",
    "link_img": "https://live.staticflickr.com/65535/51565213722_90402fdb4f_o.jpg",
    "id_image": "ANIME_PIC_e1418db3daeac6f5cad91d0dd7f91bec",
    "count_view": 0
  },
  {
    "link_thumb": "https://live.staticflickr.com/65535/51567298412_0267c2e613_n.jpg",
    "id_album": "1650283598",
    "description": "ANIME_PIC_e142d9cae4a580648d639b70ce6b8c8b,[GirlsSad],[isGirlAnime],[isCuteAnime],[isSadAnimeGirl],[isSadAnime]",
    "title": "ANIME_PIC_e142d9cae4a580648d639b70ce6b8c8b",
    "link_img": "https://live.staticflickr.com/65535/51567298412_21e8ed821e_o.jpg",
    "id_image": "ANIME_PIC_e142d9cae4a580648d639b70ce6b8c8b",
    "count_view": 0
  },
  {
    "link_thumb": "https://live.staticflickr.com/65535/51566010376_09523f7ae0_n.jpg",
    "id_album": "1650283598",
    "description": "ANIME_PIC_e15545522de5192e8a0cb6f4a3b21deb,[GirlsSad],[isGirlAnime],[isCuteAnime],[isSadAnimeGirl],[isSadAnime]",
    "title": "ANIME_PIC_e15545522de5192e8a0cb6f4a3b21deb",
    "link_img": "https://live.staticflickr.com/65535/51566010376_05816cf57c_o.jpg",
    "id_image": "ANIME_PIC_e15545522de5192e8a0cb6f4a3b21deb",
    "count_view": 0
  },
  {
    "link_thumb": "https://live.staticflickr.com/65535/51566254993_412e9e2db6_n.jpg",
    "id_album": "1650283598",
    "description": "ANIME_PIC_e1599192904a2abdfab02ffdf527629a,[GirlsSad],[isGirlAnime],[isCuteAnime],[isSadAnimeGirl],[isSadAnime]",
    "title": "ANIME_PIC_e1599192904a2abdfab02ffdf527629a",
    "link_img": "https://live.staticflickr.com/65535/51566254993_a5d21939ee_o.jpg",
    "id_image": "ANIME_PIC_e1599192904a2abdfab02ffdf527629a",
    "count_view": 0
  },
  {
    "link_thumb": "https://live.staticflickr.com/65535/51566699484_d3d5aaaa09_n.jpg",
    "id_album": "1650283598",
    "description": "ANIME_PIC_e17760841389da3e35a0fab3c978c473,[GirlsSad],[isGirlAnime],[isSadAnimeGirl],[isSadAnime]",
    "title": "ANIME_PIC_e17760841389da3e35a0fab3c978c473",
    "link_img": "https://live.staticflickr.com/65535/51566699484_c9f3b66fcb_o.jpg",
    "id_image": "ANIME_PIC_e17760841389da3e35a0fab3c978c473",
    "count_view": 0
  },
  {
    "link_thumb": "https://live.staticflickr.com/65535/51565217787_1726a84562_n.jpg",
    "id_album": "1650283598",
    "description": "ANIME_PIC_e178b61846e5c823c2736b513fd4aed4,[GirlsSad],[isGirlAnime],[isCuteAnime],[isGirlsHatsHoodieAnime],[isGirlsLoliAnime],[isSadAnimeGirl],[isSadAnime]",
    "title": "ANIME_PIC_e178b61846e5c823c2736b513fd4aed4",
    "link_img": "https://live.staticflickr.com/65535/51565217787_e827f7481e_o.jpg",
    "id_image": "ANIME_PIC_e178b61846e5c823c2736b513fd4aed4",
    "count_view": 0
  },
  {
    "link_thumb": "https://live.staticflickr.com/65535/51566011621_f5f9094710_n.jpg",
    "id_album": "1650283598",
    "description": "ANIME_PIC_e1864a49b88116db2982d262588ccef8,[GirlsSad],[isGirlAnime],[isCuteAnime],[isGirlsLoliAnime],[isSadAnimeGirl],[isSadAnime]",
    "title": "ANIME_PIC_e1864a49b88116db2982d262588ccef8",
    "link_img": "https://live.staticflickr.com/65535/51566011621_7d8aa80d22_o.jpg",
    "id_image": "ANIME_PIC_e1864a49b88116db2982d262588ccef8",
    "count_view": 0
  },
  {
    "link_thumb": "https://live.staticflickr.com/65535/51566945185_d446ac226e_n.jpg",
    "id_album": "1650283598",
    "description": "ANIME_PIC_e18b8c6e76cbb6926b871076c61eeeac,[GirlsSad],[isGirlAnime],[isCuteAnime],[isGirlsHatsHoodieAnime],[isGirlsLoliAnime],[isSadAnimeGirl],[isSadAnime]",
    "title": "ANIME_PIC_e18b8c6e76cbb6926b871076c61eeeac",
    "link_img": "https://live.staticflickr.com/65535/51566945185_354db5b986_o.jpg",
    "id_image": "ANIME_PIC_e18b8c6e76cbb6926b871076c61eeeac",
    "count_view": 0
  },
  {
    "link_thumb": "https://live.staticflickr.com/65535/51565218932_72892dbc2f_n.jpg",
    "id_album": "1650283598",
    "description": "ANIME_PIC_e18c046660b8560ebc4d355d0746cd5b,[GirlsSad],[isGirlAnime],[isCuteAnime],[isGirlsHatsHoodieAnime],[isSadAnimeGirl],[isSadAnime]",
    "title": "ANIME_PIC_e18c046660b8560ebc4d355d0746cd5b",
    "link_img": "https://live.staticflickr.com/65535/51565218932_31a803e35d_o.png",
    "id_image": "ANIME_PIC_e18c046660b8560ebc4d355d0746cd5b",
    "count_view": 0
  },
  {
    "link_thumb": "https://live.staticflickr.com/65535/51566256993_1fa3abaf3a_n.jpg",
    "id_album": "1650283598",
    "description": "ANIME_PIC_e18d3096a83ab423126a9ad9158e7199,[GirlsSad],[isGirlAnime],[isCuteAnime],[isSadAnimeGirl],[isSadAnime]",
    "title": "ANIME_PIC_e18d3096a83ab423126a9ad9158e7199",
    "link_img": "https://live.staticflickr.com/65535/51566256993_460183d7cc_o.jpg",
    "id_image": "ANIME_PIC_e18d3096a83ab423126a9ad9158e7199",
    "count_view": 0
  },
  {
    "link_thumb": "https://live.staticflickr.com/65535/51566257213_0585b76f8e_n.jpg",
    "id_album": "1650283598",
    "description": "ANIME_PIC_e193a49683c7239bd8e47ee7e1c576fb,[GirlsSad],[isGirlAnime],[isCuteAnime],[isGirlFaceMasksAnime],[isSadAnimeGirl],[isSadAnime]",
    "title": "ANIME_PIC_e193a49683c7239bd8e47ee7e1c576fb",
    "link_img": "https://live.staticflickr.com/65535/51566257213_d32eb9890e_o.jpg",
    "id_image": "ANIME_PIC_e193a49683c7239bd8e47ee7e1c576fb",
    "count_view": 0
  },
  {
    "link_thumb": "https://live.staticflickr.com/65535/51566013521_2a0099b31a_n.jpg",
    "id_album": "1650283598",
    "description": "ANIME_PIC_e1ab24a603235158daed9bb055783871,[GirlsSad],[isGirlAnime],[isCuteAnime],[isSadAnimeGirl],[isSadAnime]",
    "title": "ANIME_PIC_e1ab24a603235158daed9bb055783871",
    "link_img": "https://live.staticflickr.com/65535/51566013521_353d80961a_o.png",
    "id_image": "ANIME_PIC_e1ab24a603235158daed9bb055783871",
    "count_view": 0
  },
  {
    "link_thumb": "https://live.staticflickr.com/65535/51565220442_ac4cff141a_n.jpg",
    "id_album": "1650283598",
    "description": "ANIME_PIC_e1c53704c7aa68ccc6ff65fc4a90a3ae,[GirlsSad],[isGirlAnime],[isCuteAnime],[isGirlsLoliAnime],[isSadAnimeGirl],[isSadAnime]",
    "title": "ANIME_PIC_e1c53704c7aa68ccc6ff65fc4a90a3ae",
    "link_img": "https://live.staticflickr.com/65535/51565220442_10638175e7_o.jpg",
    "id_image": "ANIME_PIC_e1c53704c7aa68ccc6ff65fc4a90a3ae",
    "count_view": 0
  },
  {
    "link_thumb": "https://live.staticflickr.com/65535/51566014156_7d86d408ee_n.jpg",
    "id_album": "1650283598",
    "description": "ANIME_PIC_e1ddde0e26ace55562584a5d36917739,[GirlsSad],[isGirlAnime],[isCuteAnime],[isSadAnimeGirl],[isSadAnime]",
    "title": "ANIME_PIC_e1ddde0e26ace55562584a5d36917739",
    "link_img": "https://live.staticflickr.com/65535/51566014156_b2ee62e528_o.jpg",
    "id_image": "ANIME_PIC_e1ddde0e26ace55562584a5d36917739",
    "count_view": 0
  },
  {
    "link_thumb": "https://live.staticflickr.com/65535/51566014561_8a9585ce9a_n.jpg",
    "id_album": "1650283598",
    "description": "ANIME_PIC_e1eac0a5167c04faa02673c56333c79a,[GirlsSad],[isGirlAnime],[isCuteAnime],[isSadAnimeGirl],[isSadAnime]",
    "title": "ANIME_PIC_e1eac0a5167c04faa02673c56333c79a",
    "link_img": "https://live.staticflickr.com/65535/51566014561_8873aeca43_o.jpg",
    "id_image": "ANIME_PIC_e1eac0a5167c04faa02673c56333c79a",
    "count_view": 0
  },
  {
    "link_thumb": "https://live.staticflickr.com/65535/51566258878_2484941a01_n.jpg",
    "id_album": "1650283598",
    "description": "ANIME_PIC_e1f11bab157b19653e3f31c9de86dd0b,[GirlsSad],[isGirlAnime],[isCuteAnime],[isSadAnimeGirl],[isSadAnime]",
    "title": "ANIME_PIC_e1f11bab157b19653e3f31c9de86dd0b",
    "link_img": "https://live.staticflickr.com/65535/51566258878_be2323f427_o.jpg",
    "id_image": "ANIME_PIC_e1f11bab157b19653e3f31c9de86dd0b",
    "count_view": 0
  },
  {
    "link_thumb": "https://live.staticflickr.com/65535/51566015176_dbe6da48f2_n.jpg",
    "id_album": "1650283598",
    "description": "ANIME_PIC_e1f82a486beaad4c36749ab25943a557,[GirlsSad],[isGirlAnime],[isCuteAnime],[isGirlEarsNekoAnime],[isSadAnimeGirl],[isSadAnime]",
    "title": "ANIME_PIC_e1f82a486beaad4c36749ab25943a557",
    "link_img": "https://live.staticflickr.com/65535/51566015176_4f2de0c922_o.png",
    "id_image": "ANIME_PIC_e1f82a486beaad4c36749ab25943a557",
    "count_view": 0
  },
  {
    "link_thumb": "https://live.staticflickr.com/65535/51566948715_fb8e765b69_n.jpg",
    "id_album": "1650283598",
    "description": "ANIME_PIC_e1fb437db7f09802a87e4222e5c57d8f,[GirlsSad],[isGirlAnime],[isCuteAnime],[isSadAnimeGirl],[isSadAnime]",
    "title": "ANIME_PIC_e1fb437db7f09802a87e4222e5c57d8f",
    "link_img": "https://live.staticflickr.com/65535/51566948715_30d30823a7_o.jpg",
    "id_image": "ANIME_PIC_e1fb437db7f09802a87e4222e5c57d8f",
    "count_view": 0
  },
  {
    "link_thumb": "https://live.staticflickr.com/65535/51566259813_96e3341b81_n.jpg",
    "id_album": "1650283598",
    "description": "ANIME_PIC_e2062e457320819418d00fcde9e3f7eb,[GirlsSad],[isGirlAnime],[isCuteAnime],[isSadAnimeGirl],[isSadAnime]",
    "title": "ANIME_PIC_e2062e457320819418d00fcde9e3f7eb",
    "link_img": "https://live.staticflickr.com/65535/51566259813_9163fbef35_o.jpg",
    "id_image": "ANIME_PIC_e2062e457320819418d00fcde9e3f7eb",
    "count_view": 0
  },
  {
    "link_thumb": "https://live.staticflickr.com/65535/51566949360_5cef6b6814_n.jpg",
    "id_album": "1650283598",
    "description": "ANIME_PIC_e20a49273da225cbea83b10297d3fad7,[GirlsSad],[isGirlAnime],[isCuteAnime],[isGirlsLoliAnime],[isSadAnimeGirl],[isSadAnime]",
    "title": "ANIME_PIC_e20a49273da225cbea83b10297d3fad7",
    "link_img": "https://live.staticflickr.com/65535/51566949360_be88e4a02f_o.jpg",
    "id_image": "ANIME_PIC_e20a49273da225cbea83b10297d3fad7",
    "count_view": 0
  },
  {
    "link_thumb": "https://live.staticflickr.com/65535/49878968808_9a4dc8e2dc_n.jpg",
    "id_album": "1650283598",
    "description": "ANIME_PIC_e20b2a9de0baba4744b5b14aa9a2226f,[isGirlAnime],[isSadAnime],[isSadAnimeGirl],[isCuteAnime],[Girls Sad],[GirlsSad]",
    "title": "ANIME_PIC_e20b2a9de0baba4744b5b14aa9a2226f",
    "link_img": "https://live.staticflickr.com/65535/49878968808_2b15acc2a0_o.png",
    "id_image": "ANIME_PIC_e20b2a9de0baba4744b5b14aa9a2226f",
    "count_view": 0
  },
  {
    "link_thumb": "https://live.staticflickr.com/65535/51566260383_9d65423eed_n.jpg",
    "id_album": "1650283598",
    "description": "ANIME_PIC_e20e1abcf0af58314f3ab47bb86bf149,[GirlsSad],[isGirlAnime],[isCuteAnime],[isGirlsLoliAnime],[isSadAnimeGirl],[isSadAnime]",
    "title": "ANIME_PIC_e20e1abcf0af58314f3ab47bb86bf149",
    "link_img": "https://live.staticflickr.com/65535/51566260383_a782de1dbb_o.jpg",
    "id_image": "ANIME_PIC_e20e1abcf0af58314f3ab47bb86bf149",
    "count_view": 0
  },
  {
    "link_thumb": "https://live.staticflickr.com/65535/51566949980_b921079f8f_n.jpg",
    "id_album": "1650283598",
    "description": "ANIME_PIC_e215b0a700701504dee83c23b3c48c5d,[GirlsSad],[isGirlAnime],[isSadAnimeGirl],[isSadAnime],[isSceneryArts]",
    "title": "ANIME_PIC_e215b0a700701504dee83c23b3c48c5d",
    "link_img": "https://live.staticflickr.com/65535/51566949980_c51e95c9d5_o.jpg",
    "id_image": "ANIME_PIC_e215b0a700701504dee83c23b3c48c5d",
    "count_view": 0
  },
  {
    "link_thumb": "https://live.staticflickr.com/65535/51566950245_23c41cd67e_n.jpg",
    "id_album": "1650283598",
    "description": "ANIME_PIC_e21d7d2672aef235a5a079068de97946,[GirlsSad],[isGirlAnime],[isSadAnimeGirl],[isSadAnime]",
    "title": "ANIME_PIC_e21d7d2672aef235a5a079068de97946",
    "link_img": "https://live.staticflickr.com/65535/51566950245_4221ff9706_o.png",
    "id_image": "ANIME_PIC_e21d7d2672aef235a5a079068de97946",
    "count_view": 0
  },
  {
    "link_thumb": "https://live.staticflickr.com/65535/51566017366_cc2c46f1fd_n.jpg",
    "id_album": "1650283598",
    "description": "ANIME_PIC_e21fb8265fe46a6490ed1bc966c66972,[GirlsSad],[isGirlAnime],[isCuteAnime],[isGirlsLoliAnime],[isSadAnimeGirl],[isSadAnime]",
    "title": "ANIME_PIC_e21fb8265fe46a6490ed1bc966c66972",
    "link_img": "https://live.staticflickr.com/65535/51566017366_64ff68b278_o.jpg",
    "id_image": "ANIME_PIC_e21fb8265fe46a6490ed1bc966c66972",
    "count_view": 0
  },
  {
    "link_thumb": "https://live.staticflickr.com/65535/51566017651_2bb51b21ff_n.jpg",
    "id_album": "1650283598",
    "description": "ANIME_PIC_e240f217070f1593b9069114d1f34191,[GirlsSad],[isGirlAnime],[isCuteAnime],[isGirlsLoliAnime],[isSadAnimeGirl],[isSadAnime]",
    "title": "ANIME_PIC_e240f217070f1593b9069114d1f34191",
    "link_img": "https://live.staticflickr.com/65535/51566017651_b7a74ee485_o.jpg",
    "id_image": "ANIME_PIC_e240f217070f1593b9069114d1f34191",
    "count_view": 0
  },
  {
    "link_thumb": "https://live.staticflickr.com/65535/51566018066_2dfce0e20b_n.jpg",
    "id_album": "1650283598",
    "description": "ANIME_PIC_e24d6d2afa74b3da6f12e432784e6ac7,[GirlsSad],[isGirlAnime],[isSadAnimeGirl],[isSadAnime]",
    "title": "ANIME_PIC_e24d6d2afa74b3da6f12e432784e6ac7",
    "link_img": "https://live.staticflickr.com/65535/51566018066_89b64f0792_o.jpg",
    "id_image": "ANIME_PIC_e24d6d2afa74b3da6f12e432784e6ac7",
    "count_view": 0
  },
  {
    "link_thumb": "https://live.staticflickr.com/65535/51566262318_514d29c406_n.jpg",
    "id_album": "1650283598",
    "description": "ANIME_PIC_e251f4e0121773bc3b5089f93bf644bb,[GirlsSad],[isGirlAnime],[isSadAnimeGirl],[isSadAnime]",
    "title": "ANIME_PIC_e251f4e0121773bc3b5089f93bf644bb",
    "link_img": "https://live.staticflickr.com/65535/51566262318_3aba59c229_o.jpg",
    "id_image": "ANIME_PIC_e251f4e0121773bc3b5089f93bf644bb",
    "count_view": 0
  },
  {
    "link_thumb": "https://live.staticflickr.com/65535/51566018666_909ff57e2f_n.jpg",
    "id_album": "1650283598",
    "description": "ANIME_PIC_e25653e59d1552ce75b1a8fca7da6e84,[GirlsSad],[isGirlAnime],[isCuteAnime],[isGirlEarsNekoAnime],[isSadAnimeGirl],[isSadAnime]",
    "title": "ANIME_PIC_e25653e59d1552ce75b1a8fca7da6e84",
    "link_img": "https://live.staticflickr.com/65535/51566018666_242981ed5e_o.jpg",
    "id_image": "ANIME_PIC_e25653e59d1552ce75b1a8fca7da6e84",
    "count_view": 0
  },
  {
    "link_thumb": "https://live.staticflickr.com/65535/51566019026_da9ca8a7ff_n.jpg",
    "id_album": "1650283598",
    "description": "ANIME_PIC_e25657ddc8bbc9ba91065141b3de217a,[GirlsSad],[isGirlAnime],[isCuteAnime],[isGirlsLoliAnime],[isSadAnimeGirl],[isSadAnime]",
    "title": "ANIME_PIC_e25657ddc8bbc9ba91065141b3de217a",
    "link_img": "https://live.staticflickr.com/65535/51566019026_ef9fdd4baa_o.png",
    "id_image": "ANIME_PIC_e25657ddc8bbc9ba91065141b3de217a",
    "count_view": 0
  },
  {
    "link_thumb": "https://live.staticflickr.com/65535/51566019976_9e0e0aa9bb_n.jpg",
    "id_album": "1650283598",
    "description": "ANIME_PIC_e258a2549e9b4ac537db7540fad2ead4,[GirlsSad],[isGirlAnime],[isCuteAnime],[isGirlsLoliAnime],[isSadAnimeGirl],[isSadAnime]",
    "title": "ANIME_PIC_e258a2549e9b4ac537db7540fad2ead4",
    "link_img": "https://live.staticflickr.com/65535/51566019976_744966b454_o.jpg",
    "id_image": "ANIME_PIC_e258a2549e9b4ac537db7540fad2ead4",
    "count_view": 0
  },
  {
    "link_thumb": "https://live.staticflickr.com/65535/51565226407_547d39c09b_n.jpg",
    "id_album": "1650283598",
    "description": "ANIME_PIC_e26eeca79164d50497c0c6d7a9d0516b,[GirlsSad],[isGirlAnime],[isCuteAnime],[isGirlEarsNekoAnime],[isGirlsHatsHoodieAnime],[isGirlsLoliAnime],[isSadAnimeGirl],[isSadAnime]",
    "title": "ANIME_PIC_e26eeca79164d50497c0c6d7a9d0516b",
    "link_img": "https://live.staticflickr.com/65535/51565226407_b10c2399a0_o.png",
    "id_image": "ANIME_PIC_e26eeca79164d50497c0c6d7a9d0516b",
    "count_view": 0
  },
  {
    "link_thumb": "https://live.staticflickr.com/65535/51566953880_bd83a05daf_n.jpg",
    "id_album": "1650283598",
    "description": "ANIME_PIC_e27b0bcc7e8fe7c1968c2a2da0fd7ffe,[GirlsSad],[isGirlAnime],[isCuteAnime],[isSadAnimeGirl],[isSadAnime]",
    "title": "ANIME_PIC_e27b0bcc7e8fe7c1968c2a2da0fd7ffe",
    "link_img": "https://live.staticflickr.com/65535/51566953880_66a5e16590_o.jpg",
    "id_image": "ANIME_PIC_e27b0bcc7e8fe7c1968c2a2da0fd7ffe",
    "count_view": 0
  },
  {
    "link_thumb": "https://live.staticflickr.com/65535/51566954170_a33b4417ff_n.jpg",
    "id_album": "1650283598",
    "description": "ANIME_PIC_e2887c8a01b599108298f30010960a6d,[GirlsSad],[isGirlAnime],[isCuteAnime],[isGirlsHatsHoodieAnime],[isSadAnimeGirl],[isSadAnime]",
    "title": "ANIME_PIC_e2887c8a01b599108298f30010960a6d",
    "link_img": "https://live.staticflickr.com/65535/51566954170_bd73b04347_o.jpg",
    "id_image": "ANIME_PIC_e2887c8a01b599108298f30010960a6d",
    "count_view": 0
  },
  {
    "link_thumb": "https://live.staticflickr.com/65535/51565227377_d5588bcaba_n.jpg",
    "id_album": "1650283598",
    "description": "ANIME_PIC_e2972b36dd62b112d7eba06738bbd80a,[GirlsSad],[isGirlAnime],[isCuteAnime],[isGirlsLoliAnime],[isSadAnimeGirl],[isSadAnime]",
    "title": "ANIME_PIC_e2972b36dd62b112d7eba06738bbd80a",
    "link_img": "https://live.staticflickr.com/65535/51565227377_3f90acbcaf_o.jpg",
    "id_image": "ANIME_PIC_e2972b36dd62b112d7eba06738bbd80a",
    "count_view": 0
  },
  {
    "link_thumb": "https://live.staticflickr.com/65535/51566265388_262be27ea6_n.jpg",
    "id_album": "1650283598",
    "description": "ANIME_PIC_e2a584564703ca8cc410e02be4c54f41,[GirlsSad],[isGirlAnime],[isCuteAnime],[isGirlEarsNekoAnime],[isGirlsLoliAnime],[isSadAnimeGirl],[isSadAnime]",
    "title": "ANIME_PIC_e2a584564703ca8cc410e02be4c54f41",
    "link_img": "https://live.staticflickr.com/65535/51566265388_134c1cbf25_o.jpg",
    "id_image": "ANIME_PIC_e2a584564703ca8cc410e02be4c54f41",
    "count_view": 0
  },
  {
    "link_thumb": "https://live.staticflickr.com/65535/51566265618_17ed2e4975_n.jpg",
    "id_album": "1650283598",
    "description": "ANIME_PIC_e2ab757e4138beb32b94fb241766c764,[GirlsSad],[isGirlAnime],[isCuteAnime],[isGirlsHatsHoodieAnime],[isGirlsLoliAnime],[isSadAnimeGirl],[isSadAnime]",
    "title": "ANIME_PIC_e2ab757e4138beb32b94fb241766c764",
    "link_img": "https://live.staticflickr.com/65535/51566265618_00f4cef450_o.png",
    "id_image": "ANIME_PIC_e2ab757e4138beb32b94fb241766c764",
    "count_view": 0
  },
  {
    "link_thumb": "https://live.staticflickr.com/65535/51566022141_760b132b47_n.jpg",
    "id_album": "1650283598",
    "description": "ANIME_PIC_e2e382512c74a39b618345ed5f81e45f,[GirlsSad],[isGirlAnime],[isCuteAnime],[isGirlsLoliAnime],[isSadAnimeGirl],[isSadAnime]",
    "title": "ANIME_PIC_e2e382512c74a39b618345ed5f81e45f",
    "link_img": "https://live.staticflickr.com/65535/51566022141_e7c4644bf0_o.jpg",
    "id_image": "ANIME_PIC_e2e382512c74a39b618345ed5f81e45f",
    "count_view": 0
  },
  {
    "link_thumb": "https://live.staticflickr.com/65535/51566710239_a515d219ac_n.jpg",
    "id_album": "1650283598",
    "description": "ANIME_PIC_e2ea112183397f22d68760347c9fc55b,[GirlsSad],[isGirlAnime],[isSadAnimeGirl],[isSadAnime]",
    "title": "ANIME_PIC_e2ea112183397f22d68760347c9fc55b",
    "link_img": "https://live.staticflickr.com/65535/51566710239_7d98c01e23_o.jpg",
    "id_image": "ANIME_PIC_e2ea112183397f22d68760347c9fc55b",
    "count_view": 0
  },
  {
    "link_thumb": "https://live.staticflickr.com/65535/51566022776_855de74e83_n.jpg",
    "id_album": "1650283598",
    "description": "ANIME_PIC_e2f13caec98a762c882d64f50e84ece0,[GirlsSad],[isGirlAnime],[isBlackAnime],[isSadAnimeGirl],[isSadAnime]",
    "title": "ANIME_PIC_e2f13caec98a762c882d64f50e84ece0",
    "link_img": "https://live.staticflickr.com/65535/51566022776_a119b72524_o.jpg",
    "id_image": "ANIME_PIC_e2f13caec98a762c882d64f50e84ece0",
    "count_view": 0
  },
  {
    "link_thumb": "https://live.staticflickr.com/65535/51566266818_d85f11e527_n.jpg",
    "id_album": "1650283598",
    "description": "ANIME_PIC_e3064265fc40aab161dc043c261c69d2,[GirlsSad],[isGirlAnime],[isCuteAnime],[isGirlsLoliAnime],[isSadAnimeGirl],[isSadAnime]",
    "title": "ANIME_PIC_e3064265fc40aab161dc043c261c69d2",
    "link_img": "https://live.staticflickr.com/65535/51566266818_a2801ca915_o.jpg",
    "id_image": "ANIME_PIC_e3064265fc40aab161dc043c261c69d2",
    "count_view": 0
  },
  {
    "link_thumb": "https://live.staticflickr.com/65535/51566023341_c124fc7f36_n.jpg",
    "id_album": "1650283598",
    "description": "ANIME_PIC_e30cb8f1e96940bdb3f4a2af5f9a5b50,[GirlsSad],[isGirlAnime],[isCuteAnime],[isGirlEarsNekoAnime],[isGirlsHatsHoodieAnime],[isGirlsLoliAnime],[isSadAnimeGirl],[isSadAnime]",
    "title": "ANIME_PIC_e30cb8f1e96940bdb3f4a2af5f9a5b50",
    "link_img": "https://live.staticflickr.com/65535/51566023341_b6e3387b41_o.png",
    "id_image": "ANIME_PIC_e30cb8f1e96940bdb3f4a2af5f9a5b50",
    "count_view": 0
  },
  {
    "link_thumb": "https://live.staticflickr.com/65535/51566024276_fec51ec6e7_n.jpg",
    "id_album": "1650283598",
    "description": "ANIME_PIC_e30e09942e308fb70089d61d823390ca,[GirlsSad],[isGirlAnime],[isCuteAnime],[isGirlsLoliAnime],[isSadAnimeGirl],[isSadAnime]",
    "title": "ANIME_PIC_e30e09942e308fb70089d61d823390ca",
    "link_img": "https://live.staticflickr.com/65535/51566024276_40b0363cbc_o.jpg",
    "id_image": "ANIME_PIC_e30e09942e308fb70089d61d823390ca",
    "count_view": 0
  },
  {
    "link_thumb": "https://live.staticflickr.com/65535/51566268023_4f60b33ee3_n.jpg",
    "id_album": "1650283598",
    "description": "ANIME_PIC_e30e60674599615181d655a5b321466d,[GirlsSad],[isGirlAnime],[isCuteAnime],[isSadAnimeGirl],[isSadAnime]",
    "title": "ANIME_PIC_e30e60674599615181d655a5b321466d",
    "link_img": "https://live.staticflickr.com/65535/51566268023_a3a3570f11_o.png",
    "id_image": "ANIME_PIC_e30e60674599615181d655a5b321466d",
    "count_view": 0
  },
  {
    "link_thumb": "https://live.staticflickr.com/65535/51566025001_31250999a7_n.jpg",
    "id_album": "1650283598",
    "description": "ANIME_PIC_e33ec99728760cb88f8b53766c558afc,[GirlsSad],[isGirlAnime],[isCuteAnime],[isGirlsLoliAnime],[isSadAnimeGirl],[isSadAnime]",
    "title": "ANIME_PIC_e33ec99728760cb88f8b53766c558afc",
    "link_img": "https://live.staticflickr.com/65535/51566025001_f7fdef2d0e_o.jpg",
    "id_image": "ANIME_PIC_e33ec99728760cb88f8b53766c558afc",
    "count_view": 0
  },
  {
    "link_thumb": "https://live.staticflickr.com/65535/51565231377_72b09ef249_n.jpg",
    "id_album": "1650283598",
    "description": "ANIME_PIC_e352dfb8c963323b124e4fed3cfa7310,[GirlsSad],[isGirlAnime],[isCuteAnime],[isGirlsLoliAnime],[isSadAnimeGirl],[isSadAnime]",
    "title": "ANIME_PIC_e352dfb8c963323b124e4fed3cfa7310",
    "link_img": "https://live.staticflickr.com/65535/51565231377_0288c53d40_o.jpg",
    "id_image": "ANIME_PIC_e352dfb8c963323b124e4fed3cfa7310",
    "count_view": 0
  },
  {
    "link_thumb": "https://live.staticflickr.com/65535/51566713024_69f0173a6a_n.jpg",
    "id_album": "1650283598",
    "description": "ANIME_PIC_e357e4e39366983c5fc55f834bc56d27,[GirlsSad],[isGirlAnime],[isCuteAnime],[isGirlsHatsHoodieAnime],[isGirlsLoliAnime],[isSadAnimeGirl],[isSadAnime]",
    "title": "ANIME_PIC_e357e4e39366983c5fc55f834bc56d27",
    "link_img": "https://live.staticflickr.com/65535/51566713024_a9ffd85da9_o.png",
    "id_image": "ANIME_PIC_e357e4e39366983c5fc55f834bc56d27",
    "count_view": 0
  },
  {
    "link_thumb": "https://live.staticflickr.com/65535/51565232017_21ea8627cc_n.jpg",
    "id_album": "1650283598",
    "description": "ANIME_PIC_e3599412b73c360feb378a5cb296862e,[GirlsSad],[isGirlAnime],[isCuteAnime],[isGirlsHatsHoodieAnime],[isGirlsLoliAnime],[isSadAnimeGirl],[isSadAnime]",
    "title": "ANIME_PIC_e3599412b73c360feb378a5cb296862e",
    "link_img": "https://live.staticflickr.com/65535/51565232017_4d97155ab1_o.jpg",
    "id_image": "ANIME_PIC_e3599412b73c360feb378a5cb296862e",
    "count_view": 0
  },
  {
    "link_thumb": "https://live.staticflickr.com/65535/51565232402_3d58108a6b_n.jpg",
    "id_album": "1650283598",
    "description": "ANIME_PIC_e36e84923ba0c2080dc5e873c156b0c2,[GirlsSad],[isGirlAnime],[isCuteAnime],[isGirlsHatsHoodieAnime],[isGirlsLoliAnime],[isSadAnimeGirl],[isSadAnime]",
    "title": "ANIME_PIC_e36e84923ba0c2080dc5e873c156b0c2",
    "link_img": "https://live.staticflickr.com/65535/51565232402_879afaa760_o.png",
    "id_image": "ANIME_PIC_e36e84923ba0c2080dc5e873c156b0c2",
    "count_view": 0
  },
  {
    "link_thumb": "https://live.staticflickr.com/65535/51566026461_f8233c3b2f_n.jpg",
    "id_album": "1650283598",
    "description": "ANIME_PIC_e37ba3cab695b1207b5418d48aea7d62,[GirlsSad],[isGirlAnime],[isCuteAnime],[isGirlsLoliAnime],[isSadAnimeGirl],[isSadAnime]",
    "title": "ANIME_PIC_e37ba3cab695b1207b5418d48aea7d62",
    "link_img": "https://live.staticflickr.com/65535/51566026461_bcb8b9c233_o.png",
    "id_image": "ANIME_PIC_e37ba3cab695b1207b5418d48aea7d62",
    "count_view": 0
  },
  {
    "link_thumb": "https://live.staticflickr.com/65535/51565233682_22e8d8c39b_n.jpg",
    "id_album": "1650283598",
    "description": "ANIME_PIC_e37e960ba51d43933255ce8098f0ebcd,[GirlsSad],[isGirlAnime],[isSadAnimeGirl],[isSadAnime]",
    "title": "ANIME_PIC_e37e960ba51d43933255ce8098f0ebcd",
    "link_img": "https://live.staticflickr.com/65535/51565233682_727463e1bc_o.png",
    "id_image": "ANIME_PIC_e37e960ba51d43933255ce8098f0ebcd",
    "count_view": 0
  },
  {
    "link_thumb": "https://live.staticflickr.com/65535/51566961400_ab9c312f6e_n.jpg",
    "id_album": "1650283598",
    "description": "ANIME_PIC_e38b48fa891a952ea11a2fed5daccc7c,[GirlsSad],[isGirlAnime],[isCuteAnime],[isSadAnimeGirl],[isSadAnime]",
    "title": "ANIME_PIC_e38b48fa891a952ea11a2fed5daccc7c",
    "link_img": "https://live.staticflickr.com/65535/51566961400_4a9c631c37_o.png",
    "id_image": "ANIME_PIC_e38b48fa891a952ea11a2fed5daccc7c",
    "count_view": 0
  },
  {
    "link_thumb": "https://live.staticflickr.com/65535/51566961825_1af12890b4_n.jpg",
    "id_album": "1650283598",
    "description": "ANIME_PIC_e3c789d42d6acdf1cccbc0dfb7aaa73c,[GirlsSad],[isGirlAnime],[isCuteAnime],[isGirlsHatsHoodieAnime],[isGirlsLoliAnime],[isSadAnimeGirl],[isSadAnime]",
    "title": "ANIME_PIC_e3c789d42d6acdf1cccbc0dfb7aaa73c",
    "link_img": "https://live.staticflickr.com/65535/51566961825_9346120651_o.png",
    "id_image": "ANIME_PIC_e3c789d42d6acdf1cccbc0dfb7aaa73c",
    "count_view": 0
  },
  {
    "link_thumb": "https://live.staticflickr.com/65535/51566716479_13d844d192_n.jpg",
    "id_album": "1650283598",
    "description": "ANIME_PIC_e3d63e24d5ecffea47316d8de0273fbf,[GirlsSad],[isGirlAnime],[isCuteAnime],[isSadAnimeGirl],[isSadAnime]",
    "title": "ANIME_PIC_e3d63e24d5ecffea47316d8de0273fbf",
    "link_img": "https://live.staticflickr.com/65535/51566716479_49e5cd4624_o.png",
    "id_image": "ANIME_PIC_e3d63e24d5ecffea47316d8de0273fbf",
    "count_view": 0
  },
  {
    "link_thumb": "https://live.staticflickr.com/65535/51566716924_70b98c5d50_n.jpg",
    "id_album": "1650283598",
    "description": "ANIME_PIC_e3dd51f88b117723d5d3c5c491675c82,[GirlsSad],[isGirlAnime],[isCuteAnime],[isSadAnimeGirl],[isSadAnime]",
    "title": "ANIME_PIC_e3dd51f88b117723d5d3c5c491675c82",
    "link_img": "https://live.staticflickr.com/65535/51566716924_2723421e6c_o.png",
    "id_image": "ANIME_PIC_e3dd51f88b117723d5d3c5c491675c82",
    "count_view": 0
  },
  {
    "link_thumb": "https://live.staticflickr.com/65535/49996507961_8582cf60e4_n.jpg",
    "id_album": "1650283598",
    "description": "ANIME_PIC_e3e6ed67c47f69a68cf4cc1962555663,[isGirlAnime],[isSadAnime],[isSadAnimeGirl],[isCuteAnime],[Girls Sad],[GirlsSad]",
    "title": "ANIME_PIC_e3e6ed67c47f69a68cf4cc1962555663",
    "link_img": "https://live.staticflickr.com/65535/49996507961_697aec2867_o.png",
    "id_image": "ANIME_PIC_e3e6ed67c47f69a68cf4cc1962555663",
    "count_view": 0
  },
  {
    "link_thumb": "https://live.staticflickr.com/65535/51566717314_58834d4af5_n.jpg",
    "id_album": "1650283598",
    "description": "ANIME_PIC_e3ef3a220156785c145fa45af3870402,[GirlsSad],[isGirlAnime],[isCuteAnime],[isGirlsHatsHoodieAnime],[isGirlsLoliAnime],[isSadAnimeGirl],[isSadAnime]",
    "title": "ANIME_PIC_e3ef3a220156785c145fa45af3870402",
    "link_img": "https://live.staticflickr.com/65535/51566717314_a1f7538da2_o.png",
    "id_image": "ANIME_PIC_e3ef3a220156785c145fa45af3870402",
    "count_view": 0
  },
  {
    "link_thumb": "https://live.staticflickr.com/65535/51565235892_3c43373fc7_n.jpg",
    "id_album": "1650283598",
    "description": "ANIME_PIC_e3f1a7786703bbd880909e28d5b6bb1d,[GirlsSad],[isGirlAnime],[isCuteAnime],[isSadAnimeGirl],[isSadAnime]",
    "title": "ANIME_PIC_e3f1a7786703bbd880909e28d5b6bb1d",
    "link_img": "https://live.staticflickr.com/65535/51565235892_484a566cf0_o.jpg",
    "id_image": "ANIME_PIC_e3f1a7786703bbd880909e28d5b6bb1d",
    "count_view": 0
  },
  {
    "link_thumb": "https://live.staticflickr.com/65535/51565236137_cb23508818_n.jpg",
    "id_album": "1650283598",
    "description": "ANIME_PIC_e3f7efd4c94ce646512d8fcf8526537b,[GirlsSad],[isGirlAnime],[isCuteAnime],[isGirlEarsNekoAnime],[isGirlsHatsHoodieAnime],[isGirlsLoliAnime],[isSadAnimeGirl],[isSadAnime]",
    "title": "ANIME_PIC_e3f7efd4c94ce646512d8fcf8526537b",
    "link_img": "https://live.staticflickr.com/65535/51565236137_3a08b183cc_o.png",
    "id_image": "ANIME_PIC_e3f7efd4c94ce646512d8fcf8526537b",
    "count_view": 0
  },
  {
    "link_thumb": "https://live.staticflickr.com/65535/51566718424_ed89dc3824_n.jpg",
    "id_album": "1650283598",
    "description": "ANIME_PIC_e40aed653b2766438372f7c2686a862d,[GirlsSad],[isGirlAnime],[isCuteAnime],[isSadAnimeGirl],[isSadAnime]",
    "title": "ANIME_PIC_e40aed653b2766438372f7c2686a862d",
    "link_img": "https://live.staticflickr.com/65535/51566718424_c8b99a5c86_o.jpg",
    "id_image": "ANIME_PIC_e40aed653b2766438372f7c2686a862d",
    "count_view": 0
  },
  {
    "link_thumb": "https://live.staticflickr.com/65535/51566964050_ff728cb5cf_n.jpg",
    "id_album": "1650283598",
    "description": "ANIME_PIC_e412acc83f9aae05723e04f50f010fc4,[GirlsSad],[isGirlAnime],[isBlackAnime],[isSadAnimeGirl],[isSadAnime]",
    "title": "ANIME_PIC_e412acc83f9aae05723e04f50f010fc4",
    "link_img": "https://live.staticflickr.com/65535/51566964050_543efe7fb4_o.png",
    "id_image": "ANIME_PIC_e412acc83f9aae05723e04f50f010fc4",
    "count_view": 0
  },
  {
    "link_thumb": "https://live.staticflickr.com/65535/51566274633_4a3162be3b_n.jpg",
    "id_album": "1650283598",
    "description": "ANIME_PIC_e4142acbd3032da560fe0cfe0953bd0c,[GirlsSad],[isGirlAnime],[isCuteAnime],[isSadAnimeGirl],[isSadAnime]",
    "title": "ANIME_PIC_e4142acbd3032da560fe0cfe0953bd0c",
    "link_img": "https://live.staticflickr.com/65535/51566274633_53cdb59607_o.jpg",
    "id_image": "ANIME_PIC_e4142acbd3032da560fe0cfe0953bd0c",
    "count_view": 0
  },
  {
    "link_thumb": "https://live.staticflickr.com/65535/51566031086_b6d0bbe755_n.jpg",
    "id_album": "1650283598",
    "description": "ANIME_PIC_e4194a51e42aaf19bcf09145ab4272d9,[GirlsSad],[isGirlAnime],[isCuteAnime],[isGirlsLoliAnime],[isSadAnimeGirl],[isSadAnime],[isSceneryArts]",
    "title": "ANIME_PIC_e4194a51e42aaf19bcf09145ab4272d9",
    "link_img": "https://live.staticflickr.com/65535/51566031086_4e3421bc3d_o.jpg",
    "id_image": "ANIME_PIC_e4194a51e42aaf19bcf09145ab4272d9",
    "count_view": 0
  },
  {
    "link_thumb": "https://live.staticflickr.com/65535/51566719384_fcde1d43cc_n.jpg",
    "id_album": "1650283598",
    "description": "ANIME_PIC_e41af65e0e1fc2701d9a5364dc6eed9f,[GirlsSad],[isGirlAnime],[isCuteAnime],[isGirlsLoliAnime],[isSadAnimeGirl],[isSadAnime]",
    "title": "ANIME_PIC_e41af65e0e1fc2701d9a5364dc6eed9f",
    "link_img": "https://live.staticflickr.com/65535/51566719384_42905d0669_o.png",
    "id_image": "ANIME_PIC_e41af65e0e1fc2701d9a5364dc6eed9f",
    "count_view": 0
  },
  {
    "link_thumb": "https://live.staticflickr.com/65535/51566275508_7f80285ed2_n.jpg",
    "id_album": "1650283598",
    "description": "ANIME_PIC_e41b412ccd8bc6bc9a98453042a8b271,[GirlsSad],[isGirlAnime],[isCuteAnime],[isGirlEarsNekoAnime],[isGirlsLoliAnime],[isSadAnimeGirl],[isSadAnime]",
    "title": "ANIME_PIC_e41b412ccd8bc6bc9a98453042a8b271",
    "link_img": "https://live.staticflickr.com/65535/51566275508_271693a3d6_o.png",
    "id_image": "ANIME_PIC_e41b412ccd8bc6bc9a98453042a8b271",
    "count_view": 0
  },
  {
    "link_thumb": "https://live.staticflickr.com/65535/51566720189_5c8d2f8367_n.jpg",
    "id_album": "1650283598",
    "description": "ANIME_PIC_e424bdb49b9a7daba11dbb750f499d6b,[GirlsSad],[isGirlAnime],[isCuteAnime],[isSadAnimeGirl],[isSadAnime]",
    "title": "ANIME_PIC_e424bdb49b9a7daba11dbb750f499d6b",
    "link_img": "https://live.staticflickr.com/65535/51566720189_00ef38c900_o.png",
    "id_image": "ANIME_PIC_e424bdb49b9a7daba11dbb750f499d6b",
    "count_view": 0
  },
  {
    "link_thumb": "https://live.staticflickr.com/65535/51565238797_bfeb2c4962_n.jpg",
    "id_album": "1650283598",
    "description": "ANIME_PIC_e428b1718cb3f9267e8aa4290f013a47,[GirlsSad],[isGirlAnime],[isCuteAnime],[isGirlFaceMasksAnime],[isGirlsLoliAnime],[isSadAnimeGirl],[isSadAnime]",
    "title": "ANIME_PIC_e428b1718cb3f9267e8aa4290f013a47",
    "link_img": "https://live.staticflickr.com/65535/51565238797_7c8382d229_o.jpg",
    "id_image": "ANIME_PIC_e428b1718cb3f9267e8aa4290f013a47",
    "count_view": 0
  },
  {
    "link_thumb": "https://live.staticflickr.com/65535/51566032791_911ee0c3b0_n.jpg",
    "id_album": "1650283598",
    "description": "ANIME_PIC_e4361eb569663aa40673153d82d2b954,[GirlsSad],[isGirlAnime],[isCuteAnime],[isSadAnimeGirl],[isSadAnime]",
    "title": "ANIME_PIC_e4361eb569663aa40673153d82d2b954",
    "link_img": "https://live.staticflickr.com/65535/51566032791_6ec1d47c66_o.jpg",
    "id_image": "ANIME_PIC_e4361eb569663aa40673153d82d2b954",
    "count_view": 0
  },
  {
    "link_thumb": "https://live.staticflickr.com/65535/51566966590_a100b38aea_n.jpg",
    "id_album": "1650283598",
    "description": "ANIME_PIC_e452697413635d3149a1546ac2b80099,[GirlsSad],[isGirlAnime],[isCuteAnime],[isGirlsHatsHoodieAnime],[isGirlsLoliAnime],[isSadAnimeGirl],[isSadAnime]",
    "title": "ANIME_PIC_e452697413635d3149a1546ac2b80099",
    "link_img": "https://live.staticflickr.com/65535/51566966590_9d990ab0d0_o.jpg",
    "id_image": "ANIME_PIC_e452697413635d3149a1546ac2b80099",
    "count_view": 0
  },
  {
    "link_thumb": "https://live.staticflickr.com/65535/51566033366_2d2c4d246f_n.jpg",
    "id_album": "1650283598",
    "description": "ANIME_PIC_e45c27def2dc4810babfde03936fa5f9,[GirlsSad],[isGirlAnime],[isCuteAnime],[isSadAnimeGirl],[isSadAnime]",
    "title": "ANIME_PIC_e45c27def2dc4810babfde03936fa5f9",
    "link_img": "https://live.staticflickr.com/65535/51566033366_74344533f4_o.jpg",
    "id_image": "ANIME_PIC_e45c27def2dc4810babfde03936fa5f9",
    "count_view": 0
  },
  {
    "link_thumb": "https://live.staticflickr.com/65535/51565239797_8513711e2d_n.jpg",
    "id_album": "1650283598",
    "description": "ANIME_PIC_e45e1237dcf88316952fce4bd60c3e7d,[GirlsSad],[isGirlAnime],[isCuteAnime],[isGirlsLoliAnime],[isSadAnimeGirl],[isSadAnime]",
    "title": "ANIME_PIC_e45e1237dcf88316952fce4bd60c3e7d",
    "link_img": "https://live.staticflickr.com/65535/51565239797_03f7aef95e_o.jpg",
    "id_image": "ANIME_PIC_e45e1237dcf88316952fce4bd60c3e7d",
    "count_view": 0
  },
  {
    "link_thumb": "https://live.staticflickr.com/65535/51566967340_9bb25a6959_n.jpg",
    "id_album": "1650283598",
    "description": "ANIME_PIC_e45e7469ba07d3edb70b8ea7d8809604,[GirlsSad],[isGirlAnime],[isSadAnimeGirl],[isSadAnime]",
    "title": "ANIME_PIC_e45e7469ba07d3edb70b8ea7d8809604",
    "link_img": "https://live.staticflickr.com/65535/51566967340_fb62950f67_o.jpg",
    "id_image": "ANIME_PIC_e45e7469ba07d3edb70b8ea7d8809604",
    "count_view": 0
  },
  {
    "link_thumb": "https://live.staticflickr.com/65535/51566277568_49b15c1163_n.jpg",
    "id_album": "1650283598",
    "description": "ANIME_PIC_e460c22a7609b09f13d72e828aced257,[GirlsSad],[isGirlAnime],[isCuteAnime],[isSadAnimeGirl],[isSadAnime]",
    "title": "ANIME_PIC_e460c22a7609b09f13d72e828aced257",
    "link_img": "https://live.staticflickr.com/65535/51566277568_1646a88700_o.png",
    "id_image": "ANIME_PIC_e460c22a7609b09f13d72e828aced257",
    "count_view": 0
  },
  {
    "link_thumb": "https://live.staticflickr.com/65535/51566278013_d932117167_n.jpg",
    "id_album": "1650283598",
    "description": "ANIME_PIC_e46f98d0ac37fb3f16c2450a6df466d9,[GirlsSad],[isGirlAnime],[isCuteAnime],[isGirlsHornsAnime],[isGirlsLoliAnime],[isSadAnimeGirl],[isSadAnime]",
    "title": "ANIME_PIC_e46f98d0ac37fb3f16c2450a6df466d9",
    "link_img": "https://live.staticflickr.com/65535/51566278013_775a9de880_o.png",
    "id_image": "ANIME_PIC_e46f98d0ac37fb3f16c2450a6df466d9",
    "count_view": 0
  },
  {
    "link_thumb": "https://live.staticflickr.com/65535/51566968430_cc3d3116dc_n.jpg",
    "id_album": "1650283598",
    "description": "ANIME_PIC_e476bd7d901a6f086303c8fd3fa84730,[GirlsSad],[isGirlAnime],[isCuteAnime],[isSadAnimeGirl],[isSadAnime]",
    "title": "ANIME_PIC_e476bd7d901a6f086303c8fd3fa84730",
    "link_img": "https://live.staticflickr.com/65535/51566968430_705670fe7d_o.jpg",
    "id_image": "ANIME_PIC_e476bd7d901a6f086303c8fd3fa84730",
    "count_view": 0
  },
  {
    "link_thumb": "https://live.staticflickr.com/65535/51565241312_6666f3d73c_n.jpg",
    "id_album": "1650283598",
    "description": "ANIME_PIC_e4884c40c8c95b7c5c56f22a5917cbcb,[GirlsSad],[isGirlAnime],[isCuteAnime],[isSadAnimeGirl],[isSadAnime]",
    "title": "ANIME_PIC_e4884c40c8c95b7c5c56f22a5917cbcb",
    "link_img": "https://live.staticflickr.com/65535/51565241312_93d2a7b791_o.jpg",
    "id_image": "ANIME_PIC_e4884c40c8c95b7c5c56f22a5917cbcb",
    "count_view": 0
  },
  {
    "link_thumb": "https://live.staticflickr.com/65535/51566035401_bc8dd1a22c_n.jpg",
    "id_album": "1650283598",
    "description": "ANIME_PIC_e48a4be11cbc1e6506459d821efceb90,[GirlsSad],[isGirlAnime],[isCuteAnime],[isBlackAnime],[isSadAnimeGirl],[isSadAnime]",
    "title": "ANIME_PIC_e48a4be11cbc1e6506459d821efceb90",
    "link_img": "https://live.staticflickr.com/65535/51566035401_b0cbbb0be2_o.jpg",
    "id_image": "ANIME_PIC_e48a4be11cbc1e6506459d821efceb90",
    "count_view": 0
  },
  {
    "link_thumb": "https://live.staticflickr.com/65535/51566969145_7560c848e0_n.jpg",
    "id_album": "1650283598",
    "description": "ANIME_PIC_e49dfa02e3911c260029d072f4a1c86d,[GirlsSad],[isGirlAnime],[isCuteAnime],[isGirlsLoliAnime],[isSadAnimeGirl],[isSadAnime]",
    "title": "ANIME_PIC_e49dfa02e3911c260029d072f4a1c86d",
    "link_img": "https://live.staticflickr.com/65535/51566969145_f4b33a4e79_o.png",
    "id_image": "ANIME_PIC_e49dfa02e3911c260029d072f4a1c86d",
    "count_view": 0
  },
  {
    "link_thumb": "https://live.staticflickr.com/65535/51566036021_cf2524cd24_n.jpg",
    "id_album": "1650283598",
    "description": "ANIME_PIC_e4a93fd370a30ce5c16d4446dce19cab,[GirlsSad],[isGirlAnime],[isSadAnimeGirl],[isSadAnime]",
    "title": "ANIME_PIC_e4a93fd370a30ce5c16d4446dce19cab",
    "link_img": "https://live.staticflickr.com/65535/51566036021_b5586ef177_o.jpg",
    "id_image": "ANIME_PIC_e4a93fd370a30ce5c16d4446dce19cab",
    "count_view": 0
  },
  {
    "link_thumb": "https://live.staticflickr.com/65535/51566724044_071c815d8d_n.jpg",
    "id_album": "1650283598",
    "description": "ANIME_PIC_e4b8c7912f8876e002af56a2122569a3,[GirlsSad],[isGirlAnime],[isBlackAnime],[isSadAnimeGirl],[isSadAnime]",
    "title": "ANIME_PIC_e4b8c7912f8876e002af56a2122569a3",
    "link_img": "https://live.staticflickr.com/65535/51566724044_28cfbb45c9_o.png",
    "id_image": "ANIME_PIC_e4b8c7912f8876e002af56a2122569a3",
    "count_view": 0
  },
  {
    "link_thumb": "https://live.staticflickr.com/65535/51566970020_fd6890e4ec_n.jpg",
    "id_album": "1650283598",
    "description": "ANIME_PIC_e4c6d656acdbf63676953d2bd7b995ca,[GirlsSad],[isGirlAnime],[isCuteAnime],[isGirlsHornsAnime],[isSadAnimeGirl],[isSadAnime]",
    "title": "ANIME_PIC_e4c6d656acdbf63676953d2bd7b995ca",
    "link_img": "https://live.staticflickr.com/65535/51566970020_e1a9a0efd8_o.jpg",
    "id_image": "ANIME_PIC_e4c6d656acdbf63676953d2bd7b995ca",
    "count_view": 0
  },
  {
    "link_thumb": "https://live.staticflickr.com/65535/51566036821_2fc2d659a1_n.jpg",
    "id_album": "1650283598",
    "description": "ANIME_PIC_e4d9d996967f37401a16548762ecc828,[GirlsSad],[isGirlAnime],[isCuteAnime],[isGirlsLoliAnime],[isSadAnimeGirl],[isSadAnime]",
    "title": "ANIME_PIC_e4d9d996967f37401a16548762ecc828",
    "link_img": "https://live.staticflickr.com/65535/51566036821_12a7d71807_o.jpg",
    "id_image": "ANIME_PIC_e4d9d996967f37401a16548762ecc828",
    "count_view": 0
  },
  {
    "link_thumb": "https://live.staticflickr.com/65535/51566724839_abd880c106_n.jpg",
    "id_album": "1650283598",
    "description": "ANIME_PIC_e4f251f648c0cefe18927afddda9f68b,[GirlsSad],[isGirlAnime],[isCuteAnime],[isGirlsLoliAnime],[isSadAnimeGirl],[isSadAnime]",
    "title": "ANIME_PIC_e4f251f648c0cefe18927afddda9f68b",
    "link_img": "https://live.staticflickr.com/65535/51566724839_60d478b87a_o.png",
    "id_image": "ANIME_PIC_e4f251f648c0cefe18927afddda9f68b",
    "count_view": 0
  },
  {
    "link_thumb": "https://live.staticflickr.com/65535/51566970950_6b2f258fe8_n.jpg",
    "id_album": "1650283598",
    "description": "ANIME_PIC_e4f7d4c41512928545e178f7249f5f22,[GirlsSad],[isGirlAnime],[isCuteAnime],[isGirlsLoliAnime],[isSadAnimeGirl],[isSadAnime]",
    "title": "ANIME_PIC_e4f7d4c41512928545e178f7249f5f22",
    "link_img": "https://live.staticflickr.com/65535/51566970950_fa0db77b17_o.jpg",
    "id_image": "ANIME_PIC_e4f7d4c41512928545e178f7249f5f22",
    "count_view": 0
  },
  {
    "link_thumb": "https://live.staticflickr.com/65535/51566725589_b318b708cb_n.jpg",
    "id_album": "1650283598",
    "description": "ANIME_PIC_e4fca242019acaab62e10b085df53b2c,[GirlsSad],[isGirlAnime],[isCuteAnime],[isGirlsHatsHoodieAnime],[isGirlsLoliAnime],[isSadAnimeGirl],[isSadAnime]",
    "title": "ANIME_PIC_e4fca242019acaab62e10b085df53b2c",
    "link_img": "https://live.staticflickr.com/65535/51566725589_ba1cedcb7d_o.png",
    "id_image": "ANIME_PIC_e4fca242019acaab62e10b085df53b2c",
    "count_view": 0
  },
  {
    "link_thumb": "https://live.staticflickr.com/65535/51566726084_01cfdce5c4_n.jpg",
    "id_album": "1650283598",
    "description": "ANIME_PIC_e50888ab6a8409183394fed38bb10514,[GirlsSad],[isGirlAnime],[isSadAnimeGirl],[isSadAnime]",
    "title": "ANIME_PIC_e50888ab6a8409183394fed38bb10514",
    "link_img": "https://live.staticflickr.com/65535/51566726084_ca30802689_o.png",
    "id_image": "ANIME_PIC_e50888ab6a8409183394fed38bb10514",
    "count_view": 0
  },
  {
    "link_thumb": "https://live.staticflickr.com/65535/50151547113_f06fc94fa6_n.jpg",
    "id_album": "1650283598",
    "description": "ANIME_PIC_e5099d88356f551bb8d7d917b1ecde84,[isGirlAnime],[isSadAnime],[isSadAnimeGirl],[isCuteAnime],[Girls Sad],[GirlsSad]",
    "title": "ANIME_PIC_e5099d88356f551bb8d7d917b1ecde84",
    "link_img": "https://live.staticflickr.com/65535/50151547113_50fd087816_o.png",
    "id_image": "ANIME_PIC_e5099d88356f551bb8d7d917b1ecde84",
    "count_view": 0
  },
  {
    "link_thumb": "https://live.staticflickr.com/65535/51566038336_0670ce9bf4_n.jpg",
    "id_album": "1650283598",
    "description": "ANIME_PIC_e51001b8410b9faa7f30fed4700f647b,[GirlsSad],[isGirlAnime],[isCuteAnime],[isGirlsLoliAnime],[isSadAnimeGirl],[isSadAnime]",
    "title": "ANIME_PIC_e51001b8410b9faa7f30fed4700f647b",
    "link_img": "https://live.staticflickr.com/65535/51566038336_6589c0a223_o.jpg",
    "id_image": "ANIME_PIC_e51001b8410b9faa7f30fed4700f647b",
    "count_view": 0
  },
  {
    "link_thumb": "https://live.staticflickr.com/65535/51566726489_01cde2568a_n.jpg",
    "id_album": "1650283598",
    "description": "ANIME_PIC_e510565186694f2a6552b9df4c0b4328,[GirlsSad],[isGirlAnime],[isCuteAnime],[isSadAnimeGirl],[isSadAnime]",
    "title": "ANIME_PIC_e510565186694f2a6552b9df4c0b4328",
    "link_img": "https://live.staticflickr.com/65535/51566726489_627f24791c_o.jpg",
    "id_image": "ANIME_PIC_e510565186694f2a6552b9df4c0b4328",
    "count_view": 0
  },
  {
    "link_thumb": "https://live.staticflickr.com/65535/49879499221_fe5afc8db2_n.jpg",
    "id_album": "1650283598",
    "description": "ANIME_PIC_e5137964772bf600d15f9105d993a718,[isGirlAnime],[isSadAnime],[isSadAnimeGirl],[isCuteAnime],[Girls Sad],[GirlsSad]",
    "title": "ANIME_PIC_e5137964772bf600d15f9105d993a718",
    "link_img": "https://live.staticflickr.com/65535/49879499221_29f696c23f_o.png",
    "id_image": "ANIME_PIC_e5137964772bf600d15f9105d993a718",
    "count_view": 0
  },
  {
    "link_thumb": "https://live.staticflickr.com/65535/51566726669_8b4e266a75_n.jpg",
    "id_album": "1650283598",
    "description": "ANIME_PIC_e54a3631380bcca1f9af58e94c12dd10,[GirlsSad],[isGirlAnime],[isCuteAnime],[isGirlsHatsHoodieAnime],[isGirlsLoliAnime],[isSadAnimeGirl],[isSadAnime]",
    "title": "ANIME_PIC_e54a3631380bcca1f9af58e94c12dd10",
    "link_img": "https://live.staticflickr.com/65535/51566726669_74bf49bc0e_o.png",
    "id_image": "ANIME_PIC_e54a3631380bcca1f9af58e94c12dd10",
    "count_view": 0
  },
  {
    "link_thumb": "https://live.staticflickr.com/65535/51566727144_55e81df1d7_n.jpg",
    "id_album": "1650283598",
    "description": "ANIME_PIC_e54bcc9ba02d4b1971ca4837d62a577a,[GirlsSad],[isGirlAnime],[isCuteAnime],[isGirlsLoliAnime],[isSadAnimeGirl],[isSadAnime]",
    "title": "ANIME_PIC_e54bcc9ba02d4b1971ca4837d62a577a",
    "link_img": "https://live.staticflickr.com/65535/51566727144_62fa868bdd_o.jpg",
    "id_image": "ANIME_PIC_e54bcc9ba02d4b1971ca4837d62a577a",
    "count_view": 0
  },
  {
    "link_thumb": "https://live.staticflickr.com/65535/51565245827_73d34384d2_n.jpg",
    "id_album": "1650283598",
    "description": "ANIME_PIC_e574dda991f63d08469d964014466805,[GirlsSad],[isGirlAnime],[isCuteAnime],[isSadAnimeGirl],[isSadAnime]",
    "title": "ANIME_PIC_e574dda991f63d08469d964014466805",
    "link_img": "https://live.staticflickr.com/65535/51565245827_6fe83a9e4e_o.png",
    "id_image": "ANIME_PIC_e574dda991f63d08469d964014466805",
    "count_view": 0
  },
  {
    "link_thumb": "https://live.staticflickr.com/65535/51566039811_413fbb3d44_n.jpg",
    "id_album": "1650283598",
    "description": "ANIME_PIC_e58220a4adeee4059b5ed43f299dbd1a,[GirlsSad],[isGirlAnime],[isCuteAnime],[isSadAnimeGirl],[isSadAnime]",
    "title": "ANIME_PIC_e58220a4adeee4059b5ed43f299dbd1a",
    "link_img": "https://live.staticflickr.com/65535/51566039811_d0cac1cbf1_o.jpg",
    "id_image": "ANIME_PIC_e58220a4adeee4059b5ed43f299dbd1a",
    "count_view": 0
  },
  {
    "link_thumb": "https://live.staticflickr.com/65535/49879811537_5404a089f7_n.jpg",
    "id_album": "1650283598",
    "description": "ANIME_PIC_e58f2593425f78496951187428ae113d,[isGirlAnime],[isSadAnime],[isSadAnimeGirl],[isCuteAnime],[Girls Sad],[GirlsSad]",
    "title": "ANIME_PIC_e58f2593425f78496951187428ae113d",
    "link_img": "https://live.staticflickr.com/65535/49879811537_817e18d435_o.png",
    "id_image": "ANIME_PIC_e58f2593425f78496951187428ae113d",
    "count_view": 0
  },
  {
    "link_thumb": "https://live.staticflickr.com/65535/51566040091_8dbbd3221e_n.jpg",
    "id_album": "1650283598",
    "description": "ANIME_PIC_e599b1185247aee0f4f40985d614abc5,[GirlsSad],[isGirlAnime],[isCuteAnime],[isGirlsLoliAnime],[isSadAnimeGirl],[isSadAnime]",
    "title": "ANIME_PIC_e599b1185247aee0f4f40985d614abc5",
    "link_img": "https://live.staticflickr.com/65535/51566040091_ce3607635c_o.jpg",
    "id_image": "ANIME_PIC_e599b1185247aee0f4f40985d614abc5",
    "count_view": 0
  },
  {
    "link_thumb": "https://live.staticflickr.com/65535/51565246722_9443472a73_n.jpg",
    "id_album": "1650283598",
    "description": "ANIME_PIC_e5a755b9867d3e33906172a90498cfa6,[GirlsSad],[isGirlAnime],[isCuteAnime],[isGirlsLoliAnime],[isSadAnimeGirl],[isSadAnime]",
    "title": "ANIME_PIC_e5a755b9867d3e33906172a90498cfa6",
    "link_img": "https://live.staticflickr.com/65535/51565246722_dedfbbe048_o.jpg",
    "id_image": "ANIME_PIC_e5a755b9867d3e33906172a90498cfa6",
    "count_view": 0
  },
  {
    "link_thumb": "https://live.staticflickr.com/65535/51566284038_21b4c11b5f_n.jpg",
    "id_album": "1650283598",
    "description": "ANIME_PIC_e5a8b6cb862d948609993d0725c23637,[GirlsSad],[isGirlAnime],[isCuteAnime],[isSadAnimeGirl],[isSadAnime]",
    "title": "ANIME_PIC_e5a8b6cb862d948609993d0725c23637",
    "link_img": "https://live.staticflickr.com/65535/51566284038_07090ba68a_o.jpg",
    "id_image": "ANIME_PIC_e5a8b6cb862d948609993d0725c23637",
    "count_view": 0
  },
  {
    "link_thumb": "https://live.staticflickr.com/65535/51566729179_5a7b95d00a_n.jpg",
    "id_album": "1650283598",
    "description": "ANIME_PIC_e5b68971159373096f663c2ff13347df,[GirlsSad],[isGirlAnime],[isCuteAnime],[isGirlsHatsHoodieAnime],[isGirlsLoliAnime],[isSadAnimeGirl],[isSadAnime]",
    "title": "ANIME_PIC_e5b68971159373096f663c2ff13347df",
    "link_img": "https://live.staticflickr.com/65535/51566729179_c6d516a11c_o.jpg",
    "id_image": "ANIME_PIC_e5b68971159373096f663c2ff13347df",
    "count_view": 0
  },
  {
    "link_thumb": "https://live.staticflickr.com/65535/51566284458_d20a53785f_n.jpg",
    "id_album": "1650283598",
    "description": "ANIME_PIC_e5b99e468b673755dea3d7c1624fc6e8,[GirlsSad],[isGirlAnime],[isCuteAnime],[isGirlsLoliAnime],[isSadAnimeGirl],[isSadAnime]",
    "title": "ANIME_PIC_e5b99e468b673755dea3d7c1624fc6e8",
    "link_img": "https://live.staticflickr.com/65535/51566284458_51bf660279_o.jpg",
    "id_image": "ANIME_PIC_e5b99e468b673755dea3d7c1624fc6e8",
    "count_view": 0
  },
  {
    "link_thumb": "https://live.staticflickr.com/65535/51566729599_2919fabe58_n.jpg",
    "id_album": "1650283598",
    "description": "ANIME_PIC_e5c0eda7a292449695eb1d20e2659cc8,[GirlsSad],[isGirlAnime],[isCuteAnime],[isSadAnimeGirl],[isSadAnime]",
    "title": "ANIME_PIC_e5c0eda7a292449695eb1d20e2659cc8",
    "link_img": "https://live.staticflickr.com/65535/51566729599_f6ed643701_o.jpg",
    "id_image": "ANIME_PIC_e5c0eda7a292449695eb1d20e2659cc8",
    "count_view": 0
  },
  {
    "link_thumb": "https://live.staticflickr.com/65535/51566285023_4e3dee1cb7_n.jpg",
    "id_album": "1650283598",
    "description": "ANIME_PIC_e5d5ea1b80cab273bfb1199ebd50c35a,[GirlsSad],[isGirlAnime],[isCuteAnime],[isGirlsLoliAnime],[isSadAnimeGirl],[isSadAnime]",
    "title": "ANIME_PIC_e5d5ea1b80cab273bfb1199ebd50c35a",
    "link_img": "https://live.staticflickr.com/65535/51566285023_eff0d94f7b_o.jpg",
    "id_image": "ANIME_PIC_e5d5ea1b80cab273bfb1199ebd50c35a",
    "count_view": 0
  },
  {
    "link_thumb": "https://live.staticflickr.com/65535/51566729949_6b286e2d37_n.jpg",
    "id_album": "1650283598",
    "description": "ANIME_PIC_e5ddfa91a0ac94bda22d847ff74300a5,[GirlsSad],[isGirlAnime],[isCuteAnime],[isGirlsHatsHoodieAnime],[isGirlsLoliAnime],[isSadAnimeGirl],[isSadAnime]",
    "title": "ANIME_PIC_e5ddfa91a0ac94bda22d847ff74300a5",
    "link_img": "https://live.staticflickr.com/65535/51566729949_824513bd57_o.jpg",
    "id_image": "ANIME_PIC_e5ddfa91a0ac94bda22d847ff74300a5",
    "count_view": 0
  },
  {
    "link_thumb": "https://live.staticflickr.com/65535/51565248342_e9c5e5ed00_n.jpg",
    "id_album": "1650283598",
    "description": "ANIME_PIC_e5e3a92bdf8f016deb7bec24bc017e56,[GirlsSad],[isGirlAnime],[isCuteAnime],[isSadAnimeGirl],[isSadAnime]",
    "title": "ANIME_PIC_e5e3a92bdf8f016deb7bec24bc017e56",
    "link_img": "https://live.staticflickr.com/65535/51565248342_3dd99319be_o.jpg",
    "id_image": "ANIME_PIC_e5e3a92bdf8f016deb7bec24bc017e56",
    "count_view": 0
  },
  {
    "link_thumb": "https://live.staticflickr.com/65535/51565248652_d5ccaf92a4_n.jpg",
    "id_album": "1650283598",
    "description": "ANIME_PIC_e5f1db4fad8e3126a6cbb6d0b50c57a7,[GirlsSad],[isGirlAnime],[isSadAnimeGirl],[isSadAnime]",
    "title": "ANIME_PIC_e5f1db4fad8e3126a6cbb6d0b50c57a7",
    "link_img": "https://live.staticflickr.com/65535/51565248652_eded0d2c95_o.jpg",
    "id_image": "ANIME_PIC_e5f1db4fad8e3126a6cbb6d0b50c57a7",
    "count_view": 0
  },
  {
    "link_thumb": "https://live.staticflickr.com/65535/51566976315_2fce902f6a_n.jpg",
    "id_album": "1650283598",
    "description": "ANIME_PIC_e5f5e1d18f7c536b44b81b6b329f90ca,[GirlsSad],[isGirlAnime],[isSadAnimeGirl],[isSadAnime]",
    "title": "ANIME_PIC_e5f5e1d18f7c536b44b81b6b329f90ca",
    "link_img": "https://live.staticflickr.com/65535/51566976315_40a773cc4c_o.png",
    "id_image": "ANIME_PIC_e5f5e1d18f7c536b44b81b6b329f90ca",
    "count_view": 0
  },
  {
    "link_thumb": "https://live.staticflickr.com/65535/51566286698_3ffdfcc355_n.jpg",
    "id_album": "1650283598",
    "description": "ANIME_PIC_e5f7c9c28c05fb7e3f8069ad5fc552fe,[GirlsSad],[isGirlAnime],[isSadAnimeGirl],[isSadAnime]",
    "title": "ANIME_PIC_e5f7c9c28c05fb7e3f8069ad5fc552fe",
    "link_img": "https://live.staticflickr.com/65535/51566286698_bb00ab69bf_o.png",
    "id_image": "ANIME_PIC_e5f7c9c28c05fb7e3f8069ad5fc552fe",
    "count_view": 0
  },
  {
    "link_thumb": "https://live.staticflickr.com/65535/51565250117_a77dea168d_n.jpg",
    "id_album": "1650283598",
    "description": "ANIME_PIC_e5f83686e95f329a787dff8e7ead4011,[GirlsSad],[isGirlAnime],[isCuteAnime],[isSadAnimeGirl],[isSadAnime]",
    "title": "ANIME_PIC_e5f83686e95f329a787dff8e7ead4011",
    "link_img": "https://live.staticflickr.com/65535/51565250117_68efde8b34_o.jpg",
    "id_image": "ANIME_PIC_e5f83686e95f329a787dff8e7ead4011",
    "count_view": 0
  },
  {
    "link_thumb": "https://live.staticflickr.com/65535/51566977865_5b9c0e945a_n.jpg",
    "id_album": "1650283598",
    "description": "ANIME_PIC_e5fc1d56152f1317c5884a15d4cacaef,[GirlsSad],[isGirlAnime],[isCuteAnime],[isGirlsLoliAnime],[isSadAnimeGirl],[isSadAnime]",
    "title": "ANIME_PIC_e5fc1d56152f1317c5884a15d4cacaef",
    "link_img": "https://live.staticflickr.com/65535/51566977865_f577625128_o.jpg",
    "id_image": "ANIME_PIC_e5fc1d56152f1317c5884a15d4cacaef",
    "count_view": 0
  },
  {
    "link_thumb": "https://live.staticflickr.com/65535/51566044601_a8e65f2a02_n.jpg",
    "id_album": "1650283598",
    "description": "ANIME_PIC_e611d166f3c88e1815a455c517036396,[GirlsSad],[isGirlAnime],[isCuteAnime],[isGirlsLoliAnime],[isSadAnimeGirl],[isSadAnime]",
    "title": "ANIME_PIC_e611d166f3c88e1815a455c517036396",
    "link_img": "https://live.staticflickr.com/65535/51566044601_338fa17dd0_o.jpg",
    "id_image": "ANIME_PIC_e611d166f3c88e1815a455c517036396",
    "count_view": 0
  },
  {
    "link_thumb": "https://live.staticflickr.com/65535/51566044991_2da6b4b196_n.jpg",
    "id_album": "1650283598",
    "description": "ANIME_PIC_e615750f06c34f1019aeaa8447a9babd,[GirlsSad],[isGirlAnime],[isCuteAnime],[isGirlsHatsHoodieAnime],[isSadAnimeGirl],[isSadAnime]",
    "title": "ANIME_PIC_e615750f06c34f1019aeaa8447a9babd",
    "link_img": "https://live.staticflickr.com/65535/51566044991_db1017b59c_o.jpg",
    "id_image": "ANIME_PIC_e615750f06c34f1019aeaa8447a9babd",
    "count_view": 0
  },
  {
    "link_thumb": "https://live.staticflickr.com/65535/51566045201_2d0c938ebd_n.jpg",
    "id_album": "1650283598",
    "description": "ANIME_PIC_e61e8feb4b69bcc64831bb10156d6f3f,[GirlsSad],[isGirlAnime],[isBlackAnime],[isSadAnimeGirl],[isSadAnime]",
    "title": "ANIME_PIC_e61e8feb4b69bcc64831bb10156d6f3f",
    "link_img": "https://live.staticflickr.com/65535/51566045201_777e99cf02_o.jpg",
    "id_image": "ANIME_PIC_e61e8feb4b69bcc64831bb10156d6f3f",
    "count_view": 0
  },
  {
    "link_thumb": "https://live.staticflickr.com/65535/51566288343_a6fb97cb6e_n.jpg",
    "id_album": "1650283598",
    "description": "ANIME_PIC_e61ef6121459b67d9b28bcd80bd9d835,[GirlsSad],[isGirlAnime],[isCuteAnime],[isGirlsLoliAnime],[isSadAnimeGirl],[isSadAnime]",
    "title": "ANIME_PIC_e61ef6121459b67d9b28bcd80bd9d835",
    "link_img": "https://live.staticflickr.com/65535/51566288343_a514031507_o.jpg",
    "id_image": "ANIME_PIC_e61ef6121459b67d9b28bcd80bd9d835",
    "count_view": 0
  },
  {
    "link_thumb": "https://live.staticflickr.com/65535/51566978985_94051f0dcc_n.jpg",
    "id_album": "1650283598",
    "description": "ANIME_PIC_e62169fa9b0466cc129f8b1da33ae4d1,[GirlsSad],[isGirlAnime],[isCuteAnime],[isGirlsLoliAnime],[isSadAnimeGirl],[isSadAnime]",
    "title": "ANIME_PIC_e62169fa9b0466cc129f8b1da33ae4d1",
    "link_img": "https://live.staticflickr.com/65535/51566978985_fc24dab6c3_o.png",
    "id_image": "ANIME_PIC_e62169fa9b0466cc129f8b1da33ae4d1",
    "count_view": 0
  },
  {
    "link_thumb": "https://live.staticflickr.com/65535/51566046116_b8e2e687bb_n.jpg",
    "id_album": "1650283598",
    "description": "ANIME_PIC_e62a26a40c2d624234e1fd2137aa0967,[GirlsSad],[isGirlAnime],[isCuteAnime],[isGirlsLoliAnime],[isSadAnimeGirl],[isSadAnime]",
    "title": "ANIME_PIC_e62a26a40c2d624234e1fd2137aa0967",
    "link_img": "https://live.staticflickr.com/65535/51566046116_37c7be007e_o.jpg",
    "id_image": "ANIME_PIC_e62a26a40c2d624234e1fd2137aa0967",
    "count_view": 0
  },
  {
    "link_thumb": "https://live.staticflickr.com/65535/51566289198_1ff2453429_n.jpg",
    "id_album": "1650283598",
    "description": "ANIME_PIC_e62cc025adf3a5ebfae25060003d41c9,[GirlsSad],[isGirlAnime],[isCuteAnime],[isGirlsLoliAnime],[isSadAnimeGirl],[isSadAnime]",
    "title": "ANIME_PIC_e62cc025adf3a5ebfae25060003d41c9",
    "link_img": "https://live.staticflickr.com/65535/51566289198_8419bd5c3d_o.jpg",
    "id_image": "ANIME_PIC_e62cc025adf3a5ebfae25060003d41c9",
    "count_view": 0
  },
  {
    "link_thumb": "https://live.staticflickr.com/65535/51566734439_324d02735d_n.jpg",
    "id_album": "1650283598",
    "description": "ANIME_PIC_e631cb619f578588274c5f1b11912992,[GirlsSad],[isGirlAnime],[isCuteAnime],[isSadAnimeGirl],[isSadAnime]",
    "title": "ANIME_PIC_e631cb619f578588274c5f1b11912992",
    "link_img": "https://live.staticflickr.com/65535/51566734439_771b6f73ab_o.jpg",
    "id_image": "ANIME_PIC_e631cb619f578588274c5f1b11912992",
    "count_view": 0
  },
  {
    "link_thumb": "https://live.staticflickr.com/65535/51566734584_4c3b88af50_n.jpg",
    "id_album": "1650283598",
    "description": "ANIME_PIC_e633fe6785991d754408a40b961c23d2,[GirlsSad],[isGirlAnime],[isCuteAnime],[isGirlsHatsHoodieAnime],[isGirlsLoliAnime],[isSadAnimeGirl],[isSadAnime]",
    "title": "ANIME_PIC_e633fe6785991d754408a40b961c23d2",
    "link_img": "https://live.staticflickr.com/65535/51566734584_a7ff05b3f8_o.jpg",
    "id_image": "ANIME_PIC_e633fe6785991d754408a40b961c23d2",
    "count_view": 0
  },
  {
    "link_thumb": "https://live.staticflickr.com/65535/51566047041_84817e3373_n.jpg",
    "id_album": "1650283598",
    "description": "ANIME_PIC_e63fb45e98a70b352a5cf107b99a56aa,[GirlsSad],[isGirlAnime],[isCuteAnime],[isGirlsLoliAnime],[isSadAnimeGirl],[isSadAnime]",
    "title": "ANIME_PIC_e63fb45e98a70b352a5cf107b99a56aa",
    "link_img": "https://live.staticflickr.com/65535/51566047041_e37f4744e7_o.jpg",
    "id_image": "ANIME_PIC_e63fb45e98a70b352a5cf107b99a56aa",
    "count_view": 0
  },
  {
    "link_thumb": "https://live.staticflickr.com/65535/51566047466_11cbd1e46d_n.jpg",
    "id_album": "1650283598",
    "description": "ANIME_PIC_e6451a91a6494abadda55cf04b72539e,[GirlsSad],[isGirlAnime],[isCuteAnime],[isGirlsHatsHoodieAnime],[isGirlsLoliAnime],[isSadAnimeGirl],[isSadAnime]",
    "title": "ANIME_PIC_e6451a91a6494abadda55cf04b72539e",
    "link_img": "https://live.staticflickr.com/65535/51566047466_31e6f8bbe8_o.jpg",
    "id_image": "ANIME_PIC_e6451a91a6494abadda55cf04b72539e",
    "count_view": 0
  },
  {
    "link_thumb": "https://live.staticflickr.com/65535/51566980970_dac8a611e5_n.jpg",
    "id_album": "1650283598",
    "description": "ANIME_PIC_e64ad7cfbe7106ec0f79e1263d91be4c,[GirlsSad],[isGirlAnime],[isCuteAnime],[isGirlsHatsHoodieAnime],[isGirlsLoliAnime],[isSadAnimeGirl],[isSadAnime]",
    "title": "ANIME_PIC_e64ad7cfbe7106ec0f79e1263d91be4c",
    "link_img": "https://live.staticflickr.com/65535/51566980970_75a63cc271_o.jpg",
    "id_image": "ANIME_PIC_e64ad7cfbe7106ec0f79e1263d91be4c",
    "count_view": 0
  },
  {
    "link_thumb": "https://live.staticflickr.com/65535/51566047956_38bb57df9c_n.jpg",
    "id_album": "1650283598",
    "description": "ANIME_PIC_e650ae5a8d566e228e9b611e8ecafd7d,[GirlsSad],[isGirlAnime],[isCuteAnime],[isGirlEarsNekoAnime],[isGirlsLoliAnime],[isSadAnimeGirl],[isSadAnime]",
    "title": "ANIME_PIC_e650ae5a8d566e228e9b611e8ecafd7d",
    "link_img": "https://live.staticflickr.com/65535/51566047956_e97644d281_o.png",
    "id_image": "ANIME_PIC_e650ae5a8d566e228e9b611e8ecafd7d",
    "count_view": 0
  },
  {
    "link_thumb": "https://live.staticflickr.com/65535/51566291118_2c9eea04b9_n.jpg",
    "id_album": "1650283598",
    "description": "ANIME_PIC_e6526d84b4bcc90f2f7000c105dd37f1,[GirlsSad],[isGirlAnime],[isCuteAnime],[isGirlsLoliAnime],[isSadAnimeGirl],[isSadAnime]",
    "title": "ANIME_PIC_e6526d84b4bcc90f2f7000c105dd37f1",
    "link_img": "https://live.staticflickr.com/65535/51566291118_44fec1bb86_o.jpg",
    "id_image": "ANIME_PIC_e6526d84b4bcc90f2f7000c105dd37f1",
    "count_view": 0
  },
  {
    "link_thumb": "https://live.staticflickr.com/65535/51565254362_8e65f19d87_n.jpg",
    "id_album": "1650283598",
    "description": "ANIME_PIC_e6598f038f82fc9716e0f48eff225eca,[GirlsSad],[isGirlAnime],[isCuteAnime],[isGirlsLoliAnime],[isSadAnimeGirl],[isSadAnime]",
    "title": "ANIME_PIC_e6598f038f82fc9716e0f48eff225eca",
    "link_img": "https://live.staticflickr.com/65535/51565254362_2962d3b937_o.jpg",
    "id_image": "ANIME_PIC_e6598f038f82fc9716e0f48eff225eca",
    "count_view": 0
  },
  {
    "link_thumb": "https://live.staticflickr.com/65535/51566049136_9c691332c9_n.jpg",
    "id_album": "1650283598",
    "description": "ANIME_PIC_e66b6a7be6386691d928bc88d5eabdd0,[GirlsSad],[isGirlAnime],[isCuteAnime],[isGirlsLoliAnime],[isSadAnimeGirl],[isSadAnime]",
    "title": "ANIME_PIC_e66b6a7be6386691d928bc88d5eabdd0",
    "link_img": "https://live.staticflickr.com/65535/51566049136_72902b529c_o.jpg",
    "id_image": "ANIME_PIC_e66b6a7be6386691d928bc88d5eabdd0",
    "count_view": 0
  },
  {
    "link_thumb": "https://live.staticflickr.com/65535/51565254892_0679997c75_n.jpg",
    "id_album": "1650283598",
    "description": "ANIME_PIC_e66c252ff39d1fff15ab058a9d9b4f59,[GirlsSad],[isGirlAnime],[isCuteAnime],[isGirlsLoliAnime],[isSadAnimeGirl],[isSadAnime]",
    "title": "ANIME_PIC_e66c252ff39d1fff15ab058a9d9b4f59",
    "link_img": "https://live.staticflickr.com/65535/51565254892_df04181e68_o.png",
    "id_image": "ANIME_PIC_e66c252ff39d1fff15ab058a9d9b4f59",
    "count_view": 0
  },
  {
    "link_thumb": "https://live.staticflickr.com/65535/51566982860_3645686b26_n.jpg",
    "id_album": "1650283598",
    "description": "ANIME_PIC_e66e6781c37e4ca6d5a44ed01d09ea3e,[GirlsSad],[isGirlAnime],[isCuteAnime],[isGirlFaceMasksAnime],[isSadAnimeGirl],[isSadAnime]",
    "title": "ANIME_PIC_e66e6781c37e4ca6d5a44ed01d09ea3e",
    "link_img": "https://live.staticflickr.com/65535/51566982860_c7aee65c0e_o.jpg",
    "id_image": "ANIME_PIC_e66e6781c37e4ca6d5a44ed01d09ea3e",
    "count_view": 0
  },
  {
    "link_thumb": "https://live.staticflickr.com/65535/51565255577_9eb463e1cb_n.jpg",
    "id_album": "1650283598",
    "description": "ANIME_PIC_e678c536fd61467b011196f10cc40279,[GirlsSad],[isGirlAnime],[isCuteAnime],[isGirlsLoliAnime],[isSadAnimeGirl],[isSadAnime]",
    "title": "ANIME_PIC_e678c536fd61467b011196f10cc40279",
    "link_img": "https://live.staticflickr.com/65535/51565255577_d18cca7eb7_o.jpg",
    "id_image": "ANIME_PIC_e678c536fd61467b011196f10cc40279",
    "count_view": 0
  },
  {
    "link_thumb": "https://live.staticflickr.com/65535/51565255797_5e80afeb54_n.jpg",
    "id_album": "1650283598",
    "description": "ANIME_PIC_e67cabed63bc65e55028d4c123b4867d,[GirlsSad],[isGirlAnime],[isCuteAnime],[isSadAnimeGirl],[isSadAnime]",
    "title": "ANIME_PIC_e67cabed63bc65e55028d4c123b4867d",
    "link_img": "https://live.staticflickr.com/65535/51565255797_9bea71b48a_o.jpg",
    "id_image": "ANIME_PIC_e67cabed63bc65e55028d4c123b4867d",
    "count_view": 0
  },
  {
    "link_thumb": "https://live.staticflickr.com/65535/51566050581_f80e97d6c8_n.jpg",
    "id_album": "1650283598",
    "description": "ANIME_PIC_e6955db186e3d69738a1580609415c04,[GirlsSad],[isGirlAnime],[isCuteAnime],[isGirlsLoliAnime],[isSadAnimeGirl],[isSadAnime]",
    "title": "ANIME_PIC_e6955db186e3d69738a1580609415c04",
    "link_img": "https://live.staticflickr.com/65535/51566050581_ef02d4c2da_o.jpg",
    "id_image": "ANIME_PIC_e6955db186e3d69738a1580609415c04",
    "count_view": 0
  },
  {
    "link_thumb": "https://live.staticflickr.com/65535/51566983880_4768543db3_n.jpg",
    "id_album": "1650283598",
    "description": "ANIME_PIC_e696d3ed0b284479ec61bb0082adb656,[GirlsSad],[isGirlAnime],[isCuteAnime],[isSadAnimeGirl],[isSadAnime]",
    "title": "ANIME_PIC_e696d3ed0b284479ec61bb0082adb656",
    "link_img": "https://live.staticflickr.com/65535/51566983880_e930abdf76_o.jpg",
    "id_image": "ANIME_PIC_e696d3ed0b284479ec61bb0082adb656",
    "count_view": 0
  },
  {
    "link_thumb": "https://live.staticflickr.com/65535/51566984150_ca788c9bc6_n.jpg",
    "id_album": "1650283598",
    "description": "ANIME_PIC_e6a75f098d2c14ad69c0f09404651de4,[GirlsSad],[isGirlAnime],[isCuteAnime],[isGirlsLoliAnime],[isSadAnimeGirl],[isSadAnime]",
    "title": "ANIME_PIC_e6a75f098d2c14ad69c0f09404651de4",
    "link_img": "https://live.staticflickr.com/65535/51566984150_e4d25158fe_o.png",
    "id_image": "ANIME_PIC_e6a75f098d2c14ad69c0f09404651de4",
    "count_view": 0
  },
  {
    "link_thumb": "https://live.staticflickr.com/65535/51566738589_dcb09391f0_n.jpg",
    "id_album": "1650283598",
    "description": "ANIME_PIC_e6b2dcecfc7f6d53ffe5a7ed41301adc,[GirlsSad],[isGirlAnime],[isCuteAnime],[isGirlsLoliAnime],[isSadAnimeGirl],[isSadAnime]",
    "title": "ANIME_PIC_e6b2dcecfc7f6d53ffe5a7ed41301adc",
    "link_img": "https://live.staticflickr.com/65535/51566738589_2a1a5295f6_o.jpg",
    "id_image": "ANIME_PIC_e6b2dcecfc7f6d53ffe5a7ed41301adc",
    "count_view": 0
  },
  {
    "link_thumb": "https://live.staticflickr.com/65535/51566984790_4ee1a8b339_n.jpg",
    "id_album": "1650283598",
    "description": "ANIME_PIC_e6bf7e963cd2e1c5d136c4f64273c5bb,[GirlsSad],[isGirlAnime],[isCuteAnime],[isGirlsLoliAnime],[isSadAnimeGirl],[isSadAnime]",
    "title": "ANIME_PIC_e6bf7e963cd2e1c5d136c4f64273c5bb",
    "link_img": "https://live.staticflickr.com/65535/51566984790_b65f10b45f_o.jpg",
    "id_image": "ANIME_PIC_e6bf7e963cd2e1c5d136c4f64273c5bb",
    "count_view": 0
  },
  {
    "link_thumb": "https://live.staticflickr.com/65535/51566985180_8430d38036_n.jpg",
    "id_album": "1650283598",
    "description": "ANIME_PIC_e6d3f5f98eb1e039febf0031a4d9e9a0,[GirlsSad],[isGirlAnime],[isCuteAnime],[isSadAnimeGirl],[isSadAnime]",
    "title": "ANIME_PIC_e6d3f5f98eb1e039febf0031a4d9e9a0",
    "link_img": "https://live.staticflickr.com/65535/51566985180_494fc789ce_o.jpg",
    "id_image": "ANIME_PIC_e6d3f5f98eb1e039febf0031a4d9e9a0",
    "count_view": 0
  },
  {
    "link_thumb": "https://live.staticflickr.com/65535/51566739639_51870e3e5f_n.jpg",
    "id_album": "1650283598",
    "description": "ANIME_PIC_e6e785ed30e6873d0ab3b2dd26e68fa7,[GirlsSad],[isGirlAnime],[isSadAnimeGirl],[isSadAnime]",
    "title": "ANIME_PIC_e6e785ed30e6873d0ab3b2dd26e68fa7",
    "link_img": "https://live.staticflickr.com/65535/51566739639_9895a2d351_o.png",
    "id_image": "ANIME_PIC_e6e785ed30e6873d0ab3b2dd26e68fa7",
    "count_view": 0
  },
  {
    "link_thumb": "https://live.staticflickr.com/65535/51566053246_30d00bcdb4_n.jpg",
    "id_album": "1650283598",
    "description": "ANIME_PIC_e6fefc737af5f2358f7f17135b46cabb,[GirlsSad],[isBoyAnime],[isCoupleAnime],[isGirlAnime],[isCuteAnime],[isSadAnimeGirl],[isSadAnime]",
    "title": "ANIME_PIC_e6fefc737af5f2358f7f17135b46cabb",
    "link_img": "https://live.staticflickr.com/65535/51566053246_e781b88c85_o.jpg",
    "id_image": "ANIME_PIC_e6fefc737af5f2358f7f17135b46cabb",
    "count_view": 0
  },
  {
    "link_thumb": "https://live.staticflickr.com/65535/51566053461_4f5ae27e39_n.jpg",
    "id_album": "1650283598",
    "description": "ANIME_PIC_e701f12271dc175b9284b7e8fba9156d,[GirlsSad],[isGirlAnime],[isGirlEarsNekoAnime],[isSadAnimeGirl],[isSadAnime]",
    "title": "ANIME_PIC_e701f12271dc175b9284b7e8fba9156d",
    "link_img": "https://live.staticflickr.com/65535/51566053461_306f0eca14_o.png",
    "id_image": "ANIME_PIC_e701f12271dc175b9284b7e8fba9156d",
    "count_view": 0
  },
  {
    "link_thumb": "https://live.staticflickr.com/65535/51566986720_010386450a_n.jpg",
    "id_album": "1650283598",
    "description": "ANIME_PIC_e704fdf82f531b2b38a22384c1a9f0a5,[GirlsSad],[isGirlAnime],[isCuteAnime],[isSadAnimeGirl],[isSadAnime]",
    "title": "ANIME_PIC_e704fdf82f531b2b38a22384c1a9f0a5",
    "link_img": "https://live.staticflickr.com/65535/51566986720_b0eb8f592e_o.jpg",
    "id_image": "ANIME_PIC_e704fdf82f531b2b38a22384c1a9f0a5",
    "count_view": 0
  },
  {
    "link_thumb": "https://live.staticflickr.com/65535/51566987025_440ec1b18f_n.jpg",
    "id_album": "1650283598",
    "description": "ANIME_PIC_e710adee19b6823169734e4478d95dde,[GirlsSad],[isGirlAnime],[isSadAnimeGirl],[isSadAnime]",
    "title": "ANIME_PIC_e710adee19b6823169734e4478d95dde",
    "link_img": "https://live.staticflickr.com/65535/51566987025_2f75433e09_o.png",
    "id_image": "ANIME_PIC_e710adee19b6823169734e4478d95dde",
    "count_view": 0
  },
  {
    "link_thumb": "https://live.staticflickr.com/65535/51566987560_a0c654cf96_n.jpg",
    "id_album": "1650283598",
    "description": "ANIME_PIC_e711609d9bd94aec75b4f2de4e1b2de4,[GirlsSad],[isGirlAnime],[isCuteAnime],[isSadAnimeGirl],[isSadAnime]",
    "title": "ANIME_PIC_e711609d9bd94aec75b4f2de4e1b2de4",
    "link_img": "https://live.staticflickr.com/65535/51566987560_1e3912f3f2_o.jpg",
    "id_image": "ANIME_PIC_e711609d9bd94aec75b4f2de4e1b2de4",
    "count_view": 0
  },
  {
    "link_thumb": "https://live.staticflickr.com/65535/51565260382_3e86fda387_n.jpg",
    "id_album": "1650283598",
    "description": "ANIME_PIC_e7165f5009fccb7fe1cb72632f28cb0d,[GirlsSad],[isGirlAnime],[isCuteAnime],[isBlackAnime],[isSadAnimeGirl],[isSadAnime]",
    "title": "ANIME_PIC_e7165f5009fccb7fe1cb72632f28cb0d",
    "link_img": "https://live.staticflickr.com/65535/51565260382_ba0fc32b97_o.png",
    "id_image": "ANIME_PIC_e7165f5009fccb7fe1cb72632f28cb0d",
    "count_view": 0
  },
  {
    "link_thumb": "https://live.staticflickr.com/65535/51566742829_b4c6fc9f46_n.jpg",
    "id_album": "1650283598",
    "description": "ANIME_PIC_e72436d2d3b08ff054cc5cd93027fbf9,[GirlsSad],[isGirlAnime],[isSadAnimeGirl],[isSadAnime]",
    "title": "ANIME_PIC_e72436d2d3b08ff054cc5cd93027fbf9",
    "link_img": "https://live.staticflickr.com/65535/51566742829_f11a78e1cf_o.jpg",
    "id_image": "ANIME_PIC_e72436d2d3b08ff054cc5cd93027fbf9",
    "count_view": 0
  },
  {
    "link_thumb": "https://live.staticflickr.com/65535/51565261472_188ee9c49f_n.jpg",
    "id_album": "1650283598",
    "description": "ANIME_PIC_e740a6fec93cfc1b69872fbded6e255f,[GirlsSad],[isGirlAnime],[isCuteAnime],[isSadAnimeGirl],[isSadAnime]",
    "title": "ANIME_PIC_e740a6fec93cfc1b69872fbded6e255f",
    "link_img": "https://live.staticflickr.com/65535/51565261472_b4d9e77417_o.png",
    "id_image": "ANIME_PIC_e740a6fec93cfc1b69872fbded6e255f",
    "count_view": 0
  },
  {
    "link_thumb": "https://live.staticflickr.com/65535/51565261932_1530583d32_n.jpg",
    "id_album": "1650283598",
    "description": "ANIME_PIC_e74af843d0b4329cb24be718578bc2bf,[GirlsSad],[isGirlAnime],[isCuteAnime],[isGirlsHatsHoodieAnime],[isGirlsLoliAnime],[isSadAnimeGirl],[isSadAnime]",
    "title": "ANIME_PIC_e74af843d0b4329cb24be718578bc2bf",
    "link_img": "https://live.staticflickr.com/65535/51565261932_5db65a8fcc_o.jpg",
    "id_image": "ANIME_PIC_e74af843d0b4329cb24be718578bc2bf",
    "count_view": 0
  },
  {
    "link_thumb": "https://live.staticflickr.com/65535/51566989490_66eb52eaa6_n.jpg",
    "id_album": "1650283598",
    "description": "ANIME_PIC_e761fb0cda795629a3dd08ed50314dfe,[GirlsSad],[isGirlAnime],[isSadAnimeGirl],[isSadAnime]",
    "title": "ANIME_PIC_e761fb0cda795629a3dd08ed50314dfe",
    "link_img": "https://live.staticflickr.com/65535/51566989490_f12e3d831f_o.png",
    "id_image": "ANIME_PIC_e761fb0cda795629a3dd08ed50314dfe",
    "count_view": 0
  },
  {
    "link_thumb": "https://live.staticflickr.com/65535/51566299388_06fe65aa8a_n.jpg",
    "id_album": "1650283598",
    "description": "ANIME_PIC_e76e28e75a2ea58ab25acbbd562f4903,[GirlsSad],[isGirlAnime],[isCuteAnime],[isGirlsHatsHoodieAnime],[isSadAnimeGirl],[isSadAnime]",
    "title": "ANIME_PIC_e76e28e75a2ea58ab25acbbd562f4903",
    "link_img": "https://live.staticflickr.com/65535/51566299388_60ac65f197_o.jpg",
    "id_image": "ANIME_PIC_e76e28e75a2ea58ab25acbbd562f4903",
    "count_view": 0
  }
]