[
  {
    "total_img": 45,
    "number_page": 1,
    "title": "My Teen Romantic Comedy SNAFU",
    "tag": "Orange Eyes, Green Eyes, Orange Hair, Snow, Wink, Yui Yuigahama, Black Hair, Coffee, Saika Totsuka, Long Hair, Blonde, Schoolgirl, Iroha Isshiki, Anime, Winter, Book, White Hair, bow Clothing, Hikigaya Hachiman, Short Hair, Shizuka Hiratsuka, Purple Eyes, Purple Hair, Cute, Dress, Hachiman Hikigaya, Scarf, Yukino Yukinoshita, Bag, Pink Eyes, Puppy, School Uniform, Pink Hair, Smile, Boy, Piano, Blue Eyes, Blue Hair, Blush, Hoodie, Teddy Bear, Cat, Komachi Hikigaya, Blossom, Train, My Teen Romantic Comedy SNAFU, Pillow",
    "description": "My Teen Romantic Comedy SNAFU",
    "link_thumb": "https://live.staticflickr.com/65535/48071623461_449befbc94_n.jpg",
    "id_album": "-736653544",
    "total_view": 45
  },
  {
    "total_img": 7,
    "number_page": 1,
    "title": "Hachiman Hikigaya",
    "tag": "Hachiman Hikigaya,",
    "description": "Hachiman Hikigaya",
    "link_thumb": "https://live.staticflickr.com/65535/48071737432_613650822b_n.jpg",
    "id_album": "-1879229758",
    "total_view": 7
  },
  {
    "total_img": 20,
    "number_page": 1,
    "title": "Yui Yuigahama",
    "tag": "Yui Yuigahama,",
    "description": "Yui Yuigahama",
    "link_thumb": "https://live.staticflickr.com/65535/48071671651_3ae71d481d_n.jpg",
    "id_album": "412925440",
    "total_view": 20
  },
  {
    "total_img": 25,
    "number_page": 1,
    "title": "Yukino Yukinoshita",
    "tag": "Yukino Yukinoshita,",
    "description": "Yukino Yukinoshita",
    "link_thumb": "https://live.staticflickr.com/65535/48077786966_dfa8c39008_n.jpg",
    "id_album": "-1981785645",
    "total_view": 25
  }
]