[
  {
    "link_thumb": "https://live.staticflickr.com/65535/40942426513_8dd92ca3da_n.jpg",
    "id_album": "-1609831602",
    "description": "BloodyRondo_213988,[isGirlAnime],[isSadAnime],[isSadAnimeGirl],[isBlackAnime],[Bloody Rondo],[BloodyRondo]",
    "title": "BloodyRondo_213988",
    "link_img": "https://live.staticflickr.com/65535/40942426513_999520b066_o.jpg",
    "id_image": "BloodyRondo_213988",
    "count_view": 0
  },
  {
    "link_thumb": "https://live.staticflickr.com/65535/40942427113_5d3ae3b898_n.jpg",
    "id_album": "-1609831602",
    "description": "BloodyRondo_213989,[isGirlAnime],[isCuteAnime],[isBlackAnime],[Bloody Rondo],[BloodyRondo]",
    "title": "BloodyRondo_213989",
    "link_img": "https://live.staticflickr.com/65535/40942427113_986b19ef95_o.jpg",
    "id_image": "BloodyRondo_213989",
    "count_view": 0
  },
  {
    "link_thumb": "https://live.staticflickr.com/65535/47856995622_af75028f31_n.jpg",
    "id_album": "-1609831602",
    "description": "BloodyRondo_214004,[isGirlAnime],[isBoyAnime],[Bloody Rondo],[BloodyRondo]",
    "title": "BloodyRondo_214004",
    "link_img": "https://live.staticflickr.com/65535/47856995622_291a47632c_o.jpg",
    "id_image": "BloodyRondo_214004",
    "count_view": 0
  },
  {
    "link_thumb": "https://live.staticflickr.com/65535/47119635184_9b71e8819b_n.jpg",
    "id_album": "-1609831602",
    "description": "BloodyRondo_214009,[isGirlAnime],[Bloody Rondo],[BloodyRondo]",
    "title": "BloodyRondo_214009",
    "link_img": "https://live.staticflickr.com/65535/47119635184_24e9d1438c_o.jpg",
    "id_image": "BloodyRondo_214009",
    "count_view": 0
  },
  {
    "link_thumb": "https://live.staticflickr.com/65535/47856997272_84654681ce_n.jpg",
    "id_album": "-1609831602",
    "description": "BloodyRondo_214059,[isGirlAnime],[isSadAnime],[isSadAnimeGirl],[Bloody Rondo],[BloodyRondo]",
    "title": "BloodyRondo_214059",
    "link_img": "https://live.staticflickr.com/65535/47856997272_f58c4c84a1_o.jpg",
    "id_image": "BloodyRondo_214059",
    "count_view": 0
  },
  {
    "link_thumb": "https://live.staticflickr.com/65535/47909030321_e3179ed4ed_n.jpg",
    "id_album": "-1609831602",
    "description": "BloodyRondo_214063,[isGirlAnime],[isBlackAnime],[Bloody Rondo],[BloodyRondo]",
    "title": "BloodyRondo_214063",
    "link_img": "https://live.staticflickr.com/65535/47909030321_2db99e9fb7_o.jpg",
    "id_image": "BloodyRondo_214063",
    "count_view": 0
  },
  {
    "link_thumb": "https://live.staticflickr.com/65535/47909031231_b5a2ff3b23_n.jpg",
    "id_album": "-1609831602",
    "description": "BloodyRondo_214100,[isGirlAnime],[isSadAnime],[isSadAnimeGirl],[Bloody Rondo],[BloodyRondo]",
    "title": "BloodyRondo_214100",
    "link_img": "https://live.staticflickr.com/65535/47909031231_3f5d6afb79_o.jpg",
    "id_image": "BloodyRondo_214100",
    "count_view": 0
  },
  {
    "link_thumb": "https://live.staticflickr.com/65535/46992952765_6a9deb5973_n.jpg",
    "id_album": "-1609831602",
    "description": "BloodyRondo_214105,[isGirlAnime],[Bloody Rondo],[BloodyRondo]",
    "title": "BloodyRondo_214105",
    "link_img": "https://live.staticflickr.com/65535/46992952765_200b35e906_o.jpg",
    "id_image": "BloodyRondo_214105",
    "count_view": 0
  },
  {
    "link_thumb": "https://live.staticflickr.com/65535/47909032551_0c2dd50fe6_n.jpg",
    "id_album": "-1609831602",
    "description": "BloodyRondo_214107,[isGirlAnime],[isSadAnime],[isSadAnimeGirl],[Bloody Rondo],[BloodyRondo]",
    "title": "BloodyRondo_214107",
    "link_img": "https://live.staticflickr.com/65535/47909032551_4e3d3a1fbc_o.jpg",
    "id_image": "BloodyRondo_214107",
    "count_view": 0
  },
  {
    "link_thumb": "https://live.staticflickr.com/65535/47857008562_72504ee273_n.jpg",
    "id_album": "-1609831602",
    "description": "BloodyRondo_866964,[isGirlAnime],[isSadAnime],[isSadAnimeGirl],[isCuteAnime],[isGirlsLoliAnime],[isGirlsSharpCanineToothAnime],[Bloody Rondo],[BloodyRondo]",
    "title": "BloodyRondo_866964",
    "link_img": "https://live.staticflickr.com/65535/47857008562_c5427b22de_o.jpg",
    "id_image": "BloodyRondo_866964",
    "count_view": 0
  }
]