[
  {
    "link_thumb": "https://live.staticflickr.com/65535/48065950826_cf3f266461_n.jpg",
    "id_album": "-167296664",
    "description": "WhiteAlbum_231123,[isGirlAnime],[isSadAnime],[isSadAnimeGirl],[isCuteAnime],[isGirlsLoliAnime],[White Album],[WhiteAlbum]",
    "title": "WhiteAlbum_231123",
    "link_img": "https://live.staticflickr.com/65535/48065950826_12cfd3dc0d_o.jpg",
    "id_image": "WhiteAlbum_231123",
    "count_view": 0
  },
  {
    "link_thumb": "https://live.staticflickr.com/65535/48065954401_a320c6d799_n.jpg",
    "id_album": "-167296664",
    "description": "WhiteAlbum_845479,[isGirlAnime],[isSadAnime],[isSadAnimeGirl],[isCuteAnime],[White Album],[WhiteAlbum]",
    "title": "WhiteAlbum_845479",
    "link_img": "https://live.staticflickr.com/65535/48065954401_7627833a50_o.jpg",
    "id_image": "WhiteAlbum_845479",
    "count_view": 0
  }
]