[
  {
    "link_thumb": "https://live.staticflickr.com/65535/48047165783_a022fd1465_n.jpg",
    "id_album": "321135470",
    "description": "KantaiCollection_571920",
    "title": "KantaiCollection_571920",
    "link_img": "https://live.staticflickr.com/65535/48047165783_39bff765da_o.jpg",
    "id_image": "KantaiCollection_571920",
    "count_view": 0
  },
  {
    "link_thumb": "https://live.staticflickr.com/65535/48047229557_8084ea4acd_n.jpg",
    "id_album": "321135470",
    "description": "KantaiCollection_656194",
    "title": "KantaiCollection_656194",
    "link_img": "https://live.staticflickr.com/65535/48047229557_23390b8fd5_o.jpg",
    "id_image": "KantaiCollection_656194",
    "count_view": 0
  },
  {
    "link_thumb": "https://live.staticflickr.com/65535/48047237017_e26613966f_n.jpg",
    "id_album": "321135470",
    "description": "KantaiCollection_669541",
    "title": "KantaiCollection_669541",
    "link_img": "https://live.staticflickr.com/65535/48047237017_a8895ae86b_o.jpg",
    "id_image": "KantaiCollection_669541",
    "count_view": 0
  },
  {
    "link_thumb": "https://live.staticflickr.com/65535/48047205698_ba311ef127_n.jpg",
    "id_album": "321135470",
    "description": "KantaiCollection_683698",
    "title": "KantaiCollection_683698",
    "link_img": "https://live.staticflickr.com/65535/48047205698_37d03b2009_o.jpg",
    "id_image": "KantaiCollection_683698",
    "count_view": 0
  },
  {
    "link_thumb": "https://live.staticflickr.com/65535/48047213893_ab72af751d_n.jpg",
    "id_album": "321135470",
    "description": "KantaiCollection_693316",
    "title": "KantaiCollection_693316",
    "link_img": "https://live.staticflickr.com/65535/48047213893_e6d366d423_o.jpg",
    "id_image": "KantaiCollection_693316",
    "count_view": 0
  },
  {
    "link_thumb": "https://live.staticflickr.com/65535/48047184641_e9fe0f704c_n.jpg",
    "id_album": "321135470",
    "description": "KantaiCollection_707080",
    "title": "KantaiCollection_707080",
    "link_img": "https://live.staticflickr.com/65535/48047184641_241f250560_o.jpg",
    "id_image": "KantaiCollection_707080",
    "count_view": 0
  },
  {
    "link_thumb": "https://live.staticflickr.com/65535/48047271982_3fab75de1f_n.jpg",
    "id_album": "321135470",
    "description": "KantaiCollection_707209",
    "title": "KantaiCollection_707209",
    "link_img": "https://live.staticflickr.com/65535/48047271982_f2b25ff048_o.jpg",
    "id_image": "KantaiCollection_707209",
    "count_view": 0
  },
  {
    "link_thumb": "https://live.staticflickr.com/65535/48047250903_c15bd07a44_n.jpg",
    "id_album": "321135470",
    "description": "KantaiCollection_736033",
    "title": "KantaiCollection_736033",
    "link_img": "https://live.staticflickr.com/65535/48047250903_8b0b3f64dc_o.jpg",
    "id_image": "KantaiCollection_736033",
    "count_view": 0
  },
  {
    "link_thumb": "https://live.staticflickr.com/65535/48047308738_c660dc0dbf_n.jpg",
    "id_album": "321135470",
    "description": "KantaiCollection_752625",
    "title": "KantaiCollection_752625",
    "link_img": "https://live.staticflickr.com/65535/48047308738_2774dec12d_o.jpg",
    "id_image": "KantaiCollection_752625",
    "count_view": 0
  },
  {
    "link_thumb": "https://live.staticflickr.com/65535/48047309878_ef7039ed02_n.jpg",
    "id_album": "321135470",
    "description": "KantaiCollection_752630",
    "title": "KantaiCollection_752630",
    "link_img": "https://live.staticflickr.com/65535/48047309878_e3c216a629_o.jpg",
    "id_image": "KantaiCollection_752630",
    "count_view": 0
  },
  {
    "link_thumb": "https://live.staticflickr.com/65535/48047354282_085ec06a8c_n.jpg",
    "id_album": "321135470",
    "description": "KantaiCollection_752632",
    "title": "KantaiCollection_752632",
    "link_img": "https://live.staticflickr.com/65535/48047354282_ca1d4072d3_o.jpg",
    "id_image": "KantaiCollection_752632",
    "count_view": 0
  },
  {
    "link_thumb": "https://live.staticflickr.com/65535/48047271416_ec96b0c17b_n.jpg",
    "id_album": "321135470",
    "description": "KantaiCollection_752634",
    "title": "KantaiCollection_752634",
    "link_img": "https://live.staticflickr.com/65535/48047271416_09c57695b5_o.jpg",
    "id_image": "KantaiCollection_752634",
    "count_view": 0
  },
  {
    "link_thumb": "https://live.staticflickr.com/65535/48047274421_eab2bcac2d_n.jpg",
    "id_album": "321135470",
    "description": "KantaiCollection_752650",
    "title": "KantaiCollection_752650",
    "link_img": "https://live.staticflickr.com/65535/48047274421_95f67090c5_o.jpg",
    "id_image": "KantaiCollection_752650",
    "count_view": 0
  },
  {
    "link_thumb": "https://live.staticflickr.com/65535/48047275161_4cd2605e20_n.jpg",
    "id_album": "321135470",
    "description": "KantaiCollection_752654",
    "title": "KantaiCollection_752654",
    "link_img": "https://live.staticflickr.com/65535/48047275161_110ba3d5ba_o.jpg",
    "id_image": "KantaiCollection_752654",
    "count_view": 0
  },
  {
    "link_thumb": "https://live.staticflickr.com/65535/48047506332_b5813cb226_n.jpg",
    "id_album": "321135470",
    "description": "KantaiCollection_830235",
    "title": "KantaiCollection_830235",
    "link_img": "https://live.staticflickr.com/65535/48047506332_e952d0cf71_o.jpg",
    "id_image": "KantaiCollection_830235",
    "count_view": 0
  },
  {
    "link_thumb": "https://live.staticflickr.com/65535/48047438306_8dcc3593be_n.jpg",
    "id_album": "321135470",
    "description": "KantaiCollection_839023",
    "title": "KantaiCollection_839023",
    "link_img": "https://live.staticflickr.com/65535/48047438306_9ea50f7164_o.jpg",
    "id_image": "KantaiCollection_839023",
    "count_view": 0
  },
  {
    "link_thumb": "https://live.staticflickr.com/65535/48047512503_f590bba9fe_n.jpg",
    "id_album": "321135470",
    "description": "KantaiCollection_855170",
    "title": "KantaiCollection_855170",
    "link_img": "https://live.staticflickr.com/65535/48047512503_23ae780a98_o.jpg",
    "id_image": "KantaiCollection_855170",
    "count_view": 0
  },
  {
    "link_thumb": "https://live.staticflickr.com/65535/48047529863_9b556bb45e_n.jpg",
    "id_album": "321135470",
    "description": "KantaiCollection_855284",
    "title": "KantaiCollection_855284",
    "link_img": "https://live.staticflickr.com/65535/48047529863_22671e4f51_o.jpg",
    "id_image": "KantaiCollection_855284",
    "count_view": 0
  },
  {
    "link_thumb": "https://live.staticflickr.com/65535/48047565563_3683591f9c_n.jpg",
    "id_album": "321135470",
    "description": "KantaiCollection_858355",
    "title": "KantaiCollection_858355",
    "link_img": "https://live.staticflickr.com/65535/48047565563_2d75c50780_o.jpg",
    "id_image": "KantaiCollection_858355",
    "count_view": 0
  }
]