[
  {
    "link_thumb": "https://live.staticflickr.com/65535/40928934063_fbacd6399b_n.jpg",
    "id_album": "1729374417",
    "description": "Barakamon_675018,[isGirlAnime],[isBoyAnime],[isCoupleAnime],[isCuteAnime],[Barakamon]",
    "title": "Barakamon_675018",
    "link_img": "https://live.staticflickr.com/65535/40928934063_9e6846f204_o.jpg",
    "id_image": "Barakamon_675018",
    "count_view": 0
  },
  {
    "link_thumb": "https://live.staticflickr.com/65535/46979277605_a3838ec735_n.jpg",
    "id_album": "1729374417",
    "description": "Barakamon_692554,[isGirlAnime],[isBoyAnime],[isCuteAnime],[Barakamon]",
    "title": "Barakamon_692554",
    "link_img": "https://live.staticflickr.com/65535/46979277605_4139cbdcff_o.jpg",
    "id_image": "Barakamon_692554",
    "count_view": 0
  },
  {
    "link_thumb": "https://live.staticflickr.com/65535/47843238272_5aaa231bed_n.jpg",
    "id_album": "1729374417",
    "description": "Barakamon_713788,[isGirlAnime],[isBoyAnime],[Barakamon]",
    "title": "Barakamon_713788",
    "link_img": "https://live.staticflickr.com/65535/47843238272_4b354b7641_o.jpg",
    "id_image": "Barakamon_713788",
    "count_view": 0
  },
  {
    "link_thumb": "https://live.staticflickr.com/65535/47843238922_783e03c031_n.jpg",
    "id_album": "1729374417",
    "description": "Barakamon_713789,[isGirlAnime],[isBoyAnime],[Barakamon]",
    "title": "Barakamon_713789",
    "link_img": "https://live.staticflickr.com/65535/47843238922_7d9b4e86b6_o.jpg",
    "id_image": "Barakamon_713789",
    "count_view": 0
  },
  {
    "link_thumb": "https://live.staticflickr.com/65535/46979278765_e2a9d23252_n.jpg",
    "id_album": "1729374417",
    "description": "Barakamon_713790,[isGirlAnime],[isBoyAnime],[Barakamon]",
    "title": "Barakamon_713790",
    "link_img": "https://live.staticflickr.com/65535/46979278765_61b84f1867_o.jpg",
    "id_image": "Barakamon_713790",
    "count_view": 0
  },
  {
    "link_thumb": "https://live.staticflickr.com/65535/46979279325_15752f9141_n.jpg",
    "id_album": "1729374417",
    "description": "Barakamon_713791,[isGirlAnime],[isBoyAnime],[Barakamon]",
    "title": "Barakamon_713791",
    "link_img": "https://live.staticflickr.com/65535/46979279325_50ca3a11af_o.jpg",
    "id_image": "Barakamon_713791",
    "count_view": 0
  },
  {
    "link_thumb": "https://live.staticflickr.com/65535/47843241892_6c6b0fc4c1_n.jpg",
    "id_album": "1729374417",
    "description": "Barakamon_719040,[isGirlAnime],[isBoyAnime],[Barakamon]",
    "title": "Barakamon_719040",
    "link_img": "https://live.staticflickr.com/65535/47843241892_ba1987684e_o.jpg",
    "id_image": "Barakamon_719040",
    "count_view": 0
  },
  {
    "link_thumb": "https://live.staticflickr.com/65535/47843242492_cca1e65266_n.jpg",
    "id_album": "1729374417",
    "description": "Barakamon_719041,[isGirlAnime],[isBoyAnime],[Barakamon]",
    "title": "Barakamon_719041",
    "link_img": "https://live.staticflickr.com/65535/47843242492_fb8ac84ec8_o.jpg",
    "id_image": "Barakamon_719041",
    "count_view": 0
  },
  {
    "link_thumb": "https://live.staticflickr.com/65535/40928936693_f72dcc536f_n.jpg",
    "id_album": "1729374417",
    "description": "Barakamon_719042,[isGirlAnime],[isBoyAnime],[Barakamon]",
    "title": "Barakamon_719042",
    "link_img": "https://live.staticflickr.com/65535/40928936693_3bab53e6af_o.jpg",
    "id_image": "Barakamon_719042",
    "count_view": 0
  },
  {
    "link_thumb": "https://live.staticflickr.com/65535/46979283245_d157349c46_n.jpg",
    "id_album": "1729374417",
    "description": "Barakamon_719043,[isGirlAnime],[isBoyAnime],[Barakamon]",
    "title": "Barakamon_719043",
    "link_img": "https://live.staticflickr.com/65535/46979283245_790cbb1678_o.jpg",
    "id_image": "Barakamon_719043",
    "count_view": 0
  },
  {
    "link_thumb": "https://live.staticflickr.com/65535/40928937853_7f75a0a69a_n.jpg",
    "id_album": "1729374417",
    "description": "Barakamon_939917,[isGirlAnime],[isBoyAnime],[Barakamon]",
    "title": "Barakamon_939917",
    "link_img": "https://live.staticflickr.com/65535/40928937853_1b810aebfa_o.jpg",
    "id_image": "Barakamon_939917",
    "count_view": 0
  },
  {
    "link_thumb": "https://live.staticflickr.com/65535/47895354951_4969c600cc_n.jpg",
    "id_album": "1729374417",
    "description": "Barakamon_966732,[isGirlAnime],[isBoyAnime],[Barakamon]",
    "title": "Barakamon_966732",
    "link_img": "https://live.staticflickr.com/65535/47895354951_a90547e990_o.jpg",
    "id_image": "Barakamon_966732",
    "count_view": 0
  }
]