[
  {
    "total_img": 65,
    "number_page": 1,
    "title": "Love Chunibyo  Other Delusions",
    "tag": "Toka Takanashi, Santa Hat, Chain, Cross, Sanae Dekomori, Socks, Windows, Thigh Highs, Anime, Love Chunibyo  Other Delusions, Rikka Takanashi, bow Clothing, Umbrella, Yuta Togashi, Short Hair, Windows 10, Yumeha Togashi, Kumin Tsuyuri, Dress, Brown Eyes, Brown Hair, Red Dress, Jeans, Black Dress, School Uniform, Smile, Aqua Eyes, Satone Shichimiya, Skirt, Shinka Nibutani, Blue Eyes, Blue Hair, Blush, Chunibyo Demo Koi ga Shitai, Dark Flame Master, Eye Patch, Pillow, Kuzuha Togashi",
    "description": "Love Chunibyo  Other Delusions",
    "link_thumb": "https://live.staticflickr.com/65535/48048610923_86e27ebe87_n.jpg",
    "id_album": "-71227032",
    "total_view": 65
  },
  {
    "total_img": 9,
    "number_page": 1,
    "title": "Kumin Tsuyuri",
    "tag": "Kumin Tsuyuri,",
    "description": "Kumin Tsuyuri",
    "link_thumb": "https://live.staticflickr.com/65535/48048639163_577ee769ed_n.jpg",
    "id_album": "-1287772648",
    "total_view": 9
  },
  {
    "total_img": 50,
    "number_page": 1,
    "title": "Rikka Takanashi",
    "tag": "Rikka Takanashi,",
    "description": "Rikka Takanashi",
    "link_thumb": "https://live.staticflickr.com/65535/48048596296_e8f22394a5_n.jpg",
    "id_album": "-742996202",
    "total_view": 50
  }
]