[
  {
    "total_img": 791,
    "number_page": 4,
    "title": "Girls Horns",
    "tag": "Girls Horns,",
    "description": "Girls Horns",
    "link_thumb": "https://live.staticflickr.com/65535/50151017648_00424987ab_n.jpg",
    "id_album": "-1468922705",
    "total_view": 791
  },
  {
    "total_img": 15136,
    "number_page": 76,
    "title": "Girls Loli",
    "tag": "Girls Loli,",
    "description": "Girls Loli",
    "link_thumb": "https://live.staticflickr.com/65535/51542199025_2343ce2f5b_n.jpg",
    "id_album": "-1584065887",
    "total_view": 15136
  },
  {
    "total_img": 589,
    "number_page": 3,
    "title": "Girls Witch",
    "tag": "Girls Witch,",
    "description": "Girls Witch",
    "link_thumb": "https://live.staticflickr.com/65535/50056258208_c6c9e88c56_n.jpg",
    "id_album": "-1322695765",
    "total_view": 589
  }
]