[
  {
    "link_thumb": "https://live.staticflickr.com/65535/47890991201_a2b085a353_n.jpg",
    "id_album": "-1228165530",
    "description": "AjinDemiHuman_847394",
    "title": "AjinDemiHuman_847394",
    "link_img": "https://live.staticflickr.com/65535/47890991201_0f1bef957e_o.jpg",
    "id_image": "AjinDemiHuman_847394",
    "count_view": 0
  },
  {
    "link_thumb": "https://live.staticflickr.com/65535/47908321791_4b860d28a2_n.jpg",
    "id_album": "-1228165530",
    "description": "Bleach_678798",
    "title": "Bleach_678798",
    "link_img": "https://live.staticflickr.com/65535/47908321791_441404a117_o.jpg",
    "id_image": "Bleach_678798",
    "count_view": 0
  },
  {
    "link_thumb": "https://live.staticflickr.com/65535/48070425527_62f9a788c2_n.jpg",
    "id_album": "-1228165530",
    "description": "MagiTheLabyrinthOfMagic_686259",
    "title": "MagiTheLabyrinthOfMagic_686259",
    "link_img": "https://live.staticflickr.com/65535/48070425527_1c835de1fe_o.jpg",
    "id_image": "MagiTheLabyrinthOfMagic_686259",
    "count_view": 0
  },
  {
    "link_thumb": "https://live.staticflickr.com/65535/48074497973_4d02c8c940_n.jpg",
    "id_album": "-1228165530",
    "description": "Oreimo_715404",
    "title": "Oreimo_715404",
    "link_img": "https://live.staticflickr.com/65535/48074497973_db0ddd49ef_o.jpg",
    "id_image": "Oreimo_715404",
    "count_view": 0
  },
  {
    "link_thumb": "https://live.staticflickr.com/65535/48075706321_f9d8435a91_n.jpg",
    "id_album": "-1228165530",
    "description": "Original_710174",
    "title": "Original_710174",
    "link_img": "https://live.staticflickr.com/65535/48075706321_810d5e8a20_o.jpg",
    "id_image": "Original_710174",
    "count_view": 0
  },
  {
    "link_thumb": "https://live.staticflickr.com/65535/48063966626_565b2a587e_n.jpg",
    "id_album": "-1228165530",
    "description": "VampireKnight_546783",
    "title": "VampireKnight_546783",
    "link_img": "https://live.staticflickr.com/65535/48063966626_d172b607b2_o.jpg",
    "id_image": "VampireKnight_546783",
    "count_view": 0
  },
  {
    "link_thumb": "https://live.staticflickr.com/65535/48064632937_1cac3d9045_n.jpg",
    "id_album": "-1228165530",
    "description": "Vocaloid_672932",
    "title": "Vocaloid_672932",
    "link_img": "https://live.staticflickr.com/65535/48064632937_082c3d5bdf_o.jpg",
    "id_image": "Vocaloid_672932",
    "count_view": 0
  },
  {
    "link_thumb": "https://live.staticflickr.com/65535/48065686617_7119b11f48_n.jpg",
    "id_album": "-1228165530",
    "description": "Vocaloid_902978",
    "title": "Vocaloid_902978",
    "link_img": "https://live.staticflickr.com/65535/48065686617_afdd3a711d_o.jpg",
    "id_image": "Vocaloid_902978",
    "count_view": 0
  }
]