[
  {
    "total_img": 15,
    "number_page": 1,
    "title": "Death Parade",
    "tag": "Water, Green Hair, Orange Eyes, Quin Death Parade, Chair, Mayu Arita, Black Hair, Minimalist, Ginti Death Parade, Clavis Death Parade, High Heels, Long Hair, Anime, Chiyuki Death Parade, Bottle, White Hair, Darts, Braid, Billiard, Nona Death Parade, Death Parade, Earrings, Necklace, Purple Eyes, Oculus Death Parade, Flower, Purple Hair, Brown Eyes, Brown Hair, Castra Death Parade, Decim Death Parade, Pink Eyes, Pink Hair, Smile, Yellow Eyes, Red Hair, Aqua Hair, Card, Red Eyes, Lollipop, Skirt, Blue Eyes, Bar, Cat, Skull, Dart Board",
    "description": "Death Parade",
    "link_thumb": "https://live.staticflickr.com/65535/47967231686_b51526cb2d_n.jpg",
    "id_album": "738245794",
    "total_view": 15
  },
  {
    "total_img": 1083,
    "number_page": 6,
    "title": "Anime",
    "tag": "Anime,",
    "description": "Anime",
    "link_thumb": "https://live.staticflickr.com/65535/48066953706_2771a62522_n.jpg",
    "id_album": "-1920923841",
    "total_view": 1083
  },
  {
    "total_img": 22,
    "number_page": 1,
    "title": "Aqua Hair",
    "tag": "Aqua Hair,",
    "description": "Aqua Hair",
    "link_thumb": "https://live.staticflickr.com/65535/48065687697_2ec86fc3f2_n.jpg",
    "id_album": "-702208347",
    "total_view": 22
  },
  {
    "total_img": 959,
    "number_page": 5,
    "title": "Blue Eyes",
    "tag": "Blue Eyes,",
    "description": "Blue Eyes",
    "link_thumb": "https://live.staticflickr.com/65535/48609891276_d6beb9cf73_n.jpg",
    "id_album": "737375568",
    "total_view": 959
  },
  {
    "total_img": 122,
    "number_page": 1,
    "title": "Braid",
    "tag": "Braid,",
    "description": "Braid",
    "link_thumb": "https://live.staticflickr.com/65535/48066345617_97d1390213_n.jpg",
    "id_album": "-774067395",
    "total_view": 122
  },
  {
    "total_img": 10,
    "number_page": 1,
    "title": "Decim Death Parade",
    "tag": "Decim Death Parade,",
    "description": "Decim Death Parade",
    "link_thumb": "https://live.staticflickr.com/65535/47965010038_1cbb7f302b_n.jpg",
    "id_album": "-1312656187",
    "total_view": 10
  },
  {
    "total_img": 48,
    "number_page": 1,
    "title": "Earrings",
    "tag": "Earrings,",
    "description": "Earrings",
    "link_thumb": "https://live.staticflickr.com/65535/48065630008_6959f7ab2f_n.jpg",
    "id_album": "-1783551187",
    "total_view": 48
  },
  {
    "total_img": 272,
    "number_page": 2,
    "title": "Purple Eyes",
    "tag": "Purple Eyes,",
    "description": "Purple Eyes",
    "link_thumb": "https://live.staticflickr.com/65535/48609891276_d6beb9cf73_n.jpg",
    "id_album": "1975239528",
    "total_view": 272
  },
  {
    "total_img": 512,
    "number_page": 3,
    "title": "White Hair",
    "tag": "White Hair,",
    "description": "White Hair",
    "link_thumb": "https://live.staticflickr.com/65535/48066258522_1a2a958ca1_n.jpg",
    "id_album": "-843201771",
    "total_view": 512
  }
]