[
  {
    "total_img": 380,
    "number_page": 2,
    "title": "Bleach 2",
    "tag": "Shinigami, Green Hair, Grimmjow Jaegerjaquez, Moon, Black Hair, Baraggan Louisenbairn, Findorr Calius, Yumi Sugimoto, Byakuya Kuchiki, Ganju Shiba, Nnoitra Gilga, Blood, Weapon, Shinji Hirako, Yammy Llargo, Sajin Komamura, Sword, Szayelaporro Granz, Ribbon, White Hair, Zabimaru Bleach, Isane Kotetsu, Horns, Yoruichi Shihoin, Flame, Hair, Isshin Kurosaki, Earrings, Glove, Mizuiro Kojima, Rojuro Otoribashi, Scarf, Chibi, Uryu Ishida, Smile, Chojiro Sasakibe, Berenice Gabrielli, Toshiro Hitsugaya, Red Hair, Sousuke Aizen, Shusuke Amagai, Kuukaku Shiba, Blush, Cyan SungSun, Noba Bleach, Yhwach Bleach, Aaroniero Arruruerie, Kazui Kurosaki, Tetsuzaemon Iba, Orange Hair, Black  White, Kaien Shiba, Nelliel Tu Odelschwanck, Unohana Retsu, Coffee, Coyote Starrk, Zennosuke Kurumadani, Tier Halibel, BazzB Bleach, Orihime Inoue, Mayuri Kurotsuchi, Mashiro Kuna, Wings, Rangiku Matsumoto, Hiyori Sarugaki, Kaname Tosen, Tail, Monster, Yachiru Kusajishi, Sternritter Bleach, Nemu Kurotsuchi, Ginrei Kuchiki, Yasutora Sado, Suzumebachi Bleach, Blue, Renji Abarai, Tatsuki Arisawa, Headband, Blue Eyes, Ichigo Kurosaki, Hachigen Ushoda, Fire, Grey Eyes, Dance, Sketch, Zangetsu Bleach, Ruka Urushibara, Black Eyes, Pesche Guatiche, Shukuro Tsukishima, Ryuken Ishida, Lisa Yadomaru, Cirucci Sanderwicci, Minimalist, Mayuri Shiina, Kensei Muguruma, Long Hair, Kiyone Kotetsu, Anime, Wabisuke Bleach, Kenpachi Zaraki, Yuzu Kurosaki, Keigo Asano, Kon Bleach, Emilou Apacci, Woman, Jinta Hanakari, Oshiro Sora, Yumichika Ayasegawa, Momo Hinamori, Hisagi Shuhei, Kisuke Urahara, Ulquiorra Cifer, Tatsuya Enomoto, Ikkaku Madarame, Shunsui Kyoraku, Lilynette Gingerback, Lonely, Sode no Shirayuki, Rukia Kuchiki, Ryusei Kenzaki, Sosuke Aizen, Kenpachi Kiganjo, Bleach, Senbonzakura Bleach, Luppi Antenor, Izuru Kira, Boy, Bankai, Wonderweiss Margela, Kugo Ginjo, Bleach 2, Tesra Lundocruz, Dark, Sad, Tobiume Bleach, Hollow Ichigo, Zommari Rureaux, Ponytail, Hanataro Yamada, Kazeshini Bleach, Ichika Abarai, Ururu Tsumugiya, Chizuru Honshou, Kuroudo Bleach, Dondochakka Birstanne, Barragan Luisenbarn, Sado Yasutora, Genryusai Shigekuni Yamamoto, Jugram Haschwalth, Short Hair, Soifon Bleach, Marechiyo Omaeda, Katana, Rudbornn Chelute, Urara Shiraishi, Karin Kurosaki, Flower, Dress, Brown Eyes, Gin Ichimaru, Jushiro Ukitake, Hyorinmaru Bleach, Nanao Ise, Romantic, Sunset, Blue Hair, Nel Tu, Fight, Alone, Love Aikawa",
    "description": "Bleach 2",
    "link_thumb": "https://live.staticflickr.com/65535/40939407283_8a2dd3c770_n.jpg",
    "id_album": "-1790635952",
    "total_view": 380
  },
  {
    "total_img": 8,
    "number_page": 1,
    "title": "Zangetsu Bleach",
    "tag": "Zangetsu Bleach,",
    "description": "Zangetsu Bleach",
    "link_thumb": "https://live.staticflickr.com/65535/40941854953_c47cc55d04_n.jpg",
    "id_album": "1378290530",
    "total_view": 8
  }
]