[
  {
    "total_img": 9,
    "number_page": 1,
    "title": "Lunaris Filia",
    "tag": "Hair, Snow, Blue, Sylvia Luna Infinitus, Hayami Mai, Kotoharu Kanon, Red Eyes, Anime, Melis Lunaris Filia, Winter, Mikagami Mamizu, Minase Yukari, Lunaris Filia, Season, Mai Hayami, Toy",
    "description": "Lunaris Filia",
    "link_thumb": "https://live.staticflickr.com/65535/48070327727_88d5c947c2_n.jpg",
    "id_album": "-1252379840",
    "total_view": 9
  }
]