[
  {
    "link_thumb": "https://live.staticflickr.com/65535/48092214526_c8d58a1f14_n.jpg",
    "id_album": "119672248",
    "description": "Original_907815",
    "title": "Original_907815",
    "link_img": "https://live.staticflickr.com/65535/48092214526_d35c11b86a_o.jpg",
    "id_image": "Original_907815",
    "count_view": 0
  },
  {
    "link_thumb": "https://live.staticflickr.com/65535/48092312462_6f3e076291_n.jpg",
    "id_album": "119672248",
    "description": "Original_907823",
    "title": "Original_907823",
    "link_img": "https://live.staticflickr.com/65535/48092312462_d16d4a4f9b_o.jpg",
    "id_image": "Original_907823",
    "count_view": 0
  },
  {
    "link_thumb": "https://live.staticflickr.com/65535/48092217051_35a7d4c196_n.jpg",
    "id_album": "119672248",
    "description": "Original_907828",
    "title": "Original_907828",
    "link_img": "https://live.staticflickr.com/65535/48092217051_476a44dc72_o.jpg",
    "id_image": "Original_907828",
    "count_view": 0
  },
  {
    "link_thumb": "https://live.staticflickr.com/65535/48092257208_d24e597fc6_n.jpg",
    "id_album": "119672248",
    "description": "Original_907829",
    "title": "Original_907829",
    "link_img": "https://live.staticflickr.com/65535/48092257208_2577183735_o.jpg",
    "id_image": "Original_907829",
    "count_view": 0
  },
  {
    "link_thumb": "https://live.staticflickr.com/65535/48092217701_896b40e0fc_n.jpg",
    "id_album": "119672248",
    "description": "Original_907830",
    "title": "Original_907830",
    "link_img": "https://live.staticflickr.com/65535/48092217701_60f2428386_o.jpg",
    "id_image": "Original_907830",
    "count_view": 0
  },
  {
    "link_thumb": "https://live.staticflickr.com/65535/48092217916_1bd4d99847_n.jpg",
    "id_album": "119672248",
    "description": "Original_907834",
    "title": "Original_907834",
    "link_img": "https://live.staticflickr.com/65535/48092217916_151f923797_o.jpg",
    "id_image": "Original_907834",
    "count_view": 0
  },
  {
    "link_thumb": "https://live.staticflickr.com/65535/48092314612_755e8652ef_n.jpg",
    "id_album": "119672248",
    "description": "Original_907837",
    "title": "Original_907837",
    "link_img": "https://live.staticflickr.com/65535/48092314612_383ee22c60_o.jpg",
    "id_image": "Original_907837",
    "count_view": 0
  },
  {
    "link_thumb": "https://live.staticflickr.com/65535/48092260608_9260706464_n.jpg",
    "id_album": "119672248",
    "description": "Original_907848",
    "title": "Original_907848",
    "link_img": "https://live.staticflickr.com/65535/48092260608_b75db88f0a_o.jpg",
    "id_image": "Original_907848",
    "count_view": 0
  },
  {
    "link_thumb": "https://live.staticflickr.com/65535/48092260983_19a3c6af7b_n.jpg",
    "id_album": "119672248",
    "description": "Original_907849",
    "title": "Original_907849",
    "link_img": "https://live.staticflickr.com/65535/48092260983_54806c9a85_o.jpg",
    "id_image": "Original_907849",
    "count_view": 0
  },
  {
    "link_thumb": "https://live.staticflickr.com/65535/48092262008_488fb19e79_n.jpg",
    "id_album": "119672248",
    "description": "Original_907852",
    "title": "Original_907852",
    "link_img": "https://live.staticflickr.com/65535/48092262008_1f0f3b7e75_o.jpg",
    "id_image": "Original_907852",
    "count_view": 0
  },
  {
    "link_thumb": "https://live.staticflickr.com/65535/48092262268_dc91fd51a3_n.jpg",
    "id_album": "119672248",
    "description": "Original_907855",
    "title": "Original_907855",
    "link_img": "https://live.staticflickr.com/65535/48092262268_eb12cae9e8_o.jpg",
    "id_image": "Original_907855",
    "count_view": 0
  },
  {
    "link_thumb": "https://live.staticflickr.com/65535/48092222726_247df621ca_n.jpg",
    "id_album": "119672248",
    "description": "Original_907857",
    "title": "Original_907857",
    "link_img": "https://live.staticflickr.com/65535/48092222726_7b4d9d74f0_o.jpg",
    "id_image": "Original_907857",
    "count_view": 0
  },
  {
    "link_thumb": "https://live.staticflickr.com/65535/48092223311_76ccb7139f_n.jpg",
    "id_album": "119672248",
    "description": "Original_907860",
    "title": "Original_907860",
    "link_img": "https://live.staticflickr.com/65535/48092223311_0f0191b2a5_o.jpg",
    "id_image": "Original_907860",
    "count_view": 0
  },
  {
    "link_thumb": "https://live.staticflickr.com/65535/48092263698_a78e795719_n.jpg",
    "id_album": "119672248",
    "description": "Original_907861",
    "title": "Original_907861",
    "link_img": "https://live.staticflickr.com/65535/48092263698_9c2c8c0e44_o.jpg",
    "id_image": "Original_907861",
    "count_view": 0
  },
  {
    "link_thumb": "https://live.staticflickr.com/65535/48092263993_03c0e73a9a_n.jpg",
    "id_album": "119672248",
    "description": "Original_907864",
    "title": "Original_907864",
    "link_img": "https://live.staticflickr.com/65535/48092263993_166cf900b4_o.jpg",
    "id_image": "Original_907864",
    "count_view": 0
  },
  {
    "link_thumb": "https://live.staticflickr.com/65535/48092264883_e83d9a282d_n.jpg",
    "id_album": "119672248",
    "description": "Original_907868",
    "title": "Original_907868",
    "link_img": "https://live.staticflickr.com/65535/48092264883_d7d3692325_o.jpg",
    "id_image": "Original_907868",
    "count_view": 0
  },
  {
    "link_thumb": "https://live.staticflickr.com/65535/48092265468_df64252640_n.jpg",
    "id_album": "119672248",
    "description": "Original_907870",
    "title": "Original_907870",
    "link_img": "https://live.staticflickr.com/65535/48092265468_a02c1dcb3b_o.jpg",
    "id_image": "Original_907870",
    "count_view": 0
  },
  {
    "link_thumb": "https://live.staticflickr.com/65535/48092322102_09872df419_n.jpg",
    "id_album": "119672248",
    "description": "Original_907872",
    "title": "Original_907872",
    "link_img": "https://live.staticflickr.com/65535/48092322102_5f369d6d6c_o.jpg",
    "id_image": "Original_907872",
    "count_view": 0
  },
  {
    "link_thumb": "https://live.staticflickr.com/65535/48092268108_a4a1a81e2d_n.jpg",
    "id_album": "119672248",
    "description": "Original_908042",
    "title": "Original_908042",
    "link_img": "https://live.staticflickr.com/65535/48092268108_cd979ee3a6_o.jpg",
    "id_image": "Original_908042",
    "count_view": 0
  },
  {
    "link_thumb": "https://live.staticflickr.com/65535/48092268908_f00f803bdf_n.jpg",
    "id_album": "119672248",
    "description": "Original_908050",
    "title": "Original_908050",
    "link_img": "https://live.staticflickr.com/65535/48092268908_f17fcf02c2_o.jpg",
    "id_image": "Original_908050",
    "count_view": 0
  },
  {
    "link_thumb": "https://live.staticflickr.com/65535/48092230401_781f187afe_n.jpg",
    "id_album": "119672248",
    "description": "Original_908055",
    "title": "Original_908055",
    "link_img": "https://live.staticflickr.com/65535/48092230401_bbcabf53cd_o.jpg",
    "id_image": "Original_908055",
    "count_view": 0
  },
  {
    "link_thumb": "https://live.staticflickr.com/65535/48092231541_e545b50cec_n.jpg",
    "id_album": "119672248",
    "description": "Original_908059",
    "title": "Original_908059",
    "link_img": "https://live.staticflickr.com/65535/48092231541_470c1020f7_o.jpg",
    "id_image": "Original_908059",
    "count_view": 0
  },
  {
    "link_thumb": "https://live.staticflickr.com/65535/48092271958_d85fd9e670_n.jpg",
    "id_album": "119672248",
    "description": "Original_908060",
    "title": "Original_908060",
    "link_img": "https://live.staticflickr.com/65535/48092271958_0eba17e620_o.jpg",
    "id_image": "Original_908060",
    "count_view": 0
  },
  {
    "link_thumb": "https://live.staticflickr.com/65535/48092273068_c296b7f35a_n.jpg",
    "id_album": "119672248",
    "description": "Original_908072",
    "title": "Original_908072",
    "link_img": "https://live.staticflickr.com/65535/48092273068_08c909864a_o.jpg",
    "id_image": "Original_908072",
    "count_view": 0
  },
  {
    "link_thumb": "https://live.staticflickr.com/65535/48092329707_c269acbeb4_n.jpg",
    "id_album": "119672248",
    "description": "Original_908073",
    "title": "Original_908073",
    "link_img": "https://live.staticflickr.com/65535/48092329707_9952f370ef_o.jpg",
    "id_image": "Original_908073",
    "count_view": 0
  },
  {
    "link_thumb": "https://live.staticflickr.com/65535/48092273658_0792bd2a64_n.jpg",
    "id_album": "119672248",
    "description": "Original_908074",
    "title": "Original_908074",
    "link_img": "https://live.staticflickr.com/65535/48092273658_636c832fb1_o.jpg",
    "id_image": "Original_908074",
    "count_view": 0
  },
  {
    "link_thumb": "https://live.staticflickr.com/65535/48092274918_63bab65dc2_n.jpg",
    "id_album": "119672248",
    "description": "Original_908079",
    "title": "Original_908079",
    "link_img": "https://live.staticflickr.com/65535/48092274918_db6686930b_o.jpg",
    "id_image": "Original_908079",
    "count_view": 0
  },
  {
    "link_thumb": "https://live.staticflickr.com/65535/48092331552_eb9bd5547d_n.jpg",
    "id_album": "119672248",
    "description": "Original_908080",
    "title": "Original_908080",
    "link_img": "https://live.staticflickr.com/65535/48092331552_6dfca7a619_o.jpg",
    "id_image": "Original_908080",
    "count_view": 0
  },
  {
    "link_thumb": "https://live.staticflickr.com/65535/48092331852_372c3711a7_n.jpg",
    "id_album": "119672248",
    "description": "Original_908081",
    "title": "Original_908081",
    "link_img": "https://live.staticflickr.com/65535/48092331852_9aa36be5ee_o.jpg",
    "id_image": "Original_908081",
    "count_view": 0
  },
  {
    "link_thumb": "https://live.staticflickr.com/65535/48092275828_2113e19865_n.jpg",
    "id_album": "119672248",
    "description": "Original_908082",
    "title": "Original_908082",
    "link_img": "https://live.staticflickr.com/65535/48092275828_9a3c5cb5fa_o.jpg",
    "id_image": "Original_908082",
    "count_view": 0
  },
  {
    "link_thumb": "https://live.staticflickr.com/65535/48092235796_8dccbdb8f3_n.jpg",
    "id_album": "119672248",
    "description": "Original_908083",
    "title": "Original_908083",
    "link_img": "https://live.staticflickr.com/65535/48092235796_b20c1ed9dd_o.jpg",
    "id_image": "Original_908083",
    "count_view": 0
  },
  {
    "link_thumb": "https://live.staticflickr.com/65535/48092236116_ddbac5a2ac_n.jpg",
    "id_album": "119672248",
    "description": "Original_908084",
    "title": "Original_908084",
    "link_img": "https://live.staticflickr.com/65535/48092236116_fae1fd8a86_o.jpg",
    "id_image": "Original_908084",
    "count_view": 0
  },
  {
    "link_thumb": "https://live.staticflickr.com/65535/48092333742_a504afb024_n.jpg",
    "id_album": "119672248",
    "description": "Original_908089",
    "title": "Original_908089",
    "link_img": "https://live.staticflickr.com/65535/48092333742_308272cdf9_o.jpg",
    "id_image": "Original_908089",
    "count_view": 0
  },
  {
    "link_thumb": "https://live.staticflickr.com/65535/48092278078_ea2b5e9f90_n.jpg",
    "id_album": "119672248",
    "description": "Original_908092",
    "title": "Original_908092",
    "link_img": "https://live.staticflickr.com/65535/48092278078_91a07bb3e2_o.jpg",
    "id_image": "Original_908092",
    "count_view": 0
  },
  {
    "link_thumb": "https://live.staticflickr.com/65535/48092238571_9dc067c17f_n.jpg",
    "id_album": "119672248",
    "description": "Original_908093",
    "title": "Original_908093",
    "link_img": "https://live.staticflickr.com/65535/48092238571_883c632585_o.jpg",
    "id_image": "Original_908093",
    "count_view": 0
  },
  {
    "link_thumb": "https://live.staticflickr.com/65535/48092241166_3235ffff3c_n.jpg",
    "id_album": "119672248",
    "description": "Original_908104",
    "title": "Original_908104",
    "link_img": "https://live.staticflickr.com/65535/48092241166_64c974113e_o.jpg",
    "id_image": "Original_908104",
    "count_view": 0
  },
  {
    "link_thumb": "https://live.staticflickr.com/65535/48092246836_2786b83b3b_n.jpg",
    "id_album": "119672248",
    "description": "Original_908201",
    "title": "Original_908201",
    "link_img": "https://live.staticflickr.com/65535/48092246836_1b4421c189_o.jpg",
    "id_image": "Original_908201",
    "count_view": 0
  },
  {
    "link_thumb": "https://live.staticflickr.com/65535/48092289328_a9bff32c70_n.jpg",
    "id_album": "119672248",
    "description": "Original_908282",
    "title": "Original_908282",
    "link_img": "https://live.staticflickr.com/65535/48092289328_5aa0dc7ae6_o.jpg",
    "id_image": "Original_908282",
    "count_view": 0
  },
  {
    "link_thumb": "https://live.staticflickr.com/65535/48092376333_2204fe72f0_n.jpg",
    "id_album": "119672248",
    "description": "Original_912910",
    "title": "Original_912910",
    "link_img": "https://live.staticflickr.com/65535/48092376333_07f50e2fa6_o.jpg",
    "id_image": "Original_912910",
    "count_view": 0
  },
  {
    "link_thumb": "https://live.staticflickr.com/65535/48092378868_a08bab929b_n.jpg",
    "id_album": "119672248",
    "description": "Original_912924",
    "title": "Original_912924",
    "link_img": "https://live.staticflickr.com/65535/48092378868_a0c18846fe_o.jpg",
    "id_image": "Original_912924",
    "count_view": 0
  },
  {
    "link_thumb": "https://live.staticflickr.com/65535/48092437112_de4b38785b_n.jpg",
    "id_album": "119672248",
    "description": "Original_912948",
    "title": "Original_912948",
    "link_img": "https://live.staticflickr.com/65535/48092437112_20036dac5e_o.jpg",
    "id_image": "Original_912948",
    "count_view": 0
  },
  {
    "link_thumb": "https://live.staticflickr.com/65535/48092353011_5240043ae7_n.jpg",
    "id_album": "119672248",
    "description": "Original_913424",
    "title": "Original_913424",
    "link_img": "https://live.staticflickr.com/65535/48092353011_e481f0d0b1_o.jpg",
    "id_image": "Original_913424",
    "count_view": 0
  },
  {
    "link_thumb": "https://live.staticflickr.com/65535/48092360941_74edfc3b88_n.jpg",
    "id_album": "119672248",
    "description": "Original_913842",
    "title": "Original_913842",
    "link_img": "https://live.staticflickr.com/65535/48092360941_124214874c_o.jpg",
    "id_image": "Original_913842",
    "count_view": 0
  },
  {
    "link_thumb": "https://live.staticflickr.com/65535/48092463497_8d3a724420_n.jpg",
    "id_album": "119672248",
    "description": "Original_914013",
    "title": "Original_914013",
    "link_img": "https://live.staticflickr.com/65535/48092463497_103487bed7_o.jpg",
    "id_image": "Original_914013",
    "count_view": 0
  },
  {
    "link_thumb": "https://live.staticflickr.com/65535/48092496862_447736cb64_n.jpg",
    "id_album": "119672248",
    "description": "Original_914504",
    "title": "Original_914504",
    "link_img": "https://live.staticflickr.com/65535/48092496862_6ee09c1415_o.jpg",
    "id_image": "Original_914504",
    "count_view": 0
  },
  {
    "link_thumb": "https://live.staticflickr.com/65535/48092442983_6a03c221cc_n.jpg",
    "id_album": "119672248",
    "description": "Original_914607",
    "title": "Original_914607",
    "link_img": "https://live.staticflickr.com/65535/48092442983_149e0e5872_o.jpg",
    "id_image": "Original_914607",
    "count_view": 0
  },
  {
    "link_thumb": "https://live.staticflickr.com/65535/48092407431_aa5d4d1a50_n.jpg",
    "id_album": "119672248",
    "description": "Original_914728",
    "title": "Original_914728",
    "link_img": "https://live.staticflickr.com/65535/48092407431_558b922766_o.jpg",
    "id_image": "Original_914728",
    "count_view": 0
  },
  {
    "link_thumb": "https://live.staticflickr.com/65535/48092450253_9ded2dbb3b_n.jpg",
    "id_album": "119672248",
    "description": "Original_914826",
    "title": "Original_914826",
    "link_img": "https://live.staticflickr.com/65535/48092450253_a15d3ef656_o.jpg",
    "id_image": "Original_914826",
    "count_view": 0
  },
  {
    "link_thumb": "https://live.staticflickr.com/65535/48092412911_5f0f5b94c0_n.jpg",
    "id_album": "119672248",
    "description": "Original_914979",
    "title": "Original_914979",
    "link_img": "https://live.staticflickr.com/65535/48092412911_e626e8d857_o.jpg",
    "id_image": "Original_914979",
    "count_view": 0
  },
  {
    "link_thumb": "https://live.staticflickr.com/65535/48092423486_ec5cbd47dd_n.jpg",
    "id_album": "119672248",
    "description": "Original_915187",
    "title": "Original_915187",
    "link_img": "https://live.staticflickr.com/65535/48092423486_84c93a57e6_o.jpg",
    "id_image": "Original_915187",
    "count_view": 0
  },
  {
    "link_thumb": "https://live.staticflickr.com/65535/48092469348_43f8c87123_n.jpg",
    "id_album": "119672248",
    "description": "Original_915450",
    "title": "Original_915450",
    "link_img": "https://live.staticflickr.com/65535/48092469348_2a06ab0ae5_o.jpg",
    "id_image": "Original_915450",
    "count_view": 0
  },
  {
    "link_thumb": "https://live.staticflickr.com/65535/48092470633_ec2aa4a761_n.jpg",
    "id_album": "119672248",
    "description": "Original_915479",
    "title": "Original_915479",
    "link_img": "https://live.staticflickr.com/65535/48092470633_3956ed01a1_o.jpg",
    "id_image": "Original_915479",
    "count_view": 0
  },
  {
    "link_thumb": "https://live.staticflickr.com/65535/48092471053_c4af68223f_n.jpg",
    "id_album": "119672248",
    "description": "Original_915504",
    "title": "Original_915504",
    "link_img": "https://live.staticflickr.com/65535/48092471053_b131416445_o.jpg",
    "id_image": "Original_915504",
    "count_view": 0
  },
  {
    "link_thumb": "https://live.staticflickr.com/65535/48092471683_dbb664097e_n.jpg",
    "id_album": "119672248",
    "description": "Original_915507",
    "title": "Original_915507",
    "link_img": "https://live.staticflickr.com/65535/48092471683_ed3d4f13de_o.jpg",
    "id_image": "Original_915507",
    "count_view": 0
  },
  {
    "link_thumb": "https://live.staticflickr.com/65535/48092475993_6e5565a977_n.jpg",
    "id_album": "119672248",
    "description": "Original_915690",
    "title": "Original_915690",
    "link_img": "https://live.staticflickr.com/65535/48092475993_a244c303be_o.jpg",
    "id_image": "Original_915690",
    "count_view": 0
  },
  {
    "link_thumb": "https://live.staticflickr.com/65535/48092437636_b5f9f48479_n.jpg",
    "id_album": "119672248",
    "description": "Original_915777",
    "title": "Original_915777",
    "link_img": "https://live.staticflickr.com/65535/48092437636_1710afe191_o.jpg",
    "id_image": "Original_915777",
    "count_view": 0
  },
  {
    "link_thumb": "https://live.staticflickr.com/65535/48092481688_ce2590c895_n.jpg",
    "id_album": "119672248",
    "description": "Original_915927",
    "title": "Original_915927",
    "link_img": "https://live.staticflickr.com/65535/48092481688_6c5c0eb085_o.jpg",
    "id_image": "Original_915927",
    "count_view": 0
  },
  {
    "link_thumb": "https://live.staticflickr.com/65535/48092539707_e4c857014a_n.jpg",
    "id_album": "119672248",
    "description": "Original_915973",
    "title": "Original_915973",
    "link_img": "https://live.staticflickr.com/65535/48092539707_c8976a1dbe_o.jpg",
    "id_image": "Original_915973",
    "count_view": 0
  },
  {
    "link_thumb": "https://live.staticflickr.com/65535/48092550152_2659c29492_n.jpg",
    "id_album": "119672248",
    "description": "Original_916254",
    "title": "Original_916254",
    "link_img": "https://live.staticflickr.com/65535/48092550152_f9e1ddd083_o.jpg",
    "id_image": "Original_916254",
    "count_view": 0
  },
  {
    "link_thumb": "https://live.staticflickr.com/65535/48092453396_d7995df76d_n.jpg",
    "id_album": "119672248",
    "description": "Original_916255",
    "title": "Original_916255",
    "link_img": "https://live.staticflickr.com/65535/48092453396_179b5eb23b_o.jpg",
    "id_image": "Original_916255",
    "count_view": 0
  },
  {
    "link_thumb": "https://live.staticflickr.com/65535/48092453651_834a761be3_n.jpg",
    "id_album": "119672248",
    "description": "Original_916256",
    "title": "Original_916256",
    "link_img": "https://live.staticflickr.com/65535/48092453651_907cc46bb3_o.jpg",
    "id_image": "Original_916256",
    "count_view": 0
  },
  {
    "link_thumb": "https://live.staticflickr.com/65535/48092458211_66789f7c1e_n.jpg",
    "id_album": "119672248",
    "description": "Original_916438",
    "title": "Original_916438",
    "link_img": "https://live.staticflickr.com/65535/48092458211_849e3b9e49_o.jpg",
    "id_image": "Original_916438",
    "count_view": 0
  },
  {
    "link_thumb": "https://live.staticflickr.com/65535/48092461286_9c3808eafa_n.jpg",
    "id_album": "119672248",
    "description": "Original_916554",
    "title": "Original_916554",
    "link_img": "https://live.staticflickr.com/65535/48092461286_78a32bc54d_o.jpg",
    "id_image": "Original_916554",
    "count_view": 0
  },
  {
    "link_thumb": "https://live.staticflickr.com/65535/48092509183_3ce9cae7c1_n.jpg",
    "id_album": "119672248",
    "description": "Original_916786",
    "title": "Original_916786",
    "link_img": "https://live.staticflickr.com/65535/48092509183_4ac4b9bfb0_o.jpg",
    "id_image": "Original_916786",
    "count_view": 0
  },
  {
    "link_thumb": "https://live.staticflickr.com/65535/48092511788_07aaa11a47_n.jpg",
    "id_album": "119672248",
    "description": "Original_916965",
    "title": "Original_916965",
    "link_img": "https://live.staticflickr.com/65535/48092511788_789df68c5c_o.jpg",
    "id_image": "Original_916965",
    "count_view": 0
  },
  {
    "link_thumb": "https://live.staticflickr.com/65535/48092513688_bcc54355fd_n.jpg",
    "id_album": "119672248",
    "description": "Original_917033",
    "title": "Original_917033",
    "link_img": "https://live.staticflickr.com/65535/48092513688_4e1ec30163_o.jpg",
    "id_image": "Original_917033",
    "count_view": 0
  },
  {
    "link_thumb": "https://live.staticflickr.com/65535/48092474671_73b266876d_n.jpg",
    "id_album": "119672248",
    "description": "Original_917052",
    "title": "Original_917052",
    "link_img": "https://live.staticflickr.com/65535/48092474671_e320225fb2_o.jpg",
    "id_image": "Original_917052",
    "count_view": 0
  },
  {
    "link_thumb": "https://live.staticflickr.com/65535/48092574172_295fcb3467_n.jpg",
    "id_album": "119672248",
    "description": "Original_917096",
    "title": "Original_917096",
    "link_img": "https://live.staticflickr.com/65535/48092574172_e702db3d71_o.jpg",
    "id_image": "Original_917096",
    "count_view": 0
  },
  {
    "link_thumb": "https://live.staticflickr.com/65535/48092516658_44b054c604_n.jpg",
    "id_album": "119672248",
    "description": "Original_917100",
    "title": "Original_917100",
    "link_img": "https://live.staticflickr.com/65535/48092516658_0b7b4fcbf2_o.jpg",
    "id_image": "Original_917100",
    "count_view": 0
  },
  {
    "link_thumb": "https://live.staticflickr.com/65535/48092575132_e21ab52d5e_n.jpg",
    "id_album": "119672248",
    "description": "Original_917119",
    "title": "Original_917119",
    "link_img": "https://live.staticflickr.com/65535/48092575132_30656b0bb8_o.jpg",
    "id_image": "Original_917119",
    "count_view": 0
  },
  {
    "link_thumb": "https://live.staticflickr.com/65535/48092485291_8203c8fe78_n.jpg",
    "id_album": "119672248",
    "description": "Original_917406",
    "title": "Original_917406",
    "link_img": "https://live.staticflickr.com/65535/48092485291_3b6a361693_o.jpg",
    "id_image": "Original_917406",
    "count_view": 0
  },
  {
    "link_thumb": "https://live.staticflickr.com/65535/48092584527_009fc3c389_n.jpg",
    "id_album": "119672248",
    "description": "Original_917781",
    "title": "Original_917781",
    "link_img": "https://live.staticflickr.com/65535/48092584527_a32e314639_o.jpg",
    "id_image": "Original_917781",
    "count_view": 0
  },
  {
    "link_thumb": "https://live.staticflickr.com/65535/48092588282_574747e72e_n.jpg",
    "id_album": "119672248",
    "description": "Original_917883",
    "title": "Original_917883",
    "link_img": "https://live.staticflickr.com/65535/48092588282_42a791d77a_o.jpg",
    "id_image": "Original_917883",
    "count_view": 0
  },
  {
    "link_thumb": "https://live.staticflickr.com/65535/48092593932_c79efab486_n.jpg",
    "id_album": "119672248",
    "description": "Original_918069",
    "title": "Original_918069",
    "link_img": "https://live.staticflickr.com/65535/48092593932_11fc546939_o.jpg",
    "id_image": "Original_918069",
    "count_view": 0
  },
  {
    "link_thumb": "https://live.staticflickr.com/65535/48092499366_74c261a21f_n.jpg",
    "id_album": "119672248",
    "description": "Original_918360",
    "title": "Original_918360",
    "link_img": "https://live.staticflickr.com/65535/48092499366_7e6beea85c_o.jpg",
    "id_image": "Original_918360",
    "count_view": 0
  },
  {
    "link_thumb": "https://live.staticflickr.com/65535/48092509651_56267b729f_n.jpg",
    "id_album": "119672248",
    "description": "Original_918559",
    "title": "Original_918559",
    "link_img": "https://live.staticflickr.com/65535/48092509651_55648c327d_o.jpg",
    "id_image": "Original_918559",
    "count_view": 0
  },
  {
    "link_thumb": "https://live.staticflickr.com/65535/48092608117_917c2e3399_n.jpg",
    "id_album": "119672248",
    "description": "Original_918682",
    "title": "Original_918682",
    "link_img": "https://live.staticflickr.com/65535/48092608117_c099fc2823_o.jpg",
    "id_image": "Original_918682",
    "count_view": 0
  },
  {
    "link_thumb": "https://live.staticflickr.com/65535/48092550753_88d21c9970_n.jpg",
    "id_album": "119672248",
    "description": "Original_918688",
    "title": "Original_918688",
    "link_img": "https://live.staticflickr.com/65535/48092550753_b6313a4ae3_o.jpg",
    "id_image": "Original_918688",
    "count_view": 0
  },
  {
    "link_thumb": "https://live.staticflickr.com/65535/48092552268_91351f12cd_n.jpg",
    "id_album": "119672248",
    "description": "Original_918750",
    "title": "Original_918750",
    "link_img": "https://live.staticflickr.com/65535/48092552268_2063bf8bb4_o.jpg",
    "id_image": "Original_918750",
    "count_view": 0
  },
  {
    "link_thumb": "https://live.staticflickr.com/65535/48092615897_b48360bfdf_n.jpg",
    "id_album": "119672248",
    "description": "Original_919038",
    "title": "Original_919038",
    "link_img": "https://live.staticflickr.com/65535/48092615897_094aa8e6b9_o.jpg",
    "id_image": "Original_919038",
    "count_view": 0
  },
  {
    "link_thumb": "https://live.staticflickr.com/65535/48092558348_5f38575d49_n.jpg",
    "id_album": "119672248",
    "description": "Original_919046",
    "title": "Original_919046",
    "link_img": "https://live.staticflickr.com/65535/48092558348_5725dc51bd_o.jpg",
    "id_image": "Original_919046",
    "count_view": 0
  },
  {
    "link_thumb": "https://live.staticflickr.com/65535/48092566713_863836cd8d_n.jpg",
    "id_album": "119672248",
    "description": "Original_919411",
    "title": "Original_919411",
    "link_img": "https://live.staticflickr.com/65535/48092566713_776ce6ed96_o.jpg",
    "id_image": "Original_919411",
    "count_view": 0
  },
  {
    "link_thumb": "https://live.staticflickr.com/65535/48092636852_87d2f2db3b_n.jpg",
    "id_album": "119672248",
    "description": "Original_919927",
    "title": "Original_919927",
    "link_img": "https://live.staticflickr.com/65535/48092636852_6ac5436598_o.jpg",
    "id_image": "Original_919927",
    "count_view": 0
  },
  {
    "link_thumb": "https://live.staticflickr.com/65535/48092540881_4cf3db9010_n.jpg",
    "id_album": "119672248",
    "description": "Original_920067",
    "title": "Original_920067",
    "link_img": "https://live.staticflickr.com/65535/48092540881_5087e04fc8_o.jpg",
    "id_image": "Original_920067",
    "count_view": 0
  },
  {
    "link_thumb": "https://live.staticflickr.com/65535/48092657407_fd61492f76_n.jpg",
    "id_album": "119672248",
    "description": "Original_921177",
    "title": "Original_921177",
    "link_img": "https://live.staticflickr.com/65535/48092657407_2b11338481_o.jpg",
    "id_image": "Original_921177",
    "count_view": 0
  },
  {
    "link_thumb": "https://live.staticflickr.com/65535/48092560836_7bd4204769_n.jpg",
    "id_album": "119672248",
    "description": "Original_921235",
    "title": "Original_921235",
    "link_img": "https://live.staticflickr.com/65535/48092560836_59fdb7e950_o.jpg",
    "id_image": "Original_921235",
    "count_view": 0
  },
  {
    "link_thumb": "https://live.staticflickr.com/65535/48092659892_36c1d50073_n.jpg",
    "id_album": "119672248",
    "description": "Original_921245",
    "title": "Original_921245",
    "link_img": "https://live.staticflickr.com/65535/48092659892_32cbd5bc37_o.jpg",
    "id_image": "Original_921245",
    "count_view": 0
  },
  {
    "link_thumb": "https://live.staticflickr.com/65535/48092670352_430675a51d_n.jpg",
    "id_album": "119672248",
    "description": "Original_921845",
    "title": "Original_921845",
    "link_img": "https://live.staticflickr.com/65535/48092670352_fc58ccc066_o.jpg",
    "id_image": "Original_921845",
    "count_view": 0
  },
  {
    "link_thumb": "https://live.staticflickr.com/65535/48092689392_6f511f3165_n.jpg",
    "id_album": "119672248",
    "description": "Original_922731",
    "title": "Original_922731",
    "link_img": "https://live.staticflickr.com/65535/48092689392_cf9afdab90_o.jpg",
    "id_image": "Original_922731",
    "count_view": 0
  },
  {
    "link_thumb": "https://live.staticflickr.com/65535/48092665768_3f78d4533f_n.jpg",
    "id_album": "119672248",
    "description": "Original_925116",
    "title": "Original_925116",
    "link_img": "https://live.staticflickr.com/65535/48092665768_8574c3d989_o.jpg",
    "id_image": "Original_925116",
    "count_view": 0
  },
  {
    "link_thumb": "https://live.staticflickr.com/65535/48092689493_48dd566bcb_n.jpg",
    "id_album": "119672248",
    "description": "Original_927237",
    "title": "Original_927237",
    "link_img": "https://live.staticflickr.com/65535/48092689493_cb81898dc0_o.jpg",
    "id_image": "Original_927237",
    "count_view": 0
  },
  {
    "link_thumb": "https://live.staticflickr.com/65535/48092693463_2c78550741_n.jpg",
    "id_album": "119672248",
    "description": "Original_927752",
    "title": "Original_927752",
    "link_img": "https://live.staticflickr.com/65535/48092693463_958c4aef10_o.jpg",
    "id_image": "Original_927752",
    "count_view": 0
  },
  {
    "link_thumb": "https://live.staticflickr.com/65535/48092706713_98a9ef1641_n.jpg",
    "id_album": "119672248",
    "description": "Original_928740",
    "title": "Original_928740",
    "link_img": "https://live.staticflickr.com/65535/48092706713_8a57a7e87c_o.jpg",
    "id_image": "Original_928740",
    "count_view": 0
  },
  {
    "link_thumb": "https://live.staticflickr.com/65535/48092709193_f1e21692dc_n.jpg",
    "id_album": "119672248",
    "description": "Original_929008",
    "title": "Original_929008",
    "link_img": "https://live.staticflickr.com/65535/48092709193_3a15af2d10_o.jpg",
    "id_image": "Original_929008",
    "count_view": 0
  },
  {
    "link_thumb": "https://live.staticflickr.com/65535/48092793557_a3db7de690_n.jpg",
    "id_album": "119672248",
    "description": "Original_931204",
    "title": "Original_931204",
    "link_img": "https://live.staticflickr.com/65535/48092793557_34c0ed4762_o.jpg",
    "id_image": "Original_931204",
    "count_view": 0
  },
  {
    "link_thumb": "https://live.staticflickr.com/65535/48092807102_af7de5d830_n.jpg",
    "id_album": "119672248",
    "description": "Original_932118",
    "title": "Original_932118",
    "link_img": "https://live.staticflickr.com/65535/48092807102_396e959044_o.jpg",
    "id_image": "Original_932118",
    "count_view": 0
  },
  {
    "link_thumb": "https://live.staticflickr.com/65535/48092821292_c6bef68556_n.jpg",
    "id_album": "119672248",
    "description": "Original_933124",
    "title": "Original_933124",
    "link_img": "https://live.staticflickr.com/65535/48092821292_21e0c75b8f_o.jpg",
    "id_image": "Original_933124",
    "count_view": 0
  },
  {
    "link_thumb": "https://live.staticflickr.com/65535/48092782458_8a9d0b7b9e_n.jpg",
    "id_album": "119672248",
    "description": "Original_933934",
    "title": "Original_933934",
    "link_img": "https://live.staticflickr.com/65535/48092782458_e1017c31e6_o.jpg",
    "id_image": "Original_933934",
    "count_view": 0
  },
  {
    "link_thumb": "https://live.staticflickr.com/65535/48092749521_d40c251703_n.jpg",
    "id_album": "119672248",
    "description": "Original_934316",
    "title": "Original_934316",
    "link_img": "https://live.staticflickr.com/65535/48092749521_fde0209cce_o.jpg",
    "id_image": "Original_934316",
    "count_view": 0
  },
  {
    "link_thumb": "https://live.staticflickr.com/65535/48092749826_ee61e08d9b_n.jpg",
    "id_album": "119672248",
    "description": "Original_934408",
    "title": "Original_934408",
    "link_img": "https://live.staticflickr.com/65535/48092749826_47d8e760bc_o.jpg",
    "id_image": "Original_934408",
    "count_view": 0
  },
  {
    "link_thumb": "https://live.staticflickr.com/65535/48092848162_04de9a5dfb_n.jpg",
    "id_album": "119672248",
    "description": "Original_934409",
    "title": "Original_934409",
    "link_img": "https://live.staticflickr.com/65535/48092848162_6d08c8b26e_o.jpg",
    "id_image": "Original_934409",
    "count_view": 0
  },
  {
    "link_thumb": "https://live.staticflickr.com/65535/48092750801_8579e8f7e0_n.jpg",
    "id_album": "119672248",
    "description": "Original_934412",
    "title": "Original_934412",
    "link_img": "https://live.staticflickr.com/65535/48092750801_309f0df220_o.jpg",
    "id_image": "Original_934412",
    "count_view": 0
  },
  {
    "link_thumb": "https://live.staticflickr.com/65535/48092858867_462a5a7b2c_n.jpg",
    "id_album": "119672248",
    "description": "Original_934710",
    "title": "Original_934710",
    "link_img": "https://live.staticflickr.com/65535/48092858867_98af5d7d94_o.jpg",
    "id_image": "Original_934710",
    "count_view": 0
  },
  {
    "link_thumb": "https://live.staticflickr.com/65535/48092861147_4fd12823cb_n.jpg",
    "id_album": "119672248",
    "description": "Original_934932",
    "title": "Original_934932",
    "link_img": "https://live.staticflickr.com/65535/48092861147_9974727a4d_o.jpg",
    "id_image": "Original_934932",
    "count_view": 0
  },
  {
    "link_thumb": "https://live.staticflickr.com/65535/48092876422_5ef0a05e83_n.jpg",
    "id_album": "119672248",
    "description": "Original_935699",
    "title": "Original_935699",
    "link_img": "https://live.staticflickr.com/65535/48092876422_bebe0ae308_o.jpg",
    "id_image": "Original_935699",
    "count_view": 0
  },
  {
    "link_thumb": "https://live.staticflickr.com/65535/48092877682_fdf6120b6a_n.jpg",
    "id_album": "119672248",
    "description": "Original_935722",
    "title": "Original_935722",
    "link_img": "https://live.staticflickr.com/65535/48092877682_4d74045cb6_o.jpg",
    "id_image": "Original_935722",
    "count_view": 0
  },
  {
    "link_thumb": "https://live.staticflickr.com/65535/48092780051_b5ddf7db26_n.jpg",
    "id_album": "119672248",
    "description": "Original_935723",
    "title": "Original_935723",
    "link_img": "https://live.staticflickr.com/65535/48092780051_69a1c16791_o.jpg",
    "id_image": "Original_935723",
    "count_view": 0
  },
  {
    "link_thumb": "https://live.staticflickr.com/65535/48092780451_e9a3afee0c_n.jpg",
    "id_album": "119672248",
    "description": "Original_935724",
    "title": "Original_935724",
    "link_img": "https://live.staticflickr.com/65535/48092780451_6dcf9b30f2_o.jpg",
    "id_image": "Original_935724",
    "count_view": 0
  },
  {
    "link_thumb": "https://live.staticflickr.com/65535/48092822818_98d567b4e3_n.jpg",
    "id_album": "119672248",
    "description": "Original_935801",
    "title": "Original_935801",
    "link_img": "https://live.staticflickr.com/65535/48092822818_dd0e795d5b_o.jpg",
    "id_image": "Original_935801",
    "count_view": 0
  },
  {
    "link_thumb": "https://live.staticflickr.com/65535/48092823008_99756289e7_n.jpg",
    "id_album": "119672248",
    "description": "Original_935803",
    "title": "Original_935803",
    "link_img": "https://live.staticflickr.com/65535/48092823008_b3deaa19f8_o.jpg",
    "id_image": "Original_935803",
    "count_view": 0
  },
  {
    "link_thumb": "https://live.staticflickr.com/65535/48092828748_1a111f6d31_n.jpg",
    "id_album": "119672248",
    "description": "Original_935940",
    "title": "Original_935940",
    "link_img": "https://live.staticflickr.com/65535/48092828748_1c97ae74c5_o.jpg",
    "id_image": "Original_935940",
    "count_view": 0
  },
  {
    "link_thumb": "https://live.staticflickr.com/65535/48092831368_8f7a058f08_n.jpg",
    "id_album": "119672248",
    "description": "Original_935967",
    "title": "Original_935967",
    "link_img": "https://live.staticflickr.com/65535/48092831368_81ffceaa26_o.jpg",
    "id_image": "Original_935967",
    "count_view": 0
  },
  {
    "link_thumb": "https://live.staticflickr.com/65535/48092890692_8f33155b1a_n.jpg",
    "id_album": "119672248",
    "description": "Original_936045",
    "title": "Original_936045",
    "link_img": "https://live.staticflickr.com/65535/48092890692_3f872cd8cf_o.jpg",
    "id_image": "Original_936045",
    "count_view": 0
  },
  {
    "link_thumb": "https://live.staticflickr.com/65535/48092801241_dd8ae99891_n.jpg",
    "id_album": "119672248",
    "description": "Original_936283",
    "title": "Original_936283",
    "link_img": "https://live.staticflickr.com/65535/48092801241_fcdabaab01_o.jpg",
    "id_image": "Original_936283",
    "count_view": 0
  },
  {
    "link_thumb": "https://live.staticflickr.com/65535/48092842398_5bd49cd17e_n.jpg",
    "id_album": "119672248",
    "description": "Original_936337",
    "title": "Original_936337",
    "link_img": "https://live.staticflickr.com/65535/48092842398_711f495bf4_o.jpg",
    "id_image": "Original_936337",
    "count_view": 0
  },
  {
    "link_thumb": "https://live.staticflickr.com/65535/48092844673_72361d5007_n.jpg",
    "id_album": "119672248",
    "description": "Original_936349",
    "title": "Original_936349",
    "link_img": "https://live.staticflickr.com/65535/48092844673_d9f47c6097_o.jpg",
    "id_image": "Original_936349",
    "count_view": 0
  },
  {
    "link_thumb": "https://live.staticflickr.com/65535/48092804916_2fdb5f6e3a_n.jpg",
    "id_album": "119672248",
    "description": "Original_936353",
    "title": "Original_936353",
    "link_img": "https://live.staticflickr.com/65535/48092804916_35786542b9_o.jpg",
    "id_image": "Original_936353",
    "count_view": 0
  },
  {
    "link_thumb": "https://live.staticflickr.com/65535/48092903942_7e50decbe8_n.jpg",
    "id_album": "119672248",
    "description": "Original_936357",
    "title": "Original_936357",
    "link_img": "https://live.staticflickr.com/65535/48092903942_b9a639677d_o.jpg",
    "id_image": "Original_936357",
    "count_view": 0
  },
  {
    "link_thumb": "https://live.staticflickr.com/65535/48092856563_783457e85b_n.jpg",
    "id_album": "119672248",
    "description": "Original_936750",
    "title": "Original_936750",
    "link_img": "https://live.staticflickr.com/65535/48092856563_5ce36681bf_o.jpg",
    "id_image": "Original_936750",
    "count_view": 0
  },
  {
    "link_thumb": "https://live.staticflickr.com/65535/48092925362_5ca04da90c_n.jpg",
    "id_album": "119672248",
    "description": "Original_937652",
    "title": "Original_937652",
    "link_img": "https://live.staticflickr.com/65535/48092925362_3f22ba03d4_o.jpg",
    "id_image": "Original_937652",
    "count_view": 0
  },
  {
    "link_thumb": "https://live.staticflickr.com/65535/48092874968_294ca93a95_n.jpg",
    "id_album": "119672248",
    "description": "Original_938027",
    "title": "Original_938027",
    "link_img": "https://live.staticflickr.com/65535/48092874968_8cd6862999_o.jpg",
    "id_image": "Original_938027",
    "count_view": 0
  },
  {
    "link_thumb": "https://live.staticflickr.com/65535/48092846116_79d77960f4_n.jpg",
    "id_album": "119672248",
    "description": "Original_938936",
    "title": "Original_938936",
    "link_img": "https://live.staticflickr.com/65535/48092846116_9ce2b89b70_o.jpg",
    "id_image": "Original_938936",
    "count_view": 0
  },
  {
    "link_thumb": "https://live.staticflickr.com/65535/48092893168_3970b75d53_n.jpg",
    "id_album": "119672248",
    "description": "Original_939362",
    "title": "Original_939362",
    "link_img": "https://live.staticflickr.com/65535/48092893168_6b555d09c3_o.jpg",
    "id_image": "Original_939362",
    "count_view": 0
  },
  {
    "link_thumb": "https://live.staticflickr.com/65535/48092953382_4a368ff1fa_n.jpg",
    "id_album": "119672248",
    "description": "Original_939680",
    "title": "Original_939680",
    "link_img": "https://live.staticflickr.com/65535/48092953382_ecbda6427d_o.jpg",
    "id_image": "Original_939680",
    "count_view": 0
  },
  {
    "link_thumb": "https://live.staticflickr.com/65535/48092897483_58be5be9d0_n.jpg",
    "id_album": "119672248",
    "description": "Original_939966",
    "title": "Original_939966",
    "link_img": "https://live.staticflickr.com/65535/48092897483_9a03204b11_o.jpg",
    "id_image": "Original_939966",
    "count_view": 0
  },
  {
    "link_thumb": "https://live.staticflickr.com/65535/48092898333_04b84358cb_n.jpg",
    "id_album": "119672248",
    "description": "Original_940075",
    "title": "Original_940075",
    "link_img": "https://live.staticflickr.com/65535/48092898333_3a980d1618_o.jpg",
    "id_image": "Original_940075",
    "count_view": 0
  },
  {
    "link_thumb": "https://live.staticflickr.com/65535/48092898568_f94f145b79_n.jpg",
    "id_album": "119672248",
    "description": "Original_940077",
    "title": "Original_940077",
    "link_img": "https://live.staticflickr.com/65535/48092898568_71c30de4c8_o.jpg",
    "id_image": "Original_940077",
    "count_view": 0
  },
  {
    "link_thumb": "https://live.staticflickr.com/65535/48092867886_c7ff03a154_n.jpg",
    "id_album": "119672248",
    "description": "Original_940584",
    "title": "Original_940584",
    "link_img": "https://live.staticflickr.com/65535/48092867886_f92505c941_o.jpg",
    "id_image": "Original_940584",
    "count_view": 0
  },
  {
    "link_thumb": "https://live.staticflickr.com/65535/48092872536_cac5ab35ee_n.jpg",
    "id_album": "119672248",
    "description": "Original_940705",
    "title": "Original_940705",
    "link_img": "https://live.staticflickr.com/65535/48092872536_a25d7fbb59_o.jpg",
    "id_image": "Original_940705",
    "count_view": 0
  },
  {
    "link_thumb": "https://live.staticflickr.com/65535/48092872996_dcf1ce9a24_n.jpg",
    "id_album": "119672248",
    "description": "Original_940706",
    "title": "Original_940706",
    "link_img": "https://live.staticflickr.com/65535/48092872996_fbda7faaea_o.jpg",
    "id_image": "Original_940706",
    "count_view": 0
  },
  {
    "link_thumb": "https://live.staticflickr.com/65535/48092914538_8b8f0a7d25_n.jpg",
    "id_album": "119672248",
    "description": "Original_940782",
    "title": "Original_940782",
    "link_img": "https://live.staticflickr.com/65535/48092914538_4db49bde97_o.jpg",
    "id_image": "Original_940782",
    "count_view": 0
  },
  {
    "link_thumb": "https://live.staticflickr.com/65535/48092974907_53909ec690_n.jpg",
    "id_album": "119672248",
    "description": "Original_940806",
    "title": "Original_940806",
    "link_img": "https://live.staticflickr.com/65535/48092974907_d15a5ed1c5_o.jpg",
    "id_image": "Original_940806",
    "count_view": 0
  },
  {
    "link_thumb": "https://live.staticflickr.com/65535/48092925633_bccf8a3b51_n.jpg",
    "id_album": "119672248",
    "description": "Original_941131",
    "title": "Original_941131",
    "link_img": "https://live.staticflickr.com/65535/48092925633_a05357142f_o.jpg",
    "id_image": "Original_941131",
    "count_view": 0
  },
  {
    "link_thumb": "https://live.staticflickr.com/65535/48092887711_0414f8ff2e_n.jpg",
    "id_album": "119672248",
    "description": "Original_941194",
    "title": "Original_941194",
    "link_img": "https://live.staticflickr.com/65535/48092887711_fce6126c1c_o.jpg",
    "id_image": "Original_941194",
    "count_view": 0
  },
  {
    "link_thumb": "https://live.staticflickr.com/65535/48092930628_7c1e0bf2d5_n.jpg",
    "id_album": "119672248",
    "description": "Original_941288",
    "title": "Original_941288",
    "link_img": "https://live.staticflickr.com/65535/48092930628_a18699ee51_o.jpg",
    "id_image": "Original_941288",
    "count_view": 0
  },
  {
    "link_thumb": "https://live.staticflickr.com/65535/48092988212_d1471a0b52_n.jpg",
    "id_album": "119672248",
    "description": "Original_941318",
    "title": "Original_941318",
    "link_img": "https://live.staticflickr.com/65535/48092988212_0f0b54b697_o.jpg",
    "id_image": "Original_941318",
    "count_view": 0
  },
  {
    "link_thumb": "https://live.staticflickr.com/65535/48092989507_4954c3038f_n.jpg",
    "id_album": "119672248",
    "description": "Original_941380",
    "title": "Original_941380",
    "link_img": "https://live.staticflickr.com/65535/48092989507_fd94437bca_o.jpg",
    "id_image": "Original_941380",
    "count_view": 0
  },
  {
    "link_thumb": "https://live.staticflickr.com/65535/48092948363_f93022f7c9_n.jpg",
    "id_album": "119672248",
    "description": "Original_942031",
    "title": "Original_942031",
    "link_img": "https://live.staticflickr.com/65535/48092948363_1e18eff5e3_o.jpg",
    "id_image": "Original_942031",
    "count_view": 0
  },
  {
    "link_thumb": "https://live.staticflickr.com/65535/48092965488_4691a98cc3_n.jpg",
    "id_album": "119672248",
    "description": "Original_943607",
    "title": "Original_943607",
    "link_img": "https://live.staticflickr.com/65535/48092965488_b5df362eae_o.jpg",
    "id_image": "Original_943607",
    "count_view": 0
  },
  {
    "link_thumb": "https://live.staticflickr.com/65535/48092936176_379fa0e1be_n.jpg",
    "id_album": "119672248",
    "description": "Original_944922",
    "title": "Original_944922",
    "link_img": "https://live.staticflickr.com/65535/48092936176_50ca581792_o.jpg",
    "id_image": "Original_944922",
    "count_view": 0
  },
  {
    "link_thumb": "https://live.staticflickr.com/65535/48093035412_e893e9f915_n.jpg",
    "id_album": "119672248",
    "description": "Original_944923",
    "title": "Original_944923",
    "link_img": "https://live.staticflickr.com/65535/48093035412_c7acdda0b9_o.jpg",
    "id_image": "Original_944923",
    "count_view": 0
  },
  {
    "link_thumb": "https://live.staticflickr.com/65535/48092967571_1aab4d03bb_n.jpg",
    "id_album": "119672248",
    "description": "Original_946726",
    "title": "Original_946726",
    "link_img": "https://live.staticflickr.com/65535/48092967571_e4faf32dfd_o.jpg",
    "id_image": "Original_946726",
    "count_view": 0
  },
  {
    "link_thumb": "https://live.staticflickr.com/65535/48093013313_26989af731_n.jpg",
    "id_album": "119672248",
    "description": "Original_947020",
    "title": "Original_947020",
    "link_img": "https://live.staticflickr.com/65535/48093013313_5e361c6f35_o.jpg",
    "id_image": "Original_947020",
    "count_view": 0
  },
  {
    "link_thumb": "https://live.staticflickr.com/65535/48092975756_cbec49f761_n.jpg",
    "id_album": "119672248",
    "description": "Original_947204",
    "title": "Original_947204",
    "link_img": "https://live.staticflickr.com/65535/48092975756_d7f9f3c8b5_o.jpg",
    "id_image": "Original_947204",
    "count_view": 0
  },
  {
    "link_thumb": "https://live.staticflickr.com/65535/48093025983_3e5da62102_n.jpg",
    "id_album": "119672248",
    "description": "Original_947748",
    "title": "Original_947748",
    "link_img": "https://live.staticflickr.com/65535/48093025983_0facb35ef9_o.jpg",
    "id_image": "Original_947748",
    "count_view": 0
  },
  {
    "link_thumb": "https://live.staticflickr.com/65535/48093026958_b397fe5218_n.jpg",
    "id_album": "119672248",
    "description": "Original_948018",
    "title": "Original_948018",
    "link_img": "https://live.staticflickr.com/65535/48093026958_d9d320f32f_o.jpg",
    "id_image": "Original_948018",
    "count_view": 0
  },
  {
    "link_thumb": "https://live.staticflickr.com/65535/48093031123_544c4079eb_n.jpg",
    "id_album": "119672248",
    "description": "Original_948721",
    "title": "Original_948721",
    "link_img": "https://live.staticflickr.com/65535/48093031123_cf0b72f94c_o.jpg",
    "id_image": "Original_948721",
    "count_view": 0
  },
  {
    "link_thumb": "https://live.staticflickr.com/65535/48093031693_da6b7011bd_n.jpg",
    "id_album": "119672248",
    "description": "Original_948865",
    "title": "Original_948865",
    "link_img": "https://live.staticflickr.com/65535/48093031693_894525fae4_o.jpg",
    "id_image": "Original_948865",
    "count_view": 0
  },
  {
    "link_thumb": "https://live.staticflickr.com/65535/48093040988_7a875f7529_n.jpg",
    "id_album": "119672248",
    "description": "Original_949254",
    "title": "Original_949254",
    "link_img": "https://live.staticflickr.com/65535/48093040988_a7f99d5f43_o.jpg",
    "id_image": "Original_949254",
    "count_view": 0
  },
  {
    "link_thumb": "https://live.staticflickr.com/65535/48093003136_74cbaa248f_n.jpg",
    "id_album": "119672248",
    "description": "Original_949327",
    "title": "Original_949327",
    "link_img": "https://live.staticflickr.com/65535/48093003136_0ae1bdef7f_o.jpg",
    "id_image": "Original_949327",
    "count_view": 0
  },
  {
    "link_thumb": "https://live.staticflickr.com/65535/48093043623_b8d87c97ff_n.jpg",
    "id_album": "119672248",
    "description": "Original_949328",
    "title": "Original_949328",
    "link_img": "https://live.staticflickr.com/65535/48093043623_965141d34b_o.jpg",
    "id_image": "Original_949328",
    "count_view": 0
  },
  {
    "link_thumb": "https://live.staticflickr.com/65535/48093111067_bf25b051fe_n.jpg",
    "id_album": "119672248",
    "description": "Original_949662",
    "title": "Original_949662",
    "link_img": "https://live.staticflickr.com/65535/48093111067_0e0f8566f1_o.jpg",
    "id_image": "Original_949662",
    "count_view": 0
  },
  {
    "link_thumb": "https://live.staticflickr.com/65535/48093111862_44aea6346f_n.jpg",
    "id_album": "119672248",
    "description": "Original_949892",
    "title": "Original_949892",
    "link_img": "https://live.staticflickr.com/65535/48093111862_45495e632f_o.jpg",
    "id_image": "Original_949892",
    "count_view": 0
  },
  {
    "link_thumb": "https://live.staticflickr.com/65535/48093078548_f9a4581854_n.jpg",
    "id_album": "119672248",
    "description": "Original_951001",
    "title": "Original_951001",
    "link_img": "https://live.staticflickr.com/65535/48093078548_46693fa0a1_o.jpg",
    "id_image": "Original_951001",
    "count_view": 0
  },
  {
    "link_thumb": "https://live.staticflickr.com/65535/48093040716_8c332d8dab_n.jpg",
    "id_album": "119672248",
    "description": "Original_951013",
    "title": "Original_951013",
    "link_img": "https://live.staticflickr.com/65535/48093040716_cc30e90526_o.jpg",
    "id_image": "Original_951013",
    "count_view": 0
  },
  {
    "link_thumb": "https://live.staticflickr.com/65535/48093146492_3d82918dd5_n.jpg",
    "id_album": "119672248",
    "description": "Original_951237",
    "title": "Original_951237",
    "link_img": "https://live.staticflickr.com/65535/48093146492_eee7ed8936_o.jpg",
    "id_image": "Original_951237",
    "count_view": 0
  },
  {
    "link_thumb": "https://live.staticflickr.com/65535/48093047381_b9b66984f8_n.jpg",
    "id_album": "119672248",
    "description": "Original_951359",
    "title": "Original_951359",
    "link_img": "https://live.staticflickr.com/65535/48093047381_947a1150b4_o.jpg",
    "id_image": "Original_951359",
    "count_view": 0
  },
  {
    "link_thumb": "https://live.staticflickr.com/65535/48093148037_bf4b22ddfa_n.jpg",
    "id_album": "119672248",
    "description": "Original_951398",
    "title": "Original_951398",
    "link_img": "https://live.staticflickr.com/65535/48093148037_2e3f1fdf07_o.jpg",
    "id_image": "Original_951398",
    "count_view": 0
  },
  {
    "link_thumb": "https://live.staticflickr.com/65535/48093148307_dd2e3e06ff_n.jpg",
    "id_album": "119672248",
    "description": "Original_951407",
    "title": "Original_951407",
    "link_img": "https://live.staticflickr.com/65535/48093148307_60a61a34e9_o.jpg",
    "id_image": "Original_951407",
    "count_view": 0
  },
  {
    "link_thumb": "https://live.staticflickr.com/65535/48093148547_28f1d6302f_n.jpg",
    "id_album": "119672248",
    "description": "Original_951408",
    "title": "Original_951408",
    "link_img": "https://live.staticflickr.com/65535/48093148547_5cd8cfeb28_o.jpg",
    "id_image": "Original_951408",
    "count_view": 0
  },
  {
    "link_thumb": "https://live.staticflickr.com/65535/48093091283_30ea870569_n.jpg",
    "id_album": "119672248",
    "description": "Original_951425",
    "title": "Original_951425",
    "link_img": "https://live.staticflickr.com/65535/48093091283_227feb7f50_o.jpg",
    "id_image": "Original_951425",
    "count_view": 0
  },
  {
    "link_thumb": "https://live.staticflickr.com/65535/48093154887_e629d4e56b_n.jpg",
    "id_album": "119672248",
    "description": "Original_951459",
    "title": "Original_951459",
    "link_img": "https://live.staticflickr.com/65535/48093154887_cc5c5d8cea_o.jpg",
    "id_image": "Original_951459",
    "count_view": 0
  },
  {
    "link_thumb": "https://live.staticflickr.com/65535/48093160507_e121292703_n.jpg",
    "id_album": "119672248",
    "description": "Original_951584",
    "title": "Original_951584",
    "link_img": "https://live.staticflickr.com/65535/48093160507_10fde7665e_o.jpg",
    "id_image": "Original_951584",
    "count_view": 0
  },
  {
    "link_thumb": "https://live.staticflickr.com/65535/48093101988_9fd75583f0_n.jpg",
    "id_album": "119672248",
    "description": "Original_951585",
    "title": "Original_951585",
    "link_img": "https://live.staticflickr.com/65535/48093101988_14fcb45dab_o.jpg",
    "id_image": "Original_951585",
    "count_view": 0
  },
  {
    "link_thumb": "https://live.staticflickr.com/65535/48093163897_ff8231e0c6_n.jpg",
    "id_album": "119672248",
    "description": "Original_951599",
    "title": "Original_951599",
    "link_img": "https://live.staticflickr.com/65535/48093163897_272d40d7d7_o.jpg",
    "id_image": "Original_951599",
    "count_view": 0
  },
  {
    "link_thumb": "https://live.staticflickr.com/65535/48093123693_a1f6dd49b1_n.jpg",
    "id_album": "119672248",
    "description": "Original_953009",
    "title": "Original_953009",
    "link_img": "https://live.staticflickr.com/65535/48093123693_56c7a47ba6_o.jpg",
    "id_image": "Original_953009",
    "count_view": 0
  },
  {
    "link_thumb": "https://live.staticflickr.com/65535/48093086401_2d1039784d_n.jpg",
    "id_album": "119672248",
    "description": "Original_953776",
    "title": "Original_953776",
    "link_img": "https://live.staticflickr.com/65535/48093086401_a226518ba7_o.jpg",
    "id_image": "Original_953776",
    "count_view": 0
  },
  {
    "link_thumb": "https://live.staticflickr.com/65535/48093087316_edbd897d97_n.jpg",
    "id_album": "119672248",
    "description": "Original_953787",
    "title": "Original_953787",
    "link_img": "https://live.staticflickr.com/65535/48093087316_248cc80647_o.jpg",
    "id_image": "Original_953787",
    "count_view": 0
  },
  {
    "link_thumb": "https://live.staticflickr.com/65535/48093091221_762724245d_n.jpg",
    "id_album": "119672248",
    "description": "Original_953985",
    "title": "Original_953985",
    "link_img": "https://live.staticflickr.com/65535/48093091221_cc5922576a_o.jpg",
    "id_image": "Original_953985",
    "count_view": 0
  },
  {
    "link_thumb": "https://live.staticflickr.com/65535/48093132333_9ea0f2eeeb_n.jpg",
    "id_album": "119672248",
    "description": "Original_954020",
    "title": "Original_954020",
    "link_img": "https://live.staticflickr.com/65535/48093132333_28bfcc73f8_o.jpg",
    "id_image": "Original_954020",
    "count_view": 0
  },
  {
    "link_thumb": "https://live.staticflickr.com/65535/48093157383_4162d1755d_n.jpg",
    "id_album": "119672248",
    "description": "Original_955214",
    "title": "Original_955214",
    "link_img": "https://live.staticflickr.com/65535/48093157383_4a170e5a2d_o.jpg",
    "id_image": "Original_955214",
    "count_view": 0
  },
  {
    "link_thumb": "https://live.staticflickr.com/65535/48093218922_d590825dea_n.jpg",
    "id_album": "119672248",
    "description": "Original_955228",
    "title": "Original_955228",
    "link_img": "https://live.staticflickr.com/65535/48093218922_3c3dcbea16_o.jpg",
    "id_image": "Original_955228",
    "count_view": 0
  },
  {
    "link_thumb": "https://live.staticflickr.com/65535/48093119056_d122655f03_n.jpg",
    "id_album": "119672248",
    "description": "Original_955237",
    "title": "Original_955237",
    "link_img": "https://live.staticflickr.com/65535/48093119056_ee320f6a59_o.jpg",
    "id_image": "Original_955237",
    "count_view": 0
  },
  {
    "link_thumb": "https://live.staticflickr.com/65535/48093240527_66db441781_n.jpg",
    "id_album": "119672248",
    "description": "Original_955919",
    "title": "Original_955919",
    "link_img": "https://live.staticflickr.com/65535/48093240527_79efd8e1a0_o.jpg",
    "id_image": "Original_955919",
    "count_view": 0
  },
  {
    "link_thumb": "https://live.staticflickr.com/65535/48093240917_9868ab520f_n.jpg",
    "id_album": "119672248",
    "description": "Original_956019",
    "title": "Original_956019",
    "link_img": "https://live.staticflickr.com/65535/48093240917_89132828da_o.jpg",
    "id_image": "Original_956019",
    "count_view": 0
  },
  {
    "link_thumb": "https://live.staticflickr.com/65535/48093248247_0db5ae2026_n.jpg",
    "id_album": "119672248",
    "description": "Original_956358",
    "title": "Original_956358",
    "link_img": "https://live.staticflickr.com/65535/48093248247_4ab8d67b7b_o.jpg",
    "id_image": "Original_956358",
    "count_view": 0
  },
  {
    "link_thumb": "https://live.staticflickr.com/65535/48093190888_29df494ba5_n.jpg",
    "id_album": "119672248",
    "description": "Original_956504",
    "title": "Original_956504",
    "link_img": "https://live.staticflickr.com/65535/48093190888_8cb80c9b4a_o.jpg",
    "id_image": "Original_956504",
    "count_view": 0
  },
  {
    "link_thumb": "https://live.staticflickr.com/65535/48093254252_1424dbdd06_n.jpg",
    "id_album": "119672248",
    "description": "Original_956512",
    "title": "Original_956512",
    "link_img": "https://live.staticflickr.com/65535/48093254252_64beab3bc4_o.jpg",
    "id_image": "Original_956512",
    "count_view": 0
  },
  {
    "link_thumb": "https://live.staticflickr.com/65535/48093193833_462833e5ff_n.jpg",
    "id_album": "119672248",
    "description": "Original_956569",
    "title": "Original_956569",
    "link_img": "https://live.staticflickr.com/65535/48093193833_15e1fd18f1_o.jpg",
    "id_image": "Original_956569",
    "count_view": 0
  },
  {
    "link_thumb": "https://live.staticflickr.com/65535/48093262707_6c052c222c_n.jpg",
    "id_album": "119672248",
    "description": "Original_957041",
    "title": "Original_957041",
    "link_img": "https://live.staticflickr.com/65535/48093262707_27a577703b_o.jpg",
    "id_image": "Original_957041",
    "count_view": 0
  },
  {
    "link_thumb": "https://live.staticflickr.com/65535/48093203853_10a59babbb_n.jpg",
    "id_album": "119672248",
    "description": "Original_957742",
    "title": "Original_957742",
    "link_img": "https://live.staticflickr.com/65535/48093203853_5d5257eb42_o.jpg",
    "id_image": "Original_957742",
    "count_view": 0
  },
  {
    "link_thumb": "https://live.staticflickr.com/65535/48094989857_ba94c54328_n.jpg",
    "id_album": "119672248",
    "description": "Original_958725",
    "title": "Original_958725",
    "link_img": "https://live.staticflickr.com/65535/48094989857_3e417427f3_o.jpg",
    "id_image": "Original_958725",
    "count_view": 0
  },
  {
    "link_thumb": "https://live.staticflickr.com/65535/48094993232_938a5dc4d4_n.jpg",
    "id_album": "119672248",
    "description": "Original_959229",
    "title": "Original_959229",
    "link_img": "https://live.staticflickr.com/65535/48094993232_5afd7423ed_o.jpg",
    "id_image": "Original_959229",
    "count_view": 0
  },
  {
    "link_thumb": "https://live.staticflickr.com/65535/48094890621_7de28eddb0_n.jpg",
    "id_album": "119672248",
    "description": "Original_959458",
    "title": "Original_959458",
    "link_img": "https://live.staticflickr.com/65535/48094890621_b4072243e7_o.jpg",
    "id_image": "Original_959458",
    "count_view": 0
  },
  {
    "link_thumb": "https://live.staticflickr.com/65535/48094960758_ccf6bd56e0_n.jpg",
    "id_album": "119672248",
    "description": "Original_963776",
    "title": "Original_963776",
    "link_img": "https://live.staticflickr.com/65535/48094960758_4f356c3c44_o.jpg",
    "id_image": "Original_963776",
    "count_view": 0
  },
  {
    "link_thumb": "https://live.staticflickr.com/65535/48095018597_a7a414053b_n.jpg",
    "id_album": "119672248",
    "description": "Original_963798",
    "title": "Original_963798",
    "link_img": "https://live.staticflickr.com/65535/48095018597_14ab1ed9c8_o.jpg",
    "id_image": "Original_963798",
    "count_view": 0
  },
  {
    "link_thumb": "https://live.staticflickr.com/65535/48094966523_98fc30390f_n.jpg",
    "id_album": "119672248",
    "description": "Original_964128",
    "title": "Original_964128",
    "link_img": "https://live.staticflickr.com/65535/48094966523_6891957d52_o.jpg",
    "id_image": "Original_964128",
    "count_view": 0
  },
  {
    "link_thumb": "https://live.staticflickr.com/65535/48094969918_6a1dccf6ee_n.jpg",
    "id_album": "119672248",
    "description": "Original_965943",
    "title": "Original_965943",
    "link_img": "https://live.staticflickr.com/65535/48094969918_1a42bc0d52_o.jpg",
    "id_image": "Original_965943",
    "count_view": 0
  },
  {
    "link_thumb": "https://live.staticflickr.com/65535/48094976838_6d0efcd3f7_n.jpg",
    "id_album": "119672248",
    "description": "Original_967597",
    "title": "Original_967597",
    "link_img": "https://live.staticflickr.com/65535/48094976838_a300facc35_o.jpg",
    "id_image": "Original_967597",
    "count_view": 0
  },
  {
    "link_thumb": "https://live.staticflickr.com/65535/48095066512_286de9c833_n.jpg",
    "id_album": "119672248",
    "description": "Original_970257",
    "title": "Original_970257",
    "link_img": "https://live.staticflickr.com/65535/48095066512_23567a6b99_o.jpg",
    "id_image": "Original_970257",
    "count_view": 0
  },
  {
    "link_thumb": "https://live.staticflickr.com/65535/48094969991_a9c964e2c4_n.jpg",
    "id_album": "119672248",
    "description": "Original_971530",
    "title": "Original_971530",
    "link_img": "https://live.staticflickr.com/65535/48094969991_faee5eec09_o.jpg",
    "id_image": "Original_971530",
    "count_view": 0
  },
  {
    "link_thumb": "https://live.staticflickr.com/65535/48094977086_b87624c5ab_n.jpg",
    "id_album": "119672248",
    "description": "Original_973416",
    "title": "Original_973416",
    "link_img": "https://live.staticflickr.com/65535/48094977086_7b1036d495_o.jpg",
    "id_image": "Original_973416",
    "count_view": 0
  },
  {
    "link_thumb": "https://live.staticflickr.com/65535/48094983921_bfb6c70c81_n.jpg",
    "id_album": "119672248",
    "description": "Original_974063",
    "title": "Original_974063",
    "link_img": "https://live.staticflickr.com/65535/48094983921_a32928d71e_o.jpg",
    "id_image": "Original_974063",
    "count_view": 0
  },
  {
    "link_thumb": "https://live.staticflickr.com/65535/48095032678_271d699a6b_n.jpg",
    "id_album": "119672248",
    "description": "Original_974515",
    "title": "Original_974515",
    "link_img": "https://live.staticflickr.com/65535/48095032678_de8cd8d83d_o.jpg",
    "id_image": "Original_974515",
    "count_view": 0
  },
  {
    "link_thumb": "https://live.staticflickr.com/65535/48095096667_344c3c5667_n.jpg",
    "id_album": "119672248",
    "description": "Original_977011",
    "title": "Original_977011",
    "link_img": "https://live.staticflickr.com/65535/48095096667_544e29d6c4_o.jpg",
    "id_image": "Original_977011",
    "count_view": 0
  },
  {
    "link_thumb": "https://live.staticflickr.com/65535/48095098002_9de711e7a0_n.jpg",
    "id_album": "119672248",
    "description": "Original_977228",
    "title": "Original_977228",
    "link_img": "https://live.staticflickr.com/65535/48095098002_c62e856c99_o.jpg",
    "id_image": "Original_977228",
    "count_view": 0
  },
  {
    "link_thumb": "https://live.staticflickr.com/65535/48052286951_13b88a0504_n.jpg",
    "id_album": "119672248",
    "description": "PixivFantasiaT_673381",
    "title": "PixivFantasiaT_673381",
    "link_img": "https://live.staticflickr.com/65535/48052286951_77ccc35bfe_o.jpg",
    "id_image": "PixivFantasiaT_673381",
    "count_view": 0
  },
  {
    "link_thumb": "https://live.staticflickr.com/65535/48054694598_d9759bf4dd_n.jpg",
    "id_album": "119672248",
    "description": "SaekanoHowtoRaiseaBoringGirlfriend_578572",
    "title": "SaekanoHowtoRaiseaBoringGirlfriend_578572",
    "link_img": "https://live.staticflickr.com/65535/48054694598_ed40d2e753_o.jpg",
    "id_image": "SaekanoHowtoRaiseaBoringGirlfriend_578572",
    "count_view": 0
  },
  {
    "link_thumb": "https://live.staticflickr.com/65535/48054696158_84a189cf1f_n.jpg",
    "id_album": "119672248",
    "description": "SaekanoHowtoRaiseaBoringGirlfriend_679006",
    "title": "SaekanoHowtoRaiseaBoringGirlfriend_679006",
    "link_img": "https://live.staticflickr.com/65535/48054696158_3e354672ee_o.jpg",
    "id_image": "SaekanoHowtoRaiseaBoringGirlfriend_679006",
    "count_view": 0
  },
  {
    "link_thumb": "https://live.staticflickr.com/65535/48054652026_bab154fbd8_n.jpg",
    "id_album": "119672248",
    "description": "SaekanoHowtoRaiseaBoringGirlfriend_679015",
    "title": "SaekanoHowtoRaiseaBoringGirlfriend_679015",
    "link_img": "https://live.staticflickr.com/65535/48054652026_185d91232d_o.jpg",
    "id_image": "SaekanoHowtoRaiseaBoringGirlfriend_679015",
    "count_view": 0
  }
]