[
  {
    "total_img": 237,
    "number_page": 2,
    "title": "Puella Magi Madoka Magica",
    "tag": "Water, Ultimate Madoka, Bili Girl 33, Moon, Wink, Black Hair, Staff, High Heels, Crying, Thanksgiving, Weapon, Blood, Glitter, Sword, Ribbon, Pistol, Hanasaki Tsubomi, Yuma Chitose, Horns, Veil, Cup, Earrings, Gun, Purple Eyes, Glove, Satori Komeiji, Scarf, Black Dress, Smile, Red Hair, Card, Skirt, Oktavia von Seckendorff, Blush, Pantyhose, Orange Hair, Sailor Chibi Moon, Genderbend, White Dress, Fallout, Wings, Jojos Bizarre Adventure, Yuri, Feather, Hikaru Usada, Charlotte Puella Magi Madoka Magica, Food, Bili Girl 22, Brown Hair, Kyoko Sakura, Kyuubey Puella Magi Madoka Magica, Headband, Couch, Pink Hair, Pretty Cure, Chibi Usa, Patricia Madoka Magica, Blue Eyes, Nagisa Momoe, Thigh Boots, Abbey Road Parody, Boots, Mami Tomoe, Halloween, Spear, Green Eyes, Kyosuke Kamijo, Night, Gertrud Madoka Magica, Ren Isuzu, Puella Magi Madoka Magica, Snowfall, Madoka Kaname, Long Hair, Thigh Highs, Homura Akuma, Bubble, Anime, Winter, Shirahoshi One Piece, Snowflake, Homura Akemi, Headdress, Isuzu Sento, Sayaka Miki, Purple Hair, Samurai, Momoko Togame, Bow, Yellow Eyes, Red Eyes, Pink, Fantasy, Ponytail, Infinite Pretty Cure, American Flag, Puella Magi, Junko Kaname, Orange Eyes, Cross, Sitting, Di Gi Charat, Blonde, Twintails, Handgun, Armor, bow Clothing, Tamaki Iroha, Short Hair, Necklace, Flower, Dress, Brown Eyes, Marshtomp Pokemon, Magic, Red Dress, Elly Madoka Magica, Heartcatch Precure, Pink Eyes, School Uniform, Cape, Izumi Bell, Bride, Blue Hair, Mami Futami, Elsa Maria Madoka Magica, Lying Down, Petal",
    "description": "Puella Magi Madoka Magica",
    "link_thumb": "https://live.staticflickr.com/65535/48052690627_83aa089690_n.jpg",
    "id_album": "32211737",
    "total_view": 237
  },
  {
    "total_img": 153,
    "number_page": 1,
    "title": "Homura Akemi",
    "tag": "Homura Akemi,",
    "description": "Homura Akemi",
    "link_thumb": "https://live.staticflickr.com/65535/48052907848_0681e60d49_n.jpg",
    "id_album": "-1669126850",
    "total_view": 153
  },
  {
    "total_img": 152,
    "number_page": 1,
    "title": "Madoka Kaname",
    "tag": "Madoka Kaname,",
    "description": "Madoka Kaname",
    "link_thumb": "https://live.staticflickr.com/65535/48052951937_3c3b14f0e2_n.jpg",
    "id_album": "-1225576150",
    "total_view": 152
  }
]