[
  {
    "link_thumb": "https://live.staticflickr.com/65535/48053195076_2d07f3492a_n.jpg",
    "id_album": "-1673520395",
    "description": "ReZEROStartingLifeinAnotherWorld_734137",
    "title": "ReZEROStartingLifeinAnotherWorld_734137",
    "link_img": "https://live.staticflickr.com/65535/48053195076_a14901bd60_o.jpg",
    "id_image": "ReZEROStartingLifeinAnotherWorld_734137",
    "count_view": 0
  },
  {
    "link_thumb": "https://live.staticflickr.com/65535/48053228876_2ef6564a46_n.jpg",
    "id_album": "-1673520395",
    "description": "ReZEROStartingLifeinAnotherWorld_739397",
    "title": "ReZEROStartingLifeinAnotherWorld_739397",
    "link_img": "https://live.staticflickr.com/65535/48053228876_a086d59f48_o.jpg",
    "id_image": "ReZEROStartingLifeinAnotherWorld_739397",
    "count_view": 0
  },
  {
    "link_thumb": "https://live.staticflickr.com/65535/48053445307_02eb3c3c3c_n.jpg",
    "id_album": "-1673520395",
    "description": "ReZEROStartingLifeinAnotherWorld_811311",
    "title": "ReZEROStartingLifeinAnotherWorld_811311",
    "link_img": "https://live.staticflickr.com/65535/48053445307_474881b89e_o.jpg",
    "id_image": "ReZEROStartingLifeinAnotherWorld_811311",
    "count_view": 0
  },
  {
    "link_thumb": "https://live.staticflickr.com/65535/48053391881_0449d9beb8_n.jpg",
    "id_album": "-1673520395",
    "description": "ReZEROStartingLifeinAnotherWorld_890789",
    "title": "ReZEROStartingLifeinAnotherWorld_890789",
    "link_img": "https://live.staticflickr.com/65535/48053391881_50bb37d149_o.jpg",
    "id_image": "ReZEROStartingLifeinAnotherWorld_890789",
    "count_view": 0
  }
]