[
  {
    "total_img": 41,
    "number_page": 1,
    "title": "Avatar The Last Airbender",
    "tag": "Water, Night, Yin  Yang, Moon, Ty Lee Avatar, Black Hair, Iroh Avatar, Glow, Weapon, Long Hair, Cigarette, Kuruk Avatar, Anime, Sword, White Eyes, Horns, Hood, Space, The Last Airbender, Mask, Zuko Avatar, Tui Avatar, Smile, Yellow Eyes, Suki Avatar, Flying, Pabu Avatar, Love, Animal, Bold, Eye Patch, Ponytail, Smoking, Chain, Aang Avatar, Korra The Legend Of Korra, Symbol, Sitting, Sokka Avatar, Appa Avatar, Kyoshi Avatar, Roku Avatar, Earth, Barefoot, Katara Avatar, Fish, Hug, Food, Necklace, Fur, Blue, Brown Hair, La Avatar, Headband, Toph Beifong, Tea, Blue Eyes, Yangchen Avatar, Glowing Eyes, Grey Hair, Lightning, Ferret, Grey Eyes, Fire, Avatar The Last Airbender, Mai Avatar",
    "description": "Avatar The Last Airbender",
    "link_thumb": "https://live.staticflickr.com/65535/47842734362_d99880909f_n.jpg",
    "id_album": "1121075891",
    "total_view": 41
  },
  {
    "total_img": 959,
    "number_page": 5,
    "title": "Blue Eyes",
    "tag": "Blue Eyes,",
    "description": "Blue Eyes",
    "link_thumb": "https://live.staticflickr.com/65535/48609891276_d6beb9cf73_n.jpg",
    "id_album": "737375568",
    "total_view": 959
  },
  {
    "total_img": 718,
    "number_page": 4,
    "title": "Brown Hair",
    "tag": "Brown Hair,",
    "description": "Brown Hair",
    "link_thumb": "https://live.staticflickr.com/65535/48609891276_d6beb9cf73_n.jpg",
    "id_album": "119672248",
    "total_view": 718
  },
  {
    "total_img": 54,
    "number_page": 1,
    "title": "Grey Eyes",
    "tag": "Grey Eyes,",
    "description": "Grey Eyes",
    "link_thumb": "https://live.staticflickr.com/65535/48064632937_1cac3d9045_n.jpg",
    "id_album": "503312284",
    "total_view": 54
  },
  {
    "total_img": 14,
    "number_page": 1,
    "title": "Korra The Legend Of Korra",
    "tag": "Korra The Legend Of Korra,",
    "description": "Korra The Legend Of Korra",
    "link_thumb": "https://live.staticflickr.com/65535/47960674132_aa22ffe15d_n.jpg",
    "id_album": "1781183597",
    "total_view": 14
  },
  {
    "total_img": 95,
    "number_page": 1,
    "title": "Ponytail",
    "tag": "Ponytail,",
    "description": "Ponytail",
    "link_thumb": "https://live.staticflickr.com/65535/48066346537_249cf52230_n.jpg",
    "id_album": "-1791757177",
    "total_view": 95
  }
]