[
  {
    "total_img": 42,
    "number_page": 1,
    "title": "Granblue Fantasy",
    "tag": "Sky, Creature, Black Hair, Weapon, Makira Granblue Fantasy, Long Hair, Ouroboros Granblue Fantasy, Thigh Highs, Anime, Bandage, Sword, White Hair, Mirin Granblue Fantasy, Horns, Heterochromia, Braid, Europa Granblue Fantasy, Glove, Purple Eyes, Scarf, Chibi, Smile, Yuisis Granblue Fantasy, Catherine Granblue Fantasy, Yellow Eyes, Red Hair, Red Eyes, Skirt, Heles Granblue Fantasy, Blush, Mage, Fantasy, Dark Angel Olivia, Ponytail, Gita Granblue Fantasy, Farrah Granblue Fantasy, The Order Grande Granblue Fantasy, Floating Island, Vira Granblue Fantasy, Narumeia Granblue Fantasy, Fork, Orange Hair, Butterfly, Allie Granblue Fantasy, Cagliostro Granblue Fantasy, Kukuru Granblue Fantasy, Anne Granblue Fantasy, Vila Granblue Fantasy, Granblue Fantasy, Jeanne Darc Granblue Fantasy, Doll, White Dress, Blonde, Barefoot, Wings, Noah Granblue Fantasy, bow Clothing, Tail, Vampy Granblue Fantasy, Short Hair, Forte Granblue Fantasy, Mahira Granblue Fantasy, Beatrix Granblue Fantasy, Io Euclase, Lyria Granblue Fantasy, Food, Video Game, Warrior, Djeeta Granblue Fantasy, Dress, Brown Eyes, Percival Granblue Fantasy, Ferry Granblue Fantasy, Sara Granblue Fantasy, Sandalphon Granblue Fantasy, Mary Granblue Fantasy, Blue Dress, Headband, Pink Eyes, Pink Hair, Danua Granblue Fantasy, Yggdrasil Granblue Fantasy, Candle, Blue Eyes, Vee Granblue Fantasy, Pointed Ears, Charlotta Granblue Fantasy, Cloud, Grea Granblue Fantasy, Clarisse Granblue Fantasy, Ship, Nio Granblue Fantasy, Animal Ears, Halloween, Petal, Lancelot Granblue Fantasy",
    "description": "Granblue Fantasy",
    "link_thumb": "https://live.staticflickr.com/65535/47992703977_fcb5493f81_n.jpg",
    "id_album": "460956988",
    "total_view": 42
  }
]