[
  {
    "total_img": 9,
    "number_page": 1,
    "title": "Demonbane",
    "tag": "Demonbane, Moon, Al Azif",
    "description": "Demonbane",
    "link_thumb": "https://live.staticflickr.com/65535/47967227143_bae7822cfd_n.jpg",
    "id_album": "-943957658",
    "total_view": 9
  },
  {
    "total_img": 91,
    "number_page": 1,
    "title": "Moon",
    "tag": "Moon,",
    "description": "Moon",
    "link_thumb": "https://live.staticflickr.com/65535/48066198253_a9fb566223_n.jpg",
    "id_album": "416351698",
    "total_view": 91
  }
]