[
  {
    "total_img": 59,
    "number_page": 1,
    "title": "Tokyo Ghoulre",
    "tag": "Green Hair, Moon, Black Hair, Yoshimura Tokyo Ghoul, Uta Tokyo Ghoul, Renji Yomo, Lipstick, Blood, Weapon, Hinami Fueguchi, Juuzou Suzuya, Yukuta, Sword, Hanbee Abara, White Hair, Book, Kuki Urie, Child, Koori Ui, Earrings, Purple Eyes, Glove, Scarf, Mask, Ichika Kaneki, Smile, Rize Kamishiro, Blush, Kakuja Tokyo Ghoul, Chain, Nishiki Nishio, Gishi Shirazu Kuki Urie, Party, Saiko Yonebayashi, Feather, Tokyo Ghoul A, Brown Hair, Tie, Blue Eyes, Shu Tsukiyama, Tokyo Ghoulre, Grey Eyes, Halloween, Kiss, Black Eyes, Pink Dress, Night, Kishou Arima, Eto Yoshimura, Minimalist, Uniform, Kanae von Rosewald, Tooru Mutsuki, Long Hair, Miyuki Mikage, Rain, Anime, Kimono, White Eyes, Heterochromia, Tatara Tokyo Ghoul, Coat, Purple Hair, Ken Kaneki, Teeth, Yellow Eyes, Boy, Red Eyes, Kurona Yasuhisa, Sad, Glasses, Eye Patch, Purple Dress, Sitting, Kaya Irimi, Shadow, Blonde, Keijin Nakarai, Armor, Koutarou Amon, Hideki Nishimura, Short Hair, Hug, TwoToned Hair, Akira Mado, Ginshi Shirazu, Eating, Touka Kirishima, Flower, Dress, Pink Eyes, Mizurou Tamaki, Enji Koma, Seidou Takizawa, Haise Sasaki, Sunset, White, Blue Hair, Grey Hair, Cloud, Take Hirako, Tears, Kagune Tokyo Ghoul, Kichimura Washuu",
    "description": "Tokyo Ghoulre",
    "link_thumb": "https://live.staticflickr.com/65535/48060489226_a8df80ecda_n.jpg",
    "id_album": "-1692752837",
    "total_view": 59
  },
  {
    "total_img": 28,
    "number_page": 1,
    "title": "Haise Sasaki",
    "tag": "Haise Sasaki,",
    "description": "Haise Sasaki",
    "link_thumb": "https://live.staticflickr.com/65535/48060496748_fc11d3821c_n.jpg",
    "id_album": "-1522108284",
    "total_view": 28
  },
  {
    "total_img": 252,
    "number_page": 2,
    "title": "Ken Kaneki",
    "tag": "Ken Kaneki,",
    "description": "Ken Kaneki",
    "link_thumb": "https://live.staticflickr.com/65535/48060583297_f854d56289_n.jpg",
    "id_album": "-978018542",
    "total_view": 252
  },
  {
    "total_img": 6,
    "number_page": 1,
    "title": "Kuki Urie",
    "tag": "Kuki Urie,",
    "description": "Kuki Urie",
    "link_thumb": "https://live.staticflickr.com/65535/48060450343_ee39edf2c2_n.jpg",
    "id_album": "1150405093",
    "total_view": 6
  },
  {
    "total_img": 6,
    "number_page": 1,
    "title": "Saiko Yonebayashi",
    "tag": "Saiko Yonebayashi,",
    "description": "Saiko Yonebayashi",
    "link_thumb": "https://live.staticflickr.com/65535/48060577708_af3ac7f552_n.jpg",
    "id_album": "1896896953",
    "total_view": 6
  },
  {
    "total_img": 7,
    "number_page": 1,
    "title": "Tooru Mutsuki",
    "tag": "Tooru Mutsuki,",
    "description": "Tooru Mutsuki",
    "link_thumb": "https://live.staticflickr.com/65535/48060501462_ea19e0a872_n.jpg",
    "id_album": "1095940083",
    "total_view": 7
  }
]