[
  {
    "link_thumb": "https://live.staticflickr.com/65535/47972349238_69d535e2c9_n.jpg",
    "id_album": "-509135759",
    "description": "EroMangaSensei_820987",
    "title": "EroMangaSensei_820987",
    "link_img": "https://live.staticflickr.com/65535/47972349238_979785a379_o.jpg",
    "id_image": "EroMangaSensei_820987",
    "count_view": 0
  },
  {
    "link_thumb": "https://live.staticflickr.com/65535/47972401916_570d9dc3fe_n.jpg",
    "id_album": "-509135759",
    "description": "EroMangaSensei_821000",
    "title": "EroMangaSensei_821000",
    "link_img": "https://live.staticflickr.com/65535/47972401916_f8cd460fee_o.jpg",
    "id_image": "EroMangaSensei_821000",
    "count_view": 0
  },
  {
    "link_thumb": "https://live.staticflickr.com/65535/47972362948_731333ba0e_n.jpg",
    "id_album": "-509135759",
    "description": "EroMangaSensei_821027",
    "title": "EroMangaSensei_821027",
    "link_img": "https://live.staticflickr.com/65535/47972362948_35988a638c_o.jpg",
    "id_image": "EroMangaSensei_821027",
    "count_view": 0
  },
  {
    "link_thumb": "https://live.staticflickr.com/65535/47972361962_5246bd67ee_n.jpg",
    "id_album": "-509135759",
    "description": "EroMangaSensei_823299",
    "title": "EroMangaSensei_823299",
    "link_img": "https://live.staticflickr.com/65535/47972361962_d4bf9e2043_o.jpg",
    "id_image": "EroMangaSensei_823299",
    "count_view": 0
  },
  {
    "link_thumb": "https://live.staticflickr.com/65535/47972577522_27aeb84960_n.jpg",
    "id_album": "-509135759",
    "description": "EroMangaSensei_836070",
    "title": "EroMangaSensei_836070",
    "link_img": "https://live.staticflickr.com/65535/47972577522_533d02c52d_o.jpg",
    "id_image": "EroMangaSensei_836070",
    "count_view": 0
  },
  {
    "link_thumb": "https://live.staticflickr.com/65535/47972593037_65ed676682_n.jpg",
    "id_album": "-509135759",
    "description": "EroMangaSensei_836125",
    "title": "EroMangaSensei_836125",
    "link_img": "https://live.staticflickr.com/65535/47972593037_13bdf28b13_o.jpg",
    "id_image": "EroMangaSensei_836125",
    "count_view": 0
  },
  {
    "link_thumb": "https://live.staticflickr.com/65535/47972696186_9332964cc6_n.jpg",
    "id_album": "-509135759",
    "description": "EroMangaSensei_882919",
    "title": "EroMangaSensei_882919",
    "link_img": "https://live.staticflickr.com/65535/47972696186_bc23b1cb18_o.jpg",
    "id_image": "EroMangaSensei_882919",
    "count_view": 0
  },
  {
    "link_thumb": "https://live.staticflickr.com/65535/47972678172_d336518cbc_n.jpg",
    "id_album": "-509135759",
    "description": "EroMangaSensei_891980",
    "title": "EroMangaSensei_891980",
    "link_img": "https://live.staticflickr.com/65535/47972678172_abb24f44a8_o.jpg",
    "id_image": "EroMangaSensei_891980",
    "count_view": 0
  }
]