[
  {
    "link_thumb": "https://live.staticflickr.com/65535/48047285608_21004629ed_n.jpg",
    "id_album": "-386302946",
    "description": "KantaiCollection_748482",
    "title": "KantaiCollection_748482",
    "link_img": "https://live.staticflickr.com/65535/48047285608_a4656d7bca_o.jpg",
    "id_image": "KantaiCollection_748482",
    "count_view": 0
  },
  {
    "link_thumb": "https://live.staticflickr.com/65535/48047371606_2c6ce125c9_n.jpg",
    "id_album": "-386302946",
    "description": "KantaiCollection_785911",
    "title": "KantaiCollection_785911",
    "link_img": "https://live.staticflickr.com/65535/48047371606_1d80bc15fd_o.jpg",
    "id_image": "KantaiCollection_785911",
    "count_view": 0
  },
  {
    "link_thumb": "https://live.staticflickr.com/65535/48047461242_ef2a28d993_n.jpg",
    "id_album": "-386302946",
    "description": "KantaiCollection_787161",
    "title": "KantaiCollection_787161",
    "link_img": "https://live.staticflickr.com/65535/48047461242_2e9af82906_o.jpg",
    "id_image": "KantaiCollection_787161",
    "count_view": 0
  },
  {
    "link_thumb": "https://live.staticflickr.com/65535/48047565563_3683591f9c_n.jpg",
    "id_album": "-386302946",
    "description": "KantaiCollection_858355",
    "title": "KantaiCollection_858355",
    "link_img": "https://live.staticflickr.com/65535/48047565563_2d75c50780_o.jpg",
    "id_image": "KantaiCollection_858355",
    "count_view": 0
  },
  {
    "link_thumb": "https://live.staticflickr.com/65535/48047532871_d9d3dc22f8_n.jpg",
    "id_album": "-386302946",
    "description": "KantaiCollection_860844",
    "title": "KantaiCollection_860844",
    "link_img": "https://live.staticflickr.com/65535/48047532871_ed0929809c_o.jpg",
    "id_image": "KantaiCollection_860844",
    "count_view": 0
  },
  {
    "link_thumb": "https://live.staticflickr.com/65535/48047564171_826a5c6e5e_n.jpg",
    "id_album": "-386302946",
    "description": "KantaiCollection_874609",
    "title": "KantaiCollection_874609",
    "link_img": "https://live.staticflickr.com/65535/48047564171_20d1fff0de_o.jpg",
    "id_image": "KantaiCollection_874609",
    "count_view": 0
  },
  {
    "link_thumb": "https://live.staticflickr.com/65535/48047702547_ba79ce4964_n.jpg",
    "id_album": "-386302946",
    "description": "KantaiCollection_917402",
    "title": "KantaiCollection_917402",
    "link_img": "https://live.staticflickr.com/65535/48047702547_d9fc0beefd_o.jpg",
    "id_image": "KantaiCollection_917402",
    "count_view": 0
  }
]