[
  {
    "total_img": 12,
    "number_page": 1,
    "title": "Fukumenkei Noise",
    "tag": "Yoshito Haruno, Momo Sakaki, Fukumenkei Noise, Nino Arisugawa, Ayumi Kurose, Miou Suguri, Kanade Yuzuriha",
    "description": "Fukumenkei Noise",
    "link_thumb": "https://live.staticflickr.com/65535/47983202013_761d50114f_n.jpg",
    "id_album": "-1053936619",
    "total_view": 12
  },
  {
    "total_img": 5,
    "number_page": 1,
    "title": "Kanade Yuzuriha",
    "tag": "Kanade Yuzuriha,",
    "description": "Kanade Yuzuriha",
    "link_thumb": "https://live.staticflickr.com/65535/47983258921_c97bd8ea7c_n.jpg",
    "id_album": "-1251972058",
    "total_view": 5
  },
  {
    "total_img": 3,
    "number_page": 1,
    "title": "Momo Sakaki",
    "tag": "Momo Sakaki,",
    "description": "Momo Sakaki",
    "link_thumb": "https://live.staticflickr.com/65535/47983258921_c97bd8ea7c_n.jpg",
    "id_album": "502170255",
    "total_view": 3
  },
  {
    "total_img": 7,
    "number_page": 1,
    "title": "Nino Arisugawa",
    "tag": "Nino Arisugawa,",
    "description": "Nino Arisugawa",
    "link_thumb": "https://live.staticflickr.com/65535/47983260281_ee23198959_n.jpg",
    "id_album": "-1697009172",
    "total_view": 7
  }
]