[
  {
    "total_img": 28,
    "number_page": 1,
    "title": "Kuzu no Honkai",
    "tag": "Flower, Kuzu no honkai, Hanabi Yasuraoka, Kuzu no Honkai, Narumi Kanai, Akane Minagawa, Blue Eyes, Noriko Kamomebata, Blue Hair, Mugi Awaya, Atsuya Kirishima, Short Hair, Face, Sanae Ebato, Petal",
    "description": "Kuzu no Honkai",
    "link_thumb": "https://live.staticflickr.com/65535/48048502852_02bcd47dfa_n.jpg",
    "id_album": "-91458598",
    "total_view": 28
  },
  {
    "total_img": 959,
    "number_page": 5,
    "title": "Blue Eyes",
    "tag": "Blue Eyes,",
    "description": "Blue Eyes",
    "link_thumb": "https://live.staticflickr.com/65535/48609891276_d6beb9cf73_n.jpg",
    "id_album": "737375568",
    "total_view": 959
  },
  {
    "total_img": 321,
    "number_page": 2,
    "title": "Blue Hair",
    "tag": "Blue Hair,",
    "description": "Blue Hair",
    "link_thumb": "https://live.staticflickr.com/65535/48066963397_8bc256f64f_n.jpg",
    "id_album": "-1193928153",
    "total_view": 321
  },
  {
    "total_img": 65,
    "number_page": 1,
    "title": "Face",
    "tag": "Face,",
    "description": "Face",
    "link_thumb": "https://live.staticflickr.com/65535/48066708568_f57283b410_n.jpg",
    "id_album": "-743843787",
    "total_view": 65
  },
  {
    "total_img": 22,
    "number_page": 1,
    "title": "Hanabi Yasuraoka",
    "tag": "Hanabi Yasuraoka,",
    "description": "Hanabi Yasuraoka",
    "link_thumb": "https://live.staticflickr.com/65535/48048517612_03879c9ba4_n.jpg",
    "id_album": "1083940369",
    "total_view": 22
  },
  {
    "total_img": 900,
    "number_page": 5,
    "title": "Short Hair",
    "tag": "Short Hair,",
    "description": "Short Hair",
    "link_thumb": "https://live.staticflickr.com/65535/48066522393_1c85dd9992_n.jpg",
    "id_album": "1749242000",
    "total_view": 900
  }
]